JobId=9552723 JobName=CovidWeak
   UserId=icn2553284(51005) GroupId=icn2(50004) MCS_label=N/A
   Priority=67429 Nice=0 Account=icn85 QOS=gp_resa
   JobState=RUNNING Reason=None Dependency=(null)
   Requeue=0 Restarts=0 BatchFlag=1 Reboot=0 ExitCode=0:0
   RunTime=00:00:03 TimeLimit=02:00:00 TimeMin=N/A
   SubmitTime=2024-09-30T11:27:13 EligibleTime=2024-09-30T11:27:13
   AccrueTime=2024-09-30T11:27:13
   StartTime=2024-09-30T11:27:16 EndTime=2024-09-30T13:27:16 Deadline=N/A
   SuspendTime=None SecsPreSuspend=0 LastSchedEval=2024-09-30T11:27:16 Scheduler=Backfill
   Partition=gpp AllocNode:Sid=glogin1:2011625
   ReqNodeList=(null) ExcNodeList=(null)
   NodeList=gs03r3b[60-67]
   BatchHost=gs03r3b60
   NumNodes=8 NumCPUs=1792 NumTasks=896 CPUs/Task=1 ReqB:S:C:T=0:0:*:1
   ReqTRES=cpu=896,mem=1750G,node=8,billing=896
   AllocTRES=cpu=1792,mem=1750G,node=8,billing=1792
   Socks/Node=* NtasksPerN:B:S:C=112:0:*:* CoreSpec=*
   MinCPUsNode=112 MinMemoryCPU=2000M MinTmpDiskNode=0
   Features=(null) DelayBoot=00:00:00
   OverSubscribe=NO Contiguous=0 Licenses=(null) Network=(null)
   Command=/gpfs/home/icn2/icn2553284/jube4max/max-inputs/interface/siesta/_CovidWeak/000000/000012_submit/work/submit.job
   WorkDir=/gpfs/home/icn2/icn2553284/jube4max/max-inputs/interface/siesta/_CovidWeak/000000/000012_submit/work
   StdErr=/gpfs/home/icn2/icn2553284/jube4max/max-inputs/interface/siesta/_CovidWeak/000000/000012_submit/work/job_9552723.err
   StdIn=/dev/null
   StdOut=/gpfs/home/icn2/icn2553284/jube4max/max-inputs/interface/siesta/_CovidWeak/000000/000012_submit/work/job_9552723.out
   Power=
   

