JobID        JobIDRaw        JobName  Partition  MaxVMSize  MaxVMSizeNode  MaxVMSizeTask  AveVMSize     MaxRSS MaxRSSNode MaxRSSTask     AveRSS MaxPages MaxPagesNode   MaxPagesTask   AvePages     MinCPU MinCPUNode MinCPUTask     AveCPU   NTasks  AllocCPUS    Elapsed      State ExitCode AveCPUFreq ReqCPUFreqMin ReqCPUFreqMax ReqCPUFreqGov     ReqMem ConsumedEnergy  MaxDiskRead MaxDiskReadNode MaxDiskReadTask    AveDiskRead MaxDiskWrite MaxDiskWriteNode MaxDiskWriteTask   AveDiskWrite    ReqTRES  AllocTRES TRESUsageInAve TRESUsageInMax TRESUsageInMaxNode TRESUsageInMaxTask TRESUsageInMin TRESUsageInMinNode TRESUsageInMinTask TRESUsageInTot TRESUsageOutMax TRESUsageOutMaxNode TRESUsageOutMaxTask TRESUsageOutAve TRESUsageOutTot 
------------ ------------ ---------- ---------- ---------- -------------- -------------- ---------- ---------- ---------- ---------- ---------- -------- ------------ -------------- ---------- ---------- ---------- ---------- ---------- -------- ---------- ---------- ---------- -------- ---------- ------------- ------------- ------------- ---------- -------------- ------------ --------------- --------------- -------------- ------------ ---------------- ---------------- -------------- ---------- ---------- -------------- -------------- ------------------ ------------------ -------------- ------------------ ------------------ -------------- --------------- ------------------- ------------------- --------------- --------------- 
4905744      4905744      submit.job standard-g                                                                                                                                                                                                             112   00:25:17    RUNNING      0:0                  Unknown       Unknown       Unknown       480G                                                                                                                                          billing=2+ billing=1+                                                                                                                                                                                                                                 
4905744.bat+ 4905744.bat+      batch                                                                                                                                                                                                               1        112   00:25:17    RUNNING      0:0          0             0             0             0                         0                                                                                                                                      cpu=112,g+                                                                                                                                                                                                                                 
4905744.0    4905744.0    select_gpu            135878488K      nid006135              0 132641350K  95486564K  nid006135          0  93865398K     4746    nid006135              1       4718   00:26:18  nid006135          0   00:26:23        2        112   00:25:07  COMPLETED      0:0       291K       Unknown       Unknown       Unknown                     1.13M      131.27M       nid006135               0        129.99M        2.90M        nid006135                0          2.90M            cpu=112,g+ cpu=00:26:23,+ cpu=00:26:29,+ cpu=nid006135,ene+ cpu=1,fs/disk=0,m+ cpu=00:26:18,+ cpu=nid006135,ene+ cpu=0,fs/disk=1,m+ cpu=00:52:47,+ energy=984,fs/+ energy=nid006135,f+           fs/disk=0 energy=347,fs/+ energy=694,fs/+ 
