{
 "global_section": { "_calls": 1, "_time":      103.483, "_%":   100.00,
   "siesta": { "_calls": 1, "_time":      103.483, "_%":   100.00,
     "Setup": { "_calls": 1, "_time":        2.850, "_%":     2.75,
       "bands": { "_calls": 1, "_time":        0.004, "_%":     0.00},
       "KSV_init": { "_calls": 1, "_time":        0.001, "_%":     0.00}
     },
     "IterGeom": { "_calls": 1, "_time":       99.846, "_%":    96.49,
       "geom_init": { "_calls": 1, "_time":       29.812, "_%":    28.81,
         "state_init": { "_calls": 1, "_time":        1.911, "_%":     1.85,
           "hsparse": { "_calls": 1, "_time":        0.685, "_%":     0.66},
           "overlap": { "_calls": 1, "_time":        0.166, "_%":     0.16}
         },
         "Setup_H0": { "_calls": 1, "_time":       27.899, "_%":    26.96,
           "naefs": { "_calls": 1, "_time":        0.113, "_%":     0.11},
           "MolMec": { "_calls": 1, "_time":        0.000, "_%":     0.00},
           "kinefsm": { "_calls": 1, "_time":        0.146, "_%":     0.14},
           "nlefsm": { "_calls": 1, "_time":        0.258, "_%":     0.25},
           "DHSCF_Init": { "_calls": 1, "_time":       27.305, "_%":    26.39,
             "DHSCF1": { "_calls": 1, "_time":        0.191, "_%":     0.18,
               "INITMESH": { "_calls": 1, "_time":        0.000, "_%":     0.00}
             },
             "DHSCF2": { "_calls": 1, "_time":       27.002, "_%":    26.09,
               "REMESH": { "_calls": 1, "_time":        1.426, "_%":     1.38,
                 "INITMESH": { "_calls": 2, "_time":        1.343, "_%":     1.30,
                   "SPLOAD": { "_calls": 2, "_time":        0.514, "_%":     0.50}
                 }
               },
               "REORD": { "_calls": 2, "_time":        0.250, "_%":     0.24},
               "PHION": { "_calls": 1, "_time":        0.501, "_%":     0.48},
               "COMM_BSC": { "_calls": 1, "_time":        0.335, "_%":     0.32},
               "POISON": { "_calls": 1, "_time":       22.366, "_%":    21.61,
                 "fft": { "_calls": 2, "_time":       21.606, "_%":    20.88}
               }
             }
           }
         }
       },
       "IterSCF": { "_calls": 2, "_time":       69.721, "_%":    67.37,
         "setup_H": { "_calls": 2, "_time":       61.864, "_%":    59.78,
           "DHSCF": { "_calls": 2, "_time":       61.778, "_%":    59.70,
             "DHSCF3": { "_calls": 2, "_time":       61.778, "_%":    59.70,
               "rhoofd": { "_calls": 2, "_time":        0.288, "_%":     0.28},
               "COMM_BSC": { "_calls": 4, "_time":        1.437, "_%":     1.39},
               "POISON": { "_calls": 2, "_time":       44.343, "_%":    42.85,
                 "fft": { "_calls": 4, "_time":       42.689, "_%":    41.25}
               },
               "XC": { "_calls": 2, "_time":       12.351, "_%":    11.94,
                 "COMM_BSC": { "_calls": 4, "_time":        1.931, "_%":     1.87},
                 "GXC-CellXC": { "_calls": 2, "_time":        9.965, "_%":     9.63,
                   "gridxc@cellXC": { "_calls": 2, "_time":        9.965, "_%":     9.63}
                 }
               },
               "vmat": { "_calls": 2, "_time":        0.267, "_%":     0.26}
             }
           }
         },
         "compute_dm": { "_calls": 2, "_time":        7.838, "_%":     7.57,
           "elsi": { "_calls": 2, "_time":        7.838, "_%":     7.57,
             "find nnz_g": { "_calls": 2, "_time":        0.000, "_%":     0.00},
             "elsi-solver": { "_calls": 2, "_time":        7.785, "_%":     7.52}
           }
         },
         "MIXER": { "_calls": 1, "_time":        0.000, "_%":     0.00}
       },
       "state_analysis": { "_calls": 1, "_time":        0.287, "_%":     0.28},
       "siesta_move": { "_calls": 1, "_time":        0.000, "_%":     0.00}
     },
     "Analysis": { "_calls": 1, "_time":        0.778, "_%":     0.75,
       "optical": { "_calls": 1, "_time":        0.001, "_%":     0.00}
     }
   }
 }}
