JobID        JobIDRaw        JobName  Partition  MaxVMSize  MaxVMSizeNode  MaxVMSizeTask  AveVMSize     MaxRSS MaxRSSNode MaxRSSTask     AveRSS MaxPages MaxPagesNode   MaxPagesTask   AvePages     MinCPU MinCPUNode MinCPUTask     AveCPU   NTasks  AllocCPUS    Elapsed      State ExitCode AveCPUFreq ReqCPUFreqMin ReqCPUFreqMax ReqCPUFreqGov     ReqMem ConsumedEnergy  MaxDiskRead MaxDiskReadNode MaxDiskReadTask    AveDiskRead MaxDiskWrite MaxDiskWriteNode MaxDiskWriteTask   AveDiskWrite    ReqTRES  AllocTRES TRESUsageInAve TRESUsageInMax TRESUsageInMaxNode TRESUsageInMaxTask TRESUsageInMin TRESUsageInMinNode TRESUsageInMinTask TRESUsageInTot TRESUsageOutMax TRESUsageOutMaxNode TRESUsageOutMaxTask TRESUsageOutAve TRESUsageOutTot 
------------ ------------ ---------- ---------- ---------- -------------- -------------- ---------- ---------- ---------- ---------- ---------- -------- ------------ -------------- ---------- ---------- ---------- ---------- ---------- -------- ---------- ---------- ---------- -------- ---------- ------------- ------------- ------------- ---------- -------------- ------------ --------------- --------------- -------------- ------------ ---------------- ---------------- -------------- ---------- ---------- -------------- -------------- ------------------ ------------------ -------------- ------------------ ------------------ -------------- --------------- ------------------- ------------------- --------------- --------------- 
13551171     13551171     submit.job boost_usr+                                                                                                                                                                                                              32   01:22:26    RUNNING      0:0                  Unknown       Unknown       Unknown    492800M                                                                                                                                          billing=3+ billing=3+                                                                                                                                                                                                                                 
13551171.ba+ 13551171.ba+      batch                                                                                                                                                                                                               1         32   01:22:26    RUNNING      0:0          0             0             0             0                         0                                                                                                                                      cpu=32,gr+                                                                                                                                                                                                                                 
13551171.ex+ 13551171.ex+     extern                                                                                                                                                                                                               1         32   01:22:26    RUNNING      0:0          0             0             0             0                         0                                                                                                                                      billing=3+                                                                                                                                                                                                                                 
13551171.0   13551171.0   wrapper-s+             68180724K       lrdn2171              2  64606111K  68034988K   lrdn2171          2  64447298K     2565     lrdn2171              3       2332   01:22:58   lrdn2171          0   01:22:59        4         32   01:22:12  COMPLETED      0:0      1.22M       Unknown       Unknown       Unknown                         0        0.10M        lrdn2171               0          0.09M        0.00M         lrdn2171                3          0.00M            cpu=32,gr+ cpu=01:22:59,+ cpu=01:23:00,+ cpu=lrdn2171,ener+ cpu=1,fs/disk=0,m+ cpu=01:22:58,+ cpu=lrdn2171,ener+ cpu=0,fs/disk=3,m+ cpu=05:31:58,+ energy=0,fs/di+ energy=lrdn2171,fs+           fs/disk=3 energy=0,fs/di+ energy=0,fs/di+ 
13551171.1   13551171.1   wrapper-s+                    4K       lrdn2171              2         1K          0   lrdn2171          0          0        0     lrdn2171              0          0   00:00:00   lrdn2171          0   00:00:00        4         32   00:00:00  COMPLETED      0:0     10.40G       Unknown       Unknown       Unknown                         0        0.07M        lrdn2171               1          0.02M        0.00M         lrdn2171                1          0.00M            cpu=32,gr+ cpu=00:00:00,+ cpu=00:00:00,+ cpu=lrdn2171,ener+ cpu=1,fs/disk=1,m+ cpu=00:00:00,+ cpu=lrdn2171,ener+ cpu=0,fs/disk=0,m+ cpu=00:00:00,+ energy=0,fs/di+ energy=lrdn2171,fs+           fs/disk=1 energy=0,fs/di+ energy=0,fs/di+ 
