JobId=13551171 JobName=submit.job
   UserId=lbellen1(33678) GroupId=interactive(25200) MCS_label=N/A
   Priority=138934 Nice=0 Account=cin_staff QOS=normal
   JobState=RUNNING Reason=None Dependency=(null)
   Requeue=0 Restarts=0 BatchFlag=1 Reboot=0 ExitCode=0:0
   DerivedExitCode=0:0
   RunTime=00:00:07 TimeLimit=02:00:00 TimeMin=N/A
   SubmitTime=2025-03-06T23:00:07 EligibleTime=2025-03-06T23:00:07
   AccrueTime=2025-03-06T23:00:07
   StartTime=2025-03-06T23:10:50 EndTime=2025-03-07T01:10:54 Deadline=N/A
   SuspendTime=None SecsPreSuspend=0 LastSchedEval=2025-03-06T23:10:50 Scheduler=Backfill
   Partition=boost_usr_prod AllocNode:Sid=slurm-controller:2127974
   ReqNodeList=(null) ExcNodeList=(null)
   NodeList=lrdn2171
   BatchHost=lrdn2171
   NumNodes=1 NumCPUs=32 NumTasks=4 CPUs/Task=8 ReqB:S:C:T=0:0:*:*
   TRES=cpu=32,mem=492800M,node=1,billing=32,gres/gpu=4
   Socks/Node=* NtasksPerN:B:S:C=4:0:*:* CoreSpec=*
   JOB_GRES=gpu:a100:4
     Nodes=lrdn2171 CPU_IDs=0-31 Mem=492800 GRES=gpu:a100:4(IDX:0-3)
   MinCPUsNode=32 MinMemoryCPU=15400M MinTmpDiskNode=0
   Features=(null) DelayBoot=00:00:00
   OverSubscribe=NO Contiguous=0 Licenses=(null) Network=(null)
   Command=/leonardo_scratch/fast/Max3_devel_2/WP3/siesta/rerun-covid-spike_strongscaling-leonardo-booster-5.2.0-alpha_2024-09/benchmark/strong_scaling_mps/000003/000000_submit/work/submit.job
   WorkDir=/leonardo_scratch/fast/Max3_devel_2/WP3/siesta/rerun-covid-spike_strongscaling-leonardo-booster-5.2.0-alpha_2024-09/benchmark/strong_scaling_mps/000003/000000_submit/work
   StdErr=/leonardo_scratch/fast/Max3_devel_2/WP3/siesta/rerun-covid-spike_strongscaling-leonardo-booster-5.2.0-alpha_2024-09/benchmark/strong_scaling_mps/000003/000000_submit/work/slurm-13551171.out
   StdIn=/dev/null
   StdOut=/leonardo_scratch/fast/Max3_devel_2/WP3/siesta/rerun-covid-spike_strongscaling-leonardo-booster-5.2.0-alpha_2024-09/benchmark/strong_scaling_mps/000003/000000_submit/work/slurm-13551171.out
   Power=
   TresPerNode=gres:gpu:4
   

