JobID        JobIDRaw        JobName  Partition  MaxVMSize  MaxVMSizeNode  MaxVMSizeTask  AveVMSize     MaxRSS MaxRSSNode MaxRSSTask     AveRSS MaxPages MaxPagesNode   MaxPagesTask   AvePages     MinCPU MinCPUNode MinCPUTask     AveCPU   NTasks  AllocCPUS    Elapsed      State ExitCode AveCPUFreq ReqCPUFreqMin ReqCPUFreqMax ReqCPUFreqGov     ReqMem ConsumedEnergy  MaxDiskRead MaxDiskReadNode MaxDiskReadTask    AveDiskRead MaxDiskWrite MaxDiskWriteNode MaxDiskWriteTask   AveDiskWrite    ReqTRES  AllocTRES TRESUsageInAve TRESUsageInMax TRESUsageInMaxNode TRESUsageInMaxTask TRESUsageInMin TRESUsageInMinNode TRESUsageInMinTask TRESUsageInTot TRESUsageOutMax TRESUsageOutMaxNode TRESUsageOutMaxTask TRESUsageOutAve TRESUsageOutTot 
------------ ------------ ---------- ---------- ---------- -------------- -------------- ---------- ---------- ---------- ---------- ---------- -------- ------------ -------------- ---------- ---------- ---------- ---------- ---------- -------- ---------- ---------- ---------- -------- ---------- ------------- ------------- ------------- ---------- -------------- ------------ --------------- --------------- -------------- ------------ ---------------- ---------------- -------------- ---------- ---------- -------------- -------------- ------------------ ------------------ -------------- ------------------ ------------------ -------------- --------------- ------------------- ------------------- --------------- --------------- 
1595646      1595646      CovidWeak+       qcpu                                                                                                                                                                                                            4096   00:25:27    RUNNING      0:0                  Unknown       Unknown       Unknown      7360G                                                                                                                                          billing=3+ billing=3+                                                                                                                                                                                                                                 
1595646.bat+ 1595646.bat+      batch                                                                                                                                                                                                               1        128   00:25:27    RUNNING      0:0          0             0             0             0                         0                                                                                                                                      cpu=128,m+                                                                                                                                                                                                                                 
1595646.ext+ 1595646.ext+     extern                                                                                                                                                                                                              32       4096   00:25:27    RUNNING      0:0          0             0             0             0                         0                                                                                                                                      billing=3+                                                                                                                                                                                                                                 
1595646.0    1595646.0        siesta               644384K          cn006              0  561462258    579288K      cn006          0  523143855      104        cn466           2816         42   00:24:54      cn006          0   00:25:02     4096       4096   00:25:22  COMPLETED      0:0      7.09G       Unknown       Unknown       Unknown                         0       14.99M           cn006               0         13.74M       16.33M            cn006                0          4.15M            cpu=4096,+ cpu=00:25:02,+ cpu=00:25:03,+ cpu=cn468,energy=+ cpu=3175,fs/disk=+ cpu=00:24:54,+ cpu=cn006,energy=+ cpu=0,fs/disk=281+ cpu=71-05:04:+ energy=0,fs/di+ energy=cn291,fs/di+           fs/disk=0 energy=0,fs/di+ energy=0,fs/di+ 
