JobID        JobIDRaw        JobName  Partition  MaxVMSize  MaxVMSizeNode  MaxVMSizeTask  AveVMSize     MaxRSS MaxRSSNode MaxRSSTask     AveRSS MaxPages MaxPagesNode   MaxPagesTask   AvePages     MinCPU MinCPUNode MinCPUTask     AveCPU   NTasks  AllocCPUS    Elapsed      State ExitCode AveCPUFreq ReqCPUFreqMin ReqCPUFreqMax ReqCPUFreqGov     ReqMem ConsumedEnergy  MaxDiskRead MaxDiskReadNode MaxDiskReadTask    AveDiskRead MaxDiskWrite MaxDiskWriteNode MaxDiskWriteTask   AveDiskWrite    ReqTRES  AllocTRES TRESUsageInAve TRESUsageInMax TRESUsageInMaxNode TRESUsageInMaxTask TRESUsageInMin TRESUsageInMinNode TRESUsageInMinTask TRESUsageInTot TRESUsageOutMax TRESUsageOutMaxNode TRESUsageOutMaxTask TRESUsageOutAve TRESUsageOutTot 
------------ ------------ ---------- ---------- ---------- -------------- -------------- ---------- ---------- ---------- ---------- ---------- -------- ------------ -------------- ---------- ---------- ---------- ---------- ---------- -------- ---------- ---------- ---------- -------- ---------- ------------- ------------- ------------- ---------- -------------- ------------ --------------- --------------- -------------- ------------ ---------------- ---------------- -------------- ---------- ---------- -------------- -------------- ------------------ ------------------ -------------- ------------------ ------------------ -------------- --------------- ------------------- ------------------- --------------- --------------- 
34389180     34389180     CovidStro+        cpu                                                                                                                                                                                                            4096   00:55:43    RUNNING      0:0                  Unknown       Unknown       Unknown      2000G                                                                                                                                          billing=2+ billing=4+                                                                                                                                                                                                                                 
34389180.ba+ 34389180.ba+      batch                                                                                                                                                                                                               1        256   00:55:43    RUNNING      0:0          0             0             0             0                         0                                                                                                                                      cpu=256,m+                                                                                                                                                                                                                                 
34389180.ex+ 34389180.ex+     extern                                                                                                                                                                                                              16       4096   00:55:43    RUNNING      0:0          0             0             0             0                         0                                                                                                                                      billing=4+                                                                                                                                                                                                                                 
34389180.0   34389180.0       siesta               367240K         cn0822              0  215854566    346656K     cn0822          0  207585848       84       cn0857           1953         18   00:47:12     cn0833        948   00:47:43     2048       4096   00:55:39  COMPLETED      0:0      1.55G       Unknown       Unknown       Unknown                         0       29.64M          cn0854            1746         27.70M       20.16M           cn0822                0          5.19M            cpu=4096,+ cpu=00:47:43,+ cpu=00:48:33,+ cpu=cn0857,energy+ cpu=1978,fs/disk=+ cpu=00:47:12,+ cpu=cn0833,energy+ cpu=948,fs/disk=6+ cpu=67-20:51:+ energy=0,fs/di+ energy=cn0855,fs/d+           fs/disk=0 energy=0,fs/di+ energy=0,fs/di+ 
