{
 "global_section": { "_calls": 1, "_time":     4903.206, "_%":   100.00,
   "siesta": { "_calls": 1, "_time":     4903.206, "_%":   100.00,
     "Setup": { "_calls": 1, "_time":        1.461, "_%":     0.03,
       "bands": { "_calls": 1, "_time":        0.002, "_%":     0.00},
       "KSV_init": { "_calls": 1, "_time":        0.001, "_%":     0.00}
     },
     "IterGeom": { "_calls": 1, "_time":     4901.338, "_%":    99.96,
       "geom_init": { "_calls": 1, "_time":        3.688, "_%":     0.08,
         "state_init": { "_calls": 1, "_time":        0.558, "_%":     0.01,
           "hsparse": { "_calls": 1, "_time":        0.127, "_%":     0.00},
           "overlap": { "_calls": 1, "_time":        0.047, "_%":     0.00}
         },
         "Setup_H0": { "_calls": 1, "_time":        3.128, "_%":     0.06,
           "naefs": { "_calls": 1, "_time":        0.023, "_%":     0.00},
           "MolMec": { "_calls": 1, "_time":        0.000, "_%":     0.00},
           "kinefsm": { "_calls": 1, "_time":        0.041, "_%":     0.00},
           "nlefsm": { "_calls": 1, "_time":        0.151, "_%":     0.00},
           "DHSCF_Init": { "_calls": 1, "_time":        2.898, "_%":     0.06,
             "DHSCF1": { "_calls": 1, "_time":        0.047, "_%":     0.00,
               "INITMESH": { "_calls": 1, "_time":        0.000, "_%":     0.00}
             },
             "DHSCF2": { "_calls": 1, "_time":        2.831, "_%":     0.06,
               "REMESH": { "_calls": 1, "_time":        1.094, "_%":     0.02,
                 "INITMESH": { "_calls": 2, "_time":        0.976, "_%":     0.02,
                   "SPLOAD": { "_calls": 2, "_time":        0.274, "_%":     0.01}
                 }
               },
               "REORD": { "_calls": 2, "_time":        0.004, "_%":     0.00},
               "PHION": { "_calls": 1, "_time":        0.039, "_%":     0.00},
               "COMM_BSC": { "_calls": 1, "_time":        0.129, "_%":     0.00},
               "POISON": { "_calls": 1, "_time":        1.211, "_%":     0.02,
                 "fft": { "_calls": 2, "_time":        1.173, "_%":     0.02}
               }
             }
           }
         }
       },
       "IterSCF": { "_calls": 5, "_time":     4897.560, "_%":    99.88,
         "setup_H": { "_calls": 5, "_time":       10.481, "_%":     0.21,
           "DHSCF": { "_calls": 5, "_time":       10.418, "_%":     0.21,
             "DHSCF3": { "_calls": 5, "_time":       10.417, "_%":     0.21,
               "rhoofd": { "_calls": 5, "_time":        0.371, "_%":     0.01},
               "COMM_BSC": { "_calls": 10, "_time":        0.674, "_%":     0.01},
               "POISON": { "_calls": 5, "_time":        5.229, "_%":     0.11,
                 "fft": { "_calls": 10, "_time":        4.991, "_%":     0.10}
               },
               "XC": { "_calls": 5, "_time":        3.236, "_%":     0.07,
                 "COMM_BSC": { "_calls": 10, "_time":        0.362, "_%":     0.01},
                 "GXC-CellXC": { "_calls": 5, "_time":        2.806, "_%":     0.06,
                   "gridxc@cellXC": { "_calls": 5, "_time":        2.805, "_%":     0.06}
                 }
               },
               "vmat": { "_calls": 5, "_time":        0.267, "_%":     0.01}
             }
           }
         },
         "compute_dm": { "_calls": 5, "_time":     4886.526, "_%":    99.66,
           "diagon": { "_calls": 5, "_time":     4886.402, "_%":    99.66,
             "c-eigval": { "_calls": 40, "_time":     1834.763, "_%":    37.42,
               "c-buildHS": { "_calls": 40, "_time":        0.601, "_%":     0.01},
               "cdiag": { "_calls": 40, "_time":     1834.136, "_%":    37.41,
                 "cdiag1": { "_calls": 40, "_time":       78.956, "_%":     1.61},
                 "cdiag2": { "_calls": 40, "_time":      299.973, "_%":     6.12},
                 "cdiag3": { "_calls": 40, "_time":     1446.658, "_%":    29.50}
               }
             },
             "c-eigvec": { "_calls": 40, "_time":     1924.473, "_%":    39.25,
               "cdiag": { "_calls": 40, "_time":     1923.796, "_%":    39.24,
                 "cdiag1": { "_calls": 40, "_time":       81.083, "_%":     1.65},
                 "cdiag2": { "_calls": 40, "_time":      293.069, "_%":     5.98},
                 "cdiag3": { "_calls": 40, "_time":     1439.031, "_%":    29.35},
                 "cdiag4": { "_calls": 40, "_time":      101.405, "_%":     2.07}
               }
             },
             "c-buildD": { "_calls": 40, "_time":     1126.459, "_%":    22.97}
           }
         },
         "MIXER": { "_calls": 5, "_time":        0.298, "_%":     0.01}
       },
       "state_analysis": { "_calls": 1, "_time":        0.058, "_%":     0.00},
       "siesta_move": { "_calls": 1, "_time":        0.000, "_%":     0.00}
     },
     "Analysis": { "_calls": 1, "_time":        0.333, "_%":     0.01,
       "optical": { "_calls": 1, "_time":        0.001, "_%":     0.00}
     }
   }
 }}
