JobID        JobIDRaw        JobName  Partition  MaxVMSize  MaxVMSizeNode  MaxVMSizeTask  AveVMSize     MaxRSS MaxRSSNode MaxRSSTask     AveRSS MaxPages MaxPagesNode   MaxPagesTask   AvePages     MinCPU MinCPUNode MinCPUTask     AveCPU   NTasks  AllocCPUS    Elapsed      State ExitCode AveCPUFreq ReqCPUFreqMin ReqCPUFreqMax ReqCPUFreqGov     ReqMem ConsumedEnergy  MaxDiskRead MaxDiskReadNode MaxDiskReadTask    AveDiskRead MaxDiskWrite MaxDiskWriteNode MaxDiskWriteTask   AveDiskWrite    ReqTRES  AllocTRES TRESUsageInAve TRESUsageInMax TRESUsageInMaxNode TRESUsageInMaxTask TRESUsageInMin TRESUsageInMinNode TRESUsageInMinTask TRESUsageInTot TRESUsageOutMax TRESUsageOutMaxNode TRESUsageOutMaxTask TRESUsageOutAve TRESUsageOutTot 
------------ ------------ ---------- ---------- ---------- -------------- -------------- ---------- ---------- ---------- ---------- ---------- -------- ------------ -------------- ---------- ---------- ---------- ---------- ---------- -------- ---------- ---------- ---------- -------- ---------- ------------- ------------- ------------- ---------- -------------- ------------ --------------- --------------- -------------- ------------ ---------------- ---------------- -------------- ---------- ---------- -------------- -------------- ------------------ ------------------ -------------- ------------------ ------------------ -------------- --------------- ------------------- ------------------- --------------- --------------- 
8211022      8211022      CovidStro+ standard-g                                                                                                                                                                                                            3584   00:05:57    RUNNING      0:0                  Unknown       Unknown       Unknown        15T                                                                                                                                          billing=1+ billing=3+                                                                                                                                                                                                                                 
8211022.bat+ 8211022.bat+      batch                                                                                                                                                                                                               1        112   00:05:57    RUNNING      0:0          0             0             0             0                         0                                                                                                                                      cpu=112,g+                                                                                                                                                                                                                                 
8211022.0    8211022.0    lumi-gpu-+             17918620K      nid005738            151 152386814+   2566628K  nid007812        768 2333681444     2816    nid007811            742       2541   00:06:21  nid007811        742   00:07:10     1024       3584   00:05:38  COMPLETED      0:0      5.14G       Unknown       Unknown       Unknown                                331.44M       nid005734               0        329.10M       19.20M        nid005734                0          4.08M            cpu=3584,+ cpu=00:07:10,+ cpu=00:07:45,+ cpu=nid005738,ene+ cpu=149,fs/disk=0+ cpu=00:06:21,+ cpu=nid007811,ene+ cpu=742,fs/disk=4+ cpu=5-02:20:0+ energy=1327,fs+ energy=nid007798,f+           fs/disk=0 energy=36,fs/d+ energy=37752,f+ 
