JobId=8211022 JobName=CovidStrong
   UserId=pedronfe(327000671) GroupId=pepr_pedronfe(327000671) MCS_label=N/A
   Priority=469 Nice=0 Account=project_465001212 QOS=normal
   JobState=RUNNING Reason=None Dependency=(null)
   Requeue=1 Restarts=0 BatchFlag=1 Reboot=0 ExitCode=0:0
   DerivedExitCode=0:0
   RunTime=00:00:18 TimeLimit=00:59:00 TimeMin=N/A
   SubmitTime=2024-10-18T12:11:34 EligibleTime=2024-10-18T12:11:34
   AccrueTime=2024-10-18T12:11:34
   StartTime=2024-10-18T12:19:29 EndTime=2024-10-18T13:18:29 Deadline=N/A
   SuspendTime=None SecsPreSuspend=0 LastSchedEval=2024-10-18T12:19:26 Scheduler=Backfill
   Partition=standard-g AllocNode:Sid=ln02:25815
   ReqNodeList=(null) ExcNodeList=(null)
   NodeList=nid[005734-005738,007793-007819]
   BatchHost=nid005734
   NumNodes=32 NumCPUs=3584 NumTasks=1024 CPUs/Task=1 ReqB:S:C:T=0:0:*:1
   ReqTRES=cpu=1024,mem=15T,node=32,billing=1024,gres/gpu:a100=256
   AllocTRES=cpu=3584,node=32,billing=3584,gres/gpu:mi250=256
   Socks/Node=* NtasksPerN:B:S:C=32:0:*:1 CoreSpec=*
   JOB_GRES=gpu:mi250:256
     Nodes=nid[005734-005738,007793-007819] CPU_IDs=2-15,18-31,34-47,50-63,66-79,82-95,98-111,114-127 Mem=0 GRES=gpu:mi250:8(IDX:0-7)
   MinCPUsNode=32 MinMemoryCPU=0 MinTmpDiskNode=0
   Features=(null) DelayBoot=00:00:00
   OverSubscribe=NO Contiguous=0 Licenses=(null) Network=(null)
   Command=/pfs/lustrep1/projappl/project_465001212/fede/JUBE4MaX-GPU/max-inputs/interface/siesta/_CovidStrong/000001/000000_submit/work/submit.job
   WorkDir=/pfs/lustrep1/projappl/project_465001212/fede/JUBE4MaX-GPU/max-inputs/interface/siesta/_CovidStrong/000001/000000_submit/work
   StdErr=/pfs/lustrep1/projappl/project_465001212/fede/JUBE4MaX-GPU/max-inputs/interface/siesta/_CovidStrong/000001/000000_submit/work/slurm-8211022.out
   StdIn=/dev/null
   StdOut=/pfs/lustrep1/projappl/project_465001212/fede/JUBE4MaX-GPU/max-inputs/interface/siesta/_CovidStrong/000001/000000_submit/work/slurm-8211022.out
   Power=
   TresPerNode=gres:gpu:8
   

