JobId=7668699 JobName=submit.job
   UserId=fpedron0(126159) GroupId=interactive(25200) MCS_label=N/A
   Priority=145006 Nice=0 Account=euhpc_b13_053 QOS=normal
   JobState=RUNNING Reason=None Dependency=(null)
   Requeue=0 Restarts=0 BatchFlag=1 Reboot=0 ExitCode=0:0
   DerivedExitCode=0:0
   RunTime=00:00:05 TimeLimit=1-00:00:00 TimeMin=N/A
   SubmitTime=2024-09-12T13:45:15 EligibleTime=2024-09-12T13:45:15
   AccrueTime=2024-09-12T13:45:15
   StartTime=2024-09-12T13:45:17 EndTime=2024-09-13T13:45:18 Deadline=N/A
   SuspendTime=None SecsPreSuspend=0 LastSchedEval=2024-09-12T13:45:17 Scheduler=Main
   Partition=boost_usr_prod AllocNode:Sid=slurm-controller:448159
   ReqNodeList=(null) ExcNodeList=(null)
   NodeList=lrdn[2183,2218,2232,2234,2245,2254,2267,2273]
   BatchHost=lrdn2183
   NumNodes=8 NumCPUs=256 NumTasks=256 CPUs/Task=1 ReqB:S:C:T=0:0:*:*
   TRES=cpu=256,mem=3850G,node=8,billing=256,gres/gpu=32
   Socks/Node=* NtasksPerN:B:S:C=32:0:*:* CoreSpec=*
   JOB_GRES=gpu:a100:32
     Nodes=lrdn[2183,2218,2232,2234,2245,2254,2267,2273] CPU_IDs=0-31 Mem=492800 GRES=gpu:a100:4(IDX:0-3)
   MinCPUsNode=32 MinMemoryCPU=15400M MinTmpDiskNode=0
   Features=(null) DelayBoot=00:00:00
   OverSubscribe=NO Contiguous=0 Licenses=(null) Network=(null)
   Command=/leonardo/home/userexternal/fpedron0/JUBE4MaX-GPU/max-inputs/interface/siesta/_CovidWeakKPoints/000000/000003_submit/work/submit.job
   WorkDir=/leonardo/home/userexternal/fpedron0/JUBE4MaX-GPU/max-inputs/interface/siesta/_CovidWeakKPoints/000000/000003_submit/work
   StdErr=/leonardo/home/userexternal/fpedron0/JUBE4MaX-GPU/max-inputs/interface/siesta/_CovidWeakKPoints/000000/000003_submit/work/slurm-7668699.out
   StdIn=/dev/null
   StdOut=/leonardo/home/userexternal/fpedron0/JUBE4MaX-GPU/max-inputs/interface/siesta/_CovidWeakKPoints/000000/000003_submit/work/slurm-7668699.out
   Power=
   TresPerNode=gres:gpu:4
   

