Unloading profile/base
  ERROR: Module evaluation aborted
 
Spack activated with install: /leonardo/pub/userexternal/nspallan/spack-0.21.0-5.2/install , modules: /leonardo/pub/userexternal/nspallan/spack-0.21.0-5.2/modules and cache: /leonardo/pub/userexternal/nspallan/spack-0.21.0-5.2/cache
Loading yambo/develop-gpu--openmpi--4.1.6--nvhpc--24.3-cuda-12.3-cuf
  Loading requirement: devicexlib/0.8.3--nvhpc--24.3-cuda-12.3-cuf nvhpc/24.3
    openmpi/4.1.6--nvhpc--24.3 fftw/3.3.10--openmpi--4.1.6--nvhpc--24.3
    zlib/1.3--gcc--12.2.0 hdf5/1.14.3--openmpi--4.1.6--nvhpc--24.3
    bzip2/1.0.8--gcc--12.2.0-cc63fjd lz4/1.9.4--gcc--12.2.0-airzjr3
    snappy/1.1.10--gcc--12.2.0-oikfvst c-blosc/1.21.5--gcc--12.2.0-s3edzii
    zstd/1.5.5--gcc--12.2.0-h6hxgmk slepc/3.21.1--openmpi--4.1.6--nvhpc--24.3
--------------------------------------------------------------------------
An ORTE daemon has unexpectedly failed after launch and before
communicating back to mpirun. This could be caused by a number
of factors, including an inability to create a connection back
to mpirun due to a lack of common network interfaces and/or no
route found between them. Please check network connectivity
(including firewalls and network routing requirements).
--------------------------------------------------------------------------
slurmstepd: error: *** JOB 7829608 ON lrdn0014 CANCELLED AT 2024-09-23T14:09:11 DUE TO TIME LIMIT ***
