{
 "global_section": { "_calls": 1, "_time":      485.216, "_%":   100.00,
   "siesta": { "_calls": 1, "_time":      485.216, "_%":   100.00,
     "Setup": { "_calls": 1, "_time":        1.455, "_%":     0.30,
       "bands": { "_calls": 1, "_time":        0.002, "_%":     0.00},
       "KSV_init": { "_calls": 1, "_time":        0.001, "_%":     0.00}
     },
     "IterGeom": { "_calls": 1, "_time":      480.769, "_%":    99.08,
       "geom_init": { "_calls": 1, "_time":        5.394, "_%":     1.11,
         "state_init": { "_calls": 1, "_time":        1.128, "_%":     0.23,
           "hsparse": { "_calls": 1, "_time":        0.628, "_%":     0.13},
           "overlap": { "_calls": 1, "_time":        0.187, "_%":     0.04}
         },
         "Setup_H0": { "_calls": 1, "_time":        4.265, "_%":     0.88,
           "naefs": { "_calls": 1, "_time":        0.052, "_%":     0.01},
           "MolMec": { "_calls": 1, "_time":        0.000, "_%":     0.00},
           "kinefsm": { "_calls": 1, "_time":        0.182, "_%":     0.04},
           "nlefsm": { "_calls": 1, "_time":        1.124, "_%":     0.23},
           "DHSCF_Init": { "_calls": 1, "_time":        2.878, "_%":     0.59,
             "DHSCF1": { "_calls": 1, "_time":        0.017, "_%":     0.00,
               "INITMESH": { "_calls": 1, "_time":        0.000, "_%":     0.00}
             },
             "DHSCF2": { "_calls": 1, "_time":        2.855, "_%":     0.59,
               "REMESH": { "_calls": 1, "_time":        0.423, "_%":     0.09,
                 "INITMESH": { "_calls": 2, "_time":        0.375, "_%":     0.08,
                   "SPLOAD": { "_calls": 2, "_time":        0.369, "_%":     0.08}
                 }
               },
               "REORD": { "_calls": 2, "_time":        0.006, "_%":     0.00},
               "PHION": { "_calls": 1, "_time":        0.588, "_%":     0.12},
               "COMM_BSC": { "_calls": 1, "_time":        0.039, "_%":     0.01},
               "POISON": { "_calls": 1, "_time":        1.207, "_%":     0.25,
                 "fft": { "_calls": 2, "_time":        1.151, "_%":     0.24}
               }
             }
           }
         }
       },
       "IterSCF": { "_calls": 5, "_time":      475.194, "_%":    97.93,
         "setup_H": { "_calls": 5, "_time":       20.831, "_%":     4.29,
           "DHSCF": { "_calls": 5, "_time":       20.707, "_%":     4.27,
             "DHSCF3": { "_calls": 5, "_time":       20.707, "_%":     4.27,
               "rhoofd": { "_calls": 5, "_time":        0.476, "_%":     0.10},
               "COMM_BSC": { "_calls": 10, "_time":        1.341, "_%":     0.28},
               "POISON": { "_calls": 5, "_time":        6.267, "_%":     1.29,
                 "fft": { "_calls": 10, "_time":        5.968, "_%":     1.23}
               },
               "XC": { "_calls": 5, "_time":       11.748, "_%":     2.42,
                 "COMM_BSC": { "_calls": 10, "_time":        0.444, "_%":     0.09},
                 "GXC-CellXC": { "_calls": 5, "_time":       11.152, "_%":     2.30,
                   "gridxc@cellXC": { "_calls": 5, "_time":       11.152, "_%":     2.30}
                 }
               },
               "vmat": { "_calls": 5, "_time":        0.532, "_%":     0.11}
             }
           }
         },
         "compute_dm": { "_calls": 5, "_time":      454.294, "_%":    93.63,
           "elsi": { "_calls": 5, "_time":      451.291, "_%":    93.01,
             "find nnz_g": { "_calls": 5, "_time":        0.000, "_%":     0.00},
             "elsi-solver": { "_calls": 5, "_time":      451.270, "_%":    93.00}
           }
         },
         "MIXER": { "_calls": 5, "_time":        0.029, "_%":     0.01}
       },
       "state_analysis": { "_calls": 1, "_time":        0.038, "_%":     0.01},
       "siesta_move": { "_calls": 1, "_time":        0.000, "_%":     0.00}
     },
     "Analysis": { "_calls": 1, "_time":        2.986, "_%":     0.62,
       "optical": { "_calls": 1, "_time":        0.001, "_%":     0.00}
     }
   }
 }}
