JobId=8022828 JobName=CovidWeak
   UserId=pedronfe(327000671) GroupId=pepr_pedronfe(327000671) MCS_label=N/A
   Priority=512 Nice=0 Account=project_465001212 QOS=normal
   JobState=RUNNING Reason=None Dependency=(null)
   Requeue=1 Restarts=0 BatchFlag=1 Reboot=0 ExitCode=0:0
   DerivedExitCode=0:0
   RunTime=00:00:04 TimeLimit=00:59:00 TimeMin=N/A
   SubmitTime=2024-09-18T20:08:08 EligibleTime=2024-09-18T20:08:08
   AccrueTime=2024-09-18T20:08:08
   StartTime=2024-09-18T20:26:34 EndTime=2024-09-18T21:25:34 Deadline=N/A
   SuspendTime=None SecsPreSuspend=0 LastSchedEval=2024-09-18T20:26:34 Scheduler=Main
   Partition=standard AllocNode:Sid=ln02:209673
   ReqNodeList=(null) ExcNodeList=(null)
   NodeList=nid[001076-001077,001133-001135,001145-001147,001459-001464,002102-002103]
   BatchHost=nid001076
   NumNodes=16 NumCPUs=4096 NumTasks=2048 CPUs/Task=1 ReqB:S:C:T=0:0:*:1
   ReqTRES=cpu=2048,mem=3.50T,node=16,billing=2048
   AllocTRES=cpu=4096,node=16,billing=4096
   Socks/Node=* NtasksPerN:B:S:C=128:0:*:1 CoreSpec=*
   JOB_GRES=(null)
     Nodes=nid[001076-001077,001133-001135,001145-001147,001459-001464,002102-002103] CPU_IDs=0-255 Mem=0 GRES=
   MinCPUsNode=128 MinMemoryCPU=0 MinTmpDiskNode=0
   Features=(null) DelayBoot=00:00:00
   OverSubscribe=NO Contiguous=0 Licenses=(null) Network=(null)
   Command=/pfs/lustrep1/projappl/project_465001212/fede/JUBE4MaX/max-inputs/interface/siesta/_CovidWeak/000000/000004_submit/work/submit.job
   WorkDir=/pfs/lustrep1/projappl/project_465001212/fede/JUBE4MaX/max-inputs/interface/siesta/_CovidWeak/000000/000004_submit/work
   StdErr=/pfs/lustrep1/projappl/project_465001212/fede/JUBE4MaX/max-inputs/interface/siesta/_CovidWeak/000000/000004_submit/work/slurm-8022828.out
   StdIn=/dev/null
   StdOut=/pfs/lustrep1/projappl/project_465001212/fede/JUBE4MaX/max-inputs/interface/siesta/_CovidWeak/000000/000004_submit/work/slurm-8022828.out
   Power=
   

