JobId=7873996 JobName=submit.job
   UserId=nspallan(25378) GroupId=interactive(25200) MCS_label=N/A
   Priority=134701 Nice=0 Account=euhpc_e01_022 QOS=normal
   JobState=RUNNING Reason=None Dependency=(null)
   Requeue=0 Restarts=0 BatchFlag=1 Reboot=0 ExitCode=0:0
   DerivedExitCode=0:0
   RunTime=00:00:04 TimeLimit=03:00:00 TimeMin=N/A
   SubmitTime=2024-09-26T16:56:55 EligibleTime=2024-09-26T16:56:55
   AccrueTime=2024-09-26T16:56:55
   StartTime=2024-09-26T21:01:19 EndTime=2024-09-27T00:01:19 Deadline=N/A
   SuspendTime=None SecsPreSuspend=0 LastSchedEval=2024-09-26T21:01:19 Scheduler=Main
   Partition=boost_usr_prod AllocNode:Sid=slurm-controller:1292059
   ReqNodeList=(null) ExcNodeList=(null)
   NodeList=lrdn[1100,1147,1177,1206,1268,1348,1420,1467,1489,1502,1510,1521,1540,1546,1562,1570,1576,1592,2963,3152]
   BatchHost=lrdn1100
   NumNodes=20 NumCPUs=640 NumTasks=80 CPUs/Task=8 ReqB:S:C:T=0:0:*:*
   TRES=cpu=640,mem=9625G,node=20,billing=640,gres/gpu=80
   Socks/Node=* NtasksPerN:B:S:C=4:0:*:* CoreSpec=*
   JOB_GRES=gpu:a100:80
     Nodes=lrdn[1100,1147,1177,1206,1268,1348,1420,1467,1489,1502,1510,1521,1540,1546,1562,1570,1576,1592,2963,3152] CPU_IDs=0-31 Mem=492800 GRES=gpu:a100:4(IDX:0-3)
   MinCPUsNode=32 MinMemoryCPU=15400M MinTmpDiskNode=0
   Features=(null) DelayBoot=00:00:00
   OverSubscribe=NO Contiguous=0 Licenses=(null) Network=(null)
   Command=/leonardo_work/EUHPC_E01_022/nspallan/benchmarks/strongscaling_gpu_cuf_7k/000002/000003_submit/work/submit.job
   WorkDir=/leonardo_work/EUHPC_E01_022/nspallan/benchmarks/strongscaling_gpu_cuf_7k/000002/000003_submit/work
   StdErr=/leonardo_work/EUHPC_E01_022/nspallan/benchmarks/strongscaling_gpu_cuf_7k/000002/000003_submit/work/slurm-7873996.out
   StdIn=/dev/null
   StdOut=/leonardo_work/EUHPC_E01_022/nspallan/benchmarks/strongscaling_gpu_cuf_7k/000002/000003_submit/work/slurm-7873996.out
   Power=
   TresPerNode=gres:gpu:4
   

