JobId=13573523 JobName=submit.job
   UserId=lbellen1(33678) GroupId=interactive(25200) MCS_label=N/A
   Priority=139267 Nice=0 Account=cin_staff QOS=normal
   JobState=RUNNING Reason=Prolog Dependency=(null)
   Requeue=0 Restarts=0 BatchFlag=1 Reboot=0 ExitCode=0:0
   DerivedExitCode=0:0
   RunTime=00:00:06 TimeLimit=02:00:00 TimeMin=N/A
   SubmitTime=2025-03-07T13:32:34 EligibleTime=2025-03-07T13:32:34
   AccrueTime=2025-03-07T13:32:34
   StartTime=2025-03-07T13:32:58 EndTime=2025-03-07T15:32:59 Deadline=N/A
   SuspendTime=None SecsPreSuspend=0 LastSchedEval=2025-03-07T13:32:58 Scheduler=Backfill
   Partition=boost_usr_prod AllocNode:Sid=slurm-controller:2198354
   ReqNodeList=(null) ExcNodeList=(null)
   NodeList=lrdn[0026,0049,0165,0476,0499,0506,0514,0535]
   BatchHost=lrdn0026
   NumNodes=8 NumCPUs=256 NumTasks=32 CPUs/Task=8 ReqB:S:C:T=0:0:*:*
   TRES=cpu=256,mem=3850G,node=8,billing=256,gres/gpu=32
   Socks/Node=* NtasksPerN:B:S:C=4:0:*:* CoreSpec=*
   JOB_GRES=gpu:a100:32
     Nodes=lrdn[0026,0049,0165,0476,0499,0506,0514,0535] CPU_IDs=0-31 Mem=492800 GRES=gpu:a100:4(IDX:0-3)
   MinCPUsNode=32 MinMemoryCPU=15400M MinTmpDiskNode=0
   Features=(null) DelayBoot=00:00:00
   OverSubscribe=NO Contiguous=0 Licenses=(null) Network=(null)
   Command=/leonardo_scratch/fast/Max3_devel_2/WP3/siesta/rerun-covid-spike_strongscaling-leonardo-booster-5.2.0-alpha_2024-09/benchmark/strong_scaling_mps/000005/000012_submit/work/submit.job
   WorkDir=/leonardo_scratch/fast/Max3_devel_2/WP3/siesta/rerun-covid-spike_strongscaling-leonardo-booster-5.2.0-alpha_2024-09/benchmark/strong_scaling_mps/000005/000012_submit/work
   StdErr=/leonardo_scratch/fast/Max3_devel_2/WP3/siesta/rerun-covid-spike_strongscaling-leonardo-booster-5.2.0-alpha_2024-09/benchmark/strong_scaling_mps/000005/000012_submit/work/slurm-13573523.out
   StdIn=/dev/null
   StdOut=/leonardo_scratch/fast/Max3_devel_2/WP3/siesta/rerun-covid-spike_strongscaling-leonardo-booster-5.2.0-alpha_2024-09/benchmark/strong_scaling_mps/000005/000012_submit/work/slurm-13573523.out
   Power=
   TresPerNode=gres:gpu:4
   

