JobID        JobIDRaw        JobName  Partition  MaxVMSize  MaxVMSizeNode  MaxVMSizeTask  AveVMSize     MaxRSS MaxRSSNode MaxRSSTask     AveRSS MaxPages MaxPagesNode   MaxPagesTask   AvePages     MinCPU MinCPUNode MinCPUTask     AveCPU   NTasks  AllocCPUS    Elapsed      State ExitCode AveCPUFreq ReqCPUFreqMin ReqCPUFreqMax ReqCPUFreqGov     ReqMem ConsumedEnergy  MaxDiskRead MaxDiskReadNode MaxDiskReadTask    AveDiskRead MaxDiskWrite MaxDiskWriteNode MaxDiskWriteTask   AveDiskWrite    ReqTRES  AllocTRES TRESUsageInAve TRESUsageInMax TRESUsageInMaxNode TRESUsageInMaxTask TRESUsageInMin TRESUsageInMinNode TRESUsageInMinTask TRESUsageInTot TRESUsageOutMax TRESUsageOutMaxNode TRESUsageOutMaxTask TRESUsageOutAve TRESUsageOutTot 
------------ ------------ ---------- ---------- ---------- -------------- -------------- ---------- ---------- ---------- ---------- ---------- -------- ------------ -------------- ---------- ---------- ---------- ---------- ---------- -------- ---------- ---------- ---------- -------- ---------- ------------- ------------- ------------- ---------- -------------- ------------ --------------- --------------- -------------- ------------ ---------------- ---------------- -------------- ---------- ---------- -------------- -------------- ------------------ ------------------ -------------- ------------------ ------------------ -------------- --------------- ------------------- ------------------- --------------- --------------- 
155781       155781       CovidWeak+ normal-a1+                                                                                                                                                                                                             512   00:40:45    RUNNING      0:0                  Unknown       Unknown       Unknown      1936G                                                                                                                                          billing=1+ billing=5+                                                                                                                                                                                                                                 
155781.batch 155781.batch      batch                                                                                                                                                                                                               1        128   00:40:45    RUNNING      0:0          0             0             0             0                         0                                                                                                                                      cpu=128,m+                                                                                                                                                                                                                                 
155781.exte+ 155781.exte+     extern                                                                                                                                                                                                               4        512   00:40:45    RUNNING      0:0          0             0             0             0                         0                                                                                                                                      billing=5+                                                                                                                                                                                                                                 
155781.0     155781.0          orted             67532536K         gnx528              0  66299068K  64481356K     gnx528          0  63123148K     6600       gnx528              0       6501   21:26:58     gnx528          0   21:27:07        3        512   00:40:45  COMPLETED      0:0        70K             0             0             0                                958.45M          gnx528               0        896.64M      131.73M           gnx528                0        131.72M            billing=5+ cpu=21:27:07,+ cpu=21:27:21,+ cpu=gnx529,energy+ cpu=1,fs/disk=0,m+ cpu=21:26:58,+ cpu=gnx528,energy+ cpu=0,fs/disk=2,m+ cpu=2-16:21:2+ energy=0,fs/di+ energy=gnx530,fs/d+           fs/disk=0 energy=0,fs/di+ energy=0,fs/di+ 
