JobID        JobIDRaw        JobName  Partition  MaxVMSize  MaxVMSizeNode  MaxVMSizeTask  AveVMSize     MaxRSS MaxRSSNode MaxRSSTask     AveRSS MaxPages MaxPagesNode   MaxPagesTask   AvePages     MinCPU MinCPUNode MinCPUTask     AveCPU   NTasks  AllocCPUS    Elapsed      State ExitCode AveCPUFreq ReqCPUFreqMin ReqCPUFreqMax ReqCPUFreqGov     ReqMem ConsumedEnergy  MaxDiskRead MaxDiskReadNode MaxDiskReadTask    AveDiskRead MaxDiskWrite MaxDiskWriteNode MaxDiskWriteTask   AveDiskWrite    ReqTRES  AllocTRES TRESUsageInAve TRESUsageInMax TRESUsageInMaxNode TRESUsageInMaxTask TRESUsageInMin TRESUsageInMinNode TRESUsageInMinTask TRESUsageInTot TRESUsageOutMax TRESUsageOutMaxNode TRESUsageOutMaxTask TRESUsageOutAve TRESUsageOutTot 
------------ ------------ ---------- ---------- ---------- -------------- -------------- ---------- ---------- ---------- ---------- ---------- -------- ------------ -------------- ---------- ---------- ---------- ---------- ---------- -------- ---------- ---------- ---------- -------- ---------- ------------- ------------- ------------- ---------- -------------- ------------ --------------- --------------- -------------- ------------ ---------------- ---------------- -------------- ---------- ---------- -------------- -------------- ------------------ ------------------ -------------- ------------------ ------------------ -------------- --------------- ------------------- ------------------- --------------- --------------- 
13549116     13549116     submit.job boost_usr+                                                                                                                                                                                                              64   00:11:00    RUNNING      0:0                  Unknown       Unknown       Unknown    962.50G                                                                                                                                          billing=6+ billing=6+                                                                                                                                                                                                                                 
13549116.ba+ 13549116.ba+      batch                                                                                                                                                                                                               1         32   00:11:00    RUNNING      0:0          0             0             0             0                         0                                                                                                                                      cpu=32,gr+                                                                                                                                                                                                                                 
13549116.ex+ 13549116.ex+     extern                                                                                                                                                                                                               2         64   00:11:00    RUNNING      0:0          0             0             0             0                         0                                                                                                                                      billing=6+                                                                                                                                                                                                                                 
13549116.0   13549116.0   wrapper-s+              1902200K       lrdn2617              0  913108608   1749052K   lrdn2617          0    838789K      621     lrdn2617              0        155   00:10:40   lrdn2617          4   00:10:42       64         64   00:10:54  COMPLETED      0:0    118.49M       Unknown       Unknown       Unknown                         0        0.08M        lrdn2636              32          0.07M        0.00M         lrdn2617                7          0.00M            cpu=64,gr+ cpu=00:10:42,+ cpu=00:10:43,+ cpu=lrdn2636,ener+ cpu=40,fs/disk=32+ cpu=00:10:40,+ cpu=lrdn2617,ener+ cpu=4,fs/disk=7,m+ cpu=11:25:35,+ energy=0,fs/di+ energy=lrdn2617,fs+           fs/disk=7 energy=0,fs/di+ energy=0,fs/di+ 
13549116.1   13549116.1   wrapper-s+                  548K       lrdn2617             31      41088       548K   lrdn2617         31      41024        0     lrdn2617              6          0   00:00:00   lrdn2617          6   00:00:00       64         64   00:00:00  COMPLETED      0:0     84.53G       Unknown       Unknown       Unknown                         0        0.07M        lrdn2617               1          0.06M        0.00M         lrdn2617                1          0.00M            cpu=64,gr+ cpu=00:00:00,+ cpu=00:00:00,+ cpu=lrdn2617,ener+ cpu=0,fs/disk=1,m+ cpu=00:00:00,+ cpu=lrdn2617,ener+ cpu=6,fs/disk=6,m+ cpu=00:00:01,+ energy=0,fs/di+ energy=lrdn2617,fs+           fs/disk=1 energy=0,fs/di+ energy=0,fs/di+ 
