JobID        JobIDRaw        JobName  Partition  MaxVMSize  MaxVMSizeNode  MaxVMSizeTask  AveVMSize     MaxRSS MaxRSSNode MaxRSSTask     AveRSS MaxPages MaxPagesNode   MaxPagesTask   AvePages     MinCPU MinCPUNode MinCPUTask     AveCPU   NTasks  AllocCPUS    Elapsed      State ExitCode AveCPUFreq ReqCPUFreqMin ReqCPUFreqMax ReqCPUFreqGov     ReqMem ConsumedEnergy  MaxDiskRead MaxDiskReadNode MaxDiskReadTask    AveDiskRead MaxDiskWrite MaxDiskWriteNode MaxDiskWriteTask   AveDiskWrite    ReqTRES  AllocTRES TRESUsageInAve TRESUsageInMax TRESUsageInMaxNode TRESUsageInMaxTask TRESUsageInMin TRESUsageInMinNode TRESUsageInMinTask TRESUsageInTot TRESUsageOutMax TRESUsageOutMaxNode TRESUsageOutMaxTask TRESUsageOutAve TRESUsageOutTot 
------------ ------------ ---------- ---------- ---------- -------------- -------------- ---------- ---------- ---------- ---------- ---------- -------- ------------ -------------- ---------- ---------- ---------- ---------- ---------- -------- ---------- ---------- ---------- -------- ---------- ------------- ------------- ------------- ---------- -------------- ------------ --------------- --------------- -------------- ------------ ---------------- ---------------- -------------- ---------- ---------- -------------- -------------- ------------------ ------------------ -------------- ------------------ ------------------ -------------- --------------- ------------------- ------------------- --------------- --------------- 
1589189      1589189      CovidWeak+       qcpu                                                                                                                                                                                                            1024   00:00:50    RUNNING      0:0                  Unknown       Unknown       Unknown      1840G                                                                                                                                          billing=8+ billing=8+                                                                                                                                                                                                                                 
1589189.bat+ 1589189.bat+      batch                                                                                                                                                                                                               1        128   00:00:50    RUNNING      0:0          0             0             0             0                         0                                                                                                                                      cpu=128,m+                                                                                                                                                                                                                                 
1589189.ext+ 1589189.ext+     extern                                                                                                                                                                                                               8       1024   00:00:50    RUNNING      0:0          0             0             0             0                         0                                                                                                                                      billing=8+                                                                                                                                                                                                                                 
1589189.0    1589189.0        siesta               317760K          cn222              0  213298012    274948K      cn222          0  205970712      103        cn615            713         48   00:00:36      cn222          0   00:00:37     1024       1024   00:00:46  COMPLETED      0:0     79.03G       Unknown       Unknown       Unknown                         0       14.87M           cn222               0         13.71M       16.89M            cn222                0          4.14M            cpu=1024,+ cpu=00:00:37,+ cpu=00:00:38,+ cpu=cn605,energy=+ cpu=579,fs/disk=0+ cpu=00:00:36,+ cpu=cn222,energy=+ cpu=0,fs/disk=671+ cpu=10:45:52,+ energy=0,fs/di+ energy=cn615,fs/di+           fs/disk=0 energy=0,fs/di+ energy=0,fs/di+ 
