{
 "global_section": { "_calls": 1, "_time":       33.746, "_%":   100.00,
   "siesta": { "_calls": 1, "_time":       33.746, "_%":   100.00,
     "Setup": { "_calls": 1, "_time":        2.505, "_%":     7.42,
       "bands": { "_calls": 1, "_time":        0.003, "_%":     0.01},
       "KSV_init": { "_calls": 1, "_time":        0.001, "_%":     0.00}
     },
     "IterGeom": { "_calls": 1, "_time":       30.911, "_%":    91.60,
       "geom_init": { "_calls": 1, "_time":        4.575, "_%":    13.56,
         "state_init": { "_calls": 1, "_time":        0.746, "_%":     2.21,
           "hsparse": { "_calls": 1, "_time":        0.193, "_%":     0.57},
           "overlap": { "_calls": 1, "_time":        0.066, "_%":     0.19}
         },
         "Setup_H0": { "_calls": 1, "_time":        3.827, "_%":    11.34,
           "naefs": { "_calls": 1, "_time":        0.032, "_%":     0.09},
           "MolMec": { "_calls": 1, "_time":        0.000, "_%":     0.00},
           "kinefsm": { "_calls": 1, "_time":        0.062, "_%":     0.18},
           "nlefsm": { "_calls": 1, "_time":        0.236, "_%":     0.70},
           "DHSCF_Init": { "_calls": 1, "_time":        3.476, "_%":    10.30,
             "DHSCF1": { "_calls": 1, "_time":        0.064, "_%":     0.19,
               "INITMESH": { "_calls": 1, "_time":        0.000, "_%":     0.00}
             },
             "DHSCF2": { "_calls": 1, "_time":        3.386, "_%":    10.03,
               "REMESH": { "_calls": 1, "_time":        1.648, "_%":     4.88,
                 "INITMESH": { "_calls": 2, "_time":        1.464, "_%":     4.34,
                   "SPLOAD": { "_calls": 2, "_time":        0.224, "_%":     0.66}
                 }
               },
               "REORD": { "_calls": 2, "_time":        0.002, "_%":     0.01},
               "PHION": { "_calls": 1, "_time":        0.055, "_%":     0.16},
               "COMM_BSC": { "_calls": 1, "_time":        0.068, "_%":     0.20},
               "POISON": { "_calls": 1, "_time":        1.124, "_%":     3.33,
                 "fft": { "_calls": 2, "_time":        1.091, "_%":     3.23}
               }
             }
           }
         }
       },
       "IterSCF": { "_calls": 5, "_time":       26.195, "_%":    77.63,
         "setup_H": { "_calls": 5, "_time":       11.113, "_%":    32.93,
           "DHSCF": { "_calls": 5, "_time":       11.098, "_%":    32.89,
             "DHSCF3": { "_calls": 5, "_time":       11.098, "_%":    32.89,
               "rhoofd": { "_calls": 5, "_time":        0.072, "_%":     0.21},
               "COMM_BSC": { "_calls": 10, "_time":        0.644, "_%":     1.91},
               "POISON": { "_calls": 5, "_time":        5.495, "_%":    16.28,
                 "fft": { "_calls": 10, "_time":        5.242, "_%":    15.53}
               },
               "XC": { "_calls": 5, "_time":        3.914, "_%":    11.60,
                 "COMM_BSC": { "_calls": 10, "_time":        0.555, "_%":     1.64},
                 "GXC-CellXC": { "_calls": 5, "_time":        3.294, "_%":     9.76,
                   "gridxc@cellXC": { "_calls": 5, "_time":        3.294, "_%":     9.76}
                 }
               },
               "vmat": { "_calls": 5, "_time":        0.255, "_%":     0.75}
             }
           }
         },
         "compute_dm": { "_calls": 5, "_time":       15.057, "_%":    44.62,
           "redist_orbs_fwd": { "_calls": 40, "_time":        5.527, "_%":    16.38},
           "elsi-complex-solver": { "_calls": 5, "_time":        9.245, "_%":    27.40,
             "elsi-solver": { "_calls": 5, "_time":        8.674, "_%":    25.70}
           },
           "redist_dm-edm_bck": { "_calls": 5, "_time":        0.253, "_%":     0.75}
         },
         "MIXER": { "_calls": 5, "_time":        0.010, "_%":     0.03}
       },
       "state_analysis": { "_calls": 1, "_time":        0.089, "_%":     0.26},
       "siesta_move": { "_calls": 1, "_time":        0.000, "_%":     0.00}
     },
     "Analysis": { "_calls": 1, "_time":        0.278, "_%":     0.82,
       "optical": { "_calls": 1, "_time":        0.001, "_%":     0.00}
     }
   }
 }}
