JobID        JobIDRaw        JobName  Partition  MaxVMSize  MaxVMSizeNode  MaxVMSizeTask  AveVMSize     MaxRSS MaxRSSNode MaxRSSTask     AveRSS MaxPages MaxPagesNode   MaxPagesTask   AvePages     MinCPU MinCPUNode MinCPUTask     AveCPU   NTasks  AllocCPUS    Elapsed      State ExitCode AveCPUFreq ReqCPUFreqMin ReqCPUFreqMax ReqCPUFreqGov     ReqMem ConsumedEnergy  MaxDiskRead MaxDiskReadNode MaxDiskReadTask    AveDiskRead MaxDiskWrite MaxDiskWriteNode MaxDiskWriteTask   AveDiskWrite    ReqTRES  AllocTRES TRESUsageInAve TRESUsageInMax TRESUsageInMaxNode TRESUsageInMaxTask TRESUsageInMin TRESUsageInMinNode TRESUsageInMinTask TRESUsageInTot TRESUsageOutMax TRESUsageOutMaxNode TRESUsageOutMaxTask TRESUsageOutAve TRESUsageOutTot 
------------ ------------ ---------- ---------- ---------- -------------- -------------- ---------- ---------- ---------- ---------- ---------- -------- ------------ -------------- ---------- ---------- ---------- ---------- ---------- -------- ---------- ---------- ---------- -------- ---------- ------------- ------------- ------------- ---------- -------------- ------------ --------------- --------------- -------------- ------------ ---------------- ---------------- -------------- ---------- ---------- -------------- -------------- ------------------ ------------------ -------------- ------------------ ------------------ -------------- --------------- ------------------- ------------------- --------------- --------------- 
151851       151851        CovidWeak normal-x86                                                                                                                                                                                                             512   00:11:27    RUNNING      0:0                  Unknown       Unknown       Unknown       968G                                                                                                                                          billing=5+ billing=5+                                                                                                                                                                                                                                 
151851.batch 151851.batch      batch                                                                                                                                                                                                               1        128   00:11:27    RUNNING      0:0          0             0             0             0                         0                                                                                                                                      cpu=128,m+                                                                                                                                                                                                                                 
151851.exte+ 151851.exte+     extern                                                                                                                                                                                                               4        512   00:11:27    RUNNING      0:0          0             0             0             0                         0                                                                                                                                      billing=5+                                                                                                                                                                                                                                 
151851.0     151851.0          orted             42659592K         cnx329              0 433926444+  41547228K     cnx329          0 422625498+      660       cnx331              2        605   23:43:33     cnx331          2   23:44:57        3        512   00:11:27  COMPLETED      0:0       122K             0             0             0                               2611.42M          cnx329               0       2611.33M      527.33M           cnx329                0        527.32M            billing=5+ cpu=23:44:57,+ cpu=23:46:01,+ cpu=cnx330,energy+ cpu=1,fs/disk=0,m+ cpu=23:43:33,+ cpu=cnx331,energy+ cpu=2,fs/disk=1,m+ cpu=2-23:14:5+ energy=0,fs/di+ energy=cnx329,fs/d+           fs/disk=0 energy=0,fs/di+ energy=0,fs/di+ 
