JobID        JobIDRaw        JobName  Partition  MaxVMSize  MaxVMSizeNode  MaxVMSizeTask  AveVMSize     MaxRSS MaxRSSNode MaxRSSTask     AveRSS MaxPages MaxPagesNode   MaxPagesTask   AvePages     MinCPU MinCPUNode MinCPUTask     AveCPU   NTasks  AllocCPUS    Elapsed      State ExitCode AveCPUFreq ReqCPUFreqMin ReqCPUFreqMax ReqCPUFreqGov     ReqMem ConsumedEnergy  MaxDiskRead MaxDiskReadNode MaxDiskReadTask    AveDiskRead MaxDiskWrite MaxDiskWriteNode MaxDiskWriteTask   AveDiskWrite    ReqTRES  AllocTRES TRESUsageInAve TRESUsageInMax TRESUsageInMaxNode TRESUsageInMaxTask TRESUsageInMin TRESUsageInMinNode TRESUsageInMinTask TRESUsageInTot TRESUsageOutMax TRESUsageOutMaxNode TRESUsageOutMaxTask TRESUsageOutAve TRESUsageOutTot 
------------ ------------ ---------- ---------- ---------- -------------- -------------- ---------- ---------- ---------- ---------- ---------- -------- ------------ -------------- ---------- ---------- ---------- ---------- ---------- -------- ---------- ---------- ---------- -------- ---------- ------------- ------------- ------------- ---------- -------------- ------------ --------------- --------------- -------------- ------------ ---------------- ---------------- -------------- ---------- ---------- -------------- -------------- ------------------ ------------------ -------------- ------------------ ------------------ -------------- --------------- ------------------- ------------------- --------------- --------------- 
1589215      1589215      CovidStro+       qcpu                                                                                                                                                                                                             512   00:43:22    RUNNING      0:0                  Unknown       Unknown       Unknown       920G                                                                                                                                          billing=4+ billing=4+                                                                                                                                                                                                                                 
1589215.bat+ 1589215.bat+      batch                                                                                                                                                                                                               1        128   00:43:22    RUNNING      0:0          0             0             0             0                         0                                                                                                                                      cpu=128,m+                                                                                                                                                                                                                                 
1589215.ext+ 1589215.ext+     extern                                                                                                                                                                                                               4        512   00:43:22    RUNNING      0:0          0             0             0             0                         0                                                                                                                                      billing=4+                                                                                                                                                                                                                                 
1589215.0    1589215.0        siesta               606944K          cn663            388  518329600    596792K      cn663        388  507908544       98        cn663            510         41   00:42:35      cn660          0   00:42:46      512        512   00:43:19  COMPLETED      0:0     99.00M       Unknown       Unknown       Unknown                         0       14.98M           cn660               0         13.72M       20.06M            cn660                0          5.19M            cpu=512,m+ cpu=00:42:46,+ cpu=00:42:49,+ cpu=cn662,energy=+ cpu=319,fs/disk=0+ cpu=00:42:35,+ cpu=cn660,energy=+ cpu=0,fs/disk=442+ cpu=15-05:03:+ energy=0,fs/di+ energy=cn660,fs/di+           fs/disk=0 energy=0,fs/di+ energy=0,fs/di+ 
