JobId=5310485 JobName=submit.job
   UserId=bellenta(327000822) GroupId=pepr_bellenta(327000822) MCS_label=N/A
   Priority=483 Nice=0 Account=project_465000641 QOS=normal
   JobState=RUNNING Reason=None Dependency=(null)
   Requeue=1 Restarts=0 BatchFlag=1 Reboot=0 ExitCode=0:0
   DerivedExitCode=0:0
   RunTime=00:00:40 TimeLimit=01:00:00 TimeMin=N/A
   SubmitTime=2023-12-18T08:55:15 EligibleTime=2023-12-18T08:55:15
   AccrueTime=2023-12-18T08:55:15
   StartTime=2023-12-18T08:55:17 EndTime=2023-12-18T09:55:17 Deadline=N/A
   SuspendTime=None SecsPreSuspend=0 LastSchedEval=2023-12-18T08:55:17 Scheduler=Main
   Partition=standard-g AllocNode:Sid=ln02-nmn:88885
   ReqNodeList=(null) ExcNodeList=(null)
   NodeList=nid[006035-006038]
   BatchHost=nid006035
   NumNodes=4 NumCPUs=448 NumTasks=32 CPUs/Task=1 ReqB:S:C:T=0:0:*:1
   TRES=cpu=448,node=4,billing=448,gres/gpu:mi250=32
   Socks/Node=* NtasksPerN:B:S:C=8:0:*:1 CoreSpec=*
   JOB_GRES=gpu:mi250:32
     Nodes=nid[006035-006038] CPU_IDs=2-15,18-31,34-47,50-63,66-79,82-95,98-111,114-127 Mem=0 GRES=gpu:mi250:8(IDX:0-7)
   MinCPUsNode=8 MinMemoryCPU=0 MinTmpDiskNode=0
   Features=(null) DelayBoot=00:00:00
   OverSubscribe=NO Contiguous=0 Licenses=(null) Network=(null)
   Command=/pfs/lustrep2/projappl/project_465000641/cnt10por8/bench_lumi_aware_gamma/000000/000003_submit_N4np32/work/submit.job
   WorkDir=/pfs/lustrep2/projappl/project_465000641/cnt10por8/bench_lumi_aware_gamma/000000/000003_submit_N4np32/work
   StdErr=/pfs/lustrep2/projappl/project_465000641/cnt10por8/bench_lumi_aware_gamma/000000/000003_submit_N4np32/work/slurm-5310485.out
   StdIn=/dev/null
   StdOut=/pfs/lustrep2/projappl/project_465000641/cnt10por8/bench_lumi_aware_gamma/000000/000003_submit_N4np32/work/slurm-5310485.out
   Power=
   TresPerNode=gres:gpu:8
   

