JobId=7466451 JobName=submit.job
   UserId=lbellen1(33678) GroupId=interactive(25200) MCS_label=N/A
   Priority=139415 Nice=0 Account=cin_staff QOS=normal
   JobState=RUNNING Reason=None Dependency=(null)
   Requeue=0 Restarts=0 BatchFlag=1 Reboot=0 ExitCode=0:0
   DerivedExitCode=0:0
   RunTime=00:00:03 TimeLimit=04:00:00 TimeMin=N/A
   SubmitTime=2024-09-10T12:32:16 EligibleTime=2024-09-10T12:32:16
   AccrueTime=2024-09-10T12:32:16
   StartTime=2024-09-10T12:32:51 EndTime=2024-09-10T16:32:52 Deadline=N/A
   SuspendTime=None SecsPreSuspend=0 LastSchedEval=2024-09-10T12:32:51 Scheduler=Main
   Partition=dcgp_usr_prod AllocNode:Sid=slurm-controller:2737249
   ReqNodeList=(null) ExcNodeList=(null)
   NodeList=lrdn[4503-4504]
   BatchHost=lrdn4503
   NumNodes=2 NumCPUs=224 NumTasks=32 CPUs/Task=7 ReqB:S:C:T=0:0:*:*
   TRES=cpu=224,mem=962.50G,node=2,billing=224,gres/tmpfs=6597069766656
   Socks/Node=* NtasksPerN:B:S:C=16:0:*:* CoreSpec=*
   JOB_GRES=tmpfs:6597069766656
     Nodes=lrdn[4503-4504] CPU_IDs=0-111 Mem=492800 GRES=tmpfs(CNT:3298534883328)
   MinCPUsNode=112 MinMemoryCPU=4400M MinTmpDiskNode=0
   Features=(null) DelayBoot=00:00:00
   OverSubscribe=NO Contiguous=0 Licenses=(null) Network=(null)
   Command=/leonardo_scratch/fast/Max3_devel_2/WP3/qe/benchmarks/cri3/N2_1step/000001/000000_submit_N2np16omp7/work/submit.job
   WorkDir=/leonardo_scratch/fast/Max3_devel_2/WP3/qe/benchmarks/cri3/N2_1step/000001/000000_submit_N2np16omp7/work
   StdErr=/leonardo_scratch/fast/Max3_devel_2/WP3/qe/benchmarks/cri3/N2_1step/000001/000000_submit_N2np16omp7/work/slurm-7466451.out
   StdIn=/dev/null
   StdOut=/leonardo_scratch/fast/Max3_devel_2/WP3/qe/benchmarks/cri3/N2_1step/000001/000000_submit_N2np16omp7/work/slurm-7466451.out
   Power=
   TresPerNode=gres:tmpfs:10g
   

