{
 "global_section": { "_calls": 1, "_time":      566.990, "_%":   100.00,
   "siesta": { "_calls": 1, "_time":      566.990, "_%":   100.00,
     "Setup": { "_calls": 1, "_time":        0.845, "_%":     0.15,
       "bands": { "_calls": 1, "_time":        0.002, "_%":     0.00},
       "KSV_init": { "_calls": 1, "_time":        0.000, "_%":     0.00}
     },
     "IterGeom": { "_calls": 1, "_time":      550.215, "_%":    97.04,
       "geom_init": { "_calls": 1, "_time":       13.838, "_%":     2.44,
         "state_init": { "_calls": 1, "_time":        2.334, "_%":     0.41,
           "hsparse": { "_calls": 1, "_time":        0.110, "_%":     0.02},
           "overlap": { "_calls": 1, "_time":        1.507, "_%":     0.27}
         },
         "Setup_H0": { "_calls": 1, "_time":       11.503, "_%":     2.03,
           "naefs": { "_calls": 1, "_time":        0.016, "_%":     0.00},
           "dnaefs": { "_calls": 1, "_time":        0.009, "_%":     0.00},
           "MolMec": { "_calls": 1, "_time":        0.000, "_%":     0.00},
           "kinefsm": { "_calls": 1, "_time":        1.514, "_%":     0.27},
           "nlefsm": { "_calls": 1, "_time":        4.237, "_%":     0.75},
           "DHSCF_Init": { "_calls": 1, "_time":        5.727, "_%":     1.01,
             "DHSCF1": { "_calls": 1, "_time":        0.038, "_%":     0.01,
               "InitMesh": { "_calls": 1, "_time":        0.028, "_%":     0.01,
                 "INITMESH": { "_calls": 1, "_time":        0.000, "_%":     0.00}
               }
             },
             "DHSCF2": { "_calls": 1, "_time":        5.677, "_%":     1.00,
               "REMESH": { "_calls": 1, "_time":        1.505, "_%":     0.27,
                 "INITMESH": { "_calls": 2, "_time":        1.415, "_%":     0.25,
                   "BuildDISTR": { "_calls": 2, "_time":        1.414, "_%":     0.25,
                     "meshCom-Ca": { "_calls": 3, "_time":        0.000, "_%":     0.00}
                   }
                 }
               },
               "REORD": { "_calls": 2, "_time":        0.021, "_%":     0.00},
               "PHION": { "_calls": 1, "_time":        0.739, "_%":     0.13},
               "dscfComm": { "_calls": 1, "_time":        0.085, "_%":     0.02},
               "COMM_BSC": { "_calls": 1, "_time":        0.041, "_%":     0.01},
               "POISON": { "_calls": 1, "_time":        2.962, "_%":     0.52,
                 "fft": { "_calls": 2, "_time":        2.852, "_%":     0.50}
               }
             }
           }
         }
       },
       "IterSCF": { "_calls": 5, "_time":      536.212, "_%":    94.57,
         "setup_H": { "_calls": 5, "_time":       27.408, "_%":     4.83,
           "DHSCF": { "_calls": 5, "_time":       27.293, "_%":     4.81,
             "DHSCF3": { "_calls": 5, "_time":       27.293, "_%":     4.81,
               "rhoofd": { "_calls": 5, "_time":        0.333, "_%":     0.06,
                 "OtoM": { "_calls": 5, "_time":        0.062, "_%":     0.01}
               },
               "COMM_BSC": { "_calls": 10, "_time":        0.375, "_%":     0.07},
               "POISON": { "_calls": 5, "_time":       13.667, "_%":     2.41,
                 "fft": { "_calls": 10, "_time":       13.089, "_%":     2.31}
               },
               "XC": { "_calls": 5, "_time":       11.261, "_%":     1.99,
                 "COMM_BSC": { "_calls": 10, "_time":        0.509, "_%":     0.09},
                 "GXC-CellXC": { "_calls": 5, "_time":       10.456, "_%":     1.84,
                   "gridxc@cellXC": { "_calls": 5, "_time":       10.456, "_%":     1.84}
                 }
               },
               "vmat": { "_calls": 5, "_time":        0.436, "_%":     0.08,
                 "MtoO": { "_calls": 5, "_time":        0.218, "_%":     0.04}
               }
             }
           }
         },
         "compute_dm": { "_calls": 5, "_time":      508.770, "_%":    89.73,
           "elsi": { "_calls": 5, "_time":      508.283, "_%":    89.65,
             "find nnz_g": { "_calls": 5, "_time":        0.000, "_%":     0.00},
             "elsi-solver": { "_calls": 5, "_time":      508.270, "_%":    89.64}
           }
         },
         "MIXER": { "_calls": 5, "_time":        0.009, "_%":     0.00}
       },
       "state_analysis": { "_calls": 1, "_time":        0.034, "_%":     0.01},
       "siesta_move": { "_calls": 1, "_time":        0.000, "_%":     0.00}
     },
     "Analysis": { "_calls": 1, "_time":       15.906, "_%":     2.81,
       "optical": { "_calls": 1, "_time":        0.001, "_%":     0.00}
     }
   }
 }}
