JobId=9552694 JobName=CovidWeakKPoints
   UserId=icn2553284(51005) GroupId=icn2(50004) MCS_label=N/A
   Priority=67437 Nice=0 Account=icn85 QOS=gp_resa
   JobState=RUNNING Reason=None Dependency=(null)
   Requeue=0 Restarts=0 BatchFlag=1 Reboot=0 ExitCode=0:0
   RunTime=00:00:03 TimeLimit=02:00:00 TimeMin=N/A
   SubmitTime=2024-09-30T11:27:06 EligibleTime=2024-09-30T11:27:06
   AccrueTime=2024-09-30T11:27:06
   StartTime=2024-09-30T11:27:15 EndTime=2024-09-30T13:27:15 Deadline=N/A
   SuspendTime=None SecsPreSuspend=0 LastSchedEval=2024-09-30T11:27:15 Scheduler=Backfill
   Partition=gpp AllocNode:Sid=glogin1:2011625
   ReqNodeList=(null) ExcNodeList=(null)
   NodeList=gs05r2b[01-04,06-07,09-18]
   BatchHost=gs05r2b01
   NumNodes=16 NumCPUs=3584 NumTasks=1792 CPUs/Task=1 ReqB:S:C:T=0:0:*:1
   ReqTRES=cpu=1792,mem=3500G,node=16,billing=1792
   AllocTRES=cpu=3584,mem=3500G,node=16,billing=3584
   Socks/Node=* NtasksPerN:B:S:C=112:0:*:* CoreSpec=*
   MinCPUsNode=112 MinMemoryCPU=2000M MinTmpDiskNode=0
   Features=(null) DelayBoot=00:00:00
   OverSubscribe=NO Contiguous=0 Licenses=(null) Network=(null)
   Command=/gpfs/home/icn2/icn2553284/jube4max/max-inputs/interface/siesta/_CovidWeakKPoints/000000/000014_submit/work/submit.job
   WorkDir=/gpfs/home/icn2/icn2553284/jube4max/max-inputs/interface/siesta/_CovidWeakKPoints/000000/000014_submit/work
   StdErr=/gpfs/home/icn2/icn2553284/jube4max/max-inputs/interface/siesta/_CovidWeakKPoints/000000/000014_submit/work/job_9552694.err
   StdIn=/dev/null
   StdOut=/gpfs/home/icn2/icn2553284/jube4max/max-inputs/interface/siesta/_CovidWeakKPoints/000000/000014_submit/work/job_9552694.out
   Power=
   

