       JobID     JobIDRaw    JobName  Partition  MaxVMSize  MaxVMSizeNode  MaxVMSizeTask  AveVMSize     MaxRSS MaxRSSNode MaxRSSTask     AveRSS MaxPages MaxPagesNode   MaxPagesTask   AvePages     MinCPU MinCPUNode MinCPUTask     AveCPU   NTasks  AllocCPUS    Elapsed      State ExitCode AveCPUFreq ReqCPUFreqMin ReqCPUFreqMax ReqCPUFreqGov     ReqMem ConsumedEnergy  MaxDiskRead MaxDiskReadNode MaxDiskReadTask    AveDiskRead MaxDiskWrite MaxDiskWriteNode MaxDiskWriteTask   AveDiskWrite    AllocGRES      ReqGRES    ReqTRES  AllocTRES TRESUsageInAve TRESUsageInMax TRESUsageInMaxNode TRESUsageInMaxTask TRESUsageInMin TRESUsageInMinNode TRESUsageInMinTask TRESUsageInTot TRESUsageOutMax TRESUsageOutMaxNode TRESUsageOutMaxTask TRESUsageOutAve TRESUsageOutTot 
------------ ------------ ---------- ---------- ---------- -------------- -------------- ---------- ---------- ---------- ---------- ---------- -------- ------------ -------------- ---------- ---------- ---------- ---------- ---------- -------- ---------- ---------- ---------- -------- ---------- ------------- ------------- ------------- ---------- -------------- ------------ --------------- --------------- -------------- ------------ ---------------- ---------------- -------------- ------------ ------------ ---------- ---------- -------------- -------------- ------------------ ------------------ -------------- ------------------ ------------------ -------------- --------------- ------------------- ------------------- --------------- --------------- 
244996       244996       CovidWeak+         cn                                                                                                                                                                                                            4096   00:08:58    RUNNING      0:0                  Unknown       Unknown       Unknown        1Gc                                                                                                                                                                    billing=4+ billing=4+                                                                                                                                                                                                                                 
244996.batch 244996.batch      batch                                                                                                                                                                                                               1        128   00:08:58    RUNNING      0:0          0             0             0             0        1Gc              0                                                                                                                                                                cpu=128,m+                                                                                                                                                                                                                                 
244996.0     244996.0         siesta              1489180K         cn0349              0 1271389900    304220K     cn0349          0  218470235      109       cn0349              0         27   00:08:41     cn0349         59   00:08:48     4096       4096   00:08:56  COMPLETED      0:0      4.75M       Unknown       Unknown       Unknown        1Gc              0        9.91M          cn0352             404          8.66M       17.00M           cn0349                0          4.11M                                      cpu=4096,+ cpu=00:08:48,+ cpu=00:08:48,+ cpu=cn0356,energy+ cpu=993,fs/disk=4+ cpu=00:08:41,+ cpu=cn0349,energy+ cpu=59,fs/disk=30+ cpu=25-00:52:+ energy=0,fs/di+ energy=cn0355,fs/d+           fs/disk=0 energy=0,fs/di+ energy=0,fs/di+ 
