JobID        JobIDRaw        JobName  Partition  MaxVMSize  MaxVMSizeNode  MaxVMSizeTask  AveVMSize     MaxRSS MaxRSSNode MaxRSSTask     AveRSS MaxPages MaxPagesNode   MaxPagesTask   AvePages     MinCPU MinCPUNode MinCPUTask     AveCPU   NTasks  AllocCPUS    Elapsed      State ExitCode AveCPUFreq ReqCPUFreqMin ReqCPUFreqMax ReqCPUFreqGov     ReqMem ConsumedEnergy  MaxDiskRead MaxDiskReadNode MaxDiskReadTask    AveDiskRead MaxDiskWrite MaxDiskWriteNode MaxDiskWriteTask   AveDiskWrite    ReqTRES  AllocTRES TRESUsageInAve TRESUsageInMax TRESUsageInMaxNode TRESUsageInMaxTask TRESUsageInMin TRESUsageInMinNode TRESUsageInMinTask TRESUsageInTot TRESUsageOutMax TRESUsageOutMaxNode TRESUsageOutMaxTask TRESUsageOutAve TRESUsageOutTot 
------------ ------------ ---------- ---------- ---------- -------------- -------------- ---------- ---------- ---------- ---------- ---------- -------- ------------ -------------- ---------- ---------- ---------- ---------- ---------- -------- ---------- ---------- ---------- -------- ---------- ------------- ------------- ------------- ---------- -------------- ------------ --------------- --------------- -------------- ------------ ---------------- ---------------- -------------- ---------- ---------- -------------- -------------- ------------------ ------------------ -------------- ------------------ ------------------ -------------- --------------- ------------------- ------------------- --------------- --------------- 
151859       151859        CovidWeak normal-x86                                                                                                                                                                                                             512   00:09:18    RUNNING      0:0                  Unknown       Unknown       Unknown       968G                                                                                                                                          billing=5+ billing=5+                                                                                                                                                                                                                                 
151859.batch 151859.batch      batch                                                                                                                                                                                                               1        128   00:09:18    RUNNING      0:0          0             0             0             0                         0                                                                                                                                      cpu=128,m+                                                                                                                                                                                                                                 
151859.exte+ 151859.exte+     extern                                                                                                                                                                                                               4        512   00:09:18    RUNNING      0:0          0             0             0             0                         0                                                                                                                                      billing=5+                                                                                                                                                                                                                                 
151859.0     151859.0          orted             48873444K         cnx330              1 492561353+  47448636K     cnx330          1 477995199+      594       cnx329              0        539   19:22:04     cnx331          2   19:23:01        3        512   00:09:18  COMPLETED      0:0        83K             0             0             0                               2612.03M          cnx331               2       2611.94M      528.01M           cnx329                0        528.01M            billing=5+ cpu=19:23:01,+ cpu=19:23:39,+ cpu=cnx330,energy+ cpu=1,fs/disk=2,m+ cpu=19:22:04,+ cpu=cnx331,energy+ cpu=2,fs/disk=1,m+ cpu=2-10:09:0+ energy=0,fs/di+ energy=cnx329,fs/d+           fs/disk=0 energy=0,fs/di+ energy=0,fs/di+ 
