{
 "global_section": { "_calls": 1, "_time":     3076.240, "_%":   100.00,
   "siesta": { "_calls": 1, "_time":     3076.240, "_%":   100.00,
     "Setup": { "_calls": 1, "_time":        1.952, "_%":     0.06,
       "bands": { "_calls": 1, "_time":        0.004, "_%":     0.00},
       "KSV_init": { "_calls": 1, "_time":        0.001, "_%":     0.00}
     },
     "IterGeom": { "_calls": 1, "_time":     3074.072, "_%":    99.93,
       "geom_init": { "_calls": 1, "_time":        3.396, "_%":     0.11,
         "state_init": { "_calls": 1, "_time":        0.816, "_%":     0.03,
           "hsparse": { "_calls": 1, "_time":        0.099, "_%":     0.00},
           "overlap": { "_calls": 1, "_time":        0.033, "_%":     0.00}
         },
         "Setup_H0": { "_calls": 1, "_time":        2.579, "_%":     0.08,
           "naefs": { "_calls": 1, "_time":        0.014, "_%":     0.00},
           "MolMec": { "_calls": 1, "_time":        0.000, "_%":     0.00},
           "kinefsm": { "_calls": 1, "_time":        0.031, "_%":     0.00},
           "nlefsm": { "_calls": 1, "_time":        0.112, "_%":     0.00},
           "DHSCF_Init": { "_calls": 1, "_time":        2.413, "_%":     0.08,
             "DHSCF1": { "_calls": 1, "_time":        0.028, "_%":     0.00,
               "INITMESH": { "_calls": 1, "_time":        0.000, "_%":     0.00}
             },
             "DHSCF2": { "_calls": 1, "_time":        2.371, "_%":     0.08,
               "REMESH": { "_calls": 1, "_time":        0.956, "_%":     0.03,
                 "INITMESH": { "_calls": 2, "_time":        0.931, "_%":     0.03,
                   "SPLOAD": { "_calls": 2, "_time":        0.607, "_%":     0.02}
                 }
               },
               "REORD": { "_calls": 2, "_time":        0.004, "_%":     0.00},
               "PHION": { "_calls": 1, "_time":        0.033, "_%":     0.00},
               "COMM_BSC": { "_calls": 1, "_time":        0.032, "_%":     0.00},
               "POISON": { "_calls": 1, "_time":        0.958, "_%":     0.03,
                 "fft": { "_calls": 2, "_time":        0.920, "_%":     0.03}
               }
             }
           }
         }
       },
       "IterSCF": { "_calls": 5, "_time":     3070.615, "_%":    99.82,
         "setup_H": { "_calls": 5, "_time":        7.540, "_%":     0.25,
           "DHSCF": { "_calls": 5, "_time":        7.536, "_%":     0.24,
             "DHSCF3": { "_calls": 5, "_time":        7.536, "_%":     0.24,
               "rhoofd": { "_calls": 5, "_time":        0.056, "_%":     0.00},
               "COMM_BSC": { "_calls": 10, "_time":        0.245, "_%":     0.01},
               "POISON": { "_calls": 5, "_time":        4.711, "_%":     0.15,
                 "fft": { "_calls": 10, "_time":        4.523, "_%":     0.15}
               },
               "XC": { "_calls": 5, "_time":        2.163, "_%":     0.07,
                 "COMM_BSC": { "_calls": 10, "_time":        0.271, "_%":     0.01},
                 "GXC-CellXC": { "_calls": 5, "_time":        1.850, "_%":     0.06,
                   "gridxc@cellXC": { "_calls": 5, "_time":        1.850, "_%":     0.06}
                 }
               },
               "vmat": { "_calls": 5, "_time":        0.044, "_%":     0.00}
             }
           }
         },
         "compute_dm": { "_calls": 5, "_time":     3063.044, "_%":    99.57,
           "diagon": { "_calls": 5, "_time":     3063.041, "_%":    99.57,
             "c-eigval": { "_calls": 40, "_time":     1393.052, "_%":    45.28,
               "c-buildHS": { "_calls": 40, "_time":        0.302, "_%":     0.01},
               "cdiag": { "_calls": 40, "_time":     1392.749, "_%":    45.27,
                 "cdiag1": { "_calls": 40, "_time":      103.107, "_%":     3.35},
                 "cdiag2": { "_calls": 40, "_time":      365.212, "_%":    11.87},
                 "cdiag3": { "_calls": 40, "_time":      913.648, "_%":    29.70}
               }
             },
             "c-eigvec": { "_calls": 40, "_time":     1465.426, "_%":    47.64,
               "cdiag": { "_calls": 40, "_time":     1464.974, "_%":    47.62,
                 "cdiag1": { "_calls": 40, "_time":      102.846, "_%":     3.34},
                 "cdiag2": { "_calls": 40, "_time":      365.121, "_%":    11.87},
                 "cdiag3": { "_calls": 40, "_time":      911.124, "_%":    29.62},
                 "cdiag4": { "_calls": 40, "_time":       74.834, "_%":     2.43}
               }
             },
             "c-buildD": { "_calls": 40, "_time":      204.149, "_%":     6.64}
           }
         },
         "MIXER": { "_calls": 5, "_time":        0.008, "_%":     0.00}
       },
       "state_analysis": { "_calls": 1, "_time":        0.050, "_%":     0.00},
       "siesta_move": { "_calls": 1, "_time":        0.000, "_%":     0.00}
     },
     "Analysis": { "_calls": 1, "_time":        0.203, "_%":     0.01,
       "optical": { "_calls": 1, "_time":        0.001, "_%":     0.00}
     }
   }
 }}
