{
 "global_section": { "_calls": 1, "_time":     1497.435, "_%":   100.00,
   "siesta": { "_calls": 1, "_time":     1497.435, "_%":   100.00,
     "Setup": { "_calls": 1, "_time":        1.451, "_%":     0.10,
       "bands": { "_calls": 1, "_time":        0.002, "_%":     0.00},
       "KSV_init": { "_calls": 1, "_time":        0.001, "_%":     0.00}
     },
     "IterGeom": { "_calls": 1, "_time":     1495.775, "_%":    99.89,
       "geom_init": { "_calls": 1, "_time":       13.612, "_%":     0.91,
         "state_init": { "_calls": 1, "_time":        1.856, "_%":     0.12,
           "hsparse": { "_calls": 1, "_time":        0.124, "_%":     0.01},
           "overlap": { "_calls": 1, "_time":        1.125, "_%":     0.08}
         },
         "Setup_H0": { "_calls": 1, "_time":       11.755, "_%":     0.78,
           "naefs": { "_calls": 1, "_time":        0.021, "_%":     0.00},
           "MolMec": { "_calls": 1, "_time":        0.000, "_%":     0.00},
           "kinefsm": { "_calls": 1, "_time":        1.114, "_%":     0.07},
           "nlefsm": { "_calls": 1, "_time":        2.691, "_%":     0.18},
           "DHSCF_Init": { "_calls": 1, "_time":        7.915, "_%":     0.53,
             "DHSCF1": { "_calls": 1, "_time":        0.067, "_%":     0.00,
               "INITMESH": { "_calls": 1, "_time":        0.000, "_%":     0.00}
             },
             "DHSCF2": { "_calls": 1, "_time":        7.831, "_%":     0.52,
               "REMESH": { "_calls": 1, "_time":        0.795, "_%":     0.05,
                 "INITMESH": { "_calls": 2, "_time":        0.752, "_%":     0.05,
                   "SPLOAD": { "_calls": 2, "_time":        0.655, "_%":     0.04}
                 }
               },
               "REORD": { "_calls": 2, "_time":        0.030, "_%":     0.00},
               "PHION": { "_calls": 1, "_time":        0.934, "_%":     0.06},
               "COMM_BSC": { "_calls": 1, "_time":        0.121, "_%":     0.01},
               "POISON": { "_calls": 1, "_time":        5.306, "_%":     0.35,
                 "fft": { "_calls": 2, "_time":        5.080, "_%":     0.34}
               }
             }
           }
         }
       },
       "IterSCF": { "_calls": 5, "_time":     1481.589, "_%":    98.94,
         "setup_H": { "_calls": 5, "_time":       45.651, "_%":     3.05,
           "DHSCF": { "_calls": 5, "_time":       45.491, "_%":     3.04,
             "DHSCF3": { "_calls": 5, "_time":       45.491, "_%":     3.04,
               "rhoofd": { "_calls": 5, "_time":        0.514, "_%":     0.03},
               "COMM_BSC": { "_calls": 10, "_time":        1.284, "_%":     0.09},
               "POISON": { "_calls": 5, "_time":       26.087, "_%":     1.74,
                 "fft": { "_calls": 10, "_time":       24.752, "_%":     1.65}
               },
               "XC": { "_calls": 5, "_time":       14.762, "_%":     0.99,
                 "COMM_BSC": { "_calls": 10, "_time":        1.523, "_%":     0.10},
                 "GXC-CellXC": { "_calls": 5, "_time":       12.857, "_%":     0.86,
                   "gridxc@cellXC": { "_calls": 5, "_time":       12.856, "_%":     0.86}
                 }
               },
               "vmat": { "_calls": 5, "_time":        0.449, "_%":     0.03}
             }
           }
         },
         "compute_dm": { "_calls": 5, "_time":     1435.517, "_%":    95.87,
           "elsi": { "_calls": 5, "_time":     1435.220, "_%":    95.85,
             "find nnz_g": { "_calls": 5, "_time":        0.000, "_%":     0.00},
             "elsi-solver": { "_calls": 5, "_time":     1435.132, "_%":    95.84}
           }
         },
         "MIXER": { "_calls": 5, "_time":        0.251, "_%":     0.02}
       },
       "state_analysis": { "_calls": 1, "_time":        0.048, "_%":     0.00},
       "siesta_move": { "_calls": 1, "_time":        0.000, "_%":     0.00}
     },
     "Analysis": { "_calls": 1, "_time":        0.188, "_%":     0.01,
       "optical": { "_calls": 1, "_time":        0.001, "_%":     0.00}
     }
   }
 }}
