       JobID     JobIDRaw    JobName  Partition  MaxVMSize  MaxVMSizeNode  MaxVMSizeTask  AveVMSize     MaxRSS MaxRSSNode MaxRSSTask     AveRSS MaxPages MaxPagesNode   MaxPagesTask   AvePages     MinCPU MinCPUNode MinCPUTask     AveCPU   NTasks  AllocCPUS    Elapsed      State ExitCode AveCPUFreq ReqCPUFreqMin ReqCPUFreqMax ReqCPUFreqGov     ReqMem ConsumedEnergy  MaxDiskRead MaxDiskReadNode MaxDiskReadTask    AveDiskRead MaxDiskWrite MaxDiskWriteNode MaxDiskWriteTask   AveDiskWrite    AllocGRES      ReqGRES    ReqTRES  AllocTRES TRESUsageInAve TRESUsageInMax TRESUsageInMaxNode TRESUsageInMaxTask TRESUsageInMin TRESUsageInMinNode TRESUsageInMinTask TRESUsageInTot TRESUsageOutMax TRESUsageOutMaxNode TRESUsageOutMaxTask TRESUsageOutAve TRESUsageOutTot 
------------ ------------ ---------- ---------- ---------- -------------- -------------- ---------- ---------- ---------- ---------- ---------- -------- ------------ -------------- ---------- ---------- ---------- ---------- ---------- -------- ---------- ---------- ---------- -------- ---------- ------------- ------------- ------------- ---------- -------------- ------------ --------------- --------------- -------------- ------------ ---------------- ---------------- -------------- ------------ ------------ ---------- ---------- -------------- -------------- ------------------ ------------------ -------------- ------------------ ------------------ -------------- --------------- ------------------- ------------------- --------------- --------------- 
244505       244505       CovidWeak+         cn                                                                                                                                                                                                             256   01:27:18    RUNNING      0:0                  Unknown       Unknown       Unknown        1Gc                                                                                                                                                                    billing=2+ billing=2+                                                                                                                                                                                                                                 
244505.batch 244505.batch      batch                                                                                                                                                                                                               1        128   01:27:18    RUNNING      0:0          0             0             0             0        1Gc              0                                                                                                                                                                cpu=128,m+                                                                                                                                                                                                                                 
244505.0     244505.0         siesta              1753776K         cn0045              0 1447041952    553000K     cn0045        118  510953872       98       cn0045              0         23   01:25:40     cn0045         31   01:26:24      256        256   01:27:16  COMPLETED      0:0       424K       Unknown       Unknown       Unknown        1Gc          4.58M       10.53M          cn0045               0          8.33M       16.83M           cn0045                0          4.96M                                      cpu=256,m+ cpu=01:26:24,+ cpu=01:26:28,+ cpu=cn0046,energy+ cpu=207,fs/disk=0+ cpu=01:25:40,+ cpu=cn0045,energy+ cpu=31,fs/disk=23+ cpu=15-08:39:+ energy=490,fs/+ energy=cn0045,fs/d+           fs/disk=0 energy=6,fs/di+ energy=1660,fs+ 
