{
 "global_section": { "_calls": 1, "_time":      867.597, "_%":   100.00,
   "siesta": { "_calls": 1, "_time":      867.597, "_%":   100.00,
     "Setup": { "_calls": 1, "_time":        1.383, "_%":     0.16,
       "bands": { "_calls": 1, "_time":        0.003, "_%":     0.00},
       "KSV_init": { "_calls": 1, "_time":        0.001, "_%":     0.00}
     },
     "IterGeom": { "_calls": 1, "_time":      866.099, "_%":    99.83,
       "geom_init": { "_calls": 1, "_time":        2.730, "_%":     0.31,
         "state_init": { "_calls": 1, "_time":        0.472, "_%":     0.05,
           "hsparse": { "_calls": 1, "_time":        0.110, "_%":     0.01},
           "overlap": { "_calls": 1, "_time":        0.040, "_%":     0.00}
         },
         "Setup_H0": { "_calls": 1, "_time":        2.257, "_%":     0.26,
           "naefs": { "_calls": 1, "_time":        0.017, "_%":     0.00},
           "MolMec": { "_calls": 1, "_time":        0.000, "_%":     0.00},
           "kinefsm": { "_calls": 1, "_time":        0.036, "_%":     0.00},
           "nlefsm": { "_calls": 1, "_time":        0.187, "_%":     0.02},
           "DHSCF_Init": { "_calls": 1, "_time":        2.007, "_%":     0.23,
             "DHSCF1": { "_calls": 1, "_time":        0.031, "_%":     0.00,
               "INITMESH": { "_calls": 1, "_time":        0.000, "_%":     0.00}
             },
             "DHSCF2": { "_calls": 1, "_time":        1.962, "_%":     0.23,
               "REMESH": { "_calls": 1, "_time":        0.492, "_%":     0.06,
                 "INITMESH": { "_calls": 2, "_time":        0.464, "_%":     0.05,
                   "SPLOAD": { "_calls": 2, "_time":        0.296, "_%":     0.03}
                 }
               },
               "REORD": { "_calls": 2, "_time":        0.008, "_%":     0.00},
               "PHION": { "_calls": 1, "_time":        0.058, "_%":     0.01},
               "COMM_BSC": { "_calls": 1, "_time":        0.032, "_%":     0.00},
               "POISON": { "_calls": 1, "_time":        1.100, "_%":     0.13,
                 "fft": { "_calls": 2, "_time":        1.047, "_%":     0.12}
               }
             }
           }
         }
       },
       "IterSCF": { "_calls": 5, "_time":      863.017, "_%":    99.47,
         "setup_H": { "_calls": 5, "_time":       10.302, "_%":     1.19,
           "DHSCF": { "_calls": 5, "_time":       10.221, "_%":     1.18,
             "DHSCF3": { "_calls": 5, "_time":       10.221, "_%":     1.18,
               "rhoofd": { "_calls": 5, "_time":        0.095, "_%":     0.01},
               "COMM_BSC": { "_calls": 10, "_time":        0.531, "_%":     0.06},
               "POISON": { "_calls": 5, "_time":        5.434, "_%":     0.63,
                 "fft": { "_calls": 10, "_time":        5.226, "_%":     0.60}
               },
               "XC": { "_calls": 5, "_time":        3.519, "_%":     0.41,
                 "COMM_BSC": { "_calls": 10, "_time":        0.289, "_%":     0.03},
                 "GXC-CellXC": { "_calls": 5, "_time":        3.139, "_%":     0.36,
                   "gridxc@cellXC": { "_calls": 5, "_time":        3.139, "_%":     0.36}
                 }
               },
               "vmat": { "_calls": 5, "_time":        0.136, "_%":     0.02}
             }
           }
         },
         "compute_dm": { "_calls": 5, "_time":      852.597, "_%":    98.27,
           "redist_orbs_fwd": { "_calls": 80, "_time":        2.844, "_%":     0.33},
           "elsi-complex-solver": { "_calls": 5, "_time":      849.499, "_%":    97.91,
             "elsi-solver": { "_calls": 5, "_time":      849.032, "_%":    97.86}
           },
           "redist_dm-edm_bck": { "_calls": 5, "_time":        0.208, "_%":     0.02}
         },
         "MIXER": { "_calls": 5, "_time":        0.010, "_%":     0.00}
       },
       "state_analysis": { "_calls": 1, "_time":        0.037, "_%":     0.00},
       "siesta_move": { "_calls": 1, "_time":        0.000, "_%":     0.00}
     },
     "Analysis": { "_calls": 1, "_time":        0.103, "_%":     0.01,
       "optical": { "_calls": 1, "_time":        0.001, "_%":     0.00}
     }
   }
 }}
