{
 "global_section": { "_calls": 1, "_time":       30.851, "_%":   100.00,
   "siesta": { "_calls": 1, "_time":       30.851, "_%":   100.00,
     "Setup": { "_calls": 1, "_time":        2.444, "_%":     7.92,
       "bands": { "_calls": 1, "_time":        0.003, "_%":     0.01},
       "KSV_init": { "_calls": 1, "_time":        0.001, "_%":     0.00}
     },
     "IterGeom": { "_calls": 1, "_time":       28.032, "_%":    90.86,
       "geom_init": { "_calls": 1, "_time":       11.257, "_%":    36.49,
         "state_init": { "_calls": 1, "_time":        2.423, "_%":     7.85,
           "hsparse": { "_calls": 1, "_time":        0.192, "_%":     0.62},
           "overlap": { "_calls": 1, "_time":        1.128, "_%":     3.66}
         },
         "Setup_H0": { "_calls": 1, "_time":        8.833, "_%":    28.63,
           "naefs": { "_calls": 1, "_time":        0.032, "_%":     0.10},
           "MolMec": { "_calls": 1, "_time":        0.000, "_%":     0.00},
           "kinefsm": { "_calls": 1, "_time":        1.115, "_%":     3.61},
           "nlefsm": { "_calls": 1, "_time":        2.585, "_%":     8.38},
           "DHSCF_Init": { "_calls": 1, "_time":        5.081, "_%":    16.47,
             "DHSCF1": { "_calls": 1, "_time":        0.062, "_%":     0.20,
               "INITMESH": { "_calls": 1, "_time":        0.000, "_%":     0.00}
             },
             "DHSCF2": { "_calls": 1, "_time":        4.992, "_%":    16.18,
               "REMESH": { "_calls": 1, "_time":        3.097, "_%":    10.04,
                 "INITMESH": { "_calls": 2, "_time":        2.917, "_%":     9.46,
                   "SPLOAD": { "_calls": 2, "_time":        1.715, "_%":     5.56}
                 }
               },
               "REORD": { "_calls": 2, "_time":        0.002, "_%":     0.01},
               "PHION": { "_calls": 1, "_time":        0.188, "_%":     0.61},
               "COMM_BSC": { "_calls": 1, "_time":        0.059, "_%":     0.19},
               "POISON": { "_calls": 1, "_time":        1.138, "_%":     3.69,
                 "fft": { "_calls": 2, "_time":        1.105, "_%":     3.58}
               }
             }
           }
         }
       },
       "IterSCF": { "_calls": 5, "_time":       16.585, "_%":    53.76,
         "setup_H": { "_calls": 5, "_time":       10.989, "_%":    35.62,
           "DHSCF": { "_calls": 5, "_time":       10.871, "_%":    35.24,
             "DHSCF3": { "_calls": 5, "_time":       10.871, "_%":    35.24,
               "rhoofd": { "_calls": 5, "_time":        0.162, "_%":     0.52},
               "COMM_BSC": { "_calls": 10, "_time":        0.637, "_%":     2.06},
               "POISON": { "_calls": 5, "_time":        5.462, "_%":    17.70,
                 "fft": { "_calls": 10, "_time":        5.209, "_%":    16.88}
               },
               "XC": { "_calls": 5, "_time":        3.737, "_%":    12.11,
                 "COMM_BSC": { "_calls": 10, "_time":        0.583, "_%":     1.89},
                 "GXC-CellXC": { "_calls": 5, "_time":        3.092, "_%":    10.02,
                   "gridxc@cellXC": { "_calls": 5, "_time":        3.092, "_%":    10.02}
                 }
               },
               "vmat": { "_calls": 5, "_time":        0.231, "_%":     0.75}
             }
           }
         },
         "compute_dm": { "_calls": 5, "_time":        5.562, "_%":    18.03,
           "elsi": { "_calls": 5, "_time":        5.485, "_%":    17.78,
             "find nnz_g": { "_calls": 5, "_time":        0.000, "_%":     0.00},
             "elsi-solver": { "_calls": 5, "_time":        5.440, "_%":    17.63}
           }
         },
         "MIXER": { "_calls": 5, "_time":        0.013, "_%":     0.04}
       },
       "state_analysis": { "_calls": 1, "_time":        0.111, "_%":     0.36},
       "siesta_move": { "_calls": 1, "_time":        0.000, "_%":     0.00}
     },
     "Analysis": { "_calls": 1, "_time":        0.289, "_%":     0.94,
       "optical": { "_calls": 1, "_time":        0.001, "_%":     0.00}
     }
   }
 }}
