{
 "global_section": { "_calls": 1, "_time":       52.267, "_%":   100.00,
   "siesta": { "_calls": 1, "_time":       52.267, "_%":   100.00,
     "Setup": { "_calls": 1, "_time":        0.857, "_%":     1.64,
       "bands": { "_calls": 1, "_time":        0.001, "_%":     0.00},
       "KSV_init": { "_calls": 1, "_time":        0.000, "_%":     0.00}
     },
     "IterGeom": { "_calls": 1, "_time":       50.786, "_%":    97.16,
       "geom_init": { "_calls": 1, "_time":        7.677, "_%":    14.69,
         "state_init": { "_calls": 1, "_time":        0.998, "_%":     1.91,
           "hsparse": { "_calls": 1, "_time":        0.095, "_%":     0.18},
           "overlap": { "_calls": 1, "_time":        0.370, "_%":     0.71}
         },
         "Setup_H0": { "_calls": 1, "_time":        6.677, "_%":    12.77,
           "naefs": { "_calls": 1, "_time":        0.019, "_%":     0.04},
           "MolMec": { "_calls": 1, "_time":        0.000, "_%":     0.00},
           "kinefsm": { "_calls": 1, "_time":        0.373, "_%":     0.71},
           "nlefsm": { "_calls": 1, "_time":        0.506, "_%":     0.97},
           "DHSCF_Init": { "_calls": 1, "_time":        5.767, "_%":    11.03,
             "DHSCF1": { "_calls": 1, "_time":        0.024, "_%":     0.05,
               "INITMESH": { "_calls": 1, "_time":        0.000, "_%":     0.00}
             },
             "DHSCF2": { "_calls": 1, "_time":        5.729, "_%":    10.96,
               "REMESH": { "_calls": 1, "_time":        0.607, "_%":     1.16,
                 "INITMESH": { "_calls": 2, "_time":        0.590, "_%":     1.13,
                   "SPLOAD": { "_calls": 2, "_time":        0.569, "_%":     1.09}
                 }
               },
               "REORD": { "_calls": 2, "_time":        0.047, "_%":     0.09},
               "PHION": { "_calls": 1, "_time":        0.454, "_%":     0.87},
               "COMM_BSC": { "_calls": 1, "_time":        0.129, "_%":     0.25},
               "POISON": { "_calls": 1, "_time":        4.060, "_%":     7.77,
                 "fft": { "_calls": 2, "_time":        3.905, "_%":     7.47}
               }
             }
           }
         }
       },
       "IterSCF": { "_calls": 5, "_time":       43.074, "_%":    82.41,
         "setup_H": { "_calls": 5, "_time":       32.071, "_%":    61.36,
           "DHSCF": { "_calls": 5, "_time":       32.029, "_%":    61.28,
             "DHSCF3": { "_calls": 5, "_time":       32.029, "_%":    61.28,
               "rhoofd": { "_calls": 5, "_time":        0.351, "_%":     0.67},
               "COMM_BSC": { "_calls": 10, "_time":        1.122, "_%":     2.15},
               "POISON": { "_calls": 5, "_time":       19.804, "_%":    37.89,
                 "fft": { "_calls": 10, "_time":       18.919, "_%":    36.20}
               },
               "XC": { "_calls": 5, "_time":        8.468, "_%":    16.20,
                 "COMM_BSC": { "_calls": 10, "_time":        0.975, "_%":     1.86},
                 "GXC-CellXC": { "_calls": 5, "_time":        7.315, "_%":    13.99,
                   "gridxc@cellXC": { "_calls": 5, "_time":        7.315, "_%":    13.99}
                 }
               },
               "vmat": { "_calls": 5, "_time":        0.452, "_%":     0.86}
             }
           }
         },
         "compute_dm": { "_calls": 5, "_time":       10.928, "_%":    20.91,
           "elsi": { "_calls": 5, "_time":       10.927, "_%":    20.91,
             "find nnz_g": { "_calls": 5, "_time":        0.000, "_%":     0.00},
             "elsi-solver": { "_calls": 5, "_time":       10.911, "_%":    20.87}
           }
         },
         "MIXER": { "_calls": 5, "_time":        0.064, "_%":     0.12}
       },
       "state_analysis": { "_calls": 1, "_time":        0.023, "_%":     0.04},
       "siesta_move": { "_calls": 1, "_time":        0.000, "_%":     0.00}
     },
     "Analysis": { "_calls": 1, "_time":        0.078, "_%":     0.15,
       "optical": { "_calls": 1, "_time":        0.000, "_%":     0.00}
     }
   }
 }}
