JobID        JobIDRaw        JobName  Partition  MaxVMSize  MaxVMSizeNode  MaxVMSizeTask  AveVMSize     MaxRSS MaxRSSNode MaxRSSTask     AveRSS MaxPages MaxPagesNode   MaxPagesTask   AvePages     MinCPU MinCPUNode MinCPUTask     AveCPU   NTasks  AllocCPUS    Elapsed      State ExitCode AveCPUFreq ReqCPUFreqMin ReqCPUFreqMax ReqCPUFreqGov     ReqMem ConsumedEnergy  MaxDiskRead MaxDiskReadNode MaxDiskReadTask    AveDiskRead MaxDiskWrite MaxDiskWriteNode MaxDiskWriteTask   AveDiskWrite    ReqTRES  AllocTRES TRESUsageInAve TRESUsageInMax TRESUsageInMaxNode TRESUsageInMaxTask TRESUsageInMin TRESUsageInMinNode TRESUsageInMinTask TRESUsageInTot TRESUsageOutMax TRESUsageOutMaxNode TRESUsageOutMaxTask TRESUsageOutAve TRESUsageOutTot 
------------ ------------ ---------- ---------- ---------- -------------- -------------- ---------- ---------- ---------- ---------- ---------- -------- ------------ -------------- ---------- ---------- ---------- ---------- ---------- -------- ---------- ---------- ---------- -------- ---------- ------------- ------------- ------------- ---------- -------------- ------------ --------------- --------------- -------------- ------------ ---------------- ---------------- -------------- ---------- ---------- -------------- -------------- ------------------ ------------------ -------------- ------------------ ------------------ -------------- --------------- ------------------- ------------------- --------------- --------------- 
4905747      4905747      submit.job standard-g                                                                                                                                                                                                             112   00:25:30    RUNNING      0:0                  Unknown       Unknown       Unknown       480G                                                                                                                                          billing=2+ billing=1+                                                                                                                                                                                                                                 
4905747.bat+ 4905747.bat+      batch                                                                                                                                                                                                               1        112   00:25:30    RUNNING      0:0          0             0             0             0                         0                                                                                                                                      cpu=112,g+                                                                                                                                                                                                                                 
4905747.0    4905747.0    select_gpu            133685596K      nid006163              1 133182262K  90349912K  nid006163          0  90117812K     5469    nid006163              0       5110   00:26:29  nid006163          1   00:26:32        2        112   00:25:17  COMPLETED      0:0      3.86M       Unknown       Unknown       Unknown                     1.07M      131.27M       nid006163               0        129.99M        2.90M        nid006163                0          2.89M            cpu=112,g+ cpu=00:26:32,+ cpu=00:26:36,+ cpu=nid006163,ene+ cpu=0,fs/disk=0,m+ cpu=00:26:29,+ cpu=nid006163,ene+ cpu=1,fs/disk=1,m+ cpu=00:53:05,+ energy=990,fs/+ energy=nid006163,f+           fs/disk=0 energy=330,fs/+ energy=661,fs/+ 
