[2025-03-06 23:11:01.705 Other 3758307] Startup
[2025-03-06 23:11:01.705 Other 3758307] Connecting to control daemon on socket: ./pipe0/control
[2025-03-06 23:11:01.705 Other 3758307] Initializing server process
[2025-03-06 23:11:01.886 Server 3758307] Creating server context on device 0 (NVIDIA A100-SXM-64GB)
[2025-03-06 23:11:01.917 Server 3758307] Creating server context on device 1 (NVIDIA A100-SXM-64GB)
[2025-03-06 23:11:01.951 Server 3758307] Creating server context on device 2 (NVIDIA A100-SXM-64GB)
[2025-03-06 23:11:01.980 Server 3758307] Creating server context on device 3 (NVIDIA A100-SXM-64GB)
[2025-03-06 23:11:02.011 Server 3758307] Created named shared memory region /cuda.shm.838e.3958e3.1
[2025-03-06 23:11:02.012 Server 3758307] Active Threads Percentage set to 100.0
[2025-03-06 23:11:02.012 Server 3758307] Server has started
[2025-03-06 23:11:02.012 Server 3758307] Received new client request
[2025-03-06 23:11:02.012 Server 3758307] Worker created
[2025-03-06 23:11:02.012 Server 3758307] Creating worker thread
[2025-03-06 23:11:02.012 Server 3758307] Received new client request
[2025-03-06 23:11:02.018 Server 3758307] Worker created
[2025-03-06 23:11:02.018 Server 3758307] Received new client request
[2025-03-06 23:11:02.018 Server 3758307] Creating worker thread
[2025-03-06 23:11:02.018 Server 3758307] Worker created
[2025-03-06 23:11:02.018 Server 3758307] Creating worker thread
[2025-03-06 23:11:02.018 Server 3758307] Received new client request
[2025-03-06 23:11:02.018 Server 3758307] Worker created
[2025-03-06 23:11:02.018 Server 3758307] Creating worker thread
[2025-03-06 23:12:10.652 Server 3758307] Received new client request
[2025-03-06 23:12:10.652 Server 3758307] Worker created
[2025-03-06 23:12:10.652 Server 3758307] Received new client request
[2025-03-06 23:12:10.652 Server 3758307] Worker created
[2025-03-06 23:12:10.652 Server 3758307] Creating worker thread
[2025-03-06 23:12:10.652 Server 3758307] Device NVIDIA A100-SXM-64GB (uuid 0x9599d656-0x8ca95cba-0x487d97bd-0x27d2db1b) is associated
[2025-03-06 23:12:10.652 Server 3758307] Status of client {3758289, 1} is ACTIVE
[2025-03-06 23:12:10.652 Server 3758307] Received new client request
[2025-03-06 23:12:10.652 Server 3758307] Creating worker thread
[2025-03-06 23:12:10.652 Server 3758307] Device NVIDIA A100-SXM-64GB (uuid 0x15c12ba9-0x8c54c8aa-0xdd72f57a-0xf11af3f) is associated
[2025-03-06 23:12:10.652 Server 3758307] Worker created
[2025-03-06 23:12:10.652 Server 3758307] Status of client {3758296, 1} is ACTIVE
[2025-03-06 23:12:10.652 Server 3758307] Received new client request
[2025-03-06 23:12:10.652 Server 3758307] Worker created
[2025-03-06 23:12:10.652 Server 3758307] Creating worker thread
[2025-03-06 23:12:10.652 Server 3758307] Creating worker thread
[2025-03-06 23:12:10.652 Server 3758307] Device NVIDIA A100-SXM-64GB (uuid 0xa823fcf3-0x820befb3-0x4cbef0d7-0x1608df06) is associated
[2025-03-06 23:12:10.653 Server 3758307] Device NVIDIA A100-SXM-64GB (uuid 0x58c9ae0f-0x75caf629-0x902f0759-0x736b54f3) is associated
[2025-03-06 23:12:10.653 Server 3758307] Status of client {3758287, 1} is ACTIVE
[2025-03-06 23:12:10.653 Server 3758307] Status of client {3758288, 1} is ACTIVE
[2025-03-06 23:36:00.277 Server 3758307] Receive command failed, assuming client exit
[2025-03-06 23:36:00.277 Server 3758307] Client {3758296, 1} exit
[2025-03-06 23:36:00.277 Server 3758307] Client disconnected. Number of active client contexts is 0.
[2025-03-06 23:36:00.287 Server 3758307] Receive command failed, assuming client exit
[2025-03-06 23:36:00.287 Server 3758307] Client process disconnected
[2025-03-06 23:36:00.351 Server 3758307] Receive command failed, assuming client exit
[2025-03-06 23:36:00.351 Server 3758307] Client {3758288, 1} exit
[2025-03-06 23:36:00.351 Server 3758307] Client disconnected. Number of active client contexts is 0.
[2025-03-06 23:36:00.361 Server 3758307] Receive command failed, assuming client exit
[2025-03-06 23:36:00.361 Server 3758307] Client process disconnected
[2025-03-06 23:36:00.390 Server 3758307] Receive command failed, assuming client exit
[2025-03-06 23:36:00.390 Server 3758307] Client {3758289, 1} exit
[2025-03-06 23:36:00.390 Server 3758307] Client disconnected. Number of active client contexts is 0.
[2025-03-06 23:36:00.390 Server 3758307] Receive command failed, assuming client exit
[2025-03-06 23:36:00.390 Server 3758307] Client {3758287, 1} exit
[2025-03-06 23:36:00.390 Server 3758307] Client disconnected. Number of active client contexts is 0.
[2025-03-06 23:36:00.403 Server 3758307] Receive command failed, assuming client exit
[2025-03-06 23:36:00.403 Server 3758307] Client process disconnected
[2025-03-06 23:36:00.403 Server 3758307] Receive command failed, assuming client exit
[2025-03-06 23:36:00.403 Server 3758307] Client process disconnected
