JobID        JobIDRaw        JobName  Partition  MaxVMSize  MaxVMSizeNode  MaxVMSizeTask  AveVMSize     MaxRSS MaxRSSNode MaxRSSTask     AveRSS MaxPages MaxPagesNode   MaxPagesTask   AvePages     MinCPU MinCPUNode MinCPUTask     AveCPU   NTasks  AllocCPUS    Elapsed      State ExitCode AveCPUFreq ReqCPUFreqMin ReqCPUFreqMax ReqCPUFreqGov     ReqMem ConsumedEnergy  MaxDiskRead MaxDiskReadNode MaxDiskReadTask    AveDiskRead MaxDiskWrite MaxDiskWriteNode MaxDiskWriteTask   AveDiskWrite    ReqTRES  AllocTRES TRESUsageInAve TRESUsageInMax TRESUsageInMaxNode TRESUsageInMaxTask TRESUsageInMin TRESUsageInMinNode TRESUsageInMinTask TRESUsageInTot TRESUsageOutMax TRESUsageOutMaxNode TRESUsageOutMaxTask TRESUsageOutAve TRESUsageOutTot 
------------ ------------ ---------- ---------- ---------- -------------- -------------- ---------- ---------- ---------- ---------- ---------- -------- ------------ -------------- ---------- ---------- ---------- ---------- ---------- -------- ---------- ---------- ---------- -------- ---------- ------------- ------------- ------------- ---------- -------------- ------------ --------------- --------------- -------------- ------------ ---------------- ---------------- -------------- ---------- ---------- -------------- -------------- ------------------ ------------------ -------------- ------------------ ------------------ -------------- --------------- ------------------- ------------------- --------------- --------------- 
9592902      9592902      CovidWeak+        gpp                                                                                                                                                                                                             448   00:16:24    RUNNING      0:0                  Unknown       Unknown       Unknown    437.50G                                                                                                                                          billing=2+ billing=4+                                                                                                                                                                                                                                 
9592902.bat+ 9592902.bat+      batch                                                                                                                                                                                                               1        224   00:16:24    RUNNING      0:0          0             0             0             0                         0                                                                                                                                      cpu=224,m+                                                                                                                                                                                                                                 
9592902.ext+ 9592902.ext+     extern                                                                                                                                                                                                               2        448   00:16:24    RUNNING      0:0          0             0             0             0                         0                                                                                                                                      billing=4+                                                                                                                                                                                                                                 
9592902.0    9592902.0        siesta              7744568K      gs19r1b28            216 7316978450   1206595K  gs19r1b28        185 1174889302       31    gs19r1b28            126          2   00:15:41  gs19r1b26         30   00:15:47      224        448   00:16:10  COMPLETED      0:0    426.55M       Unknown       Unknown       Unknown                     1.79M       13.81M       gs19r1b26              93         11.81M       26.10M        gs19r1b26                0          4.24M            cpu=448,m+ cpu=00:15:47,+ cpu=00:15:49,+ cpu=gs19r1b28,ene+ cpu=152,fs/disk=9+ cpu=00:15:41,+ cpu=gs19r1b26,ene+ cpu=30,fs/disk=90+ cpu=2-10:57:1+ energy=1031,fs+ energy=gs19r1b26,f+           fs/disk=0 energy=2,fs/di+ energy=642,fs/+ 
