{
 "global_section": { "_calls": 1, "_time":    25453.356, "_%":   100.00,
   "siesta": { "_calls": 1, "_time":    25453.356, "_%":   100.00,
     "Setup": { "_calls": 1, "_time":        6.061, "_%":     0.02,
       "bands": { "_calls": 1, "_time":        0.003, "_%":     0.00},
       "KSV_init": { "_calls": 1, "_time":        0.001, "_%":     0.00}
     },
     "IterGeom": { "_calls": 1, "_time":    25446.052, "_%":    99.97,
       "geom_init": { "_calls": 1, "_time":       47.746, "_%":     0.19,
         "state_init": { "_calls": 1, "_time":        3.232, "_%":     0.01,
           "hsparse": { "_calls": 1, "_time":        0.615, "_%":     0.00},
           "overlap": { "_calls": 1, "_time":        0.349, "_%":     0.00}
         },
         "Setup_H0": { "_calls": 1, "_time":       44.513, "_%":     0.17,
           "naefs": { "_calls": 1, "_time":        0.127, "_%":     0.00},
           "MolMec": { "_calls": 1, "_time":        0.000, "_%":     0.00},
           "kinefsm": { "_calls": 1, "_time":        0.354, "_%":     0.00},
           "nlefsm": { "_calls": 1, "_time":        1.479, "_%":     0.01},
           "DHSCF_Init": { "_calls": 1, "_time":       42.468, "_%":     0.17,
             "DHSCF1": { "_calls": 1, "_time":        0.386, "_%":     0.00,
               "INITMESH": { "_calls": 1, "_time":        0.000, "_%":     0.00}
             },
             "DHSCF2": { "_calls": 1, "_time":       41.993, "_%":     0.16,
               "REMESH": { "_calls": 1, "_time":        9.629, "_%":     0.04,
                 "INITMESH": { "_calls": 2, "_time":        9.406, "_%":     0.04,
                   "SPLOAD": { "_calls": 2, "_time":        9.391, "_%":     0.04}
                 }
               },
               "REORD": { "_calls": 2, "_time":        0.220, "_%":     0.00},
               "PHION": { "_calls": 1, "_time":        3.171, "_%":     0.01},
               "COMM_BSC": { "_calls": 1, "_time":        0.827, "_%":     0.00},
               "POISON": { "_calls": 1, "_time":       19.553, "_%":     0.08,
                 "fft": { "_calls": 2, "_time":       18.609, "_%":     0.07}
               }
             }
           }
         }
       },
       "IterSCF": { "_calls": 5, "_time":    25397.960, "_%":    99.78,
         "setup_H": { "_calls": 5, "_time":      287.814, "_%":     1.13,
           "DHSCF": { "_calls": 5, "_time":      286.286, "_%":     1.12,
             "DHSCF3": { "_calls": 5, "_time":      286.286, "_%":     1.12,
               "rhoofd": { "_calls": 5, "_time":        6.583, "_%":     0.03},
               "COMM_BSC": { "_calls": 10, "_time":        8.413, "_%":     0.03},
               "POISON": { "_calls": 5, "_time":       89.805, "_%":     0.35,
                 "fft": { "_calls": 10, "_time":       84.702, "_%":     0.33}
               },
               "XC": { "_calls": 5, "_time":      166.012, "_%":     0.65,
                 "COMM_BSC": { "_calls": 10, "_time":        7.685, "_%":     0.03},
                 "GXC-CellXC": { "_calls": 5, "_time":      156.520, "_%":     0.61,
                   "gridxc@cellXC": { "_calls": 5, "_time":      156.520, "_%":     0.61}
                 }
               },
               "vmat": { "_calls": 5, "_time":        6.992, "_%":     0.03}
             }
           }
         },
         "compute_dm": { "_calls": 5, "_time":    25106.040, "_%":    98.64,
           "redist_orbs_fwd": { "_calls": 5, "_time":        4.777, "_%":     0.02},
           "elsi-complex-solver": { "_calls": 5, "_time":    25093.097, "_%":    98.58,
             "elsi-solver": { "_calls": 5, "_time":    25092.437, "_%":    98.58}
           },
           "redist_dm-edm_bck": { "_calls": 5, "_time":        2.276, "_%":     0.01}
         },
         "MIXER": { "_calls": 5, "_time":        1.015, "_%":     0.00}
       },
       "state_analysis": { "_calls": 1, "_time":        0.206, "_%":     0.00},
       "siesta_move": { "_calls": 1, "_time":        0.000, "_%":     0.00}
     },
     "Analysis": { "_calls": 1, "_time":        0.725, "_%":     0.00,
       "optical": { "_calls": 1, "_time":        0.001, "_%":     0.00}
     }
   }
 }}
