{
 "global_section": { "_calls": 1, "_time":    24828.989, "_%":   100.00,
   "siesta": { "_calls": 1, "_time":    24828.989, "_%":   100.00,
     "Setup": { "_calls": 1, "_time":        6.873, "_%":     0.03,
       "bands": { "_calls": 1, "_time":        0.003, "_%":     0.00},
       "KSV_init": { "_calls": 1, "_time":        0.001, "_%":     0.00}
     },
     "IterGeom": { "_calls": 1, "_time":    24820.929, "_%":    99.97,
       "geom_init": { "_calls": 1, "_time":       76.584, "_%":     0.31,
         "state_init": { "_calls": 1, "_time":        5.686, "_%":     0.02,
           "hsparse": { "_calls": 1, "_time":        0.612, "_%":     0.00},
           "overlap": { "_calls": 1, "_time":        0.313, "_%":     0.00}
         },
         "Setup_H0": { "_calls": 1, "_time":       70.875, "_%":     0.29,
           "naefs": { "_calls": 1, "_time":        0.095, "_%":     0.00},
           "MolMec": { "_calls": 1, "_time":        0.000, "_%":     0.00},
           "kinefsm": { "_calls": 1, "_time":        0.342, "_%":     0.00},
           "nlefsm": { "_calls": 1, "_time":        1.410, "_%":     0.01},
           "DHSCF_Init": { "_calls": 1, "_time":       68.942, "_%":     0.28,
             "DHSCF1": { "_calls": 1, "_time":        0.352, "_%":     0.00,
               "INITMESH": { "_calls": 1, "_time":        0.000, "_%":     0.00}
             },
             "DHSCF2": { "_calls": 1, "_time":       68.504, "_%":     0.28,
               "REMESH": { "_calls": 1, "_time":       39.847, "_%":     0.16,
                 "INITMESH": { "_calls": 2, "_time":       39.737, "_%":     0.16,
                   "SPLOAD": { "_calls": 2, "_time":       39.693, "_%":     0.16}
                 }
               },
               "REORD": { "_calls": 2, "_time":        0.091, "_%":     0.00},
               "PHION": { "_calls": 1, "_time":        1.646, "_%":     0.01},
               "COMM_BSC": { "_calls": 1, "_time":        1.076, "_%":     0.00},
               "POISON": { "_calls": 1, "_time":       12.905, "_%":     0.05,
                 "fft": { "_calls": 2, "_time":       12.527, "_%":     0.05}
               }
             }
           }
         }
       },
       "IterSCF": { "_calls": 5, "_time":    24744.000, "_%":    99.66,
         "setup_H": { "_calls": 5, "_time":      186.569, "_%":     0.75,
           "DHSCF": { "_calls": 5, "_time":      184.096, "_%":     0.74,
             "DHSCF3": { "_calls": 5, "_time":      184.096, "_%":     0.74,
               "rhoofd": { "_calls": 5, "_time":        4.960, "_%":     0.02},
               "COMM_BSC": { "_calls": 10, "_time":        9.236, "_%":     0.04},
               "POISON": { "_calls": 5, "_time":       52.315, "_%":     0.21,
                 "fft": { "_calls": 10, "_time":       49.800, "_%":     0.20}
               },
               "XC": { "_calls": 5, "_time":      105.180, "_%":     0.42,
                 "COMM_BSC": { "_calls": 10, "_time":        9.301, "_%":     0.04},
                 "GXC-CellXC": { "_calls": 5, "_time":       94.873, "_%":     0.38,
                   "gridxc@cellXC": { "_calls": 5, "_time":       94.873, "_%":     0.38}
                 }
               },
               "vmat": { "_calls": 5, "_time":        5.806, "_%":     0.02}
             }
           }
         },
         "compute_dm": { "_calls": 5, "_time":    24549.528, "_%":    98.87,
           "redist_orbs_fwd": { "_calls": 10, "_time":       14.600, "_%":     0.06},
           "elsi-complex-solver": { "_calls": 5, "_time":    24524.016, "_%":    98.77,
             "elsi-solver": { "_calls": 5, "_time":    24522.477, "_%":    98.77}
           },
           "redist_dm-edm_bck": { "_calls": 5, "_time":        3.565, "_%":     0.01}
         },
         "MIXER": { "_calls": 5, "_time":        1.983, "_%":     0.01}
       },
       "state_analysis": { "_calls": 1, "_time":        0.212, "_%":     0.00},
       "siesta_move": { "_calls": 1, "_time":        0.000, "_%":     0.00}
     },
     "Analysis": { "_calls": 1, "_time":        0.507, "_%":     0.00,
       "optical": { "_calls": 1, "_time":        0.001, "_%":     0.00}
     }
   }
 }}
