JobId=8023635 JobName=yambo
   UserId=spallanz(327001971) GroupId=pepr_spallanz(327001971) MCS_label=N/A
   Priority=594 Nice=0 Account=project_465001145 QOS=normal
   JobState=RUNNING Reason=None Dependency=(null)
   Requeue=1 Restarts=0 BatchFlag=1 Reboot=0 ExitCode=0:0
   DerivedExitCode=0:0
   RunTime=00:00:04 TimeLimit=03:00:00 TimeMin=N/A
   SubmitTime=2024-09-18T23:04:04 EligibleTime=2024-09-18T23:04:04
   AccrueTime=2024-09-18T23:04:04
   StartTime=2024-09-18T23:04:07 EndTime=2024-09-19T02:04:07 Deadline=N/A
   SuspendTime=None SecsPreSuspend=0 LastSchedEval=2024-09-18T23:04:07 Scheduler=Main
   Partition=standard-g AllocNode:Sid=ln03:183676
   ReqNodeList=(null) ExcNodeList=(null)
   NodeList=nid[005476-005485,006150-006163]
   BatchHost=nid005476
   NumNodes=24 NumCPUs=2688 NumTasks=192 CPUs/Task=1 ReqB:S:C:T=0:0:*:1
   ReqTRES=cpu=192,mem=11520G,node=24,billing=192,gres/gpu:a100=192
   AllocTRES=cpu=2688,node=24,billing=2688,gres/gpu:mi250=192
   Socks/Node=* NtasksPerN:B:S:C=8:0:*:1 CoreSpec=*
   JOB_GRES=gpu:mi250:192
     Nodes=nid[005476-005485,006150-006163] CPU_IDs=2-15,18-31,34-47,50-63,66-79,82-95,98-111,114-127 Mem=0 GRES=gpu:mi250:8(IDX:0-7)
   MinCPUsNode=8 MinMemoryCPU=0 MinTmpDiskNode=0
   Features=(null) DelayBoot=00:00:00
   OverSubscribe=NO Contiguous=0 Licenses=(null) Network=(null)
   Command=/pfs/lustrep2/projappl/project_465001145/spallanz/benchmarks/strongscaling_gpu_omp_7k/000000/000005_submit/work/submit.job
   WorkDir=/pfs/lustrep2/projappl/project_465001145/spallanz/benchmarks/strongscaling_gpu_omp_7k/000000/000005_submit/work
   StdErr=/pfs/lustrep2/projappl/project_465001145/spallanz/benchmarks/strongscaling_gpu_omp_7k/000000/000005_submit/work/slurm-8023635.out
   StdIn=/dev/null
   StdOut=/pfs/lustrep2/projappl/project_465001145/spallanz/benchmarks/strongscaling_gpu_omp_7k/000000/000005_submit/work/slurm-8023635.out
   Power=
   TresPerNode=gres:gpu:8
   

