JobId=2367885 JobName=submit.job
   UserId=lbellen1(33678) GroupId=interactive(25200) MCS_label=N/A
   Priority=145082 Nice=0 Account=cin_staff QOS=normal
   JobState=RUNNING Reason=None Dependency=(null)
   Requeue=0 Restarts=0 BatchFlag=1 Reboot=0 ExitCode=0:0
   DerivedExitCode=0:0
   RunTime=00:00:04 TimeLimit=02:00:00 TimeMin=N/A
   SubmitTime=2023-12-14T00:03:48 EligibleTime=2023-12-14T00:03:48
   AccrueTime=2023-12-14T00:03:48
   StartTime=2023-12-14T00:03:50 EndTime=2023-12-14T02:03:51 Deadline=N/A
   SuspendTime=None SecsPreSuspend=0 LastSchedEval=2023-12-14T00:03:50 Scheduler=Main
   Partition=boost_usr_prod AllocNode:Sid=10-99-0-2:1697498
   ReqNodeList=(null) ExcNodeList=(null)
   NodeList=lrdn[2782-2785]
   BatchHost=lrdn2782
   NumNodes=4 NumCPUs=128 NumTasks=16 CPUs/Task=8 ReqB:S:C:T=0:0:*:*
   TRES=cpu=128,mem=1925G,node=4,billing=128,gres/gpu=16
   Socks/Node=* NtasksPerN:B:S:C=4:0:*:* CoreSpec=*
   JOB_GRES=gpu:a100:16
     Nodes=lrdn[2782-2785] CPU_IDs=0-31 Mem=492800 GRES=gpu:a100:4(IDX:0-3)
   MinCPUsNode=32 MinMemoryCPU=15400M MinTmpDiskNode=0
   Features=(null) DelayBoot=00:00:00
   OverSubscribe=NO Contiguous=0 Licenses=(null) Network=(null)
   Command=/leonardo_work/Max3_devel_2/WP3/profiling-sessions/quantum-espresso/ucx/cnt10por8/binding-noipc/benchmark_4step/000000/000001_submit_N4np16omp8_QE7.2-DEV-CALBECFIX-AWARE-vlocmod/work/submit.job
   WorkDir=/leonardo_work/Max3_devel_2/WP3/profiling-sessions/quantum-espresso/ucx/cnt10por8/binding-noipc/benchmark_4step/000000/000001_submit_N4np16omp8_QE7.2-DEV-CALBECFIX-AWARE-vlocmod/work
   StdErr=/leonardo_work/Max3_devel_2/WP3/profiling-sessions/quantum-espresso/ucx/cnt10por8/binding-noipc/benchmark_4step/000000/000001_submit_N4np16omp8_QE7.2-DEV-CALBECFIX-AWARE-vlocmod/work/slurm-2367885.out
   StdIn=/dev/null
   StdOut=/leonardo_work/Max3_devel_2/WP3/profiling-sessions/quantum-espresso/ucx/cnt10por8/binding-noipc/benchmark_4step/000000/000001_submit_N4np16omp8_QE7.2-DEV-CALBECFIX-AWARE-vlocmod/work/slurm-2367885.out
   Power=
   TresPerNode=gres:gpu:4
   

