JobId=34398234 JobName=CovidWeakKPoints
   UserId=eufedericop(1977552410) GroupId=eufedericop(1977552410) MCS_label=N/A
   Priority=66346757 Nice=0 Account=b2024b06-053-users QOS=normal
   JobState=RUNNING Reason=None Dependency=(null)
   Requeue=1 Restarts=0 BatchFlag=1 Reboot=0 ExitCode=0:0
   DerivedExitCode=0:0
   RunTime=00:00:03 TimeLimit=1-00:00:00 TimeMin=N/A
   SubmitTime=2024-09-09T21:14:33 EligibleTime=2024-09-09T21:14:33
   AccrueTime=2024-09-09T21:14:33
   StartTime=2024-09-09T21:14:33 EndTime=2024-09-10T21:14:33 Deadline=N/A
   SuspendTime=None SecsPreSuspend=0 LastSchedEval=2024-09-09T21:14:33 Scheduler=Main
   Partition=cpu AllocNode:Sid=login0002-dmz:2967359
   ReqNodeList=(null) ExcNodeList=(null)
   NodeList=cn[0597,0600]
   BatchHost=cn0597
   NumNodes=2 NumCPUs=512 NumTasks=256 CPUs/Task=1 ReqB:S:C:T=0:0:*:1
   ReqTRES=cpu=256,mem=250G,node=2,billing=256
   AllocTRES=cpu=512,mem=250G,node=2,billing=512
   Socks/Node=* NtasksPerN:B:S:C=128:0:*:* CoreSpec=*
   JOB_GRES=(null)
     Nodes=cn[0597,0600] CPU_IDs=0-255 Mem=128000 GRES=
   MinCPUsNode=128 MinMemoryCPU=1000M MinTmpDiskNode=0
   Features=(null) DelayBoot=00:00:00
   OverSubscribe=NO Contiguous=0 Licenses=(null) Network=(null)
   Command=/ceph/hpc/home/eufedericop/JUBE4MaX/max-inputs/interface/siesta/_CovidWeakKPoints/000000/000004_submit/work/submit.job
   WorkDir=/ceph/hpc/home/eufedericop/JUBE4MaX/max-inputs/interface/siesta/_CovidWeakKPoints/000000/000004_submit/work
   StdErr=/ceph/hpc/home/eufedericop/JUBE4MaX/max-inputs/interface/siesta/_CovidWeakKPoints/000000/000004_submit/work/slurm-34398234.out
   StdIn=/dev/null
   StdOut=/ceph/hpc/home/eufedericop/JUBE4MaX/max-inputs/interface/siesta/_CovidWeakKPoints/000000/000004_submit/work/slurm-34398234.out
   Power=
   TresPerTask=cpu:1
   

