JobID        JobIDRaw        JobName  Partition  MaxVMSize  MaxVMSizeNode  MaxVMSizeTask  AveVMSize     MaxRSS MaxRSSNode MaxRSSTask     AveRSS MaxPages MaxPagesNode   MaxPagesTask   AvePages     MinCPU MinCPUNode MinCPUTask     AveCPU   NTasks  AllocCPUS    Elapsed      State ExitCode AveCPUFreq ReqCPUFreqMin ReqCPUFreqMax ReqCPUFreqGov     ReqMem ConsumedEnergy  MaxDiskRead MaxDiskReadNode MaxDiskReadTask    AveDiskRead MaxDiskWrite MaxDiskWriteNode MaxDiskWriteTask   AveDiskWrite    ReqTRES  AllocTRES TRESUsageInAve TRESUsageInMax TRESUsageInMaxNode TRESUsageInMaxTask TRESUsageInMin TRESUsageInMinNode TRESUsageInMinTask TRESUsageInTot TRESUsageOutMax TRESUsageOutMaxNode TRESUsageOutMaxTask TRESUsageOutAve TRESUsageOutTot 
------------ ------------ ---------- ---------- ---------- -------------- -------------- ---------- ---------- ---------- ---------- ---------- -------- ------------ -------------- ---------- ---------- ---------- ---------- ---------- -------- ---------- ---------- ---------- -------- ---------- ------------- ------------- ------------- ---------- -------------- ------------ --------------- --------------- -------------- ------------ ---------------- ---------------- -------------- ---------- ---------- -------------- -------------- ------------------ ------------------ -------------- ------------------ ------------------ -------------- --------------- ------------------- ------------------- --------------- --------------- 
151853       151853        CovidWeak normal-x86                                                                                                                                                                                                            2048   00:52:40    RUNNING      0:0                  Unknown       Unknown       Unknown      3872G                                                                                                                                          billing=2+ billing=2+                                                                                                                                                                                                                                 
151853.batch 151853.batch      batch                                                                                                                                                                                                               1        128   00:52:40    RUNNING      0:0          0             0             0             0                         0                                                                                                                                      cpu=128,m+                                                                                                                                                                                                                                 
151853.exte+ 151853.exte+     extern                                                                                                                                                                                                              16       2048   00:52:40    RUNNING      0:0          0             0             0             0                         0                                                                                                                                      billing=2+                                                                                                                                                                                                                                 
151853.0     151853.0          orted             33021836K         cnx221              3 326887036+  31950128K     cnx221          3 315953550+      792       cnx226              6        587 4-15:12:54     cnx220          2 4-15:15:46       15       2048   00:52:40  COMPLETED      0:0       104K             0             0             0                               2731.61M          cnx323               8       2619.66M      527.55M           cnx324                9        527.53M            billing=2+ cpu=4-15:15:4+ cpu=4-15:17:5+ cpu=cnx339,energy+ cpu=13,fs/disk=8,+ cpu=4-15:12:5+ cpu=cnx220,energy+ cpu=2,fs/disk=4,m+ cpu=69-12:56:+ energy=0,fs/di+ energy=cnx337,fs/d+           fs/disk=9 energy=0,fs/di+ energy=0,fs/di+ 
