{
 "global_section": { "_calls": 1, "_time":       52.800, "_%":   100.00,
   "siesta": { "_calls": 1, "_time":       52.800, "_%":   100.00,
     "Setup": { "_calls": 1, "_time":        2.049, "_%":     3.88,
       "bands": { "_calls": 1, "_time":        0.002, "_%":     0.00},
       "KSV_init": { "_calls": 1, "_time":        0.001, "_%":     0.00}
     },
     "IterGeom": { "_calls": 1, "_time":       50.605, "_%":    95.84,
       "geom_init": { "_calls": 1, "_time":        6.669, "_%":    12.63,
         "state_init": { "_calls": 1, "_time":        1.301, "_%":     2.46,
           "hsparse": { "_calls": 1, "_time":        0.102, "_%":     0.19},
           "overlap": { "_calls": 1, "_time":        0.553, "_%":     1.05}
         },
         "Setup_H0": { "_calls": 1, "_time":        5.367, "_%":    10.16,
           "naefs": { "_calls": 1, "_time":        0.015, "_%":     0.03},
           "MolMec": { "_calls": 1, "_time":        0.000, "_%":     0.00},
           "kinefsm": { "_calls": 1, "_time":        0.575, "_%":     1.09},
           "nlefsm": { "_calls": 1, "_time":        1.211, "_%":     2.29},
           "DHSCF_Init": { "_calls": 1, "_time":        3.557, "_%":     6.74,
             "DHSCF1": { "_calls": 1, "_time":        0.030, "_%":     0.06,
               "INITMESH": { "_calls": 1, "_time":        0.000, "_%":     0.00}
             },
             "DHSCF2": { "_calls": 1, "_time":        3.510, "_%":     6.65,
               "REMESH": { "_calls": 1, "_time":        2.010, "_%":     3.81,
                 "INITMESH": { "_calls": 2, "_time":        1.983, "_%":     3.76,
                   "SPLOAD": { "_calls": 2, "_time":        1.660, "_%":     3.14}
                 }
               },
               "REORD": { "_calls": 2, "_time":        0.004, "_%":     0.01},
               "PHION": { "_calls": 1, "_time":        0.125, "_%":     0.24},
               "COMM_BSC": { "_calls": 1, "_time":        0.028, "_%":     0.05},
               "POISON": { "_calls": 1, "_time":        0.960, "_%":     1.82,
                 "fft": { "_calls": 2, "_time":        0.924, "_%":     1.75}
               }
             }
           }
         }
       },
       "IterSCF": { "_calls": 5, "_time":       43.869, "_%":    83.08,
         "setup_H": { "_calls": 5, "_time":        7.560, "_%":    14.32,
           "DHSCF": { "_calls": 5, "_time":        7.553, "_%":    14.31,
             "DHSCF3": { "_calls": 5, "_time":        7.553, "_%":    14.31,
               "rhoofd": { "_calls": 5, "_time":        0.099, "_%":     0.19},
               "COMM_BSC": { "_calls": 10, "_time":        0.209, "_%":     0.40},
               "POISON": { "_calls": 5, "_time":        4.638, "_%":     8.78,
                 "fft": { "_calls": 10, "_time":        4.462, "_%":     8.45}
               },
               "XC": { "_calls": 5, "_time":        2.120, "_%":     4.01,
                 "COMM_BSC": { "_calls": 10, "_time":        0.275, "_%":     0.52},
                 "GXC-CellXC": { "_calls": 5, "_time":        1.811, "_%":     3.43,
                   "gridxc@cellXC": { "_calls": 5, "_time":        1.811, "_%":     3.43}
                 }
               },
               "vmat": { "_calls": 5, "_time":        0.096, "_%":     0.18}
             }
           }
         },
         "compute_dm": { "_calls": 5, "_time":       36.280, "_%":    68.71,
           "elsi": { "_calls": 5, "_time":       36.279, "_%":    68.71,
             "find nnz_g": { "_calls": 5, "_time":        0.000, "_%":     0.00},
             "elsi-solver": { "_calls": 5, "_time":       36.259, "_%":    68.67}
           }
         },
         "MIXER": { "_calls": 5, "_time":        0.010, "_%":     0.02}
       },
       "state_analysis": { "_calls": 1, "_time":        0.056, "_%":     0.11},
       "siesta_move": { "_calls": 1, "_time":        0.000, "_%":     0.00}
     },
     "Analysis": { "_calls": 1, "_time":        0.132, "_%":     0.25,
       "optical": { "_calls": 1, "_time":        0.001, "_%":     0.00}
     }
   }
 }}
