JobID        JobIDRaw        JobName  Partition  MaxVMSize  MaxVMSizeNode  MaxVMSizeTask  AveVMSize     MaxRSS MaxRSSNode MaxRSSTask     AveRSS MaxPages MaxPagesNode   MaxPagesTask   AvePages     MinCPU MinCPUNode MinCPUTask     AveCPU   NTasks  AllocCPUS    Elapsed      State ExitCode AveCPUFreq ReqCPUFreqMin ReqCPUFreqMax ReqCPUFreqGov     ReqMem ConsumedEnergy  MaxDiskRead MaxDiskReadNode MaxDiskReadTask    AveDiskRead MaxDiskWrite MaxDiskWriteNode MaxDiskWriteTask   AveDiskWrite    ReqTRES  AllocTRES TRESUsageInAve TRESUsageInMax TRESUsageInMaxNode TRESUsageInMaxTask TRESUsageInMin TRESUsageInMinNode TRESUsageInMinTask TRESUsageInTot TRESUsageOutMax TRESUsageOutMaxNode TRESUsageOutMaxTask TRESUsageOutAve TRESUsageOutTot 
------------ ------------ ---------- ---------- ---------- -------------- -------------- ---------- ---------- ---------- ---------- ---------- -------- ------------ -------------- ---------- ---------- ---------- ---------- ---------- -------- ---------- ---------- ---------- -------- ---------- ------------- ------------- ------------- ---------- -------------- ------------ --------------- --------------- -------------- ------------ ---------------- ---------------- -------------- ---------- ---------- -------------- -------------- ------------------ ------------------ -------------- ------------------ ------------------ -------------- --------------- ------------------- ------------------- --------------- --------------- 
35111137     35111137      CovidWeak        cpu                                                                                                                                                                                                            2048   00:03:01    RUNNING      0:0                  Unknown       Unknown       Unknown      1000G                                                                                                                                          billing=1+ billing=2+                                                                                                                                                                                                                                 
35111137.ba+ 35111137.ba+      batch                                                                                                                                                                                                               1        256   00:03:01    RUNNING      0:0          0             0             0             0                         0                                                                                                                                      cpu=256,m+                                                                                                                                                                                                                                 
35111137.ex+ 35111137.ex+     extern                                                                                                                                                                                                               8       2048   00:03:01    RUNNING      0:0          0             0             0             0                         0                                                                                                                                      billing=2+                                                                                                                                                                                                                                 
35111137.0   35111137.0       siesta               542908K         cn0842            185  491992328    526692K     cn0854        667  484528272       71       cn0845            424         10   00:02:43     cn0834          6   00:02:46     1024       2048   00:02:56  COMPLETED      0:0     13.93G       Unknown       Unknown       Unknown                         0       29.20M          cn0854             734         27.49M       39.00M           cn0834                0          4.17M            cpu=2048,+ cpu=00:02:46,+ cpu=00:02:50,+ cpu=cn0845,energy+ cpu=508,fs/disk=7+ cpu=00:02:43,+ cpu=cn0834,energy+ cpu=6,fs/disk=100+ cpu=1-23:20:5+ energy=0,fs/di+ energy=cn0843,fs/d+           fs/disk=0 energy=0,fs/di+ energy=0,fs/di+ 
