JobId=7682154 JobName=submit.job
   UserId=fpedron0(126159) GroupId=interactive(25200) MCS_label=N/A
   Priority=120945 Nice=0 Account=euhpc_b13_053_0 QOS=normal
   JobState=RUNNING Reason=None Dependency=(null)
   Requeue=0 Restarts=0 BatchFlag=1 Reboot=0 ExitCode=0:0
   DerivedExitCode=0:0
   RunTime=00:00:03 TimeLimit=1-00:00:00 TimeMin=N/A
   SubmitTime=2024-09-13T15:51:29 EligibleTime=2024-09-13T15:51:29
   AccrueTime=2024-09-13T15:51:29
   StartTime=2024-09-13T15:51:31 EndTime=2024-09-14T15:51:31 Deadline=N/A
   SuspendTime=None SecsPreSuspend=0 LastSchedEval=2024-09-13T15:51:31 Scheduler=Main
   Partition=dcgp_usr_prod AllocNode:Sid=slurm-controller:3895506
   ReqNodeList=(null) ExcNodeList=(null)
   NodeList=lrdn[4396,4402-4403,4406]
   BatchHost=lrdn4396
   NumNodes=4 NumCPUs=448 NumTasks=448 CPUs/Task=1 ReqB:S:C:T=0:0:*:*
   TRES=cpu=448,mem=1925G,node=4,billing=448,gres/tmpfs=13194139533312
   Socks/Node=* NtasksPerN:B:S:C=112:0:*:* CoreSpec=*
   JOB_GRES=tmpfs:13194139533312
     Nodes=lrdn[4396,4402-4403,4406] CPU_IDs=0-111 Mem=492800 GRES=tmpfs(CNT:3298534883328)
   MinCPUsNode=112 MinMemoryCPU=4400M MinTmpDiskNode=0
   Features=(null) DelayBoot=00:00:00
   OverSubscribe=NO Contiguous=0 Licenses=(null) Network=(null)
   Command=/leonardo/home/userexternal/fpedron0/JUBE4MaX/max-inputs/interface/siesta/_CovidStrong/000000/000002_submit/work/submit.job
   WorkDir=/leonardo/home/userexternal/fpedron0/JUBE4MaX/max-inputs/interface/siesta/_CovidStrong/000000/000002_submit/work
   StdErr=/leonardo/home/userexternal/fpedron0/JUBE4MaX/max-inputs/interface/siesta/_CovidStrong/000000/000002_submit/work/slurm-7682154.out
   StdIn=/dev/null
   StdOut=/leonardo/home/userexternal/fpedron0/JUBE4MaX/max-inputs/interface/siesta/_CovidStrong/000000/000002_submit/work/slurm-7682154.out
   Power=
   TresPerNode=gres:tmpfs:10g
   

