{
 "global_section": { "_calls": 1, "_time":     1031.561, "_%":   100.00,
   "siesta": { "_calls": 1, "_time":     1031.561, "_%":   100.00,
     "Setup": { "_calls": 1, "_time":        1.662, "_%":     0.16,
       "bands": { "_calls": 1, "_time":        0.002, "_%":     0.00},
       "KSV_init": { "_calls": 1, "_time":        0.001, "_%":     0.00}
     },
     "IterGeom": { "_calls": 1, "_time":     1029.702, "_%":    99.82,
       "geom_init": { "_calls": 1, "_time":       10.985, "_%":     1.06,
         "state_init": { "_calls": 1, "_time":        0.401, "_%":     0.04,
           "hsparse": { "_calls": 1, "_time":        0.125, "_%":     0.01},
           "overlap": { "_calls": 1, "_time":        0.064, "_%":     0.01}
         },
         "Setup_H0": { "_calls": 1, "_time":       10.583, "_%":     1.03,
           "naefs": { "_calls": 1, "_time":        0.023, "_%":     0.00},
           "MolMec": { "_calls": 1, "_time":        0.000, "_%":     0.00},
           "kinefsm": { "_calls": 1, "_time":        0.060, "_%":     0.01},
           "nlefsm": { "_calls": 1, "_time":        0.251, "_%":     0.02},
           "DHSCF_Init": { "_calls": 1, "_time":       10.235, "_%":     0.99,
             "DHSCF1": { "_calls": 1, "_time":        0.076, "_%":     0.01,
               "INITMESH": { "_calls": 1, "_time":        0.000, "_%":     0.00}
             },
             "DHSCF2": { "_calls": 1, "_time":       10.140, "_%":     0.98,
               "REMESH": { "_calls": 1, "_time":        0.076, "_%":     0.01,
                 "INITMESH": { "_calls": 2, "_time":        0.056, "_%":     0.01,
                   "SPLOAD": { "_calls": 2, "_time":        0.046, "_%":     0.00}
                 }
               },
               "REORD": { "_calls": 2, "_time":        0.048, "_%":     0.00},
               "PHION": { "_calls": 1, "_time":        0.315, "_%":     0.03},
               "COMM_BSC": { "_calls": 1, "_time":        0.229, "_%":     0.02},
               "POISON": { "_calls": 1, "_time":        8.764, "_%":     0.85,
                 "fft": { "_calls": 2, "_time":        8.378, "_%":     0.81}
               }
             }
           }
         }
       },
       "IterSCF": { "_calls": 5, "_time":     1018.633, "_%":    98.75,
         "setup_H": { "_calls": 5, "_time":       67.054, "_%":     6.50,
           "DHSCF": { "_calls": 5, "_time":       66.981, "_%":     6.49,
             "DHSCF3": { "_calls": 5, "_time":       66.981, "_%":     6.49,
               "rhoofd": { "_calls": 5, "_time":        0.404, "_%":     0.04},
               "COMM_BSC": { "_calls": 10, "_time":        2.101, "_%":     0.20},
               "POISON": { "_calls": 5, "_time":       43.938, "_%":     4.26,
                 "fft": { "_calls": 10, "_time":       42.066, "_%":     4.08}
               },
               "XC": { "_calls": 5, "_time":       16.849, "_%":     1.63,
                 "COMM_BSC": { "_calls": 10, "_time":        2.268, "_%":     0.22},
                 "GXC-CellXC": { "_calls": 5, "_time":       14.052, "_%":     1.36,
                   "gridxc@cellXC": { "_calls": 5, "_time":       14.052, "_%":     1.36}
                 }
               },
               "vmat": { "_calls": 5, "_time":        0.274, "_%":     0.03}
             }
           }
         },
         "compute_dm": { "_calls": 5, "_time":      951.524, "_%":    92.24,
           "redist_orbs_fwd": { "_calls": 5, "_time":        0.012, "_%":     0.00},
           "elsi-complex-solver": { "_calls": 5, "_time":      951.368, "_%":    92.23,
             "elsi-solver": { "_calls": 5, "_time":      951.346, "_%":    92.22}
           },
           "redist_dm-edm_bck": { "_calls": 5, "_time":        0.123, "_%":     0.01}
         },
         "MIXER": { "_calls": 5, "_time":        0.028, "_%":     0.00}
       },
       "state_analysis": { "_calls": 1, "_time":        0.066, "_%":     0.01},
       "siesta_move": { "_calls": 1, "_time":        0.000, "_%":     0.00}
     },
     "Analysis": { "_calls": 1, "_time":        0.176, "_%":     0.02,
       "optical": { "_calls": 1, "_time":        0.001, "_%":     0.00}
     }
   }
 }}
