JobID        JobIDRaw        JobName  Partition  MaxVMSize  MaxVMSizeNode  MaxVMSizeTask  AveVMSize     MaxRSS MaxRSSNode MaxRSSTask     AveRSS MaxPages MaxPagesNode   MaxPagesTask   AvePages     MinCPU MinCPUNode MinCPUTask     AveCPU   NTasks  AllocCPUS    Elapsed      State ExitCode AveCPUFreq ReqCPUFreqMin ReqCPUFreqMax ReqCPUFreqGov     ReqMem ConsumedEnergy  MaxDiskRead MaxDiskReadNode MaxDiskReadTask    AveDiskRead MaxDiskWrite MaxDiskWriteNode MaxDiskWriteTask   AveDiskWrite    ReqTRES  AllocTRES TRESUsageInAve TRESUsageInMax TRESUsageInMaxNode TRESUsageInMaxTask TRESUsageInMin TRESUsageInMinNode TRESUsageInMinTask TRESUsageInTot TRESUsageOutMax TRESUsageOutMaxNode TRESUsageOutMaxTask TRESUsageOutAve TRESUsageOutTot 
------------ ------------ ---------- ---------- ---------- -------------- -------------- ---------- ---------- ---------- ---------- ---------- -------- ------------ -------------- ---------- ---------- ---------- ---------- ---------- -------- ---------- ---------- ---------- -------- ---------- ------------- ------------- ------------- ---------- -------------- ------------ --------------- --------------- -------------- ------------ ---------------- ---------------- -------------- ---------- ---------- -------------- -------------- ------------------ ------------------ -------------- ------------------ ------------------ -------------- --------------- ------------------- ------------------- --------------- --------------- 
8022833      8022833       CovidWeak   standard                                                                                                                                                                                                             512   00:07:46    RUNNING      0:0                  Unknown       Unknown       Unknown       448G                                                                                                                                          billing=2+ billing=5+                                                                                                                                                                                                                                 
8022833.bat+ 8022833.bat+      batch                                                                                                                                                                                                               1        256   00:07:46    RUNNING      0:0          0             0             0             0                         0                                                                                                                                      cpu=256,m+                                                                                                                                                                                                                                 
8022833.0    8022833.0        siesta              8732948K      nid002106             63 6176194080    880580K  nid002106         11  714611392      934    nid002106             11        467   00:07:27  nid002106         66   00:07:37      256        512   00:07:42  COMPLETED      0:0    700.53M       Unknown       Unknown       Unknown                   605.17K        1.95M       nid002106               0          0.18M       13.05M        nid002106                0          0.63M            cpu=512,m+ cpu=00:07:37,+ cpu=00:07:39,+ cpu=nid002107,ene+ cpu=244,fs/disk=0+ cpu=00:07:27,+ cpu=nid002106,ene+ cpu=66,fs/disk=66+ cpu=1-08:33:4+ energy=746,fs/+ energy=nid002107,f+           fs/disk=0 energy=2,fs/di+ energy=751,fs/+ 
