JobID        JobIDRaw        JobName  Partition  MaxVMSize  MaxVMSizeNode  MaxVMSizeTask  AveVMSize     MaxRSS MaxRSSNode MaxRSSTask     AveRSS MaxPages MaxPagesNode   MaxPagesTask   AvePages     MinCPU MinCPUNode MinCPUTask     AveCPU   NTasks  AllocCPUS    Elapsed      State ExitCode AveCPUFreq ReqCPUFreqMin ReqCPUFreqMax ReqCPUFreqGov     ReqMem ConsumedEnergy  MaxDiskRead MaxDiskReadNode MaxDiskReadTask    AveDiskRead MaxDiskWrite MaxDiskWriteNode MaxDiskWriteTask   AveDiskWrite    ReqTRES  AllocTRES TRESUsageInAve TRESUsageInMax TRESUsageInMaxNode TRESUsageInMaxTask TRESUsageInMin TRESUsageInMinNode TRESUsageInMinTask TRESUsageInTot TRESUsageOutMax TRESUsageOutMaxNode TRESUsageOutMaxTask TRESUsageOutAve TRESUsageOutTot 
------------ ------------ ---------- ---------- ---------- -------------- -------------- ---------- ---------- ---------- ---------- ---------- -------- ------------ -------------- ---------- ---------- ---------- ---------- ---------- -------- ---------- ---------- ---------- -------- ---------- ------------- ------------- ------------- ---------- -------------- ------------ --------------- --------------- -------------- ------------ ---------------- ---------------- -------------- ---------- ---------- -------------- -------------- ------------------ ------------------ -------------- ------------------ ------------------ -------------- --------------- ------------------- ------------------- --------------- --------------- 
6738112      6738112      submit.job ju-standa+                                                                                                                                                                                                            1024   01:09:12    RUNNING      0:0                  Unknown       Unknown       Unknown       896G                                                                                                                                          billing=2+ billing=1+                                                                                                                                                                                                                                 
6738112.bat+ 6738112.bat+      batch                                                                                                                                                                                                               1        256   01:09:12    RUNNING      0:0          0             0             0             0                         0                                                                                                                                      cpu=256,m+                                                                                                                                                                                                                                 
6738112.0    6738112.0          pw.x             24218892K      nid002275              8 116444777+   4215840K  nid002275          8 3352562832     4526    nid002275              4       3208   01:08:14  nid002275          0   01:08:22      256       1024   01:08:37  COMPLETED      0:0     27.77M       Unknown       Unknown       Unknown                     5.92M        8.97M       nid002275               0          1.37M        2.76M        nid002275               25          2.37M            cpu=1024,+ cpu=01:08:22,+ cpu=01:08:25,+ cpu=nid002276,ene+ cpu=71,fs/disk=0,+ cpu=01:08:14,+ cpu=nid002275,ene+ cpu=0,fs/disk=199+ cpu=12-03:43:+ energy=536,fs/+ energy=nid002275,f+          fs/disk=25 energy=6,fs/di+ energy=1722,fs+ 
