JobId=7209601 JobName=submit.job
   UserId=nspallan(25378) GroupId=interactive(25200) MCS_label=N/A
   Priority=195119 Nice=0 Account=euhpc_b12_044 QOS=dcgp_qos_bprod
   JobState=RUNNING Reason=None Dependency=(null)
   Requeue=0 Restarts=0 BatchFlag=1 Reboot=0 ExitCode=0:0
   DerivedExitCode=0:0
   RunTime=00:00:03 TimeLimit=06:00:00 TimeMin=N/A
   SubmitTime=2024-08-23T14:33:54 EligibleTime=2024-08-23T14:33:54
   AccrueTime=2024-08-23T14:33:54
   StartTime=2024-08-23T19:00:54 EndTime=2024-08-24T01:00:54 Deadline=N/A
   SuspendTime=None SecsPreSuspend=0 LastSchedEval=2024-08-23T19:00:54 Scheduler=Main
   Partition=dcgp_usr_prod AllocNode:Sid=slurm-controller:938051
   ReqNodeList=(null) ExcNodeList=(null)
   NodeList=lrdn[3545,3593,3631,3668,3727,3772,3806,3838,3888,3932,3964,4002,4035,4067,4109,4206,4241,4258,4331,4361,4409,4443,4472,4520,4528,4592,4640,4656,4696,4751,4797,4822]
   BatchHost=lrdn3545
   NumNodes=32 NumCPUs=3584 NumTasks=256 CPUs/Task=14 ReqB:S:C:T=0:0:*:*
   TRES=cpu=3584,mem=15400G,node=32,billing=3584,gres/tmpfs=105553116266496
   Socks/Node=* NtasksPerN:B:S:C=8:0:4:* CoreSpec=*
   JOB_GRES=tmpfs:105553116266496
     Nodes=lrdn[3545,3593,3631,3668,3727,3772,3806,3838,3888,3932,3964,4002,4035,4067,4109,4206,4241,4258,4331,4361,4409,4443,4472,4520,4528,4592,4640,4656,4696,4751,4797,4822] CPU_IDs=0-111 Mem=492800 GRES=tmpfs(CNT:3298534883328)
   MinCPUsNode=112 MinMemoryCPU=4400M MinTmpDiskNode=0
   Features=(null) DelayBoot=00:00:00
   OverSubscribe=NO Contiguous=0 Licenses=(null) Network=(null)
   Command=/leonardo_work/EUHPC_E01_022/nspallan/benchmarks/strongscaling_dcgp_7k_8tpn/000000/000004_submit/work/submit.job
   WorkDir=/leonardo_work/EUHPC_E01_022/nspallan/benchmarks/strongscaling_dcgp_7k_8tpn/000000/000004_submit/work
   StdErr=/leonardo_work/EUHPC_E01_022/nspallan/benchmarks/strongscaling_dcgp_7k_8tpn/000000/000004_submit/work/slurm-7209601.out
   StdIn=/dev/null
   StdOut=/leonardo_work/EUHPC_E01_022/nspallan/benchmarks/strongscaling_dcgp_7k_8tpn/000000/000004_submit/work/slurm-7209601.out
   Power=
   TresPerNode=gres:tmpfs:10g
   

