[
  {
    "data_source": "ELSI",
    "code_version": "2.11.0",
    "code_date_stamp": "20220118",
    "git_commit_abbrev": "512532a4",
    "compiled_on_hostname": "Linux-4.18.0-425.19.2.el8_7.x86_64",
    "compiled_at_datetime": "2025-03-03T08:36:03Z",
    "step": 1,
    "total_step": 1,
    "output_type": "DENSITY MATRIX",
    "data_type": "REAL",
    "start_datetime": "2025-03-07T13:35:27.228+01:00",
    "record_datetime": "2025-03-07T13:44:03.814+01:00",
    "total_time": 0.516586000025272E+003,
    "n_electrons": 0.279099999999959E+005,
    "n_basis": 57647,
    "parallel_mode": "MULTI_PROC",
    "n_procs": 8,
    "n_procs_all": 8,
    "n_spin": 1,
    "n_kpts": 1,
    "matrix_format": "SIESTA_CSC",
    "sparsity": 0.999320177870210E+000,
    "sparsity_mask": 2,
    "nnz_global": 2259169,
    "n_states": 57647,
    "solver_chosen": "ELPA",
    "save_ovlp": false,
    "unit_ovlp": false,
    "illcond_check": false,
    "spin_degeneracy": 0.200000000000000E+001,
    "band_energy": -0.202596396837457E+005,
    "chemical_potential": -0.282866958187568E+000,
    "electronic_entropy": 0.671349149409595E+000,
    "broadening_scheme": 1,
    "broadening_width": 0.183746610878279E-002,
    "broadening_tol": 0.100000000000000E-012,
    "solver_used": "ELPA",
    "solver_settings": {
      "elpa_solver": 2,
      "elpa_n_single_precision": 0,
      "elpa_gpu": 1,
      "elpa_autotune": 0
    },
    "matrix_format_settings": {
      "zero_filter": 0.100000000000000E-014,
      "blk_sp2": 64,
      "pexsi_csc_ready": false,
      "siesta_csc_ready": true,
      "generic_coo_ready": false
    }
  },
  {
    "data_source": "ELSI",
    "code_version": "2.11.0",
    "code_date_stamp": "20220118",
    "git_commit_abbrev": "512532a4",
    "compiled_on_hostname": "Linux-4.18.0-425.19.2.el8_7.x86_64",
    "compiled_at_datetime": "2025-03-03T08:36:03Z",
    "step": 2,
    "total_step": 2,
    "output_type": "DENSITY MATRIX",
    "data_type": "REAL",
    "start_datetime": "2025-03-07T13:45:13.744+01:00",
    "record_datetime": "2025-03-07T13:53:19.399+01:00",
    "total_time": 0.485654999971390E+003,
    "n_electrons": 0.279099999999959E+005,
    "n_basis": 57647,
    "parallel_mode": "MULTI_PROC",
    "n_procs": 8,
    "n_procs_all": 8,
    "n_spin": 1,
    "n_kpts": 1,
    "matrix_format": "SIESTA_CSC",
    "sparsity": 0.999320177870210E+000,
    "sparsity_mask": 2,
    "nnz_global": 2259169,
    "n_states": 57647,
    "solver_chosen": "ELPA",
    "save_ovlp": false,
    "unit_ovlp": false,
    "illcond_check": false,
    "spin_degeneracy": 0.200000000000000E+001,
    "band_energy": -0.202386239397634E+005,
    "chemical_potential": -0.293739710300042E+000,
    "electronic_entropy": 0.522889957597542E+000,
    "broadening_scheme": 1,
    "broadening_width": 0.183746610878279E-002,
    "broadening_tol": 0.100000000000000E-012,
    "solver_used": "ELPA",
    "solver_settings": {
      "elpa_solver": 2,
      "elpa_n_single_precision": 0,
      "elpa_gpu": 1,
      "elpa_autotune": 0
    },
    "matrix_format_settings": {
      "zero_filter": 0.100000000000000E-014,
      "blk_sp2": 64,
      "pexsi_csc_ready": false,
      "siesta_csc_ready": true,
      "generic_coo_ready": false
    }
  },
  {
    "data_source": "ELSI",
    "code_version": "2.11.0",
    "code_date_stamp": "20220118",
    "git_commit_abbrev": "512532a4",
    "compiled_on_hostname": "Linux-4.18.0-425.19.2.el8_7.x86_64",
    "compiled_at_datetime": "2025-03-03T08:36:03Z",
    "step": 3,
    "total_step": 3,
    "output_type": "DENSITY MATRIX",
    "data_type": "REAL",
    "start_datetime": "2025-03-07T13:54:29.166+01:00",
    "record_datetime": "2025-03-07T14:02:36.464+01:00",
    "total_time": 0.487297999978065E+003,
    "n_electrons": 0.279099999999959E+005,
    "n_basis": 57647,
    "parallel_mode": "MULTI_PROC",
    "n_procs": 8,
    "n_procs_all": 8,
    "n_spin": 1,
    "n_kpts": 1,
    "matrix_format": "SIESTA_CSC",
    "sparsity": 0.999320177870210E+000,
    "sparsity_mask": 2,
    "nnz_global": 2259169,
    "n_states": 57647,
    "solver_chosen": "ELPA",
    "save_ovlp": false,
    "unit_ovlp": false,
    "illcond_check": false,
    "spin_degeneracy": 0.200000000000000E+001,
    "band_energy": -0.358039068515355E+005,
    "chemical_potential": -0.328549936884826E+000,
    "electronic_entropy": 0.243016530976885E+000,
    "broadening_scheme": 1,
    "broadening_width": 0.183746610878279E-002,
    "broadening_tol": 0.100000000000000E-012,
    "solver_used": "ELPA",
    "solver_settings": {
      "elpa_solver": 2,
      "elpa_n_single_precision": 0,
      "elpa_gpu": 1,
      "elpa_autotune": 0
    },
    "matrix_format_settings": {
      "zero_filter": 0.100000000000000E-014,
      "blk_sp2": 64,
      "pexsi_csc_ready": false,
      "siesta_csc_ready": true,
      "generic_coo_ready": false
    }
  },
  {
    "data_source": "ELSI",
    "code_version": "2.11.0",
    "code_date_stamp": "20220118",
    "git_commit_abbrev": "512532a4",
    "compiled_on_hostname": "Linux-4.18.0-425.19.2.el8_7.x86_64",
    "compiled_at_datetime": "2025-03-03T08:36:03Z",
    "step": 4,
    "total_step": 4,
    "output_type": "DENSITY MATRIX",
    "data_type": "REAL",
    "start_datetime": "2025-03-07T14:03:46.351+01:00",
    "record_datetime": "2025-03-07T14:11:54.100+01:00",
    "total_time": 0.487749000012875E+003,
    "n_electrons": 0.279099999999959E+005,
    "n_basis": 57647,
    "parallel_mode": "MULTI_PROC",
    "n_procs": 8,
    "n_procs_all": 8,
    "n_spin": 1,
    "n_kpts": 1,
    "matrix_format": "SIESTA_CSC",
    "sparsity": 0.999320177870210E+000,
    "sparsity_mask": 2,
    "nnz_global": 2259169,
    "n_states": 57647,
    "solver_chosen": "ELPA",
    "save_ovlp": false,
    "unit_ovlp": false,
    "illcond_check": false,
    "spin_degeneracy": 0.200000000000000E+001,
    "band_energy": -0.237932807623613E+005,
    "chemical_potential": -0.293264626258590E+000,
    "electronic_entropy": 0.467389213401311E+000,
    "broadening_scheme": 1,
    "broadening_width": 0.183746610878279E-002,
    "broadening_tol": 0.100000000000000E-012,
    "solver_used": "ELPA",
    "solver_settings": {
      "elpa_solver": 2,
      "elpa_n_single_precision": 0,
      "elpa_gpu": 1,
      "elpa_autotune": 0
    },
    "matrix_format_settings": {
      "zero_filter": 0.100000000000000E-014,
      "blk_sp2": 64,
      "pexsi_csc_ready": false,
      "siesta_csc_ready": true,
      "generic_coo_ready": false
    }
  },
  {
    "data_source": "ELSI",
    "code_version": "2.11.0",
    "code_date_stamp": "20220118",
    "git_commit_abbrev": "512532a4",
    "compiled_on_hostname": "Linux-4.18.0-425.19.2.el8_7.x86_64",
    "compiled_at_datetime": "2025-03-03T08:36:03Z",
    "step": 5,
    "total_step": 5,
    "output_type": "DENSITY MATRIX",
    "data_type": "REAL",
    "start_datetime": "2025-03-07T14:13:04.253+01:00",
    "record_datetime": "2025-03-07T14:21:14.068+01:00",
    "total_time": 0.489814999997616E+003,
    "n_electrons": 0.279099999999959E+005,
    "n_basis": 57647,
    "parallel_mode": "MULTI_PROC",
    "n_procs": 8,
    "n_procs_all": 8,
    "n_spin": 1,
    "n_kpts": 1,
    "matrix_format": "SIESTA_CSC",
    "sparsity": 0.999320177870210E+000,
    "sparsity_mask": 2,
    "nnz_global": 2259169,
    "n_states": 57647,
    "solver_chosen": "ELPA",
    "save_ovlp": false,
    "unit_ovlp": false,
    "illcond_check": false,
    "spin_degeneracy": 0.200000000000000E+001,
    "band_energy": -0.235242656085856E+005,
    "chemical_potential": -0.284105756094883E+000,
    "electronic_entropy": 0.639780542873325E+000,
    "broadening_scheme": 1,
    "broadening_width": 0.183746610878279E-002,
    "broadening_tol": 0.100000000000000E-012,
    "solver_used": "ELPA",
    "solver_settings": {
      "elpa_solver": 2,
      "elpa_n_single_precision": 0,
      "elpa_gpu": 1,
      "elpa_autotune": 0
    },
    "matrix_format_settings": {
      "zero_filter": 0.100000000000000E-014,
      "blk_sp2": 64,
      "pexsi_csc_ready": false,
      "siesta_csc_ready": true,
      "generic_coo_ready": false
    }
  }
]
