{
 "global_section": { "_calls": 1, "_time":     5077.656, "_%":   100.00,
   "siesta": { "_calls": 1, "_time":     5077.656, "_%":   100.00,
     "Setup": { "_calls": 1, "_time":        2.900, "_%":     0.06,
       "bands": { "_calls": 1, "_time":        0.004, "_%":     0.00},
       "KSV_init": { "_calls": 1, "_time":        0.001, "_%":     0.00}
     },
     "IterGeom": { "_calls": 1, "_time":     4826.022, "_%":    95.04,
       "geom_init": { "_calls": 1, "_time":        3.631, "_%":     0.07,
         "state_init": { "_calls": 1, "_time":        0.438, "_%":     0.01,
           "hsparse": { "_calls": 1, "_time":        0.099, "_%":     0.00},
           "overlap": { "_calls": 1, "_time":        0.034, "_%":     0.00}
         },
         "Setup_H0": { "_calls": 1, "_time":        3.192, "_%":     0.06,
           "naefs": { "_calls": 1, "_time":        0.014, "_%":     0.00},
           "MolMec": { "_calls": 1, "_time":        0.000, "_%":     0.00},
           "kinefsm": { "_calls": 1, "_time":        0.027, "_%":     0.00},
           "nlefsm": { "_calls": 1, "_time":        0.097, "_%":     0.00},
           "DHSCF_Init": { "_calls": 1, "_time":        3.045, "_%":     0.06,
             "DHSCF1": { "_calls": 1, "_time":        0.027, "_%":     0.00,
               "INITMESH": { "_calls": 1, "_time":        0.000, "_%":     0.00}
             },
             "DHSCF2": { "_calls": 1, "_time":        3.006, "_%":     0.06,
               "REMESH": { "_calls": 1, "_time":        2.056, "_%":     0.04,
                 "INITMESH": { "_calls": 2, "_time":        1.973, "_%":     0.04,
                   "SPLOAD": { "_calls": 2, "_time":        0.853, "_%":     0.02}
                 }
               },
               "REORD": { "_calls": 2, "_time":        0.002, "_%":     0.00},
               "PHION": { "_calls": 1, "_time":        0.018, "_%":     0.00},
               "COMM_BSC": { "_calls": 1, "_time":        0.051, "_%":     0.00},
               "POISON": { "_calls": 1, "_time":        0.582, "_%":     0.01,
                 "fft": { "_calls": 2, "_time":        0.562, "_%":     0.01}
               }
             }
           }
         }
       },
       "IterSCF": { "_calls": 5, "_time":     4822.055, "_%":    94.97,
         "setup_H": { "_calls": 5, "_time":        4.451, "_%":     0.09,
           "DHSCF": { "_calls": 5, "_time":        4.417, "_%":     0.09,
             "DHSCF3": { "_calls": 5, "_time":        4.417, "_%":     0.09,
               "rhoofd": { "_calls": 5, "_time":        0.040, "_%":     0.00},
               "COMM_BSC": { "_calls": 10, "_time":        0.323, "_%":     0.01},
               "POISON": { "_calls": 5, "_time":        2.470, "_%":     0.05,
                 "fft": { "_calls": 10, "_time":        2.399, "_%":     0.05}
               },
               "XC": { "_calls": 5, "_time":        1.378, "_%":     0.03,
                 "COMM_BSC": { "_calls": 10, "_time":        0.241, "_%":     0.00},
                 "GXC-CellXC": { "_calls": 5, "_time":        1.113, "_%":     0.02,
                   "gridxc@cellXC": { "_calls": 5, "_time":        1.113, "_%":     0.02}
                 }
               },
               "vmat": { "_calls": 5, "_time":        0.034, "_%":     0.00}
             }
           }
         },
         "compute_dm": { "_calls": 5, "_time":     4817.504, "_%":    94.88,
           "diagon": { "_calls": 5, "_time":     4817.498, "_%":    94.88,
             "c-eigval": { "_calls": 80, "_time":     2081.254, "_%":    40.99,
               "c-buildHS": { "_calls": 80, "_time":        0.343, "_%":     0.01},
               "cdiag": { "_calls": 80, "_time":     2080.911, "_%":    40.98,
                 "cdiag1": { "_calls": 80, "_time":      122.861, "_%":     2.42},
                 "cdiag2": { "_calls": 80, "_time":      362.442, "_%":     7.14},
                 "cdiag3": { "_calls": 80, "_time":     1584.090, "_%":    31.20}
               }
             },
             "c-eigvec": { "_calls": 80, "_time":     2339.980, "_%":    46.08,
               "cdiag": { "_calls": 80, "_time":     2339.605, "_%":    46.08,
                 "cdiag1": { "_calls": 80, "_time":      121.781, "_%":     2.40},
                 "cdiag2": { "_calls": 80, "_time":      377.995, "_%":     7.44},
                 "cdiag3": { "_calls": 80, "_time":     1622.000, "_%":    31.94},
                 "cdiag4": { "_calls": 80, "_time":      206.099, "_%":     4.06}
               }
             },
             "c-buildD": { "_calls": 80, "_time":      395.645, "_%":     7.79}
           }
         },
         "MIXER": { "_calls": 5, "_time":        0.068, "_%":     0.00}
       },
       "state_analysis": { "_calls": 1, "_time":        0.150, "_%":     0.00},
       "siesta_move": { "_calls": 1, "_time":        0.000, "_%":     0.00}
     },
     "Analysis": { "_calls": 1, "_time":      144.789, "_%":     2.85,
       "optical": { "_calls": 1, "_time":        0.001, "_%":     0.00}
     }
   }
 }}
