[
  {
    "data_source": "ELSI",
    "code_version": "2.11.0",
    "code_date_stamp": "20220118",
    "git_commit_abbrev": "512532a4",
    "compiled_on_hostname": "Linux-4.18.0-425.19.2.el8_7.x86_64",
    "compiled_at_datetime": "2025-03-03T08:36:03Z",
    "step": 1,
    "total_step": 1,
    "output_type": "DENSITY MATRIX",
    "data_type": "REAL",
    "start_datetime": "2025-03-07T13:34:24.379+01:00",
    "record_datetime": "2025-03-07T13:41:17.212+01:00",
    "total_time": 0.412833000004292E+003,
    "n_electrons": 0.279099999999959E+005,
    "n_basis": 57647,
    "parallel_mode": "MULTI_PROC",
    "n_procs": 32,
    "n_procs_all": 32,
    "n_spin": 1,
    "n_kpts": 1,
    "matrix_format": "SIESTA_CSC",
    "sparsity": 0.999320177870210E+000,
    "sparsity_mask": 2,
    "nnz_global": 2259169,
    "n_states": 57647,
    "solver_chosen": "ELPA",
    "save_ovlp": false,
    "unit_ovlp": false,
    "illcond_check": false,
    "spin_degeneracy": 0.200000000000000E+001,
    "band_energy": -0.202596396837574E+005,
    "chemical_potential": -0.282866958188649E+000,
    "electronic_entropy": 0.671349149553388E+000,
    "broadening_scheme": 1,
    "broadening_width": 0.183746610878279E-002,
    "broadening_tol": 0.100000000000000E-012,
    "solver_used": "ELPA",
    "solver_settings": {
      "elpa_solver": 2,
      "elpa_n_single_precision": 0,
      "elpa_gpu": 1,
      "elpa_autotune": 0
    },
    "matrix_format_settings": {
      "zero_filter": 0.100000000000000E-014,
      "blk_sp2": 64,
      "pexsi_csc_ready": false,
      "siesta_csc_ready": true,
      "generic_coo_ready": false
    }
  },
  {
    "data_source": "ELSI",
    "code_version": "2.11.0",
    "code_date_stamp": "20220118",
    "git_commit_abbrev": "512532a4",
    "compiled_on_hostname": "Linux-4.18.0-425.19.2.el8_7.x86_64",
    "compiled_at_datetime": "2025-03-03T08:36:03Z",
    "step": 2,
    "total_step": 2,
    "output_type": "DENSITY MATRIX",
    "data_type": "REAL",
    "start_datetime": "2025-03-07T13:41:50.093+01:00",
    "record_datetime": "2025-03-07T13:48:10.773+01:00",
    "total_time": 0.380680000007153E+003,
    "n_electrons": 0.279099999999959E+005,
    "n_basis": 57647,
    "parallel_mode": "MULTI_PROC",
    "n_procs": 32,
    "n_procs_all": 32,
    "n_spin": 1,
    "n_kpts": 1,
    "matrix_format": "SIESTA_CSC",
    "sparsity": 0.999320177870210E+000,
    "sparsity_mask": 2,
    "nnz_global": 2259169,
    "n_states": 57647,
    "solver_chosen": "ELPA",
    "save_ovlp": false,
    "unit_ovlp": false,
    "illcond_check": false,
    "spin_degeneracy": 0.200000000000000E+001,
    "band_energy": -0.202386239397921E+005,
    "chemical_potential": -0.293739710300745E+000,
    "electronic_entropy": 0.522889957609630E+000,
    "broadening_scheme": 1,
    "broadening_width": 0.183746610878279E-002,
    "broadening_tol": 0.100000000000000E-012,
    "solver_used": "ELPA",
    "solver_settings": {
      "elpa_solver": 2,
      "elpa_n_single_precision": 0,
      "elpa_gpu": 1,
      "elpa_autotune": 0
    },
    "matrix_format_settings": {
      "zero_filter": 0.100000000000000E-014,
      "blk_sp2": 64,
      "pexsi_csc_ready": false,
      "siesta_csc_ready": true,
      "generic_coo_ready": false
    }
  },
  {
    "data_source": "ELSI",
    "code_version": "2.11.0",
    "code_date_stamp": "20220118",
    "git_commit_abbrev": "512532a4",
    "compiled_on_hostname": "Linux-4.18.0-425.19.2.el8_7.x86_64",
    "compiled_at_datetime": "2025-03-03T08:36:03Z",
    "step": 3,
    "total_step": 3,
    "output_type": "DENSITY MATRIX",
    "data_type": "REAL",
    "start_datetime": "2025-03-07T13:48:43.641+01:00",
    "record_datetime": "2025-03-07T13:55:04.749+01:00",
    "total_time": 0.381108000040054E+003,
    "n_electrons": 0.279099999999959E+005,
    "n_basis": 57647,
    "parallel_mode": "MULTI_PROC",
    "n_procs": 32,
    "n_procs_all": 32,
    "n_spin": 1,
    "n_kpts": 1,
    "matrix_format": "SIESTA_CSC",
    "sparsity": 0.999320177870210E+000,
    "sparsity_mask": 2,
    "nnz_global": 2259169,
    "n_states": 57647,
    "solver_chosen": "ELPA",
    "save_ovlp": false,
    "unit_ovlp": false,
    "illcond_check": false,
    "spin_degeneracy": 0.200000000000000E+001,
    "band_energy": -0.358039068491739E+005,
    "chemical_potential": -0.328549937004298E+000,
    "electronic_entropy": 0.243016531267521E+000,
    "broadening_scheme": 1,
    "broadening_width": 0.183746610878279E-002,
    "broadening_tol": 0.100000000000000E-012,
    "solver_used": "ELPA",
    "solver_settings": {
      "elpa_solver": 2,
      "elpa_n_single_precision": 0,
      "elpa_gpu": 1,
      "elpa_autotune": 0
    },
    "matrix_format_settings": {
      "zero_filter": 0.100000000000000E-014,
      "blk_sp2": 64,
      "pexsi_csc_ready": false,
      "siesta_csc_ready": true,
      "generic_coo_ready": false
    }
  },
  {
    "data_source": "ELSI",
    "code_version": "2.11.0",
    "code_date_stamp": "20220118",
    "git_commit_abbrev": "512532a4",
    "compiled_on_hostname": "Linux-4.18.0-425.19.2.el8_7.x86_64",
    "compiled_at_datetime": "2025-03-03T08:36:03Z",
    "step": 4,
    "total_step": 4,
    "output_type": "DENSITY MATRIX",
    "data_type": "REAL",
    "start_datetime": "2025-03-07T13:55:37.542+01:00",
    "record_datetime": "2025-03-07T14:01:57.775+01:00",
    "total_time": 0.380232999980450E+003,
    "n_electrons": 0.279099999999959E+005,
    "n_basis": 57647,
    "parallel_mode": "MULTI_PROC",
    "n_procs": 32,
    "n_procs_all": 32,
    "n_spin": 1,
    "n_kpts": 1,
    "matrix_format": "SIESTA_CSC",
    "sparsity": 0.999320177870210E+000,
    "sparsity_mask": 2,
    "nnz_global": 2259169,
    "n_states": 57647,
    "solver_chosen": "ELPA",
    "save_ovlp": false,
    "unit_ovlp": false,
    "illcond_check": false,
    "spin_degeneracy": 0.200000000000000E+001,
    "band_energy": -0.237932807658387E+005,
    "chemical_potential": -0.293264626328433E+000,
    "electronic_entropy": 0.467389205767347E+000,
    "broadening_scheme": 1,
    "broadening_width": 0.183746610878279E-002,
    "broadening_tol": 0.100000000000000E-012,
    "solver_used": "ELPA",
    "solver_settings": {
      "elpa_solver": 2,
      "elpa_n_single_precision": 0,
      "elpa_gpu": 1,
      "elpa_autotune": 0
    },
    "matrix_format_settings": {
      "zero_filter": 0.100000000000000E-014,
      "blk_sp2": 64,
      "pexsi_csc_ready": false,
      "siesta_csc_ready": true,
      "generic_coo_ready": false
    }
  },
  {
    "data_source": "ELSI",
    "code_version": "2.11.0",
    "code_date_stamp": "20220118",
    "git_commit_abbrev": "512532a4",
    "compiled_on_hostname": "Linux-4.18.0-425.19.2.el8_7.x86_64",
    "compiled_at_datetime": "2025-03-03T08:36:03Z",
    "step": 5,
    "total_step": 5,
    "output_type": "DENSITY MATRIX",
    "data_type": "REAL",
    "start_datetime": "2025-03-07T14:02:30.360+01:00",
    "record_datetime": "2025-03-07T14:08:47.110+01:00",
    "total_time": 0.376750000000000E+003,
    "n_electrons": 0.279099999999959E+005,
    "n_basis": 57647,
    "parallel_mode": "MULTI_PROC",
    "n_procs": 32,
    "n_procs_all": 32,
    "n_spin": 1,
    "n_kpts": 1,
    "matrix_format": "SIESTA_CSC",
    "sparsity": 0.999320177870210E+000,
    "sparsity_mask": 2,
    "nnz_global": 2259169,
    "n_states": 57647,
    "solver_chosen": "ELPA",
    "save_ovlp": false,
    "unit_ovlp": false,
    "illcond_check": false,
    "spin_degeneracy": 0.200000000000000E+001,
    "band_energy": -0.235242656163270E+005,
    "chemical_potential": -0.284105755557536E+000,
    "electronic_entropy": 0.639780533128111E+000,
    "broadening_scheme": 1,
    "broadening_width": 0.183746610878279E-002,
    "broadening_tol": 0.100000000000000E-012,
    "solver_used": "ELPA",
    "solver_settings": {
      "elpa_solver": 2,
      "elpa_n_single_precision": 0,
      "elpa_gpu": 1,
      "elpa_autotune": 0
    },
    "matrix_format_settings": {
      "zero_filter": 0.100000000000000E-014,
      "blk_sp2": 64,
      "pexsi_csc_ready": false,
      "siesta_csc_ready": true,
      "generic_coo_ready": false
    }
  }
]
