JobId=5567752 JobName=submit.job
   UserId=bellenta(327000822) GroupId=pepr_bellenta(327000822) MCS_label=N/A
   Priority=502 Nice=0 Account=project_465000641 QOS=normal
   JobState=RUNNING Reason=None Dependency=(null)
   Requeue=1 Restarts=0 BatchFlag=1 Reboot=0 ExitCode=0:0
   DerivedExitCode=0:0
   RunTime=00:00:38 TimeLimit=01:00:00 TimeMin=N/A
   SubmitTime=2024-01-03T23:48:58 EligibleTime=2024-01-03T23:48:58
   AccrueTime=2024-01-03T23:48:58
   StartTime=2024-01-03T23:50:11 EndTime=2024-01-04T00:50:11 Deadline=N/A
   SuspendTime=None SecsPreSuspend=0 LastSchedEval=2024-01-03T23:50:11 Scheduler=Backfill
   Partition=standard-g AllocNode:Sid=ln01-nmn:180674
   ReqNodeList=(null) ExcNodeList=(null)
   NodeList=nid005689
   BatchHost=nid005689
   NumNodes=1 NumCPUs=112 NumTasks=8 CPUs/Task=1 ReqB:S:C:T=0:0:*:1
   TRES=cpu=112,node=1,billing=112,gres/gpu:mi250=8
   Socks/Node=* NtasksPerN:B:S:C=8:0:*:1 CoreSpec=*
   JOB_GRES=gpu:mi250:8
     Nodes=nid005689 CPU_IDs=2-15,18-31,34-47,50-63,66-79,82-95,98-111,114-127 Mem=0 GRES=gpu:mi250:8(IDX:0-7)
   MinCPUsNode=8 MinMemoryCPU=0 MinTmpDiskNode=0
   Features=(null) DelayBoot=00:00:00
   OverSubscribe=NO Contiguous=0 Licenses=(null) Network=(null)
   Command=/pfs/lustrep2/projappl/project_465000641/ausurf/ndiag/bench_lumi_aware_gamma/000002/000002_submit_N1np8nk1/work/submit.job
   WorkDir=/pfs/lustrep2/projappl/project_465000641/ausurf/ndiag/bench_lumi_aware_gamma/000002/000002_submit_N1np8nk1/work
   StdErr=/pfs/lustrep2/projappl/project_465000641/ausurf/ndiag/bench_lumi_aware_gamma/000002/000002_submit_N1np8nk1/work/slurm-5567752.out
   StdIn=/dev/null
   StdOut=/pfs/lustrep2/projappl/project_465000641/ausurf/ndiag/bench_lumi_aware_gamma/000002/000002_submit_N1np8nk1/work/slurm-5567752.out
   Power=
   TresPerNode=gres:gpu:8
   

