JobId=7756668 JobName=submit.job
   UserId=fpedron0(126159) GroupId=interactive(25200) MCS_label=N/A
   Priority=142283 Nice=0 Account=euhpc_b13_053 QOS=normal
   JobState=RUNNING Reason=None Dependency=(null)
   Requeue=0 Restarts=0 BatchFlag=1 Reboot=0 ExitCode=0:0
   DerivedExitCode=0:0
   RunTime=00:00:05 TimeLimit=1-00:00:00 TimeMin=N/A
   SubmitTime=2024-09-18T13:57:02 EligibleTime=2024-09-18T13:57:02
   AccrueTime=2024-09-18T13:57:02
   StartTime=2024-09-18T14:02:23 EndTime=2024-09-19T14:02:25 Deadline=N/A
   SuspendTime=None SecsPreSuspend=0 LastSchedEval=2024-09-18T14:02:23 Scheduler=Backfill
   Partition=boost_usr_prod AllocNode:Sid=slurm-controller:2777051
   ReqNodeList=(null) ExcNodeList=(null)
   NodeList=lrdn[0597,2353,2436,2475,2477,2515,2564,2615,2648,2917,2962,3098,3106,3109,3134,3146]
   BatchHost=lrdn0597
   NumNodes=16 NumCPUs=512 NumTasks=512 CPUs/Task=1 ReqB:S:C:T=0:0:*:*
   TRES=cpu=512,mem=7700G,node=16,billing=512,gres/gpu=64
   Socks/Node=* NtasksPerN:B:S:C=32:0:*:* CoreSpec=*
   JOB_GRES=gpu:a100:64
     Nodes=lrdn[0597,2353,2436,2475,2477,2515,2564,2615,2648,2917,2962,3098,3106,3109,3134,3146] CPU_IDs=0-31 Mem=492800 GRES=gpu:a100:4(IDX:0-3)
   MinCPUsNode=32 MinMemoryCPU=15400M MinTmpDiskNode=0
   Features=(null) DelayBoot=00:00:00
   OverSubscribe=NO Contiguous=0 Licenses=(null) Network=(null)
   Command=/leonardo/home/userexternal/fpedron0/JUBE4MaX-GPU/max-inputs/interface/siesta/_CovidWeak/000000/000004_submit/work/submit.job
   WorkDir=/leonardo/home/userexternal/fpedron0/JUBE4MaX-GPU/max-inputs/interface/siesta/_CovidWeak/000000/000004_submit/work
   StdErr=/leonardo/home/userexternal/fpedron0/JUBE4MaX-GPU/max-inputs/interface/siesta/_CovidWeak/000000/000004_submit/work/slurm-7756668.out
   StdIn=/dev/null
   StdOut=/leonardo/home/userexternal/fpedron0/JUBE4MaX-GPU/max-inputs/interface/siesta/_CovidWeak/000000/000004_submit/work/slurm-7756668.out
   Power=
   TresPerNode=gres:gpu:4
   

