[
  {
    "data_source": "ELSI",
    "code_version": "2.11.0",
    "code_date_stamp": "20220118",
    "git_commit_abbrev": "512532a4",
    "compiled_on_hostname": "Linux-4.18.0-425.19.2.el8_7.x86_64",
    "compiled_at_datetime": "2025-03-03T08:36:03Z",
    "step": 1,
    "total_step": 1,
    "output_type": "DENSITY MATRIX",
    "data_type": "REAL",
    "start_datetime": "2025-03-07T13:32:06.658+01:00",
    "record_datetime": "2025-03-07T13:39:20.239+01:00",
    "total_time": 0.433581000030041E+003,
    "n_electrons": 0.279099999999959E+005,
    "n_basis": 57647,
    "parallel_mode": "MULTI_PROC",
    "n_procs": 16,
    "n_procs_all": 16,
    "n_spin": 1,
    "n_kpts": 1,
    "matrix_format": "SIESTA_CSC",
    "sparsity": 0.999320177870210E+000,
    "sparsity_mask": 2,
    "nnz_global": 2259169,
    "n_states": 57647,
    "solver_chosen": "ELPA",
    "save_ovlp": false,
    "unit_ovlp": false,
    "illcond_check": false,
    "spin_degeneracy": 0.200000000000000E+001,
    "band_energy": -0.202596396837450E+005,
    "chemical_potential": -0.282866958187258E+000,
    "electronic_entropy": 0.671349149719644E+000,
    "broadening_scheme": 1,
    "broadening_width": 0.183746610878279E-002,
    "broadening_tol": 0.100000000000000E-012,
    "solver_used": "ELPA",
    "solver_settings": {
      "elpa_solver": 2,
      "elpa_n_single_precision": 0,
      "elpa_gpu": 1,
      "elpa_autotune": 0
    },
    "matrix_format_settings": {
      "zero_filter": 0.100000000000000E-014,
      "blk_sp2": 64,
      "pexsi_csc_ready": false,
      "siesta_csc_ready": true,
      "generic_coo_ready": false
    }
  },
  {
    "data_source": "ELSI",
    "code_version": "2.11.0",
    "code_date_stamp": "20220118",
    "git_commit_abbrev": "512532a4",
    "compiled_on_hostname": "Linux-4.18.0-425.19.2.el8_7.x86_64",
    "compiled_at_datetime": "2025-03-03T08:36:03Z",
    "step": 2,
    "total_step": 2,
    "output_type": "DENSITY MATRIX",
    "data_type": "REAL",
    "start_datetime": "2025-03-07T13:39:55.858+01:00",
    "record_datetime": "2025-03-07T13:46:41.423+01:00",
    "total_time": 0.405564999997616E+003,
    "n_electrons": 0.279099999999959E+005,
    "n_basis": 57647,
    "parallel_mode": "MULTI_PROC",
    "n_procs": 16,
    "n_procs_all": 16,
    "n_spin": 1,
    "n_kpts": 1,
    "matrix_format": "SIESTA_CSC",
    "sparsity": 0.999320177870210E+000,
    "sparsity_mask": 2,
    "nnz_global": 2259169,
    "n_states": 57647,
    "solver_chosen": "ELPA",
    "save_ovlp": false,
    "unit_ovlp": false,
    "illcond_check": false,
    "spin_degeneracy": 0.200000000000000E+001,
    "band_energy": -0.202386239398024E+005,
    "chemical_potential": -0.293739710303371E+000,
    "electronic_entropy": 0.522889957618807E+000,
    "broadening_scheme": 1,
    "broadening_width": 0.183746610878279E-002,
    "broadening_tol": 0.100000000000000E-012,
    "solver_used": "ELPA",
    "solver_settings": {
      "elpa_solver": 2,
      "elpa_n_single_precision": 0,
      "elpa_gpu": 1,
      "elpa_autotune": 0
    },
    "matrix_format_settings": {
      "zero_filter": 0.100000000000000E-014,
      "blk_sp2": 64,
      "pexsi_csc_ready": false,
      "siesta_csc_ready": true,
      "generic_coo_ready": false
    }
  },
  {
    "data_source": "ELSI",
    "code_version": "2.11.0",
    "code_date_stamp": "20220118",
    "git_commit_abbrev": "512532a4",
    "compiled_on_hostname": "Linux-4.18.0-425.19.2.el8_7.x86_64",
    "compiled_at_datetime": "2025-03-03T08:36:03Z",
    "step": 3,
    "total_step": 3,
    "output_type": "DENSITY MATRIX",
    "data_type": "REAL",
    "start_datetime": "2025-03-07T13:47:16.515+01:00",
    "record_datetime": "2025-03-07T13:54:00.066+01:00",
    "total_time": 0.403550999999046E+003,
    "n_electrons": 0.279099999999959E+005,
    "n_basis": 57647,
    "parallel_mode": "MULTI_PROC",
    "n_procs": 16,
    "n_procs_all": 16,
    "n_spin": 1,
    "n_kpts": 1,
    "matrix_format": "SIESTA_CSC",
    "sparsity": 0.999320177870210E+000,
    "sparsity_mask": 2,
    "nnz_global": 2259169,
    "n_states": 57647,
    "solver_chosen": "ELPA",
    "save_ovlp": false,
    "unit_ovlp": false,
    "illcond_check": false,
    "spin_degeneracy": 0.200000000000000E+001,
    "band_energy": -0.358039068936927E+005,
    "chemical_potential": -0.328549937286209E+000,
    "electronic_entropy": 0.243016531884756E+000,
    "broadening_scheme": 1,
    "broadening_width": 0.183746610878279E-002,
    "broadening_tol": 0.100000000000000E-012,
    "solver_used": "ELPA",
    "solver_settings": {
      "elpa_solver": 2,
      "elpa_n_single_precision": 0,
      "elpa_gpu": 1,
      "elpa_autotune": 0
    },
    "matrix_format_settings": {
      "zero_filter": 0.100000000000000E-014,
      "blk_sp2": 64,
      "pexsi_csc_ready": false,
      "siesta_csc_ready": true,
      "generic_coo_ready": false
    }
  },
  {
    "data_source": "ELSI",
    "code_version": "2.11.0",
    "code_date_stamp": "20220118",
    "git_commit_abbrev": "512532a4",
    "compiled_on_hostname": "Linux-4.18.0-425.19.2.el8_7.x86_64",
    "compiled_at_datetime": "2025-03-03T08:36:03Z",
    "step": 4,
    "total_step": 4,
    "output_type": "DENSITY MATRIX",
    "data_type": "REAL",
    "start_datetime": "2025-03-07T13:54:35.093+01:00",
    "record_datetime": "2025-03-07T14:01:16.163+01:00",
    "total_time": 0.401069999992847E+003,
    "n_electrons": 0.279099999999959E+005,
    "n_basis": 57647,
    "parallel_mode": "MULTI_PROC",
    "n_procs": 16,
    "n_procs_all": 16,
    "n_spin": 1,
    "n_kpts": 1,
    "matrix_format": "SIESTA_CSC",
    "sparsity": 0.999320177870210E+000,
    "sparsity_mask": 2,
    "nnz_global": 2259169,
    "n_states": 57647,
    "solver_chosen": "ELPA",
    "save_ovlp": false,
    "unit_ovlp": false,
    "illcond_check": false,
    "spin_degeneracy": 0.200000000000000E+001,
    "band_energy": -0.237932807728671E+005,
    "chemical_potential": -0.293264626420153E+000,
    "electronic_entropy": 0.467389192828808E+000,
    "broadening_scheme": 1,
    "broadening_width": 0.183746610878279E-002,
    "broadening_tol": 0.100000000000000E-012,
    "solver_used": "ELPA",
    "solver_settings": {
      "elpa_solver": 2,
      "elpa_n_single_precision": 0,
      "elpa_gpu": 1,
      "elpa_autotune": 0
    },
    "matrix_format_settings": {
      "zero_filter": 0.100000000000000E-014,
      "blk_sp2": 64,
      "pexsi_csc_ready": false,
      "siesta_csc_ready": true,
      "generic_coo_ready": false
    }
  },
  {
    "data_source": "ELSI",
    "code_version": "2.11.0",
    "code_date_stamp": "20220118",
    "git_commit_abbrev": "512532a4",
    "compiled_on_hostname": "Linux-4.18.0-425.19.2.el8_7.x86_64",
    "compiled_at_datetime": "2025-03-03T08:36:03Z",
    "step": 5,
    "total_step": 5,
    "output_type": "DENSITY MATRIX",
    "data_type": "REAL",
    "start_datetime": "2025-03-07T14:01:51.199+01:00",
    "record_datetime": "2025-03-07T14:08:34.400+01:00",
    "total_time": 0.403200999975204E+003,
    "n_electrons": 0.279099999999959E+005,
    "n_basis": 57647,
    "parallel_mode": "MULTI_PROC",
    "n_procs": 16,
    "n_procs_all": 16,
    "n_spin": 1,
    "n_kpts": 1,
    "matrix_format": "SIESTA_CSC",
    "sparsity": 0.999320177870210E+000,
    "sparsity_mask": 2,
    "nnz_global": 2259169,
    "n_states": 57647,
    "solver_chosen": "ELPA",
    "save_ovlp": false,
    "unit_ovlp": false,
    "illcond_check": false,
    "spin_degeneracy": 0.200000000000000E+001,
    "band_energy": -0.235242656169530E+005,
    "chemical_potential": -0.284105754589442E+000,
    "electronic_entropy": 0.639780536364955E+000,
    "broadening_scheme": 1,
    "broadening_width": 0.183746610878279E-002,
    "broadening_tol": 0.100000000000000E-012,
    "solver_used": "ELPA",
    "solver_settings": {
      "elpa_solver": 2,
      "elpa_n_single_precision": 0,
      "elpa_gpu": 1,
      "elpa_autotune": 0
    },
    "matrix_format_settings": {
      "zero_filter": 0.100000000000000E-014,
      "blk_sp2": 64,
      "pexsi_csc_ready": false,
      "siesta_csc_ready": true,
      "generic_coo_ready": false
    }
  }
]
