unload bsc/1.0 (PATH, MANPATH)
load mkl/2024.0 (LD_LIBRARY_PATH)
load HDF5/1.14.1-2 (PATH, LD_LIBRARY_PATH, LIBRARY_PATH, C_INCLUDE_PATH,
CPLUS_INCLUDE_PATH, HDF5_DIR, HDF5_ROOT) 
load QUANTUMESPRESSO/7.3.1 (PATH)
Warning: ieee_inexact is signaling
FORTRAN STOP
Warning: ieee_divide_by_zero is signaling
Warning: ieee_inexact is signaling
FORTRAN STOP
[as01r5b18:2297170:0:2297170] Caught signal 11 (Segmentation fault: address not mapped to object at address 0xffffffffc2a2f058)
[as01r5b18:2297169:0:2297169] Caught signal 11 (Segmentation fault: address not mapped to object at address 0x1a979058)
--------------------------------------------------------------------------
Primary job  terminated normally, but 1 process returned
a non-zero exit code. Per user-direction, the job has been aborted.
--------------------------------------------------------------------------
--------------------------------------------------------------------------
mpirun noticed that process rank 1 with PID 2297170 on node as01r5b18 exited on signal 11 (Segmentation fault).
--------------------------------------------------------------------------
