{
 "global_section": { "_calls": 1, "_time":     1623.265, "_%":   100.00,
   "siesta": { "_calls": 1, "_time":     1623.265, "_%":   100.00,
     "Setup": { "_calls": 1, "_time":        2.178, "_%":     0.13,
       "bands": { "_calls": 1, "_time":        0.002, "_%":     0.00},
       "KSV_init": { "_calls": 1, "_time":        0.001, "_%":     0.00}
     },
     "IterGeom": { "_calls": 1, "_time":     1620.888, "_%":    99.85,
       "geom_init": { "_calls": 1, "_time":        8.890, "_%":     0.55,
         "state_init": { "_calls": 1, "_time":        1.494, "_%":     0.09,
           "hsparse": { "_calls": 1, "_time":        0.104, "_%":     0.01},
           "overlap": { "_calls": 1, "_time":        0.555, "_%":     0.03}
         },
         "Setup_H0": { "_calls": 1, "_time":        7.395, "_%":     0.46,
           "naefs": { "_calls": 1, "_time":        0.015, "_%":     0.00},
           "MolMec": { "_calls": 1, "_time":        0.000, "_%":     0.00},
           "kinefsm": { "_calls": 1, "_time":        0.561, "_%":     0.03},
           "nlefsm": { "_calls": 1, "_time":        1.192, "_%":     0.07},
           "DHSCF_Init": { "_calls": 1, "_time":        5.618, "_%":     0.35,
             "DHSCF1": { "_calls": 1, "_time":        0.034, "_%":     0.00,
               "INITMESH": { "_calls": 1, "_time":        0.000, "_%":     0.00}
             },
             "DHSCF2": { "_calls": 1, "_time":        5.566, "_%":     0.34,
               "REMESH": { "_calls": 1, "_time":        1.487, "_%":     0.09,
                 "INITMESH": { "_calls": 2, "_time":        1.460, "_%":     0.09,
                   "SPLOAD": { "_calls": 2, "_time":        1.444, "_%":     0.09}
                 }
               },
               "REORD": { "_calls": 2, "_time":        0.017, "_%":     0.00},
               "PHION": { "_calls": 1, "_time":        0.477, "_%":     0.03},
               "COMM_BSC": { "_calls": 1, "_time":        0.077, "_%":     0.00},
               "POISON": { "_calls": 1, "_time":        3.030, "_%":     0.19,
                 "fft": { "_calls": 2, "_time":        2.907, "_%":     0.18}
               }
             }
           }
         }
       },
       "IterSCF": { "_calls": 5, "_time":     1611.933, "_%":    99.30,
         "setup_H": { "_calls": 5, "_time":       25.469, "_%":     1.57,
           "DHSCF": { "_calls": 5, "_time":       25.465, "_%":     1.57,
             "DHSCF3": { "_calls": 5, "_time":       25.465, "_%":     1.57,
               "rhoofd": { "_calls": 5, "_time":        0.285, "_%":     0.02},
               "COMM_BSC": { "_calls": 10, "_time":        0.885, "_%":     0.05},
               "POISON": { "_calls": 5, "_time":       15.112, "_%":     0.93,
                 "fft": { "_calls": 10, "_time":       14.452, "_%":     0.89}
               },
               "XC": { "_calls": 5, "_time":        7.809, "_%":     0.48,
                 "COMM_BSC": { "_calls": 10, "_time":        0.900, "_%":     0.06},
                 "GXC-CellXC": { "_calls": 5, "_time":        6.746, "_%":     0.42,
                   "gridxc@cellXC": { "_calls": 5, "_time":        6.746, "_%":     0.42}
                 }
               },
               "vmat": { "_calls": 5, "_time":        0.322, "_%":     0.02}
             }
           }
         },
         "compute_dm": { "_calls": 5, "_time":     1586.438, "_%":    97.73,
           "diagon": { "_calls": 5, "_time":     1585.719, "_%":    97.69,
             "r-eigvec": { "_calls": 5, "_time":     1464.865, "_%":    90.24,
               "r-buildHS": { "_calls": 5, "_time":        0.296, "_%":     0.02},
               "rdiag": { "_calls": 5, "_time":     1464.568, "_%":    90.22,
                 "rdiag1": { "_calls": 5, "_time":       91.520, "_%":     5.64},
                 "rdiag2": { "_calls": 5, "_time":      240.175, "_%":    14.80},
                 "rdiag3": { "_calls": 5, "_time":      904.667, "_%":    55.73},
                 "rdiag4": { "_calls": 5, "_time":      221.584, "_%":    13.65}
               }
             },
             "r-buildD": { "_calls": 5, "_time":      119.673, "_%":     7.37}
           }
         },
         "MIXER": { "_calls": 5, "_time":        0.005, "_%":     0.00}
       },
       "state_analysis": { "_calls": 1, "_time":        0.055, "_%":     0.00},
       "siesta_move": { "_calls": 1, "_time":        0.000, "_%":     0.00}
     },
     "Analysis": { "_calls": 1, "_time":        0.193, "_%":     0.01,
       "optical": { "_calls": 1, "_time":        0.001, "_%":     0.00}
     }
   }
 }}
