{
 "global_section": { "_calls": 1, "_time":      931.184, "_%":   100.00,
   "siesta": { "_calls": 1, "_time":      931.184, "_%":   100.00,
     "Setup": { "_calls": 1, "_time":        0.831, "_%":     0.09,
       "bands": { "_calls": 1, "_time":        0.001, "_%":     0.00},
       "KSV_init": { "_calls": 1, "_time":        0.000, "_%":     0.00}
     },
     "IterGeom": { "_calls": 1, "_time":      883.686, "_%":    94.90,
       "geom_init": { "_calls": 1, "_time":        6.406, "_%":     0.69,
         "state_init": { "_calls": 1, "_time":        0.741, "_%":     0.08,
           "hsparse": { "_calls": 1, "_time":        0.093, "_%":     0.01},
           "overlap": { "_calls": 1, "_time":        0.304, "_%":     0.03}
         },
         "Setup_H0": { "_calls": 1, "_time":        5.665, "_%":     0.61,
           "naefs": { "_calls": 1, "_time":        0.019, "_%":     0.00},
           "MolMec": { "_calls": 1, "_time":        0.000, "_%":     0.00},
           "kinefsm": { "_calls": 1, "_time":        0.309, "_%":     0.03},
           "nlefsm": { "_calls": 1, "_time":        0.407, "_%":     0.04},
           "DHSCF_Init": { "_calls": 1, "_time":        4.919, "_%":     0.53,
             "DHSCF1": { "_calls": 1, "_time":        0.018, "_%":     0.00,
               "INITMESH": { "_calls": 1, "_time":        0.000, "_%":     0.00}
             },
             "DHSCF2": { "_calls": 1, "_time":        4.888, "_%":     0.52,
               "REMESH": { "_calls": 1, "_time":        3.750, "_%":     0.40,
                 "INITMESH": { "_calls": 2, "_time":        3.475, "_%":     0.37,
                   "SPLOAD": { "_calls": 2, "_time":        0.872, "_%":     0.09}
                 }
               },
               "REORD": { "_calls": 2, "_time":        0.001, "_%":     0.00},
               "PHION": { "_calls": 1, "_time":        0.058, "_%":     0.01},
               "COMM_BSC": { "_calls": 1, "_time":        0.017, "_%":     0.00},
               "POISON": { "_calls": 1, "_time":        0.420, "_%":     0.05,
                 "fft": { "_calls": 2, "_time":        0.408, "_%":     0.04}
               }
             }
           }
         }
       },
       "IterSCF": { "_calls": 5, "_time":      877.249, "_%":    94.21,
         "setup_H": { "_calls": 5, "_time":        3.807, "_%":     0.41,
           "DHSCF": { "_calls": 5, "_time":        3.775, "_%":     0.41,
             "DHSCF3": { "_calls": 5, "_time":        3.775, "_%":     0.41,
               "rhoofd": { "_calls": 5, "_time":        0.068, "_%":     0.01},
               "COMM_BSC": { "_calls": 10, "_time":        0.119, "_%":     0.01},
               "POISON": { "_calls": 5, "_time":        1.991, "_%":     0.21,
                 "fft": { "_calls": 10, "_time":        1.897, "_%":     0.20}
               },
               "XC": { "_calls": 5, "_time":        1.281, "_%":     0.14,
                 "COMM_BSC": { "_calls": 10, "_time":        0.158, "_%":     0.02},
                 "GXC-CellXC": { "_calls": 5, "_time":        1.096, "_%":     0.12,
                   "gridxc@cellXC": { "_calls": 5, "_time":        1.096, "_%":     0.12}
                 }
               },
               "vmat": { "_calls": 5, "_time":        0.091, "_%":     0.01}
             }
           }
         },
         "compute_dm": { "_calls": 5, "_time":      873.306, "_%":    93.78,
           "diagon": { "_calls": 5, "_time":      873.254, "_%":    93.78,
             "r-eigvec": { "_calls": 5, "_time":      581.529, "_%":    62.45,
               "r-buildHS": { "_calls": 5, "_time":        0.186, "_%":     0.02},
               "rdiag": { "_calls": 5, "_time":      581.342, "_%":    62.43,
                 "rdiag1": { "_calls": 5, "_time":       13.556, "_%":     1.46},
                 "rdiag2": { "_calls": 5, "_time":       78.782, "_%":     8.46},
                 "rdiag3": { "_calls": 5, "_time":      439.682, "_%":    47.22},
                 "rdiag4": { "_calls": 5, "_time":       47.203, "_%":     5.07}
               }
             },
             "r-buildD": { "_calls": 5, "_time":      291.252, "_%":    31.28}
           }
         },
         "MIXER": { "_calls": 5, "_time":        0.125, "_%":     0.01}
       },
       "state_analysis": { "_calls": 1, "_time":        0.023, "_%":     0.00},
       "siesta_move": { "_calls": 1, "_time":        0.000, "_%":     0.00}
     },
     "Analysis": { "_calls": 1, "_time":       46.058, "_%":     4.95,
       "optical": { "_calls": 1, "_time":        0.000, "_%":     0.00}
     }
   }
 }}
