JobID        JobIDRaw        JobName  Partition  MaxVMSize  MaxVMSizeNode  MaxVMSizeTask  AveVMSize     MaxRSS MaxRSSNode MaxRSSTask     AveRSS MaxPages MaxPagesNode   MaxPagesTask   AvePages     MinCPU MinCPUNode MinCPUTask     AveCPU   NTasks  AllocCPUS    Elapsed      State ExitCode AveCPUFreq ReqCPUFreqMin ReqCPUFreqMax ReqCPUFreqGov     ReqMem ConsumedEnergy  MaxDiskRead MaxDiskReadNode MaxDiskReadTask    AveDiskRead MaxDiskWrite MaxDiskWriteNode MaxDiskWriteTask   AveDiskWrite    ReqTRES  AllocTRES TRESUsageInAve TRESUsageInMax TRESUsageInMaxNode TRESUsageInMaxTask TRESUsageInMin TRESUsageInMinNode TRESUsageInMinTask TRESUsageInTot TRESUsageOutMax TRESUsageOutMaxNode TRESUsageOutMaxTask TRESUsageOutAve TRESUsageOutTot 
------------ ------------ ---------- ---------- ---------- -------------- -------------- ---------- ---------- ---------- ---------- ---------- -------- ------------ -------------- ---------- ---------- ---------- ---------- ---------- -------- ---------- ---------- ---------- -------- ---------- ------------- ------------- ------------- ---------- -------------- ------------ --------------- --------------- -------------- ------------ ---------------- ---------------- -------------- ---------- ---------- -------------- -------------- ------------------ ------------------ -------------- ------------------ ------------------ -------------- --------------- ------------------- ------------------- --------------- --------------- 
1589187      1589187      CovidWeak+       qcpu                                                                                                                                                                                                             256   00:01:11    RUNNING      0:0                  Unknown       Unknown       Unknown       460G                                                                                                                                          billing=2+ billing=2+                                                                                                                                                                                                                                 
1589187.bat+ 1589187.bat+      batch                                                                                                                                                                                                               1        128   00:01:11    RUNNING      0:0          0             0             0             0                         0                                                                                                                                      cpu=128,m+                                                                                                                                                                                                                                 
1589187.ext+ 1589187.ext+     extern                                                                                                                                                                                                               2        256   00:01:11    RUNNING      0:0          0             0             0             0                         0                                                                                                                                      billing=2+                                                                                                                                                                                                                                 
1589187.0    1589187.0        siesta               506724K          cn588              0  472363168    488316K      cn588        114  464997168       92        cn593            162         34   00:00:57      cn588          0   00:00:58      256        256   00:01:08  COMPLETED      0:0      7.55G       Unknown       Unknown       Unknown                         0       14.97M           cn588               0         13.75M       16.84M            cn588                0          4.17M            cpu=256,m+ cpu=00:00:58,+ cpu=00:00:59,+ cpu=cn593,energy=+ cpu=231,fs/disk=0+ cpu=00:00:57,+ cpu=cn588,energy=+ cpu=0,fs/disk=142+ cpu=04:11:14,+ energy=0,fs/di+ energy=cn588,fs/di+           fs/disk=0 energy=0,fs/di+ energy=0,fs/di+ 
