JobID        JobIDRaw        JobName  Partition  MaxVMSize  MaxVMSizeNode  MaxVMSizeTask  AveVMSize     MaxRSS MaxRSSNode MaxRSSTask     AveRSS MaxPages MaxPagesNode   MaxPagesTask   AvePages     MinCPU MinCPUNode MinCPUTask     AveCPU   NTasks  AllocCPUS    Elapsed      State ExitCode AveCPUFreq ReqCPUFreqMin ReqCPUFreqMax ReqCPUFreqGov     ReqMem ConsumedEnergy  MaxDiskRead MaxDiskReadNode MaxDiskReadTask    AveDiskRead MaxDiskWrite MaxDiskWriteNode MaxDiskWriteTask   AveDiskWrite    ReqTRES  AllocTRES TRESUsageInAve TRESUsageInMax TRESUsageInMaxNode TRESUsageInMaxTask TRESUsageInMin TRESUsageInMinNode TRESUsageInMinTask TRESUsageInTot TRESUsageOutMax TRESUsageOutMaxNode TRESUsageOutMaxTask TRESUsageOutAve TRESUsageOutTot 
------------ ------------ ---------- ---------- ---------- -------------- -------------- ---------- ---------- ---------- ---------- ---------- -------- ------------ -------------- ---------- ---------- ---------- ---------- ---------- -------- ---------- ---------- ---------- -------- ---------- ------------- ------------- ------------- ---------- -------------- ------------ --------------- --------------- -------------- ------------ ---------------- ---------------- -------------- ---------- ---------- -------------- -------------- ------------------ ------------------ -------------- ------------------ ------------------ -------------- --------------- ------------------- ------------------- --------------- --------------- 
4905752      4905752      submit.job standard-g                                                                                                                                                                                                             112   00:18:50    RUNNING      0:0                  Unknown       Unknown       Unknown       480G                                                                                                                                          billing=4+ billing=1+                                                                                                                                                                                                                                 
4905752.bat+ 4905752.bat+      batch                                                                                                                                                                                                               1        112   00:18:50    RUNNING      0:0          0             0             0             0                         0                                                                                                                                      cpu=112,g+                                                                                                                                                                                                                                 
4905752.0    4905752.0    select_gpu             84623680K      nid006260              3  79927010K  55677200K  nid006260          2  52815826K     6453    nid006260              1       6067   00:19:20  nid006260          0   00:19:26        4        112   00:18:39  COMPLETED      0:0      7.80M       Unknown       Unknown       Unknown                   788.82K      131.27M       nid006260               0        129.34M        2.90M        nid006260                1          2.89M            cpu=112,g+ cpu=00:19:26,+ cpu=00:19:29,+ cpu=nid006260,ene+ cpu=3,fs/disk=0,m+ cpu=00:19:20,+ cpu=nid006260,ene+ cpu=0,fs/disk=1,m+ cpu=01:17:44,+ energy=1165,fs+ energy=nid006260,f+           fs/disk=1 energy=167,fs/+ energy=668,fs/+ 
