JobID        JobIDRaw        JobName  Partition  MaxVMSize  MaxVMSizeNode  MaxVMSizeTask  AveVMSize     MaxRSS MaxRSSNode MaxRSSTask     AveRSS MaxPages MaxPagesNode   MaxPagesTask   AvePages     MinCPU MinCPUNode MinCPUTask     AveCPU   NTasks  AllocCPUS    Elapsed      State ExitCode AveCPUFreq ReqCPUFreqMin ReqCPUFreqMax ReqCPUFreqGov     ReqMem ConsumedEnergy  MaxDiskRead MaxDiskReadNode MaxDiskReadTask    AveDiskRead MaxDiskWrite MaxDiskWriteNode MaxDiskWriteTask   AveDiskWrite    ReqTRES  AllocTRES TRESUsageInAve TRESUsageInMax TRESUsageInMaxNode TRESUsageInMaxTask TRESUsageInMin TRESUsageInMinNode TRESUsageInMinTask TRESUsageInTot TRESUsageOutMax TRESUsageOutMaxNode TRESUsageOutMaxTask TRESUsageOutAve TRESUsageOutTot 
------------ ------------ ---------- ---------- ---------- -------------- -------------- ---------- ---------- ---------- ---------- ---------- -------- ------------ -------------- ---------- ---------- ---------- ---------- ---------- -------- ---------- ---------- ---------- -------- ---------- ------------- ------------- ------------- ---------- -------------- ------------ --------------- --------------- -------------- ------------ ---------------- ---------------- -------------- ---------- ---------- -------------- -------------- ------------------ ------------------ -------------- ------------------ ------------------ -------------- --------------- ------------------- ------------------- --------------- --------------- 
2227033      2227033      submit.job boost_usr+                                                                                                                                                                                                            3200   01:14:21    RUNNING      0:0                  Unknown       Unknown       Unknown     48125G                                                                                                                                          billing=3+ billing=3+                                                                                                                                                                                                                                 
2227033.bat+ 2227033.bat+      batch                                                                                                                                                                                                               1         32   01:14:21    RUNNING      0:0          0             0             0             0                         0                                                                                                                                      cpu=32,gr+                                                                                                                                                                                                                                 
2227033.ext+ 2227033.ext+     extern                                                                                                                                                                                                             100       3200   01:14:21    RUNNING      0:0          0             0             0             0                         0                                                                                                                                      billing=3+                                                                                                                                                                                                                                 
2227033.0    2227033.0         orted             23834712K       lrdn0011              0  246532778  20518644K   lrdn0011          0  212233247    10627     lrdn0011              0        107   04:54:19   lrdn0152         13   04:56:14       99       3168   01:14:17  COMPLETED      0:0     11.85M       Unknown       Unknown       Unknown                         0        0.31M        lrdn0042               3          0.31M        0.05M         lrdn0011                0          0.02M            cpu=3168,+ cpu=04:56:14,+ cpu=04:56:21,+ cpu=lrdn1130,ener+ cpu=74,fs/disk=3,+ cpu=04:54:19,+ cpu=lrdn0152,ener+ cpu=13,fs/disk=91+ cpu=20-08:48:+ energy=0,fs/di+ energy=lrdn1269,fs+           fs/disk=0 energy=0,fs/di+ energy=0,fs/di+ 
