{
 "global_section": { "_calls": 1, "_time":      274.564, "_%":   100.00,
   "siesta": { "_calls": 1, "_time":      274.564, "_%":   100.00,
     "Setup": { "_calls": 1, "_time":        1.531, "_%":     0.56,
       "bands": { "_calls": 1, "_time":        0.002, "_%":     0.00},
       "KSV_init": { "_calls": 1, "_time":        0.001, "_%":     0.00}
     },
     "IterGeom": { "_calls": 1, "_time":      272.889, "_%":    99.39,
       "geom_init": { "_calls": 1, "_time":        8.588, "_%":     3.13,
         "state_init": { "_calls": 1, "_time":        0.323, "_%":     0.12,
           "hsparse": { "_calls": 1, "_time":        0.102, "_%":     0.04},
           "overlap": { "_calls": 1, "_time":        0.037, "_%":     0.01}
         },
         "Setup_H0": { "_calls": 1, "_time":        8.265, "_%":     3.01,
           "naefs": { "_calls": 1, "_time":        0.014, "_%":     0.01},
           "MolMec": { "_calls": 1, "_time":        0.000, "_%":     0.00},
           "kinefsm": { "_calls": 1, "_time":        0.034, "_%":     0.01},
           "nlefsm": { "_calls": 1, "_time":        0.117, "_%":     0.04},
           "DHSCF_Init": { "_calls": 1, "_time":        8.091, "_%":     2.95,
             "DHSCF1": { "_calls": 1, "_time":        0.039, "_%":     0.01,
               "INITMESH": { "_calls": 1, "_time":        0.000, "_%":     0.00}
             },
             "DHSCF2": { "_calls": 1, "_time":        8.036, "_%":     2.93,
               "REMESH": { "_calls": 1, "_time":        0.106, "_%":     0.04,
                 "INITMESH": { "_calls": 2, "_time":        0.084, "_%":     0.03,
                   "SPLOAD": { "_calls": 2, "_time":        0.078, "_%":     0.03}
                 }
               },
               "REORD": { "_calls": 2, "_time":        0.041, "_%":     0.01},
               "PHION": { "_calls": 1, "_time":        0.288, "_%":     0.11},
               "COMM_BSC": { "_calls": 1, "_time":        0.184, "_%":     0.07},
               "POISON": { "_calls": 1, "_time":        6.833, "_%":     2.49,
                 "fft": { "_calls": 2, "_time":        6.563, "_%":     2.39}
               }
             }
           }
         }
       },
       "IterSCF": { "_calls": 5, "_time":      264.238, "_%":    96.24,
         "setup_H": { "_calls": 5, "_time":       54.782, "_%":    19.95,
           "DHSCF": { "_calls": 5, "_time":       54.770, "_%":    19.95,
             "DHSCF3": { "_calls": 5, "_time":       54.770, "_%":    19.95,
               "rhoofd": { "_calls": 5, "_time":        0.311, "_%":     0.11},
               "COMM_BSC": { "_calls": 10, "_time":        2.053, "_%":     0.75},
               "POISON": { "_calls": 5, "_time":       34.367, "_%":    12.52,
                 "fft": { "_calls": 10, "_time":       32.884, "_%":    11.98}
               },
               "XC": { "_calls": 5, "_time":       15.390, "_%":     5.61,
                 "COMM_BSC": { "_calls": 10, "_time":        1.807, "_%":     0.66},
                 "GXC-CellXC": { "_calls": 5, "_time":       13.277, "_%":     4.84,
                   "gridxc@cellXC": { "_calls": 5, "_time":       13.277, "_%":     4.84}
                 }
               },
               "vmat": { "_calls": 5, "_time":        0.205, "_%":     0.07}
             }
           }
         },
         "compute_dm": { "_calls": 5, "_time":      209.433, "_%":    76.28,
           "diagon": { "_calls": 5, "_time":      209.177, "_%":    76.19,
             "r-eigvec": { "_calls": 5, "_time":      187.705, "_%":    68.36,
               "r-buildHS": { "_calls": 5, "_time":        0.110, "_%":     0.04},
               "rdiag": { "_calls": 5, "_time":      187.596, "_%":    68.32,
                 "rdiag1": { "_calls": 5, "_time":       10.246, "_%":     3.73},
                 "rdiag2": { "_calls": 5, "_time":       32.318, "_%":    11.77},
                 "rdiag3": { "_calls": 5, "_time":      122.746, "_%":    44.71},
                 "rdiag4": { "_calls": 5, "_time":       20.199, "_%":     7.36}
               }
             },
             "r-buildD": { "_calls": 5, "_time":       21.027, "_%":     7.66}
           }
         },
         "MIXER": { "_calls": 5, "_time":        0.006, "_%":     0.00}
       },
       "state_analysis": { "_calls": 1, "_time":        0.056, "_%":     0.02},
       "siesta_move": { "_calls": 1, "_time":        0.000, "_%":     0.00}
     },
     "Analysis": { "_calls": 1, "_time":        0.140, "_%":     0.05,
       "optical": { "_calls": 1, "_time":        0.001, "_%":     0.00}
     }
   }
 }}
