{
 "global_section": { "_calls": 1, "_time":      867.017, "_%":   100.00,
   "siesta": { "_calls": 1, "_time":      867.017, "_%":   100.00,
     "Setup": { "_calls": 1, "_time":        2.020, "_%":     0.23,
       "bands": { "_calls": 1, "_time":        0.003, "_%":     0.00},
       "KSV_init": { "_calls": 1, "_time":        0.001, "_%":     0.00}
     },
     "IterGeom": { "_calls": 1, "_time":      864.871, "_%":    99.75,
       "geom_init": { "_calls": 1, "_time":        4.893, "_%":     0.56,
         "state_init": { "_calls": 1, "_time":        0.335, "_%":     0.04,
           "hsparse": { "_calls": 1, "_time":        0.100, "_%":     0.01},
           "overlap": { "_calls": 1, "_time":        0.036, "_%":     0.00}
         },
         "Setup_H0": { "_calls": 1, "_time":        4.558, "_%":     0.53,
           "naefs": { "_calls": 1, "_time":        0.014, "_%":     0.00},
           "MolMec": { "_calls": 1, "_time":        0.000, "_%":     0.00},
           "kinefsm": { "_calls": 1, "_time":        0.034, "_%":     0.00},
           "nlefsm": { "_calls": 1, "_time":        0.115, "_%":     0.01},
           "DHSCF_Init": { "_calls": 1, "_time":        4.385, "_%":     0.51,
             "DHSCF1": { "_calls": 1, "_time":        0.032, "_%":     0.00,
               "INITMESH": { "_calls": 1, "_time":        0.000, "_%":     0.00}
             },
             "DHSCF2": { "_calls": 1, "_time":        4.341, "_%":     0.50,
               "REMESH": { "_calls": 1, "_time":        0.087, "_%":     0.01,
                 "INITMESH": { "_calls": 2, "_time":        0.076, "_%":     0.01,
                   "SPLOAD": { "_calls": 2, "_time":        0.061, "_%":     0.01}
                 }
               },
               "REORD": { "_calls": 2, "_time":        0.017, "_%":     0.00},
               "PHION": { "_calls": 1, "_time":        0.142, "_%":     0.02},
               "COMM_BSC": { "_calls": 1, "_time":        0.103, "_%":     0.01},
               "POISON": { "_calls": 1, "_time":        3.567, "_%":     0.41,
                 "fft": { "_calls": 2, "_time":        3.438, "_%":     0.40}
               }
             }
           }
         }
       },
       "IterSCF": { "_calls": 5, "_time":      859.900, "_%":    99.18,
         "setup_H": { "_calls": 5, "_time":       28.469, "_%":     3.28,
           "DHSCF": { "_calls": 5, "_time":       28.463, "_%":     3.28,
             "DHSCF3": { "_calls": 5, "_time":       28.463, "_%":     3.28,
               "rhoofd": { "_calls": 5, "_time":        0.181, "_%":     0.02},
               "COMM_BSC": { "_calls": 10, "_time":        0.929, "_%":     0.11},
               "POISON": { "_calls": 5, "_time":       17.931, "_%":     2.07,
                 "fft": { "_calls": 10, "_time":       17.198, "_%":     1.98}
               },
               "XC": { "_calls": 5, "_time":        8.086, "_%":     0.93,
                 "COMM_BSC": { "_calls": 10, "_time":        0.991, "_%":     0.11},
                 "GXC-CellXC": { "_calls": 5, "_time":        6.903, "_%":     0.80,
                   "gridxc@cellXC": { "_calls": 5, "_time":        6.903, "_%":     0.80}
                 }
               },
               "vmat": { "_calls": 5, "_time":        0.118, "_%":     0.01}
             }
           }
         },
         "compute_dm": { "_calls": 5, "_time":      831.400, "_%":    95.89,
           "redist_orbs_fwd": { "_calls": 10, "_time":        0.056, "_%":     0.01},
           "elsi-complex-solver": { "_calls": 5, "_time":      831.316, "_%":    95.88,
             "elsi-solver": { "_calls": 5, "_time":      830.185, "_%":    95.75}
           },
           "redist_dm-edm_bck": { "_calls": 5, "_time":        0.012, "_%":     0.00}
         },
         "MIXER": { "_calls": 5, "_time":        0.004, "_%":     0.00}
       },
       "state_analysis": { "_calls": 1, "_time":        0.053, "_%":     0.01},
       "siesta_move": { "_calls": 1, "_time":        0.000, "_%":     0.00}
     },
     "Analysis": { "_calls": 1, "_time":        0.124, "_%":     0.01,
       "optical": { "_calls": 1, "_time":        0.001, "_%":     0.00}
     }
   }
 }}
