JobID        JobIDRaw        JobName  Partition  MaxVMSize  MaxVMSizeNode  MaxVMSizeTask  AveVMSize     MaxRSS MaxRSSNode MaxRSSTask     AveRSS MaxPages MaxPagesNode   MaxPagesTask   AvePages     MinCPU MinCPUNode MinCPUTask     AveCPU   NTasks  AllocCPUS    Elapsed      State ExitCode AveCPUFreq ReqCPUFreqMin ReqCPUFreqMax ReqCPUFreqGov     ReqMem ConsumedEnergy  MaxDiskRead MaxDiskReadNode MaxDiskReadTask    AveDiskRead MaxDiskWrite MaxDiskWriteNode MaxDiskWriteTask   AveDiskWrite    ReqTRES  AllocTRES TRESUsageInAve TRESUsageInMax TRESUsageInMaxNode TRESUsageInMaxTask TRESUsageInMin TRESUsageInMinNode TRESUsageInMinTask TRESUsageInTot TRESUsageOutMax TRESUsageOutMaxNode TRESUsageOutMaxTask TRESUsageOutAve TRESUsageOutTot 
------------ ------------ ---------- ---------- ---------- -------------- -------------- ---------- ---------- ---------- ---------- ---------- -------- ------------ -------------- ---------- ---------- ---------- ---------- ---------- -------- ---------- ---------- ---------- -------- ---------- ------------- ------------- ------------- ---------- -------------- ------------ --------------- --------------- -------------- ------------ ---------------- ---------------- -------------- ---------- ---------- -------------- -------------- ------------------ ------------------ -------------- ------------------ ------------------ -------------- --------------- ------------------- ------------------- --------------- --------------- 
9552717      9552717       CovidWeak        gpp                                                                                                                                                                                                             224   00:05:41    RUNNING      0:0                  Unknown       Unknown       Unknown    224000M                                                                                                                                          billing=1+ billing=2+                                                                                                                                                                                                                                 
9552717.bat+ 9552717.bat+      batch                                                                                                                                                                                                               1        224   00:05:41    RUNNING      0:0          0             0             0             0                         0                                                                                                                                      cpu=224,m+                                                                                                                                                                                                                                 
9552717.ext+ 9552717.ext+     extern                                                                                                                                                                                                               1        224   00:05:41    RUNNING      0:0          0             0             0             0                         0                                                                                                                                      billing=2+                                                                                                                                                                                                                                 
9552717.0    9552717.0        siesta              7778.50M      gs09r3b43             86 7710866724    695410K  gs09r3b43          0  682689572       19    gs09r3b43             91          2   00:04:46  gs09r3b43          6   00:05:05      112        224   00:05:24  COMPLETED      0:0    425.60M       Unknown       Unknown       Unknown                   284.46K       13.65M       gs09r3b43              86         12.21M       12.65M        gs09r3b43                0          4.20M            cpu=224,m+ cpu=00:05:05,+ cpu=00:05:09,+ cpu=gs09r3b43,ene+ cpu=45,fs/disk=86+ cpu=00:04:46,+ cpu=gs09r3b43,ene+ cpu=6,fs/disk=20,+ cpu=09:30:41,+ energy=888,fs/+ energy=gs09r3b43,f+           fs/disk=0 energy=3,fs/di+ energy=367,fs/+ 
