JobID        JobIDRaw        JobName  Partition  MaxVMSize  MaxVMSizeNode  MaxVMSizeTask  AveVMSize     MaxRSS MaxRSSNode MaxRSSTask     AveRSS MaxPages MaxPagesNode   MaxPagesTask   AvePages     MinCPU MinCPUNode MinCPUTask     AveCPU   NTasks  AllocCPUS    Elapsed      State ExitCode AveCPUFreq ReqCPUFreqMin ReqCPUFreqMax ReqCPUFreqGov     ReqMem ConsumedEnergy  MaxDiskRead MaxDiskReadNode MaxDiskReadTask    AveDiskRead MaxDiskWrite MaxDiskWriteNode MaxDiskWriteTask   AveDiskWrite    ReqTRES  AllocTRES TRESUsageInAve TRESUsageInMax TRESUsageInMaxNode TRESUsageInMaxTask TRESUsageInMin TRESUsageInMinNode TRESUsageInMinTask TRESUsageInTot TRESUsageOutMax TRESUsageOutMaxNode TRESUsageOutMaxTask TRESUsageOutAve TRESUsageOutTot 
------------ ------------ ---------- ---------- ---------- -------------- -------------- ---------- ---------- ---------- ---------- ---------- -------- ------------ -------------- ---------- ---------- ---------- ---------- ---------- -------- ---------- ---------- ---------- -------- ---------- ------------- ------------- ------------- ---------- -------------- ------------ --------------- --------------- -------------- ------------ ---------------- ---------------- -------------- ---------- ---------- -------------- -------------- ------------------ ------------------ -------------- ------------------ ------------------ -------------- --------------- ------------------- ------------------- --------------- --------------- 
1589552      1589552      CovidStro+       qcpu                                                                                                                                                                                                             256   01:19:10    RUNNING      0:0                  Unknown       Unknown       Unknown       460G                                                                                                                                          billing=2+ billing=2+                                                                                                                                                                                                                                 
1589552.bat+ 1589552.bat+      batch                                                                                                                                                                                                               1        128   01:19:10    RUNNING      0:0          0             0             0             0                         0                                                                                                                                      cpu=128,m+                                                                                                                                                                                                                                 
1589552.ext+ 1589552.ext+     extern                                                                                                                                                                                                               2        256   01:19:10    RUNNING      0:0          0             0             0             0                         0                                                                                                                                      billing=2+                                                                                                                                                                                                                                 
1589552.0    1589552.0        siesta              1108260K          cn313            194  968576608   1100720K      cn313        194  958949024       95        cn313            144         32   01:17:50      cn312          0   01:18:17      256        256   01:19:07  COMPLETED      0:0     54.11M       Unknown       Unknown       Unknown                         0       14.97M           cn312               0         13.75M       20.04M            cn312                0          5.22M            cpu=256,m+ cpu=01:18:17,+ cpu=01:18:22,+ cpu=cn313,energy=+ cpu=187,fs/disk=0+ cpu=01:17:50,+ cpu=cn312,energy=+ cpu=0,fs/disk=222+ cpu=13-22:01:+ energy=0,fs/di+ energy=cn312,fs/di+           fs/disk=0 energy=0,fs/di+ energy=0,fs/di+ 
