{
 "global_section": { "_calls": 1, "_time":     4733.286, "_%":   100.00,
   "siesta": { "_calls": 1, "_time":     4733.286, "_%":   100.00,
     "Setup": { "_calls": 1, "_time":        2.751, "_%":     0.06,
       "bands": { "_calls": 1, "_time":        0.003, "_%":     0.00},
       "KSV_init": { "_calls": 1, "_time":        0.001, "_%":     0.00}
     },
     "IterGeom": { "_calls": 1, "_time":     4728.618, "_%":    99.90,
       "geom_init": { "_calls": 1, "_time":       15.582, "_%":     0.33,
         "state_init": { "_calls": 1, "_time":        2.964, "_%":     0.06,
           "hsparse": { "_calls": 1, "_time":        0.195, "_%":     0.00},
           "overlap": { "_calls": 1, "_time":        1.146, "_%":     0.02}
         },
         "Setup_H0": { "_calls": 1, "_time":       12.617, "_%":     0.27,
           "naefs": { "_calls": 1, "_time":        0.031, "_%":     0.00},
           "MolMec": { "_calls": 1, "_time":        0.000, "_%":     0.00},
           "kinefsm": { "_calls": 1, "_time":        1.134, "_%":     0.02},
           "nlefsm": { "_calls": 1, "_time":        2.595, "_%":     0.05},
           "DHSCF_Init": { "_calls": 1, "_time":        8.836, "_%":     0.19,
             "DHSCF1": { "_calls": 1, "_time":        0.083, "_%":     0.00,
               "INITMESH": { "_calls": 1, "_time":        0.000, "_%":     0.00}
             },
             "DHSCF2": { "_calls": 1, "_time":        8.727, "_%":     0.18,
               "REMESH": { "_calls": 1, "_time":        2.896, "_%":     0.06,
                 "INITMESH": { "_calls": 2, "_time":        2.855, "_%":     0.06,
                   "SPLOAD": { "_calls": 2, "_time":        2.811, "_%":     0.06}
                 }
               },
               "REORD": { "_calls": 2, "_time":        0.031, "_%":     0.00},
               "PHION": { "_calls": 1, "_time":        0.735, "_%":     0.02},
               "COMM_BSC": { "_calls": 1, "_time":        0.110, "_%":     0.00},
               "POISON": { "_calls": 1, "_time":        4.308, "_%":     0.09,
                 "fft": { "_calls": 2, "_time":        4.131, "_%":     0.09}
               }
             }
           }
         }
       },
       "IterSCF": { "_calls": 5, "_time":     4712.878, "_%":    99.57,
         "setup_H": { "_calls": 5, "_time":       36.941, "_%":     0.78,
           "DHSCF": { "_calls": 5, "_time":       36.910, "_%":     0.78,
             "DHSCF3": { "_calls": 5, "_time":       36.910, "_%":     0.78,
               "rhoofd": { "_calls": 5, "_time":        0.467, "_%":     0.01},
               "COMM_BSC": { "_calls": 10, "_time":        1.097, "_%":     0.02},
               "POISON": { "_calls": 5, "_time":       21.354, "_%":     0.45,
                 "fft": { "_calls": 10, "_time":       20.349, "_%":     0.43}
               },
               "XC": { "_calls": 5, "_time":       11.717, "_%":     0.25,
                 "COMM_BSC": { "_calls": 10, "_time":        1.081, "_%":     0.02},
                 "GXC-CellXC": { "_calls": 5, "_time":       10.372, "_%":     0.22,
                   "gridxc@cellXC": { "_calls": 5, "_time":       10.372, "_%":     0.22}
                 }
               },
               "vmat": { "_calls": 5, "_time":        0.524, "_%":     0.01}
             }
           }
         },
         "compute_dm": { "_calls": 5, "_time":     4675.909, "_%":    98.79,
           "diagon": { "_calls": 5, "_time":     4674.560, "_%":    98.76,
             "r-eigvec": { "_calls": 5, "_time":     4504.633, "_%":    95.17,
               "r-buildHS": { "_calls": 5, "_time":        1.021, "_%":     0.02},
               "rdiag": { "_calls": 5, "_time":     4503.612, "_%":    95.15,
                 "rdiag1": { "_calls": 5, "_time":      107.206, "_%":     2.26},
                 "rdiag2": { "_calls": 5, "_time":      318.610, "_%":     6.73},
                 "rdiag3": { "_calls": 5, "_time":     3624.037, "_%":    76.56},
                 "rdiag4": { "_calls": 5, "_time":      444.041, "_%":     9.38}
               }
             },
             "r-buildD": { "_calls": 5, "_time":      168.063, "_%":     3.55}
           }
         },
         "MIXER": { "_calls": 5, "_time":        0.010, "_%":     0.00}
       },
       "state_analysis": { "_calls": 1, "_time":        0.107, "_%":     0.00},
       "siesta_move": { "_calls": 1, "_time":        0.000, "_%":     0.00}
     },
     "Analysis": { "_calls": 1, "_time":        1.865, "_%":     0.04,
       "optical": { "_calls": 1, "_time":        0.001, "_%":     0.00}
     }
   }
 }}
