JobID        JobIDRaw        JobName  Partition  MaxVMSize  MaxVMSizeNode  MaxVMSizeTask  AveVMSize     MaxRSS MaxRSSNode MaxRSSTask     AveRSS MaxPages MaxPagesNode   MaxPagesTask   AvePages     MinCPU MinCPUNode MinCPUTask     AveCPU   NTasks  AllocCPUS    Elapsed      State ExitCode AveCPUFreq ReqCPUFreqMin ReqCPUFreqMax ReqCPUFreqGov     ReqMem ConsumedEnergy  MaxDiskRead MaxDiskReadNode MaxDiskReadTask    AveDiskRead MaxDiskWrite MaxDiskWriteNode MaxDiskWriteTask   AveDiskWrite    ReqTRES  AllocTRES TRESUsageInAve TRESUsageInMax TRESUsageInMaxNode TRESUsageInMaxTask TRESUsageInMin TRESUsageInMinNode TRESUsageInMinTask TRESUsageInTot TRESUsageOutMax TRESUsageOutMaxNode TRESUsageOutMaxTask TRESUsageOutAve TRESUsageOutTot 
------------ ------------ ---------- ---------- ---------- -------------- -------------- ---------- ---------- ---------- ---------- ---------- -------- ------------ -------------- ---------- ---------- ---------- ---------- ---------- -------- ---------- ---------- ---------- -------- ---------- ------------- ------------- ------------- ---------- -------------- ------------ --------------- --------------- -------------- ------------ ---------------- ---------------- -------------- ---------- ---------- -------------- -------------- ------------------ ------------------ -------------- ------------------ ------------------ -------------- --------------- ------------------- ------------------- --------------- --------------- 
13549119     13549119     submit.job boost_usr+                                                                                                                                                                                                              96   00:06:18    RUNNING      0:0                  Unknown       Unknown       Unknown   1478400M                                                                                                                                          billing=9+ billing=9+                                                                                                                                                                                                                                 
13549119.ba+ 13549119.ba+      batch                                                                                                                                                                                                               1         32   00:06:18    RUNNING      0:0          0             0             0             0                         0                                                                                                                                      cpu=32,gr+                                                                                                                                                                                                                                 
13549119.ex+ 13549119.ex+     extern                                                                                                                                                                                                               3         96   00:06:18    RUNNING      0:0          0             0             0             0                         0                                                                                                                                      billing=9+                                                                                                                                                                                                                                 
13549119.0   13549119.0   wrapper-s+              2007336K       lrdn2204              0  655986005   1834092K   lrdn2204          0  613987498      785     lrdn2204              0        203   00:06:04   lrdn2204          0   00:06:06       48         96   00:06:12  COMPLETED      0:0     98.39M       Unknown       Unknown       Unknown                         0      200.36M        lrdn2204              10          4.37M       15.08M         lrdn2204               10          0.40M            cpu=96,gr+ cpu=00:06:06,+ cpu=00:06:06,+ cpu=lrdn2253,ener+ cpu=32,fs/disk=10+ cpu=00:06:04,+ cpu=lrdn2204,ener+ cpu=0,fs/disk=6,m+ cpu=04:53:00,+ energy=0,fs/di+ energy=lrdn2215,fs+          fs/disk=10 energy=0,fs/di+ energy=0,fs/di+ 
13549119.1   13549119.1   wrapper-s+                                                                                                                                                                                                              48         96   00:00:01    RUNNING      0:0          0       Unknown       Unknown       Unknown                         0                                                                                                                                      cpu=96,gr+                                                                                                                                                                                                                                 
