JobID        JobIDRaw        JobName  Partition  MaxVMSize  MaxVMSizeNode  MaxVMSizeTask  AveVMSize     MaxRSS MaxRSSNode MaxRSSTask     AveRSS MaxPages MaxPagesNode   MaxPagesTask   AvePages     MinCPU MinCPUNode MinCPUTask     AveCPU   NTasks  AllocCPUS    Elapsed      State ExitCode AveCPUFreq ReqCPUFreqMin ReqCPUFreqMax ReqCPUFreqGov     ReqMem ConsumedEnergy  MaxDiskRead MaxDiskReadNode MaxDiskReadTask    AveDiskRead MaxDiskWrite MaxDiskWriteNode MaxDiskWriteTask   AveDiskWrite    ReqTRES  AllocTRES TRESUsageInAve TRESUsageInMax TRESUsageInMaxNode TRESUsageInMaxTask TRESUsageInMin TRESUsageInMinNode TRESUsageInMinTask TRESUsageInTot TRESUsageOutMax TRESUsageOutMaxNode TRESUsageOutMaxTask TRESUsageOutAve TRESUsageOutTot 
------------ ------------ ---------- ---------- ---------- -------------- -------------- ---------- ---------- ---------- ---------- ---------- -------- ------------ -------------- ---------- ---------- ---------- ---------- ---------- -------- ---------- ---------- ---------- -------- ---------- ------------- ------------- ------------- ---------- -------------- ------------ --------------- --------------- -------------- ------------ ---------------- ---------------- -------------- ---------- ---------- -------------- -------------- ------------------ ------------------ -------------- ------------------ ------------------ -------------- --------------- ------------------- ------------------- --------------- --------------- 
7682245      7682245      submit.job dcgp_usr_+                                                                                                                                                                                                            1792   00:01:12    RUNNING      0:0                  Unknown       Unknown       Unknown      7700G                                                                                                                                          billing=1+ billing=1+                                                                                                                                                                                                                                 
7682245.bat+ 7682245.bat+      batch                                                                                                                                                                                                               1        112   00:01:12    RUNNING      0:0          0             0             0             0                         0                                                                                                                                      cpu=112,g+                                                                                                                                                                                                                                 
7682245.ext+ 7682245.ext+     extern                                                                                                                                                                                                              16       1792   00:01:12    RUNNING      0:0          0             0             0             0                         0                                                                                                                                      billing=1+                                                                                                                                                                                                                                 
7682245.0    7682245.0        siesta               308080K       lrdn3839              0   14555341    267596K   lrdn3839          0   14032553      334     lrdn3839              0          1   00:00:24   lrdn4329        448   00:00:28     1792       1792   00:01:07  COMPLETED      0:0    135.28G       Unknown       Unknown       Unknown                         0        2.35M        lrdn3839               0          1.39M       12.79M         lrdn3839                0          0.01M            cpu=1792,+ cpu=00:00:28,+ cpu=00:00:48,+ cpu=lrdn3839,ener+ cpu=0,fs/disk=0,m+ cpu=00:00:24,+ cpu=lrdn4329,ener+ cpu=448,fs/disk=7+ cpu=14:22:11,+ energy=0,fs/di+ energy=lrdn4238,fs+           fs/disk=0 energy=0,fs/di+ energy=0,fs/di+ 
