Unloading profile/base
  ERROR: Module evaluation aborted
Unloading profile/base
  ERROR: Module evaluation aborted
Loading netcdf-fortran/4.6.1--openmpi--4.1.6--gcc--12.2.0
  Loading requirement: bzip2/1.0.8--gcc--12.2.0-cc63fjd
    lz4/1.9.4--gcc--12.2.0-airzjr3 snappy/1.1.10--gcc--12.2.0-oikfvst
    zlib/1.3--gcc--12.2.0 c-blosc/1.21.5--gcc--12.2.0-s3edzii
    pkgconf/1.9.5--gcc--12.2.0-vplyjax hdf5/1.14.3--openmpi--4.1.6--gcc--12.2.0
    libszip/2.1.1--gcc--12.2.0
    parallel-netcdf/1.12.3--openmpi--4.1.6--gcc--12.2.0
    zstd/1.5.5--gcc--12.2.0-h6hxgmk netcdf-c/4.9.2--openmpi--4.1.6--gcc--12.2.0
Current loaded modules
----------------------
Currently Loaded Modulefiles:
 1) profile/base(default)                                              
 2) gcc/12.2.0(default)                                                
 3) cuda/12.1(default)                                                 
 4) openmpi/4.1.6--gcc--12.2.0(default)                                
 5) fftw/3.3.10--openmpi--4.1.6--gcc--12.2.0(default)                  
 6) openblas/0.3.24--gcc--12.2.0(default)                              
 7) netlib-scalapack/2.2.0--openmpi--4.1.6--gcc--12.2.0(default)       
 8) cmake/3.27.7                                                       
 9) ninja/1.11.1                                                       
10) bzip2/1.0.8--gcc--12.2.0-cc63fjd <aL>                              
11) lz4/1.9.4--gcc--12.2.0-airzjr3 <aL>                                
12) snappy/1.1.10--gcc--12.2.0-oikfvst <aL>                            
13) zlib/1.3--gcc--12.2.0(default) <aL>                                
14) c-blosc/1.21.5--gcc--12.2.0-s3edzii <aL>                           
15) pkgconf/1.9.5--gcc--12.2.0-vplyjax <aL>                            
16) hdf5/1.14.3--openmpi--4.1.6--gcc--12.2.0(default) <aL>             
17) libszip/2.1.1--gcc--12.2.0(default) <aL>                           
18) parallel-netcdf/1.12.3--openmpi--4.1.6--gcc--12.2.0(default) <aL>  
19) zstd/1.5.5--gcc--12.2.0-h6hxgmk <aL>                               
20) netcdf-c/4.9.2--openmpi--4.1.6--gcc--12.2.0(default) <aL>          
21) netcdf-fortran/4.6.1--openmpi--4.1.6--gcc--12.2.0(default)         

Key:
(symbolic-version)  <module-tag>  <aL>=auto-loaded  

Current environment variables
-----------------------------
__MODULES_LMINIT=module use --append /leonardo/prod/spack/03/install/0.19/linux-rhel8-icelake/gcc-8.5.0/environment-modules-5.2.0-rz47odw4phlhzhhbz7b65nv5s5othgmi/modulefiles
HDF5_INCLUDE=/leonardo/prod/spack/5.2/install/0.21/linux-rhel8-icelake/gcc-12.2.0/hdf5-1.14.3-flr43qytzge67qvbmjx4mszcm23s4d3b/include
SLURM_MEM_PER_CPU=15400
LD_LIBRARY_PATH=/leonardo/prod/spack/5.2/install/0.21/linux-rhel8-icelake/gcc-12.2.0/netcdf-fortran-4.6.1-6ioe263mamir3dlic6nau7i2p3svn4q4/lib:/leonardo/prod/spack/5.2/install/0.21/linux-rhel8-icelake/gcc-12.2.0/netcdf-c-4.9.2-dnkfe3mn3ppoiqikffx5cgmdjoshzyak/lib:/leonardo/prod/spack/5.2/install/0.21/linux-rhel8-icelake/gcc-12.2.0/zstd-1.5.5-h6hxgmkwz3ti7tu33y4uhhwilralgibj/lib:/leonardo/prod/spack/5.2/install/0.21/linux-rhel8-icelake/gcc-12.2.0/parallel-netcdf-1.12.3-y4e3nyfxgtsz36njprlac7y2ljvxlra7/lib:/leonardo/prod/spack/5.2/install/0.21/linux-rhel8-icelake/gcc-12.2.0/libszip-2.1.1-seujxlmwecjzeykce7wn5khcg6hce4ih/lib:/leonardo/prod/spack/5.2/install/0.21/linux-rhel8-icelake/gcc-12.2.0/hdf5-1.14.3-flr43qytzge67qvbmjx4mszcm23s4d3b/lib:/leonardo/prod/spack/5.2/install/0.21/linux-rhel8-icelake/gcc-8.5.0/pkgconf-1.9.5-gr2lx34cuparz7tqcckt73neufgol7tz/lib:/leonardo/prod/spack/5.2/install/0.21/linux-rhel8-icelake/gcc-12.2.0/c-blosc-1.21.5-s3edziiwpwqsjjbfyqmtfj7tz4mpac6y/lib64:/leonardo/prod/spack/5.2/install/0.21/linux-rhel8-icelake/gcc-12.2.0/zlib-1.3-zz7sbfysldbr32mq3xuksztqfruqqtek/lib:/leonardo/prod/spack/5.2/install/0.21/linux-rhel8-icelake/gcc-12.2.0/snappy-1.1.10-oikfvstykogvegfzufrlijgwq3snyr6x/lib:/leonardo/prod/spack/5.2/install/0.21/linux-rhel8-icelake/gcc-12.2.0/lz4-1.9.4-airzjr33y2opch3tssn2wfiz44nud4ng/lib:/leonardo/prod/spack/5.2/install/0.21/linux-rhel8-icelake/gcc-12.2.0/bzip2-1.0.8-cc63fjd7tlgjcisyxrlbuz5d3aryxsal/lib:/leonardo/prod/spack/5.2/install/0.21/linux-rhel8-icelake/gcc-12.2.0/netlib-scalapack-2.2.0-aw7g74ew6bk34b4vq6mbyzjpnmsu7hjq/lib:/leonardo/prod/spack/5.2/install/0.21/linux-rhel8-icelake/gcc-12.2.0/openblas-0.3.24-kytrjfxkavk6fcucnujsdsfqqsjfv5t7/lib:/leonardo/prod/spack/5.2/install/0.21/linux-rhel8-icelake/gcc-12.2.0/fftw-3.3.10-kau3lmxr2fm72enmw3a42drdjvwexdsp/lib:/leonardo/prod/opt/libraries/openmpi/4.1.6/gcc--12.2.0/lib:/leonardo/prod/opt/compilers/cuda/12.1/none/lib64:/leonardo/prod/spack/5.2/install/0.21/linux-rhel8-icelake/gcc-8.5.0/gcc-12.2.0-gmhym3kmbzqlpwkzhgab2xsoygsdwxcl/lib64:/leonardo/prod/spack/5.2/install/0.21/linux-rhel8-icelake/gcc-8.5.0/gcc-12.2.0-gmhym3kmbzqlpwkzhgab2xsoygsdwxcl/lib:/leonardo_work/Max3_devel_3/lbellen1/MaX/WP3/siesta/installations/elpa-gpu-2024.5/lib
LS_COLORS=rs=0:di=01;34:ln=01;36:mh=00:pi=40;33:so=01;35:do=01;35:bd=40;33;01:cd=40;33;01:or=40;31;01:mi=01;05;37;41:su=37;41:sg=30;43:ca=30;41:tw=30;42:ow=34;42:st=37;44:ex=01;32:*.tar=01;31:*.tgz=01;31:*.arc=01;31:*.arj=01;31:*.taz=01;31:*.lha=01;31:*.lz4=01;31:*.lzh=01;31:*.lzma=01;31:*.tlz=01;31:*.txz=01;31:*.tzo=01;31:*.t7z=01;31:*.zip=01;31:*.z=01;31:*.dz=01;31:*.gz=01;31:*.lrz=01;31:*.lz=01;31:*.lzo=01;31:*.xz=01;31:*.zst=01;31:*.tzst=01;31:*.bz2=01;31:*.bz=01;31:*.tbz=01;31:*.tbz2=01;31:*.tz=01;31:*.deb=01;31:*.rpm=01;31:*.jar=01;31:*.war=01;31:*.ear=01;31:*.sar=01;31:*.rar=01;31:*.alz=01;31:*.ace=01;31:*.zoo=01;31:*.cpio=01;31:*.7z=01;31:*.rz=01;31:*.cab=01;31:*.wim=01;31:*.swm=01;31:*.dwm=01;31:*.esd=01;31:*.jpg=01;35:*.jpeg=01;35:*.mjpg=01;35:*.mjpeg=01;35:*.gif=01;35:*.bmp=01;35:*.pbm=01;35:*.pgm=01;35:*.ppm=01;35:*.tga=01;35:*.xbm=01;35:*.xpm=01;35:*.tif=01;35:*.tiff=01;35:*.png=01;35:*.svg=01;35:*.svgz=01;35:*.mng=01;35:*.pcx=01;35:*.mov=01;35:*.mpg=01;35:*.mpeg=01;35:*.m2v=01;35:*.mkv=01;35:*.webm=01;35:*.ogm=01;35:*.mp4=01;35:*.m4v=01;35:*.mp4v=01;35:*.vob=01;35:*.qt=01;35:*.nuv=01;35:*.wmv=01;35:*.asf=01;35:*.rm=01;35:*.rmvb=01;35:*.flc=01;35:*.avi=01;35:*.fli=01;35:*.flv=01;35:*.gl=01;35:*.dl=01;35:*.xcf=01;35:*.xwd=01;35:*.yuv=01;35:*.cgm=01;35:*.emf=01;35:*.ogv=01;35:*.ogx=01;35:*.aac=01;36:*.au=01;36:*.flac=01;36:*.m4a=01;36:*.mid=01;36:*.midi=01;36:*.mka=01;36:*.mp3=01;36:*.mpc=01;36:*.ogg=01;36:*.ra=01;36:*.wav=01;36:*.oga=01;36:*.opus=01;36:*.spx=01;36:*.xspf=01;36:
NINJA_HOME=/leonardo/prod/spack/5.2/install/0.21/linux-rhel8-icelake/gcc-8.5.0/ninja-1.11.1-fx3jut6mf2i7z5bqpqaseo4bqqmtrbbc
SLURM_NODEID=0
SLURM_TASK_PID=2411820
NETCDF_FORTRAN_HOME=/leonardo/prod/spack/5.2/install/0.21/linux-rhel8-icelake/gcc-12.2.0/netcdf-fortran-4.6.1-6ioe263mamir3dlic6nau7i2p3svn4q4
SSH_CONNECTION=93.44.80.205 22883 10.137.0.11 22
OPENBLAS_LIB=/leonardo/prod/spack/5.2/install/0.21/linux-rhel8-icelake/gcc-12.2.0/openblas-0.3.24-kytrjfxkavk6fcucnujsdsfqqsjfv5t7/lib
SLURM_PRIO_PROCESS=0
MODULES_RUN_QUARANTINE=LD_LIBRARY_PATH LD_PRELOAD
NETCDF_C_INC=/leonardo/prod/spack/5.2/install/0.21/linux-rhel8-icelake/gcc-12.2.0/netcdf-c-4.9.2-dnkfe3mn3ppoiqikffx5cgmdjoshzyak/include
LANG=en_US.UTF-8
SLURM_SUBMIT_DIR=/leonardo_scratch/fast/Max3_devel_2/WP3/siesta/rerun-covid-spike_strongscaling-leonardo-booster-5.2.0-alpha_2024-09/benchmark/strong_scaling_mps/000003/000006_submit/work
LIBSZIP_HOME=/leonardo/prod/spack/5.2/install/0.21/linux-rhel8-icelake/gcc-12.2.0/libszip-2.1.1-seujxlmwecjzeykce7wn5khcg6hce4ih
HISTCONTROL=ignoredups
ZSTD_INC=/leonardo/prod/spack/5.2/install/0.21/linux-rhel8-icelake/gcc-12.2.0/zstd-1.5.5-h6hxgmkwz3ti7tu33y4uhhwilralgibj/include
NETLIB_SCALAPACK_HOME=/leonardo/prod/spack/5.2/install/0.21/linux-rhel8-icelake/gcc-12.2.0/netlib-scalapack-2.2.0-aw7g74ew6bk34b4vq6mbyzjpnmsu7hjq
DISPLAY=localhost:15.0
HDF5_INC=/leonardo/prod/spack/5.2/install/0.21/linux-rhel8-icelake/gcc-12.2.0/hdf5-1.14.3-flr43qytzge67qvbmjx4mszcm23s4d3b/include
HDF5_HOME=/leonardo/prod/spack/5.2/install/0.21/linux-rhel8-icelake/gcc-12.2.0/hdf5-1.14.3-flr43qytzge67qvbmjx4mszcm23s4d3b
HOSTNAME=lrdn3012
PUBLIC=/leonardo/pub/userinternal/lbellen1
OLDPWD=/leonardo/home/userinternal/lbellen1/max_scratch_fast/WP3/siesta/rerun-covid-spike_strongscaling-leonardo-booster-5.2.0-alpha_2024-09/benchmark/inputfiles
PKGCONF_INC=/leonardo/prod/spack/5.2/install/0.21/linux-rhel8-icelake/gcc-8.5.0/pkgconf-1.9.5-gr2lx34cuparz7tqcckt73neufgol7tz/include
BZIP2_LIB=/leonardo/prod/spack/5.2/install/0.21/linux-rhel8-icelake/gcc-12.2.0/bzip2-1.0.8-cc63fjd7tlgjcisyxrlbuz5d3aryxsal/lib
SLURM_CPUS_PER_TASK=2
C_INCLUDE_PATH=/leonardo/prod/spack/5.2/install/0.21/linux-rhel8-icelake/gcc-12.2.0/netcdf-fortran-4.6.1-6ioe263mamir3dlic6nau7i2p3svn4q4/include:/leonardo/prod/spack/5.2/install/0.21/linux-rhel8-icelake/gcc-12.2.0/netcdf-c-4.9.2-dnkfe3mn3ppoiqikffx5cgmdjoshzyak/include:/leonardo/prod/spack/5.2/install/0.21/linux-rhel8-icelake/gcc-12.2.0/zstd-1.5.5-h6hxgmkwz3ti7tu33y4uhhwilralgibj/include:/leonardo/prod/spack/5.2/install/0.21/linux-rhel8-icelake/gcc-12.2.0/parallel-netcdf-1.12.3-y4e3nyfxgtsz36njprlac7y2ljvxlra7/include:/leonardo/prod/spack/5.2/install/0.21/linux-rhel8-icelake/gcc-12.2.0/libszip-2.1.1-seujxlmwecjzeykce7wn5khcg6hce4ih/include:/leonardo/prod/spack/5.2/install/0.21/linux-rhel8-icelake/gcc-12.2.0/hdf5-1.14.3-flr43qytzge67qvbmjx4mszcm23s4d3b/include:/leonardo/prod/spack/5.2/install/0.21/linux-rhel8-icelake/gcc-8.5.0/pkgconf-1.9.5-gr2lx34cuparz7tqcckt73neufgol7tz/include:/leonardo/prod/spack/5.2/install/0.21/linux-rhel8-icelake/gcc-12.2.0/c-blosc-1.21.5-s3edziiwpwqsjjbfyqmtfj7tz4mpac6y/include:/leonardo/prod/spack/5.2/install/0.21/linux-rhel8-icelake/gcc-12.2.0/zlib-1.3-zz7sbfysldbr32mq3xuksztqfruqqtek/include:/leonardo/prod/spack/5.2/install/0.21/linux-rhel8-icelake/gcc-12.2.0/snappy-1.1.10-oikfvstykogvegfzufrlijgwq3snyr6x/include:/leonardo/prod/spack/5.2/install/0.21/linux-rhel8-icelake/gcc-12.2.0/lz4-1.9.4-airzjr33y2opch3tssn2wfiz44nud4ng/include:/leonardo/prod/spack/5.2/install/0.21/linux-rhel8-icelake/gcc-12.2.0/bzip2-1.0.8-cc63fjd7tlgjcisyxrlbuz5d3aryxsal/include:/leonardo/prod/spack/5.2/install/0.21/linux-rhel8-icelake/gcc-12.2.0/openblas-0.3.24-kytrjfxkavk6fcucnujsdsfqqsjfv5t7/include:/leonardo/prod/spack/5.2/install/0.21/linux-rhel8-icelake/gcc-12.2.0/fftw-3.3.10-kau3lmxr2fm72enmw3a42drdjvwexdsp/include:/leonardo/prod/opt/libraries/openmpi/4.1.6/gcc--12.2.0/include:/leonardo/prod/opt/compilers/cuda/12.1/none/include:/leonardo/prod/spack/5.2/install/0.21/linux-rhel8-icelake/gcc-8.5.0/gcc-12.2.0-gmhym3kmbzqlpwkzhgab2xsoygsdwxcl/include
OMP_PROC_BIND=close
HDF5_LIB=/leonardo/prod/spack/5.2/install/0.21/linux-rhel8-icelake/gcc-12.2.0/hdf5-1.14.3-flr43qytzge67qvbmjx4mszcm23s4d3b/lib
ENVIRONMENT=BATCH
OPENMPI_HOME=/leonardo/prod/opt/libraries/openmpi/4.1.6/gcc--12.2.0
CINECA_SCRATCH=/leonardo_scratch/large/userinternal/lbellen1
IOI_JOB_ARGC=1
NETCDF_FORTRAN_INC=/leonardo/prod/spack/5.2/install/0.21/linux-rhel8-icelake/gcc-12.2.0/netcdf-fortran-4.6.1-6ioe263mamir3dlic6nau7i2p3svn4q4/include
ROCR_VISIBLE_DEVICES=0,1,2,3
ZSTD_INCLUDE=/leonardo/prod/spack/5.2/install/0.21/linux-rhel8-icelake/gcc-12.2.0/zstd-1.5.5-h6hxgmkwz3ti7tu33y4uhhwilralgibj/include
SLURM_PROCID=0
ZSTD_LIB=/leonardo/prod/spack/5.2/install/0.21/linux-rhel8-icelake/gcc-12.2.0/zstd-1.5.5-h6hxgmkwz3ti7tu33y4uhhwilralgibj/lib
SLURM_JOB_GID=25200
MODULES_SITECONFIG=/leonardo/prod/opt/environment/module/current/etc/siteconfig.tcl
DRES=/no/project/defined
OPENBLAS_INC=/leonardo/prod/spack/5.2/install/0.21/linux-rhel8-icelake/gcc-12.2.0/openblas-0.3.24-kytrjfxkavk6fcucnujsdsfqqsjfv5t7/include
__MODULES_LMPREREQ=openmpi/4.1.6--gcc--12.2.0&gcc/12.2.0:fftw/3.3.10--openmpi--4.1.6--gcc--12.2.0&openmpi/4.1.6--gcc--12.2.0:netlib-scalapack/2.2.0--openmpi--4.1.6--gcc--12.2.0&openblas/0.3.24--gcc--12.2.0&openmpi/4.1.6--gcc--12.2.0:c-blosc/1.21.5--gcc--12.2.0-s3edzii&lz4/1.9.4--gcc--12.2.0-airzjr3&snappy/1.1.10--gcc--12.2.0-oikfvst&zlib/1.3--gcc--12.2.0:hdf5/1.14.3--openmpi--4.1.6--gcc--12.2.0&openmpi/4.1.6--gcc--12.2.0&pkgconf/1.9.5--gcc--12.2.0-vplyjax&zlib/1.3--gcc--12.2.0:parallel-netcdf/1.12.3--openmpi--4.1.6--gcc--12.2.0&openmpi/4.1.6--gcc--12.2.0:netcdf-c/4.9.2--openmpi--4.1.6--gcc--12.2.0&bzip2/1.0.8--gcc--12.2.0-cc63fjd&c-blosc/1.21.5--gcc--12.2.0-s3edzii&hdf5/1.14.3--openmpi--4.1.6--gcc--12.2.0&libszip/2.1.1--gcc--12.2.0&openmpi/4.1.6--gcc--12.2.0&parallel-netcdf/1.12.3--openmpi--4.1.6--gcc--12.2.0&zlib/1.3--gcc--12.2.0&zstd/1.5.5--gcc--12.2.0-h6hxgmk:netcdf-fortran/4.6.1--openmpi--4.1.6--gcc--12.2.0&netcdf-c/4.9.2--openmpi--4.1.6--gcc--12.2.0
NETCDF_FORTRAN_LIB=/leonardo/prod/spack/5.2/install/0.21/linux-rhel8-icelake/gcc-12.2.0/netcdf-fortran-4.6.1-6ioe263mamir3dlic6nau7i2p3svn4q4/lib
SLURMD_NODENAME=lrdn3012
FFTW_INC=/leonardo/prod/spack/5.2/install/0.21/linux-rhel8-icelake/gcc-12.2.0/fftw-3.3.10-kau3lmxr2fm72enmw3a42drdjvwexdsp/include
SLURM_TASKS_PER_NODE=16(x2)
S_COLORS=auto
C_BLOSC_INCLUDE=/leonardo/prod/spack/5.2/install/0.21/linux-rhel8-icelake/gcc-12.2.0/c-blosc-1.21.5-s3edziiwpwqsjjbfyqmtfj7tz4mpac6y/include
which_declare=declare -f
HDF5_PLUGIN_PATH=/leonardo/prod/spack/5.2/install/0.21/linux-rhel8-icelake/gcc-12.2.0/netcdf-c-4.9.2-dnkfe3mn3ppoiqikffx5cgmdjoshzyak/plugins
LIBSZIP_INC=/leonardo/prod/spack/5.2/install/0.21/linux-rhel8-icelake/gcc-12.2.0/libszip-2.1.1-seujxlmwecjzeykce7wn5khcg6hce4ih/include
LIBSZIP_INCLUDE=/leonardo/prod/spack/5.2/install/0.21/linux-rhel8-icelake/gcc-12.2.0/libszip-2.1.1-seujxlmwecjzeykce7wn5khcg6hce4ih/include
HPC_SYSTEM=leonardo
CC=gcc
MPIF90=/leonardo/prod/opt/libraries/openmpi/4.1.6/gcc--12.2.0/bin/mpif90
XDG_SESSION_ID=258954
MODULES_CMD=/leonardo/prod/spack/03/install/0.19/linux-rhel8-icelake/gcc-8.5.0/environment-modules-5.2.0-rz47odw4phlhzhhbz7b65nv5s5othgmi/libexec/modulecmd.tcl
SLURM_NNODES=2
USER=lbellen1
__MODULES_LMTAG=bzip2/1.0.8--gcc--12.2.0-cc63fjd&auto-loaded:lz4/1.9.4--gcc--12.2.0-airzjr3&auto-loaded:snappy/1.1.10--gcc--12.2.0-oikfvst&auto-loaded:zlib/1.3--gcc--12.2.0&auto-loaded:c-blosc/1.21.5--gcc--12.2.0-s3edzii&auto-loaded:pkgconf/1.9.5--gcc--12.2.0-vplyjax&auto-loaded:hdf5/1.14.3--openmpi--4.1.6--gcc--12.2.0&auto-loaded:libszip/2.1.1--gcc--12.2.0&auto-loaded:parallel-netcdf/1.12.3--openmpi--4.1.6--gcc--12.2.0&auto-loaded:zstd/1.5.5--gcc--12.2.0-h6hxgmk&auto-loaded:netcdf-c/4.9.2--openmpi--4.1.6--gcc--12.2.0&auto-loaded
CUDA_LIB=/leonardo/prod/opt/compilers/cuda/12.1/none/lib64
IOI_JOB_ARGV0=/leonardo_scratch/fast/Max3_devel_2/WP3/siesta/rerun-covid-spike_strongscaling-leonardo-booster-5.2.0-alpha_2024-09/benchmark/strong_scaling_mps/000003/000006_submit/work/submit.job
GCC_INC=/leonardo/prod/spack/5.2/install/0.21/linux-rhel8-icelake/gcc-8.5.0/gcc-12.2.0-gmhym3kmbzqlpwkzhgab2xsoygsdwxcl/include
SNAPPY_INCLUDE=/leonardo/prod/spack/5.2/install/0.21/linux-rhel8-icelake/gcc-12.2.0/snappy-1.1.10-oikfvstykogvegfzufrlijgwq3snyr6x/include
MPICXX=/leonardo/prod/opt/libraries/openmpi/4.1.6/gcc--12.2.0/bin/mpic++
SLURM_NTASKS_PER_NODE=16
SELINUX_ROLE_REQUESTED=
OPENMPI_LIB=/leonardo/prod/opt/libraries/openmpi/4.1.6/gcc--12.2.0/lib
LZ4_INC=/leonardo/prod/spack/5.2/install/0.21/linux-rhel8-icelake/gcc-12.2.0/lz4-1.9.4-airzjr33y2opch3tssn2wfiz44nud4ng/include
PWD=/leonardo_scratch/fast/Max3_devel_2/WP3/siesta/rerun-covid-spike_strongscaling-leonardo-booster-5.2.0-alpha_2024-09/benchmark/strong_scaling_mps/000003/000006_submit/work
FFTW_INCLUDE=/leonardo/prod/spack/5.2/install/0.21/linux-rhel8-icelake/gcc-12.2.0/fftw-3.3.10-kau3lmxr2fm72enmw3a42drdjvwexdsp/include
NETCDF_FORTRAN_INCLUDE=/leonardo/prod/spack/5.2/install/0.21/linux-rhel8-icelake/gcc-12.2.0/netcdf-fortran-4.6.1-6ioe263mamir3dlic6nau7i2p3svn4q4/include
LZ4_HOME=/leonardo/prod/spack/5.2/install/0.21/linux-rhel8-icelake/gcc-12.2.0/lz4-1.9.4-airzjr33y2opch3tssn2wfiz44nud4ng
SLURM_JOB_NODELIST=lrdn[3012,3026]
HOME=/leonardo/home/userinternal/lbellen1
SLURM_CLUSTER_NAME=leonardo
CMAKE_PREFIX_PATH=/leonardo/prod/spack/5.2/install/0.21/linux-rhel8-icelake/gcc-12.2.0/netcdf-fortran-4.6.1-6ioe263mamir3dlic6nau7i2p3svn4q4/.:/leonardo/prod/spack/5.2/install/0.21/linux-rhel8-icelake/gcc-12.2.0/netcdf-c-4.9.2-dnkfe3mn3ppoiqikffx5cgmdjoshzyak/.:/leonardo/prod/spack/5.2/install/0.21/linux-rhel8-icelake/gcc-12.2.0/zstd-1.5.5-h6hxgmkwz3ti7tu33y4uhhwilralgibj/.:/leonardo/prod/spack/5.2/install/0.21/linux-rhel8-icelake/gcc-12.2.0/parallel-netcdf-1.12.3-y4e3nyfxgtsz36njprlac7y2ljvxlra7/.:/leonardo/prod/spack/5.2/install/0.21/linux-rhel8-icelake/gcc-12.2.0/libszip-2.1.1-seujxlmwecjzeykce7wn5khcg6hce4ih/.:/leonardo/prod/spack/5.2/install/0.21/linux-rhel8-icelake/gcc-12.2.0/hdf5-1.14.3-flr43qytzge67qvbmjx4mszcm23s4d3b/.:/leonardo/prod/spack/5.2/install/0.21/linux-rhel8-icelake/gcc-8.5.0/pkgconf-1.9.5-gr2lx34cuparz7tqcckt73neufgol7tz/.:/leonardo/prod/spack/5.2/install/0.21/linux-rhel8-icelake/gcc-12.2.0/c-blosc-1.21.5-s3edziiwpwqsjjbfyqmtfj7tz4mpac6y/.:/leonardo/prod/spack/5.2/install/0.21/linux-rhel8-icelake/gcc-12.2.0/zlib-1.3-zz7sbfysldbr32mq3xuksztqfruqqtek/.:/leonardo/prod/spack/5.2/install/0.21/linux-rhel8-icelake/gcc-12.2.0/snappy-1.1.10-oikfvstykogvegfzufrlijgwq3snyr6x/.:/leonardo/prod/spack/5.2/install/0.21/linux-rhel8-icelake/gcc-12.2.0/lz4-1.9.4-airzjr33y2opch3tssn2wfiz44nud4ng/.:/leonardo/prod/spack/5.2/install/0.21/linux-rhel8-icelake/gcc-12.2.0/bzip2-1.0.8-cc63fjd7tlgjcisyxrlbuz5d3aryxsal/.:/leonardo/prod/spack/5.2/install/0.21/linux-rhel8-icelake/gcc-8.5.0/ninja-1.11.1-fx3jut6mf2i7z5bqpqaseo4bqqmtrbbc/.:/leonardo/prod/spack/5.2/install/0.21/linux-rhel8-icelake/gcc-8.5.0/cmake-3.27.7-vatukecmu7wnbi2tnfogps5x4pitvriu/.:/leonardo/prod/spack/5.2/install/0.21/linux-rhel8-icelake/gcc-12.2.0/netlib-scalapack-2.2.0-aw7g74ew6bk34b4vq6mbyzjpnmsu7hjq/.:/leonardo/prod/spack/5.2/install/0.21/linux-rhel8-icelake/gcc-12.2.0/openblas-0.3.24-kytrjfxkavk6fcucnujsdsfqqsjfv5t7/.:/leonardo/prod/spack/5.2/install/0.21/linux-rhel8-icelake/gcc-12.2.0/fftw-3.3.10-kau3lmxr2fm72enmw3a42drdjvwexdsp/.:/leonardo/prod/opt/libraries/openmpi/4.1.6/gcc--12.2.0/.:/leonardo/prod/opt/compilers/cuda/12.1/none/.:/leonardo/prod/spack/5.2/install/0.21/linux-rhel8-icelake/gcc-8.5.0/gcc-12.2.0-gmhym3kmbzqlpwkzhgab2xsoygsdwxcl/.
SLURM_NODELIST=lrdn[3012,3026]
SLURM_GPUS_ON_NODE=4
SSH_CLIENT=93.44.80.205 22883 22
OPENMPI_INCLUDE=/leonardo/prod/opt/libraries/openmpi/4.1.6/gcc--12.2.0/include
CUDA_HOME=/leonardo/prod/opt/compilers/cuda/12.1/none
CPATH=/leonardo/prod/spack/5.2/install/0.21/linux-rhel8-icelake/gcc-12.2.0/netcdf-fortran-4.6.1-6ioe263mamir3dlic6nau7i2p3svn4q4/include:/leonardo/prod/spack/5.2/install/0.21/linux-rhel8-icelake/gcc-12.2.0/netcdf-c-4.9.2-dnkfe3mn3ppoiqikffx5cgmdjoshzyak/include:/leonardo/prod/spack/5.2/install/0.21/linux-rhel8-icelake/gcc-12.2.0/zstd-1.5.5-h6hxgmkwz3ti7tu33y4uhhwilralgibj/include:/leonardo/prod/spack/5.2/install/0.21/linux-rhel8-icelake/gcc-12.2.0/parallel-netcdf-1.12.3-y4e3nyfxgtsz36njprlac7y2ljvxlra7/include:/leonardo/prod/spack/5.2/install/0.21/linux-rhel8-icelake/gcc-12.2.0/libszip-2.1.1-seujxlmwecjzeykce7wn5khcg6hce4ih/include:/leonardo/prod/spack/5.2/install/0.21/linux-rhel8-icelake/gcc-12.2.0/hdf5-1.14.3-flr43qytzge67qvbmjx4mszcm23s4d3b/include:/leonardo/prod/spack/5.2/install/0.21/linux-rhel8-icelake/gcc-8.5.0/pkgconf-1.9.5-gr2lx34cuparz7tqcckt73neufgol7tz/include:/leonardo/prod/spack/5.2/install/0.21/linux-rhel8-icelake/gcc-12.2.0/c-blosc-1.21.5-s3edziiwpwqsjjbfyqmtfj7tz4mpac6y/include:/leonardo/prod/spack/5.2/install/0.21/linux-rhel8-icelake/gcc-12.2.0/zlib-1.3-zz7sbfysldbr32mq3xuksztqfruqqtek/include:/leonardo/prod/spack/5.2/install/0.21/linux-rhel8-icelake/gcc-12.2.0/snappy-1.1.10-oikfvstykogvegfzufrlijgwq3snyr6x/include:/leonardo/prod/spack/5.2/install/0.21/linux-rhel8-icelake/gcc-12.2.0/lz4-1.9.4-airzjr33y2opch3tssn2wfiz44nud4ng/include:/leonardo/prod/spack/5.2/install/0.21/linux-rhel8-icelake/gcc-12.2.0/bzip2-1.0.8-cc63fjd7tlgjcisyxrlbuz5d3aryxsal/include:/leonardo/prod/spack/5.2/install/0.21/linux-rhel8-icelake/gcc-12.2.0/openblas-0.3.24-kytrjfxkavk6fcucnujsdsfqqsjfv5t7/include:/leonardo/prod/spack/5.2/install/0.21/linux-rhel8-icelake/gcc-12.2.0/fftw-3.3.10-kau3lmxr2fm72enmw3a42drdjvwexdsp/include:/leonardo/prod/opt/libraries/openmpi/4.1.6/gcc--12.2.0/include:/leonardo/prod/opt/compilers/cuda/12.1/none/include:/leonardo/prod/spack/5.2/install/0.21/linux-rhel8-icelake/gcc-8.5.0/gcc-12.2.0-gmhym3kmbzqlpwkzhgab2xsoygsdwxcl/include
SLURM_NTASKS=32
WORK=/leonardo_work/cin_staff
F77=gfortran
SELINUX_LEVEL_REQUESTED=
SLURM_JOB_CPUS_PER_NODE=32(x2)
PARALLEL_NETCDF_INCLUDE=/leonardo/prod/spack/5.2/install/0.21/linux-rhel8-icelake/gcc-12.2.0/parallel-netcdf-1.12.3-y4e3nyfxgtsz36njprlac7y2ljvxlra7/include
SLURM_TOPOLOGY_ADDR=HeadSwitche.isw-L2-CELLG17.isw90504.lrdn3012
C_BLOSC_INC=/leonardo/prod/spack/5.2/install/0.21/linux-rhel8-icelake/gcc-12.2.0/c-blosc-1.21.5-s3edziiwpwqsjjbfyqmtfj7tz4mpac6y/include
NVHPC_CUDA_HOME=/leonardo/prod/opt/compilers/cuda/12.1/none
OPENBLAS_HOME=/leonardo/prod/spack/5.2/install/0.21/linux-rhel8-icelake/gcc-12.2.0/openblas-0.3.24-kytrjfxkavk6fcucnujsdsfqqsjfv5t7
PARALLEL_NETCDF_HOME=/leonardo/prod/spack/5.2/install/0.21/linux-rhel8-icelake/gcc-12.2.0/parallel-netcdf-1.12.3-y4e3nyfxgtsz36njprlac7y2ljvxlra7
SLURM_WORKING_CLUSTER=leonardo:10.128.255.221:6817:9728:109
SNAPPY_LIB=/leonardo/prod/spack/5.2/install/0.21/linux-rhel8-icelake/gcc-12.2.0/snappy-1.1.10-oikfvstykogvegfzufrlijgwq3snyr6x/lib
__MODULES_SHARE_MANPATH=:12
__MODULES_LMALTNAME=profile/base&profile/default&profile:gcc/12.2.0&gcc/default&gcc&as|gcc/latest:cuda/12.1&cuda/default&cuda:openmpi/4.1.6--gcc--12.2.0&openmpi/default&openmpi:fftw/3.3.10--openmpi--4.1.6--gcc--12.2.0&fftw/default&fftw:openblas/0.3.24--gcc--12.2.0&openblas/default&openblas:netlib-scalapack/2.2.0--openmpi--4.1.6--gcc--12.2.0&netlib-scalapack/default&netlib-scalapack:cmake/3.27.7&as|cmake/default&as|cmake/latest:ninja/1.11.1&as|ninja/default&as|ninja/latest:bzip2/1.0.8--gcc--12.2.0-cc63fjd&as|bzip2/default&as|bzip2/latest:lz4/1.9.4--gcc--12.2.0-airzjr3&as|lz4/default&as|lz4/latest:snappy/1.1.10--gcc--12.2.0-oikfvst&as|snappy/default&as|snappy/latest:zlib/1.3--gcc--12.2.0&zlib/default&zlib&as|zlib/latest:c-blosc/1.21.5--gcc--12.2.0-s3edzii&as|c-blosc/default&as|c-blosc/latest:pkgconf/1.9.5--gcc--12.2.0-vplyjax&as|pkgconf/default&as|pkgconf/latest:hdf5/1.14.3--openmpi--4.1.6--gcc--12.2.0&hdf5/default&hdf5:libszip/2.1.1--gcc--12.2.0&libszip/default&libszip:parallel-netcdf/1.12.3--openmpi--4.1.6--gcc--12.2.0&parallel-netcdf/default&parallel-netcdf:zstd/1.5.5--gcc--12.2.0-h6hxgmk&as|zstd/default&as|zstd/latest:netcdf-c/4.9.2--openmpi--4.1.6--gcc--12.2.0&netcdf-c/default&netcdf-c:netcdf-fortran/4.6.1--openmpi--4.1.6--gcc--12.2.0&netcdf-fortran/default&netcdf-fortran
NETCDF_C_HOME=/leonardo/prod/spack/5.2/install/0.21/linux-rhel8-icelake/gcc-12.2.0/netcdf-c-4.9.2-dnkfe3mn3ppoiqikffx5cgmdjoshzyak
ZLIB_INC=/leonardo/prod/spack/5.2/install/0.21/linux-rhel8-icelake/gcc-12.2.0/zlib-1.3-zz7sbfysldbr32mq3xuksztqfruqqtek/include
GCC_HOME=/leonardo/prod/spack/5.2/install/0.21/linux-rhel8-icelake/gcc-8.5.0/gcc-12.2.0-gmhym3kmbzqlpwkzhgab2xsoygsdwxcl
SLURM_JOB_NAME=submit.job
TMPDIR=/tmp
LIBRARY_PATH=/leonardo/prod/spack/5.2/install/0.21/linux-rhel8-icelake/gcc-12.2.0/netcdf-fortran-4.6.1-6ioe263mamir3dlic6nau7i2p3svn4q4/lib:/leonardo/prod/spack/5.2/install/0.21/linux-rhel8-icelake/gcc-12.2.0/netcdf-c-4.9.2-dnkfe3mn3ppoiqikffx5cgmdjoshzyak/lib:/leonardo/prod/spack/5.2/install/0.21/linux-rhel8-icelake/gcc-12.2.0/zstd-1.5.5-h6hxgmkwz3ti7tu33y4uhhwilralgibj/lib:/leonardo/prod/spack/5.2/install/0.21/linux-rhel8-icelake/gcc-12.2.0/parallel-netcdf-1.12.3-y4e3nyfxgtsz36njprlac7y2ljvxlra7/lib:/leonardo/prod/spack/5.2/install/0.21/linux-rhel8-icelake/gcc-12.2.0/libszip-2.1.1-seujxlmwecjzeykce7wn5khcg6hce4ih/lib:/leonardo/prod/spack/5.2/install/0.21/linux-rhel8-icelake/gcc-12.2.0/hdf5-1.14.3-flr43qytzge67qvbmjx4mszcm23s4d3b/lib:/leonardo/prod/spack/5.2/install/0.21/linux-rhel8-icelake/gcc-8.5.0/pkgconf-1.9.5-gr2lx34cuparz7tqcckt73neufgol7tz/lib:/leonardo/prod/spack/5.2/install/0.21/linux-rhel8-icelake/gcc-12.2.0/c-blosc-1.21.5-s3edziiwpwqsjjbfyqmtfj7tz4mpac6y/lib64:/leonardo/prod/spack/5.2/install/0.21/linux-rhel8-icelake/gcc-12.2.0/zlib-1.3-zz7sbfysldbr32mq3xuksztqfruqqtek/lib:/leonardo/prod/spack/5.2/install/0.21/linux-rhel8-icelake/gcc-12.2.0/snappy-1.1.10-oikfvstykogvegfzufrlijgwq3snyr6x/lib:/leonardo/prod/spack/5.2/install/0.21/linux-rhel8-icelake/gcc-12.2.0/lz4-1.9.4-airzjr33y2opch3tssn2wfiz44nud4ng/lib:/leonardo/prod/spack/5.2/install/0.21/linux-rhel8-icelake/gcc-12.2.0/bzip2-1.0.8-cc63fjd7tlgjcisyxrlbuz5d3aryxsal/lib:/leonardo/prod/spack/5.2/install/0.21/linux-rhel8-icelake/gcc-12.2.0/netlib-scalapack-2.2.0-aw7g74ew6bk34b4vq6mbyzjpnmsu7hjq/lib:/leonardo/prod/spack/5.2/install/0.21/linux-rhel8-icelake/gcc-12.2.0/openblas-0.3.24-kytrjfxkavk6fcucnujsdsfqqsjfv5t7/lib:/leonardo/prod/spack/5.2/install/0.21/linux-rhel8-icelake/gcc-12.2.0/fftw-3.3.10-kau3lmxr2fm72enmw3a42drdjvwexdsp/lib:/leonardo/prod/opt/libraries/openmpi/4.1.6/gcc--12.2.0/lib:/leonardo/prod/opt/compilers/cuda/12.1/none/lib64:/leonardo/prod/spack/5.2/install/0.21/linux-rhel8-icelake/gcc-8.5.0/gcc-12.2.0-gmhym3kmbzqlpwkzhgab2xsoygsdwxcl/lib64:/leonardo/prod/spack/5.2/install/0.21/linux-rhel8-icelake/gcc-8.5.0/gcc-12.2.0-gmhym3kmbzqlpwkzhgab2xsoygsdwxcl/lib:/leonardo_work/Max3_devel_3/lbellen1/MaX/WP3/siesta/installations/elpa-gpu-2024.5/lib
SNAPPY_INC=/leonardo/prod/spack/5.2/install/0.21/linux-rhel8-icelake/gcc-12.2.0/snappy-1.1.10-oikfvstykogvegfzufrlijgwq3snyr6x/include
SLURM_JOB_GPUS=0,1,2,3
SLURM_JOBID=13551189
SLURM_CONF=/var/spool/slurmd/conf-cache/slurm.conf
LOADEDMODULES=profile/base:gcc/12.2.0:cuda/12.1:openmpi/4.1.6--gcc--12.2.0:fftw/3.3.10--openmpi--4.1.6--gcc--12.2.0:openblas/0.3.24--gcc--12.2.0:netlib-scalapack/2.2.0--openmpi--4.1.6--gcc--12.2.0:cmake/3.27.7:ninja/1.11.1:bzip2/1.0.8--gcc--12.2.0-cc63fjd:lz4/1.9.4--gcc--12.2.0-airzjr3:snappy/1.1.10--gcc--12.2.0-oikfvst:zlib/1.3--gcc--12.2.0:c-blosc/1.21.5--gcc--12.2.0-s3edzii:pkgconf/1.9.5--gcc--12.2.0-vplyjax:hdf5/1.14.3--openmpi--4.1.6--gcc--12.2.0:libszip/2.1.1--gcc--12.2.0:parallel-netcdf/1.12.3--openmpi--4.1.6--gcc--12.2.0:zstd/1.5.5--gcc--12.2.0-h6hxgmk:netcdf-c/4.9.2--openmpi--4.1.6--gcc--12.2.0:netcdf-fortran/4.6.1--openmpi--4.1.6--gcc--12.2.0
FC=gfortran
ZLIB_INCLUDE=/leonardo/prod/spack/5.2/install/0.21/linux-rhel8-icelake/gcc-12.2.0/zlib-1.3-zz7sbfysldbr32mq3xuksztqfruqqtek/include
SLURM_SPANK_IOINSTRUMENTATION_ENABLED=0
SCRATCH=/leonardo_scratch/large/userinternal/lbellen1
NETCDF_C_LIB=/leonardo/prod/spack/5.2/install/0.21/linux-rhel8-icelake/gcc-12.2.0/netcdf-c-4.9.2-dnkfe3mn3ppoiqikffx5cgmdjoshzyak/lib
SLURM_NODE_ALIASES=(null)
MPICC=/leonardo/prod/opt/libraries/openmpi/4.1.6/gcc--12.2.0/bin/mpicc
SLURM_JOB_QOS=normal
SLURM_TOPOLOGY_ADDR_PATTERN=switch.switch.switch.node
SSH_TTY=/dev/pts/439
BZIP2_HOME=/leonardo/prod/spack/5.2/install/0.21/linux-rhel8-icelake/gcc-12.2.0/bzip2-1.0.8-cc63fjd7tlgjcisyxrlbuz5d3aryxsal
MAIL=/var/spool/mail/lbellen1
ZE_AFFINITY_MASK=0,1,2,3
SLURM_CPUS_ON_NODE=32
CXX=g++
GCC_LIB=/leonardo/prod/spack/5.2/install/0.21/linux-rhel8-icelake/gcc-8.5.0/gcc-12.2.0-gmhym3kmbzqlpwkzhgab2xsoygsdwxcl/lib64:/leonardo/prod/spack/5.2/install/0.21/linux-rhel8-icelake/gcc-8.5.0/gcc-12.2.0-gmhym3kmbzqlpwkzhgab2xsoygsdwxcl/lib
FFTW_HOME=/leonardo/prod/spack/5.2/install/0.21/linux-rhel8-icelake/gcc-12.2.0/fftw-3.3.10-kau3lmxr2fm72enmw3a42drdjvwexdsp
SLURM_JOB_NUM_NODES=2
OMP_PLACES=cores
TERM=xterm
SHELL=/bin/bash
PKGCONF_HOME=/leonardo/prod/spack/5.2/install/0.21/linux-rhel8-icelake/gcc-8.5.0/pkgconf-1.9.5-gr2lx34cuparz7tqcckt73neufgol7tz
CMAKE_HOME=/leonardo/prod/spack/5.2/install/0.21/linux-rhel8-icelake/gcc-8.5.0/cmake-3.27.7-vatukecmu7wnbi2tnfogps5x4pitvriu
BZIP2_INCLUDE=/leonardo/prod/spack/5.2/install/0.21/linux-rhel8-icelake/gcc-12.2.0/bzip2-1.0.8-cc63fjd7tlgjcisyxrlbuz5d3aryxsal/include
__MODULES_SHARE_LD_LIBRARY_PATH=/leonardo/prod/spack/5.2/install/0.21/linux-rhel8-icelake/gcc-12.2.0/hdf5-1.14.3-flr43qytzge67qvbmjx4mszcm23s4d3b/lib:2
SLURM_JOB_UID=33678
__MODULES_LMCONFLICT=gcc/12.2.0&gcc:cuda/12.1&cuda:openmpi/4.1.6--gcc--12.2.0&openmpi:fftw/3.3.10--openmpi--4.1.6--gcc--12.2.0&fftw:openblas/0.3.24--gcc--12.2.0&openblas:netlib-scalapack/2.2.0--openmpi--4.1.6--gcc--12.2.0&netlib-scalapack:cmake/3.27.7&cmake:ninja/1.11.1&ninja:bzip2/1.0.8--gcc--12.2.0-cc63fjd&bzip2:lz4/1.9.4--gcc--12.2.0-airzjr3&lz4:snappy/1.1.10--gcc--12.2.0-oikfvst&snappy:zlib/1.3--gcc--12.2.0&zlib:c-blosc/1.21.5--gcc--12.2.0-s3edzii&c-blosc:pkgconf/1.9.5--gcc--12.2.0-vplyjax&pkgconf:hdf5/1.14.3--openmpi--4.1.6--gcc--12.2.0&hdf5:libszip/2.1.1--gcc--12.2.0&libszip:parallel-netcdf/1.12.3--openmpi--4.1.6--gcc--12.2.0&parallel-netcdf:zstd/1.5.5--gcc--12.2.0-h6hxgmk&zstd:netcdf-c/4.9.2--openmpi--4.1.6--gcc--12.2.0&netcdf-c:netcdf-fortran/4.6.1--openmpi--4.1.6--gcc--12.2.0&netcdf-fortran
BZIP2_INC=/leonardo/prod/spack/5.2/install/0.21/linux-rhel8-icelake/gcc-12.2.0/bzip2-1.0.8-cc63fjd7tlgjcisyxrlbuz5d3aryxsal/include
SLURM_JOB_PARTITION=boost_usr_prod
SLURM_SCRIPT_CONTEXT=prolog_task
FAST=/leonardo_scratch/fast/cin_staff
CUDA_INCLUDE=/leonardo/prod/opt/compilers/cuda/12.1/none/include
PERL5LIB=/usr/lib64/perl5/:/usr/lib64/perl5/vendor_perl/:/usr/share/perl5/:/usr/share/perl5/vendor_perl/
SELINUX_USE_CURRENT_RANGE=
PKGCONF_INCLUDE=/leonardo/prod/spack/5.2/install/0.21/linux-rhel8-icelake/gcc-8.5.0/pkgconf-1.9.5-gr2lx34cuparz7tqcckt73neufgol7tz/include
CUDA_INC=/leonardo/prod/opt/compilers/cuda/12.1/none/include
BA_MPM_PROFILE=base
SLURM_JOB_USER=lbellen1
CUDA_VISIBLE_DEVICES=0,1,2,3
PARALLEL_NETCDF_LIB=/leonardo/prod/spack/5.2/install/0.21/linux-rhel8-icelake/gcc-12.2.0/parallel-netcdf-1.12.3-y4e3nyfxgtsz36njprlac7y2ljvxlra7/lib
SLURM_NPROCS=32
SHLVL=3
SLURM_SUBMIT_HOST=login07.leonardo.local
PYTHONPATH=/leonardo/prod/spack/5.2/install/0.21/linux-rhel8-icelake/gcc-8.5.0/ninja-1.11.1-fx3jut6mf2i7z5bqpqaseo4bqqmtrbbc/misc
PKGCONF_LIB=/leonardo/prod/spack/5.2/install/0.21/linux-rhel8-icelake/gcc-8.5.0/pkgconf-1.9.5-gr2lx34cuparz7tqcckt73neufgol7tz/lib
MPIF77=/leonardo/prod/opt/libraries/openmpi/4.1.6/gcc--12.2.0/bin/mpif77
SLURM_JOB_ACCOUNT=cin_staff
FFTW_LIB=/leonardo/prod/spack/5.2/install/0.21/linux-rhel8-icelake/gcc-12.2.0/fftw-3.3.10-kau3lmxr2fm72enmw3a42drdjvwexdsp/lib
GCC_INCLUDE=/leonardo/prod/spack/5.2/install/0.21/linux-rhel8-icelake/gcc-8.5.0/gcc-12.2.0-gmhym3kmbzqlpwkzhgab2xsoygsdwxcl/include
ACLOCAL_PATH=/leonardo/prod/spack/5.2/install/0.21/linux-rhel8-icelake/gcc-8.5.0/pkgconf-1.9.5-gr2lx34cuparz7tqcckt73neufgol7tz/share/aclocal:/leonardo/prod/spack/5.2/install/0.21/linux-rhel8-icelake/gcc-8.5.0/cmake-3.27.7-vatukecmu7wnbi2tnfogps5x4pitvriu/share/aclocal
OPENMPI_INC=/leonardo/prod/opt/libraries/openmpi/4.1.6/gcc--12.2.0/include
PARALLEL_NETCDF_INC=/leonardo/prod/spack/5.2/install/0.21/linux-rhel8-icelake/gcc-12.2.0/parallel-netcdf-1.12.3-y4e3nyfxgtsz36njprlac7y2ljvxlra7/include
NETCDF_C_INCLUDE=/leonardo/prod/spack/5.2/install/0.21/linux-rhel8-icelake/gcc-12.2.0/netcdf-c-4.9.2-dnkfe3mn3ppoiqikffx5cgmdjoshzyak/include
MANPATH=/leonardo/prod/spack/5.2/install/0.21/linux-rhel8-icelake/gcc-12.2.0/netcdf-fortran-4.6.1-6ioe263mamir3dlic6nau7i2p3svn4q4/share/man:/leonardo/prod/spack/5.2/install/0.21/linux-rhel8-icelake/gcc-12.2.0/netcdf-c-4.9.2-dnkfe3mn3ppoiqikffx5cgmdjoshzyak/share/man:/leonardo/prod/spack/5.2/install/0.21/linux-rhel8-icelake/gcc-12.2.0/zstd-1.5.5-h6hxgmkwz3ti7tu33y4uhhwilralgibj/share/man:/leonardo/prod/spack/5.2/install/0.21/linux-rhel8-icelake/gcc-12.2.0/parallel-netcdf-1.12.3-y4e3nyfxgtsz36njprlac7y2ljvxlra7/share/man:/leonardo/prod/spack/5.2/install/0.21/linux-rhel8-icelake/gcc-8.5.0/pkgconf-1.9.5-gr2lx34cuparz7tqcckt73neufgol7tz/share/man:/leonardo/prod/spack/5.2/install/0.21/linux-rhel8-icelake/gcc-12.2.0/zlib-1.3-zz7sbfysldbr32mq3xuksztqfruqqtek/share/man:/leonardo/prod/spack/5.2/install/0.21/linux-rhel8-icelake/gcc-12.2.0/lz4-1.9.4-airzjr33y2opch3tssn2wfiz44nud4ng/share/man:/leonardo/prod/spack/5.2/install/0.21/linux-rhel8-icelake/gcc-12.2.0/bzip2-1.0.8-cc63fjd7tlgjcisyxrlbuz5d3aryxsal/man:/leonardo/prod/spack/5.2/install/0.21/linux-rhel8-icelake/gcc-12.2.0/fftw-3.3.10-kau3lmxr2fm72enmw3a42drdjvwexdsp/share/man:/leonardo/prod/opt/libraries/openmpi/4.1.6/gcc--12.2.0/share/man:/leonardo/prod/opt/compilers/cuda/12.1/none/share/man:/leonardo/prod/opt/compilers/cuda/12.1/none/man:/leonardo/prod/spack/5.2/install/0.21/linux-rhel8-icelake/gcc-8.5.0/gcc-12.2.0-gmhym3kmbzqlpwkzhgab2xsoygsdwxcl/share/man:
OMPI_MCA_coll_hcoll_enable=0
LIBSZIP_LIB=/leonardo/prod/spack/5.2/install/0.21/linux-rhel8-icelake/gcc-12.2.0/libszip-2.1.1-seujxlmwecjzeykce7wn5khcg6hce4ih/lib
C_BLOSC_HOME=/leonardo/prod/spack/5.2/install/0.21/linux-rhel8-icelake/gcc-12.2.0/c-blosc-1.21.5-s3edziiwpwqsjjbfyqmtfj7tz4mpac6y
F90=gfortran
ZSTD_HOME=/leonardo/prod/spack/5.2/install/0.21/linux-rhel8-icelake/gcc-12.2.0/zstd-1.5.5-h6hxgmkwz3ti7tu33y4uhhwilralgibj
MODULEPATH=/leonardo/prod/spack/03/install/0.19/linux-rhel8-icelake/gcc-8.5.0/environment-modules-5.2.0-rz47odw4phlhzhhbz7b65nv5s5othgmi/modulefiles:/leonardo/prod/opt/modulefiles/profiles:/leonardo/prod/opt/modulefiles/base/archive:/leonardo/prod/opt/modulefiles/base/dependencies:/leonardo/prod/opt/modulefiles/base/data:/leonardo/prod/opt/modulefiles/base/environment:/leonardo/prod/opt/modulefiles/base/libraries:/leonardo/prod/opt/modulefiles/base/tools:/leonardo/prod/opt/modulefiles/base/compilers:/leonardo/prod/opt/modulefiles/base/applications
ZLIB_LIB=/leonardo/prod/spack/5.2/install/0.21/linux-rhel8-icelake/gcc-12.2.0/zlib-1.3-zz7sbfysldbr32mq3xuksztqfruqqtek/lib
SLURM_GTIDS=0
LZ4_LIB=/leonardo/prod/spack/5.2/install/0.21/linux-rhel8-icelake/gcc-12.2.0/lz4-1.9.4-airzjr33y2opch3tssn2wfiz44nud4ng/lib
LOGNAME=lbellen1
DBUS_SESSION_BUS_ADDRESS=unix:path=/run/user/33678/bus
XDG_RUNTIME_DIR=/run/user/33678
CPLUS_INCLUDE_PATH=/leonardo/prod/spack/5.2/install/0.21/linux-rhel8-icelake/gcc-12.2.0/netcdf-fortran-4.6.1-6ioe263mamir3dlic6nau7i2p3svn4q4/include:/leonardo/prod/spack/5.2/install/0.21/linux-rhel8-icelake/gcc-12.2.0/netcdf-c-4.9.2-dnkfe3mn3ppoiqikffx5cgmdjoshzyak/include:/leonardo/prod/spack/5.2/install/0.21/linux-rhel8-icelake/gcc-12.2.0/zstd-1.5.5-h6hxgmkwz3ti7tu33y4uhhwilralgibj/include:/leonardo/prod/spack/5.2/install/0.21/linux-rhel8-icelake/gcc-12.2.0/parallel-netcdf-1.12.3-y4e3nyfxgtsz36njprlac7y2ljvxlra7/include:/leonardo/prod/spack/5.2/install/0.21/linux-rhel8-icelake/gcc-12.2.0/libszip-2.1.1-seujxlmwecjzeykce7wn5khcg6hce4ih/include:/leonardo/prod/spack/5.2/install/0.21/linux-rhel8-icelake/gcc-12.2.0/hdf5-1.14.3-flr43qytzge67qvbmjx4mszcm23s4d3b/include:/leonardo/prod/spack/5.2/install/0.21/linux-rhel8-icelake/gcc-8.5.0/pkgconf-1.9.5-gr2lx34cuparz7tqcckt73neufgol7tz/include:/leonardo/prod/spack/5.2/install/0.21/linux-rhel8-icelake/gcc-12.2.0/c-blosc-1.21.5-s3edziiwpwqsjjbfyqmtfj7tz4mpac6y/include:/leonardo/prod/spack/5.2/install/0.21/linux-rhel8-icelake/gcc-12.2.0/zlib-1.3-zz7sbfysldbr32mq3xuksztqfruqqtek/include:/leonardo/prod/spack/5.2/install/0.21/linux-rhel8-icelake/gcc-12.2.0/snappy-1.1.10-oikfvstykogvegfzufrlijgwq3snyr6x/include:/leonardo/prod/spack/5.2/install/0.21/linux-rhel8-icelake/gcc-12.2.0/lz4-1.9.4-airzjr33y2opch3tssn2wfiz44nud4ng/include:/leonardo/prod/spack/5.2/install/0.21/linux-rhel8-icelake/gcc-12.2.0/bzip2-1.0.8-cc63fjd7tlgjcisyxrlbuz5d3aryxsal/include:/leonardo/prod/spack/5.2/install/0.21/linux-rhel8-icelake/gcc-12.2.0/openblas-0.3.24-kytrjfxkavk6fcucnujsdsfqqsjfv5t7/include:/leonardo/prod/spack/5.2/install/0.21/linux-rhel8-icelake/gcc-12.2.0/fftw-3.3.10-kau3lmxr2fm72enmw3a42drdjvwexdsp/include:/leonardo/prod/opt/libraries/openmpi/4.1.6/gcc--12.2.0/include:/leonardo/prod/opt/compilers/cuda/12.1/none/include:/leonardo/prod/spack/5.2/install/0.21/linux-rhel8-icelake/gcc-8.5.0/gcc-12.2.0-gmhym3kmbzqlpwkzhgab2xsoygsdwxcl/include
SNAPPY_HOME=/leonardo/prod/spack/5.2/install/0.21/linux-rhel8-icelake/gcc-12.2.0/snappy-1.1.10-oikfvstykogvegfzufrlijgwq3snyr6x
PATH=/leonardo/prod/spack/5.2/install/0.21/linux-rhel8-icelake/gcc-12.2.0/netcdf-fortran-4.6.1-6ioe263mamir3dlic6nau7i2p3svn4q4/bin:/leonardo/prod/spack/5.2/install/0.21/linux-rhel8-icelake/gcc-12.2.0/netcdf-c-4.9.2-dnkfe3mn3ppoiqikffx5cgmdjoshzyak/bin:/leonardo/prod/spack/5.2/install/0.21/linux-rhel8-icelake/gcc-12.2.0/zstd-1.5.5-h6hxgmkwz3ti7tu33y4uhhwilralgibj/bin:/leonardo/prod/spack/5.2/install/0.21/linux-rhel8-icelake/gcc-12.2.0/parallel-netcdf-1.12.3-y4e3nyfxgtsz36njprlac7y2ljvxlra7/bin:/leonardo/prod/spack/5.2/install/0.21/linux-rhel8-icelake/gcc-12.2.0/hdf5-1.14.3-flr43qytzge67qvbmjx4mszcm23s4d3b/bin:/leonardo/prod/spack/5.2/install/0.21/linux-rhel8-icelake/gcc-8.5.0/pkgconf-1.9.5-gr2lx34cuparz7tqcckt73neufgol7tz/bin:/leonardo/prod/spack/5.2/install/0.21/linux-rhel8-icelake/gcc-12.2.0/lz4-1.9.4-airzjr33y2opch3tssn2wfiz44nud4ng/bin:/leonardo/prod/spack/5.2/install/0.21/linux-rhel8-icelake/gcc-12.2.0/bzip2-1.0.8-cc63fjd7tlgjcisyxrlbuz5d3aryxsal/bin:/leonardo/prod/spack/5.2/install/0.21/linux-rhel8-icelake/gcc-8.5.0/ninja-1.11.1-fx3jut6mf2i7z5bqpqaseo4bqqmtrbbc/bin:/leonardo/prod/spack/5.2/install/0.21/linux-rhel8-icelake/gcc-8.5.0/cmake-3.27.7-vatukecmu7wnbi2tnfogps5x4pitvriu/bin:/leonardo/prod/spack/5.2/install/0.21/linux-rhel8-icelake/gcc-12.2.0/openblas-0.3.24-kytrjfxkavk6fcucnujsdsfqqsjfv5t7/bin:/leonardo/prod/spack/5.2/install/0.21/linux-rhel8-icelake/gcc-12.2.0/fftw-3.3.10-kau3lmxr2fm72enmw3a42drdjvwexdsp/bin:/leonardo/prod/opt/libraries/openmpi/4.1.6/gcc--12.2.0/bin:/leonardo/prod/opt/compilers/cuda/12.1/none/cuda-samples/bin/x86_64/linux/release/:/leonardo/prod/opt/compilers/cuda/12.1/none/bin:/leonardo/prod/spack/5.2/install/0.21/linux-rhel8-icelake/gcc-8.5.0/gcc-12.2.0-gmhym3kmbzqlpwkzhgab2xsoygsdwxcl/bin:/leonardo/home/userinternal/lbellen1/.local/bin:/leonardo/home/userinternal/lbellen1/bin:/cineca/bin:/leonardo/prod/spack/03/install/0.19/linux-rhel8-icelake/gcc-8.5.0/environment-modules-5.2.0-rz47odw4phlhzhhbz7b65nv5s5othgmi/bin:/usr/local/bin:/usr/bin:/usr/local/sbin:/usr/sbin:/leonardo_work/Max3_devel_3/lbellen1/MaX/WP3/siesta/installations/siesta-gpu-5.2.2/bin
SLURM_JOB_ID=13551189
_LMFILES_=/leonardo/prod/opt/modulefiles/profiles/profile/base:/leonardo/prod/opt/modulefiles/base/compilers/gcc/12.2.0:/leonardo/prod/opt/modulefiles/base/compilers/cuda/12.1:/leonardo/prod/opt/modulefiles/base/libraries/openmpi/4.1.6--gcc--12.2.0:/leonardo/prod/opt/modulefiles/base/libraries/fftw/3.3.10--openmpi--4.1.6--gcc--12.2.0:/leonardo/prod/opt/modulefiles/base/libraries/openblas/0.3.24--gcc--12.2.0:/leonardo/prod/opt/modulefiles/base/libraries/netlib-scalapack/2.2.0--openmpi--4.1.6--gcc--12.2.0:/leonardo/prod/opt/modulefiles/base/tools/cmake/3.27.7:/leonardo/prod/opt/modulefiles/base/tools/ninja/1.11.1:/leonardo/prod/opt/modulefiles/base/dependencies/bzip2/1.0.8--gcc--12.2.0-cc63fjd:/leonardo/prod/opt/modulefiles/base/dependencies/lz4/1.9.4--gcc--12.2.0-airzjr3:/leonardo/prod/opt/modulefiles/base/dependencies/snappy/1.1.10--gcc--12.2.0-oikfvst:/leonardo/prod/opt/modulefiles/base/libraries/zlib/1.3--gcc--12.2.0:/leonardo/prod/opt/modulefiles/base/dependencies/c-blosc/1.21.5--gcc--12.2.0-s3edzii:/leonardo/prod/opt/modulefiles/base/dependencies/pkgconf/1.9.5--gcc--12.2.0-vplyjax:/leonardo/prod/opt/modulefiles/base/libraries/hdf5/1.14.3--openmpi--4.1.6--gcc--12.2.0:/leonardo/prod/opt/modulefiles/base/libraries/libszip/2.1.1--gcc--12.2.0:/leonardo/prod/opt/modulefiles/base/libraries/parallel-netcdf/1.12.3--openmpi--4.1.6--gcc--12.2.0:/leonardo/prod/opt/modulefiles/base/dependencies/zstd/1.5.5--gcc--12.2.0-h6hxgmk:/leonardo/prod/opt/modulefiles/base/libraries/netcdf-c/4.9.2--openmpi--4.1.6--gcc--12.2.0:/leonardo/prod/opt/modulefiles/base/libraries/netcdf-fortran/4.6.1--openmpi--4.1.6--gcc--12.2.0
LZ4_INCLUDE=/leonardo/prod/spack/5.2/install/0.21/linux-rhel8-icelake/gcc-12.2.0/lz4-1.9.4-airzjr33y2opch3tssn2wfiz44nud4ng/include
MODULESHOME=/leonardo/prod/spack/03/install/0.19/linux-rhel8-icelake/gcc-8.5.0/environment-modules-5.2.0-rz47odw4phlhzhhbz7b65nv5s5othgmi
PKG_CONFIG_PATH=/leonardo/prod/spack/5.2/install/0.21/linux-rhel8-icelake/gcc-12.2.0/netcdf-fortran-4.6.1-6ioe263mamir3dlic6nau7i2p3svn4q4/lib/pkgconfig:/leonardo/prod/spack/5.2/install/0.21/linux-rhel8-icelake/gcc-12.2.0/netcdf-c-4.9.2-dnkfe3mn3ppoiqikffx5cgmdjoshzyak/lib/pkgconfig:/leonardo/prod/spack/5.2/install/0.21/linux-rhel8-icelake/gcc-12.2.0/zstd-1.5.5-h6hxgmkwz3ti7tu33y4uhhwilralgibj/lib/pkgconfig:/leonardo/prod/spack/5.2/install/0.21/linux-rhel8-icelake/gcc-12.2.0/parallel-netcdf-1.12.3-y4e3nyfxgtsz36njprlac7y2ljvxlra7/lib/pkgconfig:/leonardo/prod/spack/5.2/install/0.21/linux-rhel8-icelake/gcc-12.2.0/hdf5-1.14.3-flr43qytzge67qvbmjx4mszcm23s4d3b/lib/pkgconfig:/leonardo/prod/spack/5.2/install/0.21/linux-rhel8-icelake/gcc-8.5.0/pkgconf-1.9.5-gr2lx34cuparz7tqcckt73neufgol7tz/lib/pkgconfig:/leonardo/prod/spack/5.2/install/0.21/linux-rhel8-icelake/gcc-12.2.0/c-blosc-1.21.5-s3edziiwpwqsjjbfyqmtfj7tz4mpac6y/lib64/pkgconfig:/leonardo/prod/spack/5.2/install/0.21/linux-rhel8-icelake/gcc-12.2.0/zlib-1.3-zz7sbfysldbr32mq3xuksztqfruqqtek/lib/pkgconfig:/leonardo/prod/spack/5.2/install/0.21/linux-rhel8-icelake/gcc-12.2.0/snappy-1.1.10-oikfvstykogvegfzufrlijgwq3snyr6x/lib/pkgconfig:/leonardo/prod/spack/5.2/install/0.21/linux-rhel8-icelake/gcc-12.2.0/lz4-1.9.4-airzjr33y2opch3tssn2wfiz44nud4ng/lib/pkgconfig:/leonardo/prod/spack/5.2/install/0.21/linux-rhel8-icelake/gcc-12.2.0/bzip2-1.0.8-cc63fjd7tlgjcisyxrlbuz5d3aryxsal/lib/pkgconfig:/leonardo/prod/spack/5.2/install/0.21/linux-rhel8-icelake/gcc-12.2.0/netlib-scalapack-2.2.0-aw7g74ew6bk34b4vq6mbyzjpnmsu7hjq/lib/pkgconfig:/leonardo/prod/spack/5.2/install/0.21/linux-rhel8-icelake/gcc-12.2.0/openblas-0.3.24-kytrjfxkavk6fcucnujsdsfqqsjfv5t7/lib/pkgconfig:/leonardo/prod/spack/5.2/install/0.21/linux-rhel8-icelake/gcc-12.2.0/fftw-3.3.10-kau3lmxr2fm72enmw3a42drdjvwexdsp/lib/pkgconfig:/leonardo/prod/opt/libraries/openmpi/4.1.6/gcc--12.2.0/lib/pkgconfig:/leonardo/prod/opt/compilers/cuda/12.1/none/lib64/pkgconfig
ZLIB_HOME=/leonardo/prod/spack/5.2/install/0.21/linux-rhel8-icelake/gcc-12.2.0/zlib-1.3-zz7sbfysldbr32mq3xuksztqfruqqtek
NETLIB_SCALAPACK_LIB=/leonardo/prod/spack/5.2/install/0.21/linux-rhel8-icelake/gcc-12.2.0/netlib-scalapack-2.2.0-aw7g74ew6bk34b4vq6mbyzjpnmsu7hjq/lib
HISTSIZE=1000
C_BLOSC_LIB=/leonardo/prod/spack/5.2/install/0.21/linux-rhel8-icelake/gcc-12.2.0/c-blosc-1.21.5-s3edziiwpwqsjjbfyqmtfj7tz4mpac6y/lib64
OPENBLAS_INCLUDE=/leonardo/prod/spack/5.2/install/0.21/linux-rhel8-icelake/gcc-12.2.0/openblas-0.3.24-kytrjfxkavk6fcucnujsdsfqqsjfv5t7/include
SLURM_LOCALID=0
GPU_DEVICE_ORDINAL=0,1,2,3
OMP_NUM_THREADS=2
LESSOPEN=||/usr/bin/lesspipe.sh %s
BASH_FUNC_which%%=() {  ( alias;
 eval ${which_declare} ) | /usr/bin/which --tty-only --read-alias --read-functions --show-tilde --show-dot $@
}
BASH_FUNC_module%%=() {  local _mlredir=1;
 if [ -n "${MODULES_REDIRECT_OUTPUT+x}" ]; then
 if [ "$MODULES_REDIRECT_OUTPUT" = '0' ]; then
 _mlredir=0;
 else
 if [ "$MODULES_REDIRECT_OUTPUT" = '1' ]; then
 _mlredir=1;
 fi;
 fi;
 fi;
 case " $@ " in 
 *' --no-redirect '*)
 _mlredir=0
 ;;
 *' --redirect '*)
 _mlredir=1
 ;;
 esac;
 if [ $_mlredir -eq 0 ]; then
 _module_raw "$@";
 else
 _module_raw "$@" 2>&1;
 fi
}
BASH_FUNC__module_raw%%=() {  eval "$(/leonardo/prod/spack/03/install/0.19/linux-rhel8-icelake/gcc-8.5.0/tcl-8.6.12-rdtv2pt4tnckxsgwtowik3sbexmxolve/bin/tclsh '/leonardo/prod/spack/03/install/0.19/linux-rhel8-icelake/gcc-8.5.0/environment-modules-5.2.0-rz47odw4phlhzhhbz7b65nv5s5othgmi/libexec/modulecmd.tcl' bash "$@")";
 _mlstatus=$?;
 return $_mlstatus
}
BASH_FUNC_ml%%=() {  module ml "$@"
}
_=/usr/bin/env

Current SIESTA linked libraries
-------------------------------
	linux-vdso.so.1 (0x00007ffe2b3ac000)
	libnetcdff.so.7 => /leonardo/prod/spack/5.2/install/0.21/linux-rhel8-icelake/gcc-12.2.0/netcdf-fortran-4.6.1-6ioe263mamir3dlic6nau7i2p3svn4q4/lib/libnetcdff.so.7 (0x00001547456dc000)
	libnetcdf.so.19 => /leonardo/prod/spack/5.2/install/0.21/linux-rhel8-icelake/gcc-12.2.0/netcdf-c-4.9.2-dnkfe3mn3ppoiqikffx5cgmdjoshzyak/lib/libnetcdf.so.19 (0x000015474538b000)
	libdl.so.2 => /lib64/libdl.so.2 (0x0000154745187000)
	libgfortran.so.5 => /leonardo/prod/spack/5.2/install/0.21/linux-rhel8-icelake/gcc-8.5.0/gcc-12.2.0-gmhym3kmbzqlpwkzhgab2xsoygsdwxcl/lib64/libgfortran.so.5 (0x0000154744eb8000)
	libm.so.6 => /lib64/libm.so.6 (0x0000154744b36000)
	libmvec.so.1 => /lib64/libmvec.so.1 (0x000015474490b000)
	libreadline.so.7 => /lib64/libreadline.so.7 (0x00001547446bc000)
	libelpa.so.19 => /leonardo_work/Max3_devel_3/lbellen1/MaX/WP3/siesta/installations/elpa-gpu-2024.5/lib/libelpa.so.19 (0x0000154744316000)
	libnvToolsExt.so.1 => /leonardo/prod/opt/compilers/cuda/12.1/none/lib64/libnvToolsExt.so.1 (0x000015474410c000)
	libcusolver.so.11 => /leonardo/prod/opt/compilers/cuda/12.1/none/lib64/libcusolver.so.11 (0x0000154731c98000)
	libcudart.so.12 => /leonardo/prod/opt/compilers/cuda/12.1/none/lib64/libcudart.so.12 (0x00001547319f1000)
	libcublasLt.so.12 => /leonardo/prod/opt/compilers/cuda/12.1/none/lib64/libcublasLt.so.12 (0x0000154710be1000)
	libcublas.so.12 => /leonardo/prod/opt/compilers/cuda/12.1/none/lib64/libcublas.so.12 (0x000015470a364000)
	libscalapack.so => /leonardo/prod/spack/5.2/install/0.21/linux-rhel8-icelake/gcc-12.2.0/netlib-scalapack-2.2.0-aw7g74ew6bk34b4vq6mbyzjpnmsu7hjq/lib/libscalapack.so (0x0000154709dd2000)
	libopenblas.so.0 => /leonardo/prod/spack/5.2/install/0.21/linux-rhel8-icelake/gcc-12.2.0/openblas-0.3.24-kytrjfxkavk6fcucnujsdsfqqsjfv5t7/lib/libopenblas.so.0 (0x0000154709169000)
	libmpi_usempif08.so.40 => /leonardo/prod/opt/libraries/openmpi/4.1.6/gcc--12.2.0/lib/libmpi_usempif08.so.40 (0x0000154745691000)
	libmpi_usempi_ignore_tkr.so.40 => /leonardo/prod/opt/libraries/openmpi/4.1.6/gcc--12.2.0/lib/libmpi_usempi_ignore_tkr.so.40 (0x0000154745682000)
	libmpi_mpifh.so.40 => /leonardo/prod/opt/libraries/openmpi/4.1.6/gcc--12.2.0/lib/libmpi_mpifh.so.40 (0x0000154745616000)
	libmpi.so.40 => /leonardo/prod/opt/libraries/openmpi/4.1.6/gcc--12.2.0/lib/libmpi.so.40 (0x000015470904a000)
	libgomp.so.1 => /leonardo/prod/spack/5.2/install/0.21/linux-rhel8-icelake/gcc-8.5.0/gcc-12.2.0-gmhym3kmbzqlpwkzhgab2xsoygsdwxcl/lib64/libgomp.so.1 (0x00001547455cd000)
	libpthread.so.0 => /lib64/libpthread.so.0 (0x0000154708e2a000)
	libgcc_s.so.1 => /leonardo/prod/spack/5.2/install/0.21/linux-rhel8-icelake/gcc-8.5.0/gcc-12.2.0-gmhym3kmbzqlpwkzhgab2xsoygsdwxcl/lib64/libgcc_s.so.1 (0x00001547455aa000)
	libquadmath.so.0 => /leonardo/prod/spack/5.2/install/0.21/linux-rhel8-icelake/gcc-8.5.0/gcc-12.2.0-gmhym3kmbzqlpwkzhgab2xsoygsdwxcl/lib64/libquadmath.so.0 (0x0000154708de3000)
	libc.so.6 => /lib64/libc.so.6 (0x0000154708a1d000)
	libstdc++.so.6 => /leonardo/prod/spack/5.2/install/0.21/linux-rhel8-icelake/gcc-8.5.0/gcc-12.2.0-gmhym3kmbzqlpwkzhgab2xsoygsdwxcl/lib64/libstdc++.so.6 (0x00001547087f5000)
	libpnetcdf.so.4 => /leonardo/prod/spack/5.2/install/0.21/linux-rhel8-icelake/gcc-12.2.0/parallel-netcdf-1.12.3-y4e3nyfxgtsz36njprlac7y2ljvxlra7/lib/libpnetcdf.so.4 (0x0000154708250000)
	libhdf5_hl.so.310 => /leonardo/prod/spack/5.2/install/0.21/linux-rhel8-icelake/gcc-12.2.0/hdf5-1.14.3-flr43qytzge67qvbmjx4mszcm23s4d3b/lib/libhdf5_hl.so.310 (0x0000154745582000)
	libhdf5.so.310 => /leonardo/prod/spack/5.2/install/0.21/linux-rhel8-icelake/gcc-12.2.0/hdf5-1.14.3-flr43qytzge67qvbmjx4mszcm23s4d3b/lib/libhdf5.so.310 (0x0000154707dc1000)
	libz.so.1 => /leonardo/prod/spack/5.2/install/0.21/linux-rhel8-icelake/gcc-12.2.0/zlib-1.3-zz7sbfysldbr32mq3xuksztqfruqqtek/lib/libz.so.1 (0x0000154707da7000)
	libsz.so.2 => /leonardo/prod/spack/5.2/install/0.21/linux-rhel8-icelake/gcc-12.2.0/libszip-2.1.1-seujxlmwecjzeykce7wn5khcg6hce4ih/lib/libsz.so.2 (0x0000154707d92000)
	libbz2.so.1.0 => /leonardo/prod/spack/5.2/install/0.21/linux-rhel8-icelake/gcc-12.2.0/bzip2-1.0.8-cc63fjd7tlgjcisyxrlbuz5d3aryxsal/lib/libbz2.so.1.0 (0x0000154707d7f000)
	libzstd.so.1 => /leonardo/prod/spack/5.2/install/0.21/linux-rhel8-icelake/gcc-12.2.0/zstd-1.5.5-h6hxgmkwz3ti7tu33y4uhhwilralgibj/lib/libzstd.so.1 (0x0000154707c94000)
	libblosc.so.1 => /leonardo/prod/spack/5.2/install/0.21/linux-rhel8-icelake/gcc-12.2.0/c-blosc-1.21.5-s3edziiwpwqsjjbfyqmtfj7tz4mpac6y/lib64/libblosc.so.1 (0x0000154707c82000)
	/lib64/ld-linux-x86-64.so.2 (0x0000154745552000)
	libtinfo.so.6 => /lib64/libtinfo.so.6 (0x0000154707a55000)
	libopen-rte.so.40 => /leonardo/prod/opt/libraries/openmpi/4.1.6/gcc--12.2.0/lib/libopen-rte.so.40 (0x000015470799a000)
	libopen-pal.so.40 => /leonardo/prod/opt/libraries/openmpi/4.1.6/gcc--12.2.0/lib/libopen-pal.so.40 (0x00001547078e2000)
	librt.so.1 => /lib64/librt.so.1 (0x00001547076d8000)
	libutil.so.1 => /lib64/libutil.so.1 (0x00001547074d4000)
	libhwloc.so.15 => /lib64/libhwloc.so.15 (0x0000154707284000)
	libevent_core-2.1.so.6 => /lib64/libevent_core-2.1.so.6 (0x000015470704b000)
	libevent_pthreads-2.1.so.6 => /lib64/libevent_pthreads-2.1.so.6 (0x0000154706e48000)
	libnvJitLink.so.12 => /leonardo/prod/opt/compilers/cuda/12.1/none/lib64/libnvJitLink.so.12 (0x0000154703d90000)
	liblz4.so.1 => /leonardo/prod/spack/5.2/install/0.21/linux-rhel8-icelake/gcc-12.2.0/lz4-1.9.4-airzjr33y2opch3tssn2wfiz44nud4ng/lib/liblz4.so.1 (0x0000154703d1c000)
	libcrypto.so.1.1 => /lib64/libcrypto.so.1.1 (0x0000154703830000)

Task 10 Core 21 GPU 2
Task 1 Core 2 GPU 0
Task 4 Core 9 GPU 1
Task 8 Core 16 GPU 2
Task 14 Core 28 GPU 3
Task 6 Core 13 GPU 1
Task 13 Core 26 GPU 3
Task 3 Core 6 GPU 0
Task 2 Core 4 GPU 0
Task 5 Core 10 GPU 1
Task 7 Core 15 GPU 1
Task 11 Core 22 GPU 2
Task 9 Core 18 GPU 2
Task 12 Core 24 GPU 3
Task 15 Core 30 GPU 3
Task 0 Core 0 GPU 0
Task 10 Core 21 GPU 2
Task 1 Core 3 GPU 0
Task 7 Core 15 GPU 1
Task 13 Core 27 GPU 3
Task 15 Core 30 GPU 3
Task 14 Core 29 GPU 3
Task 9 Core 18 GPU 2
Task 4 Core 9 GPU 1
Task 5 Core 10 GPU 1
Task 3 Core 7 GPU 0
Task 6 Core 12 GPU 1
Task 2 Core 5 GPU 0
Task 8 Core 16 GPU 2
Task 11 Core 23 GPU 2
Task 12 Core 24 GPU 3
Task 0 Core 1 GPU 0
SCF_NOT_CONV: SCF did not converge  in maximum number of steps.
Geom step, scf iteration, dDmax, dHmax:    0     5    875.337261     0.810512
Job completed
/leonardo_scratch/fast/Max3_devel_2/WP3/siesta/rerun-covid-spike_strongscaling-leonardo-booster-5.2.0-alpha_2024-09/benchmark/strong_scaling_mps/000003/000006_submit/work/./wrapper-stop.sh: line 2: [: -eq: unary operator expected
/leonardo_scratch/fast/Max3_devel_2/WP3/siesta/rerun-covid-spike_strongscaling-leonardo-booster-5.2.0-alpha_2024-09/benchmark/strong_scaling_mps/000003/000006_submit/work/./wrapper-stop.sh: line 2: [: -eq: unary operator expected
...done
...done
/leonardo_scratch/fast/Max3_devel_2/WP3/siesta/rerun-covid-spike_strongscaling-leonardo-booster-5.2.0-alpha_2024-09/benchmark/strong_scaling_mps/000003/000006_submit/work/./wrapper-stop.sh: line 2: [: -eq: unary operator expected
...done
/leonardo_scratch/fast/Max3_devel_2/WP3/siesta/rerun-covid-spike_strongscaling-leonardo-booster-5.2.0-alpha_2024-09/benchmark/strong_scaling_mps/000003/000006_submit/work/./wrapper-stop.sh: line 2: [: -eq: unary operator expected
...done
/leonardo_scratch/fast/Max3_devel_2/WP3/siesta/rerun-covid-spike_strongscaling-leonardo-booster-5.2.0-alpha_2024-09/benchmark/strong_scaling_mps/000003/000006_submit/work/./wrapper-stop.sh: line 2: [: -eq: unary operator expected
...done
/leonardo_scratch/fast/Max3_devel_2/WP3/siesta/rerun-covid-spike_strongscaling-leonardo-booster-5.2.0-alpha_2024-09/benchmark/strong_scaling_mps/000003/000006_submit/work/./wrapper-stop.sh: line 2: [: -eq: unary operator expected
...done
/leonardo_scratch/fast/Max3_devel_2/WP3/siesta/rerun-covid-spike_strongscaling-leonardo-booster-5.2.0-alpha_2024-09/benchmark/strong_scaling_mps/000003/000006_submit/work/./wrapper-stop.sh: line 2: [: -eq: unary operator expected
...done
/leonardo_scratch/fast/Max3_devel_2/WP3/siesta/rerun-covid-spike_strongscaling-leonardo-booster-5.2.0-alpha_2024-09/benchmark/strong_scaling_mps/000003/000006_submit/work/./wrapper-stop.sh: line 2: [: -eq: unary operator expected
/leonardo_scratch/fast/Max3_devel_2/WP3/siesta/rerun-covid-spike_strongscaling-leonardo-booster-5.2.0-alpha_2024-09/benchmark/strong_scaling_mps/000003/000006_submit/work/./wrapper-stop.sh: line 2: [: -eq: unary operator expected
...done
...done
/leonardo_scratch/fast/Max3_devel_2/WP3/siesta/rerun-covid-spike_strongscaling-leonardo-booster-5.2.0-alpha_2024-09/benchmark/strong_scaling_mps/000003/000006_submit/work/./wrapper-stop.sh: line 2: [: -eq: unary operator expected
/leonardo_scratch/fast/Max3_devel_2/WP3/siesta/rerun-covid-spike_strongscaling-leonardo-booster-5.2.0-alpha_2024-09/benchmark/strong_scaling_mps/000003/000006_submit/work/./wrapper-stop.sh: line 2: [: -eq: unary operator expected
/leonardo_scratch/fast/Max3_devel_2/WP3/siesta/rerun-covid-spike_strongscaling-leonardo-booster-5.2.0-alpha_2024-09/benchmark/strong_scaling_mps/000003/000006_submit/work/./wrapper-stop.sh: line 2: [: -eq: unary operator expected
...done
...done
/leonardo_scratch/fast/Max3_devel_2/WP3/siesta/rerun-covid-spike_strongscaling-leonardo-booster-5.2.0-alpha_2024-09/benchmark/strong_scaling_mps/000003/000006_submit/work/./wrapper-stop.sh: line 2: [: -eq: unary operator expected
/leonardo_scratch/fast/Max3_devel_2/WP3/siesta/rerun-covid-spike_strongscaling-leonardo-booster-5.2.0-alpha_2024-09/benchmark/strong_scaling_mps/000003/000006_submit/work/./wrapper-stop.sh: line 2: [: -eq: unary operator expected
...done
...done
/leonardo_scratch/fast/Max3_devel_2/WP3/siesta/rerun-covid-spike_strongscaling-leonardo-booster-5.2.0-alpha_2024-09/benchmark/strong_scaling_mps/000003/000006_submit/work/./wrapper-stop.sh: line 2: [: -eq: unary operator expected
...done
/leonardo_scratch/fast/Max3_devel_2/WP3/siesta/rerun-covid-spike_strongscaling-leonardo-booster-5.2.0-alpha_2024-09/benchmark/strong_scaling_mps/000003/000006_submit/work/./wrapper-stop.sh: line 2: [: -eq: unary operator expected
...done
/leonardo_scratch/fast/Max3_devel_2/WP3/siesta/rerun-covid-spike_strongscaling-leonardo-booster-5.2.0-alpha_2024-09/benchmark/strong_scaling_mps/000003/000006_submit/work/./wrapper-stop.sh: line 2: [: -eq: unary operator expected
...done
...done
/leonardo_scratch/fast/Max3_devel_2/WP3/siesta/rerun-covid-spike_strongscaling-leonardo-booster-5.2.0-alpha_2024-09/benchmark/strong_scaling_mps/000003/000006_submit/work/./wrapper-stop.sh: line 2: [: -eq: unary operator expected
...done
/leonardo_scratch/fast/Max3_devel_2/WP3/siesta/rerun-covid-spike_strongscaling-leonardo-booster-5.2.0-alpha_2024-09/benchmark/strong_scaling_mps/000003/000006_submit/work/./wrapper-stop.sh: line 2: [: -eq: unary operator expected
...done
/leonardo_scratch/fast/Max3_devel_2/WP3/siesta/rerun-covid-spike_strongscaling-leonardo-booster-5.2.0-alpha_2024-09/benchmark/strong_scaling_mps/000003/000006_submit/work/./wrapper-stop.sh: line 2: [: -eq: unary operator expected
...done
/leonardo_scratch/fast/Max3_devel_2/WP3/siesta/rerun-covid-spike_strongscaling-leonardo-booster-5.2.0-alpha_2024-09/benchmark/strong_scaling_mps/000003/000006_submit/work/./wrapper-stop.sh: line 2: [: -eq: unary operator expected
...done
/leonardo_scratch/fast/Max3_devel_2/WP3/siesta/rerun-covid-spike_strongscaling-leonardo-booster-5.2.0-alpha_2024-09/benchmark/strong_scaling_mps/000003/000006_submit/work/./wrapper-stop.sh: line 2: [: -eq: unary operator expected
...done
/leonardo_scratch/fast/Max3_devel_2/WP3/siesta/rerun-covid-spike_strongscaling-leonardo-booster-5.2.0-alpha_2024-09/benchmark/strong_scaling_mps/000003/000006_submit/work/./wrapper-stop.sh: line 2: [: -eq: unary operator expected
/leonardo_scratch/fast/Max3_devel_2/WP3/siesta/rerun-covid-spike_strongscaling-leonardo-booster-5.2.0-alpha_2024-09/benchmark/strong_scaling_mps/000003/000006_submit/work/./wrapper-stop.sh: line 2: [: -eq: unary operator expected
/leonardo_scratch/fast/Max3_devel_2/WP3/siesta/rerun-covid-spike_strongscaling-leonardo-booster-5.2.0-alpha_2024-09/benchmark/strong_scaling_mps/000003/000006_submit/work/./wrapper-stop.sh: line 2: [: -eq: unary operator expected
...done
/leonardo_scratch/fast/Max3_devel_2/WP3/siesta/rerun-covid-spike_strongscaling-leonardo-booster-5.2.0-alpha_2024-09/benchmark/strong_scaling_mps/000003/000006_submit/work/./wrapper-stop.sh: line 2: [: -eq: unary operator expected
...done
...done
...done
/leonardo_scratch/fast/Max3_devel_2/WP3/siesta/rerun-covid-spike_strongscaling-leonardo-booster-5.2.0-alpha_2024-09/benchmark/strong_scaling_mps/000003/000006_submit/work/./wrapper-stop.sh: line 2: [: -eq: unary operator expected
/leonardo_scratch/fast/Max3_devel_2/WP3/siesta/rerun-covid-spike_strongscaling-leonardo-booster-5.2.0-alpha_2024-09/benchmark/strong_scaling_mps/000003/000006_submit/work/./wrapper-stop.sh: line 2: [: -eq: unary operator expected
...done
...done
/leonardo_scratch/fast/Max3_devel_2/WP3/siesta/rerun-covid-spike_strongscaling-leonardo-booster-5.2.0-alpha_2024-09/benchmark/strong_scaling_mps/000003/000006_submit/work/./wrapper-stop.sh: line 2: [: -eq: unary operator expected
/leonardo_scratch/fast/Max3_devel_2/WP3/siesta/rerun-covid-spike_strongscaling-leonardo-booster-5.2.0-alpha_2024-09/benchmark/strong_scaling_mps/000003/000006_submit/work/./wrapper-stop.sh: line 2: [: -eq: unary operator expected
...done
...done
/leonardo_scratch/fast/Max3_devel_2/WP3/siesta/rerun-covid-spike_strongscaling-leonardo-booster-5.2.0-alpha_2024-09/benchmark/strong_scaling_mps/000003/000006_submit/work/./wrapper-stop.sh: line 2: [: -eq: unary operator expected
...done
/leonardo_scratch/fast/Max3_devel_2/WP3/siesta/rerun-covid-spike_strongscaling-leonardo-booster-5.2.0-alpha_2024-09/benchmark/strong_scaling_mps/000003/000006_submit/work/./wrapper-stop.sh: line 2: [: -eq: unary operator expected
...done
