{
 "global_section": { "_calls": 1, "_time":     1024.834, "_%":   100.00,
   "siesta": { "_calls": 1, "_time":     1024.834, "_%":   100.00,
     "Setup": { "_calls": 1, "_time":        1.877, "_%":     0.18,
       "bands": { "_calls": 1, "_time":        0.002, "_%":     0.00},
       "KSV_init": { "_calls": 1, "_time":        0.001, "_%":     0.00}
     },
     "IterGeom": { "_calls": 1, "_time":     1022.765, "_%":    99.80,
       "geom_init": { "_calls": 1, "_time":        6.674, "_%":     0.65,
         "state_init": { "_calls": 1, "_time":        0.575, "_%":     0.06,
           "hsparse": { "_calls": 1, "_time":        0.127, "_%":     0.01},
           "overlap": { "_calls": 1, "_time":        0.041, "_%":     0.00}
         },
         "Setup_H0": { "_calls": 1, "_time":        6.098, "_%":     0.60,
           "naefs": { "_calls": 1, "_time":        0.022, "_%":     0.00},
           "MolMec": { "_calls": 1, "_time":        0.000, "_%":     0.00},
           "kinefsm": { "_calls": 1, "_time":        0.037, "_%":     0.00},
           "nlefsm": { "_calls": 1, "_time":        0.132, "_%":     0.01},
           "DHSCF_Init": { "_calls": 1, "_time":        5.892, "_%":     0.57,
             "DHSCF1": { "_calls": 1, "_time":        0.043, "_%":     0.00,
               "INITMESH": { "_calls": 1, "_time":        0.000, "_%":     0.00}
             },
             "DHSCF2": { "_calls": 1, "_time":        5.830, "_%":     0.57,
               "REMESH": { "_calls": 1, "_time":        4.204, "_%":     0.41,
                 "INITMESH": { "_calls": 2, "_time":        3.712, "_%":     0.36,
                   "SPLOAD": { "_calls": 2, "_time":        0.493, "_%":     0.05}
                 }
               },
               "REORD": { "_calls": 2, "_time":        0.001, "_%":     0.00},
               "PHION": { "_calls": 1, "_time":        0.020, "_%":     0.00},
               "COMM_BSC": { "_calls": 1, "_time":        0.136, "_%":     0.01},
               "POISON": { "_calls": 1, "_time":        0.711, "_%":     0.07,
                 "fft": { "_calls": 2, "_time":        0.697, "_%":     0.07}
               }
             }
           }
         }
       },
       "IterSCF": { "_calls": 5, "_time":     1016.009, "_%":    99.14,
         "setup_H": { "_calls": 5, "_time":        6.043, "_%":     0.59,
           "DHSCF": { "_calls": 5, "_time":        6.028, "_%":     0.59,
             "DHSCF3": { "_calls": 5, "_time":        6.028, "_%":     0.59,
               "rhoofd": { "_calls": 5, "_time":        0.049, "_%":     0.00},
               "COMM_BSC": { "_calls": 10, "_time":        0.601, "_%":     0.06},
               "POISON": { "_calls": 5, "_time":        2.883, "_%":     0.28,
                 "fft": { "_calls": 10, "_time":        2.754, "_%":     0.27}
               },
               "XC": { "_calls": 5, "_time":        1.606, "_%":     0.16,
                 "COMM_BSC": { "_calls": 10, "_time":        0.448, "_%":     0.04},
                 "GXC-CellXC": { "_calls": 5, "_time":        1.137, "_%":     0.11,
                   "gridxc@cellXC": { "_calls": 5, "_time":        1.137, "_%":     0.11}
                 }
               },
               "vmat": { "_calls": 5, "_time":        0.087, "_%":     0.01}
             }
           }
         },
         "compute_dm": { "_calls": 5, "_time":     1009.911, "_%":    98.54,
           "redist_orbs_fwd": { "_calls": 80, "_time":       35.494, "_%":     3.46},
           "elsi-complex-solver": { "_calls": 5, "_time":      973.453, "_%":    94.99,
             "elsi-solver": { "_calls": 5, "_time":      973.396, "_%":    94.98}
           },
           "redist_dm-edm_bck": { "_calls": 5, "_time":        0.895, "_%":     0.09}
         },
         "MIXER": { "_calls": 5, "_time":        0.030, "_%":     0.00}
       },
       "state_analysis": { "_calls": 1, "_time":        0.064, "_%":     0.01},
       "siesta_move": { "_calls": 1, "_time":        0.000, "_%":     0.00}
     },
     "Analysis": { "_calls": 1, "_time":        0.173, "_%":     0.02,
       "optical": { "_calls": 1, "_time":        0.001, "_%":     0.00}
     }
   }
 }}
