JobId=8022894 JobName=CovidWeakKPoints
   UserId=pedronfe(327000671) GroupId=pepr_pedronfe(327000671) MCS_label=N/A
   Priority=392 Nice=0 Account=project_465001212 QOS=normal
   JobState=RUNNING Reason=None Dependency=(null)
   Requeue=1 Restarts=0 BatchFlag=1 Reboot=0 ExitCode=0:0
   DerivedExitCode=0:0
   RunTime=00:00:03 TimeLimit=00:59:00 TimeMin=N/A
   SubmitTime=2024-09-18T20:12:35 EligibleTime=2024-09-18T20:12:35
   AccrueTime=2024-09-18T20:12:35
   StartTime=2024-09-18T21:58:49 EndTime=2024-09-18T22:57:49 Deadline=N/A
   SuspendTime=None SecsPreSuspend=0 LastSchedEval=2024-09-18T21:58:49 Scheduler=Backfill
   Partition=standard AllocNode:Sid=ln02:209673
   ReqNodeList=(null) ExcNodeList=(null)
   NodeList=nid[001135,001145-001147,001372-001375]
   BatchHost=nid001135
   NumNodes=8 NumCPUs=2048 NumTasks=1024 CPUs/Task=1 ReqB:S:C:T=0:0:*:1
   ReqTRES=cpu=1024,mem=1792G,node=8,billing=1024
   AllocTRES=cpu=2048,node=8,billing=2048
   Socks/Node=* NtasksPerN:B:S:C=128:0:*:1 CoreSpec=*
   JOB_GRES=(null)
     Nodes=nid[001135,001145-001147,001372-001375] CPU_IDs=0-255 Mem=0 GRES=
   MinCPUsNode=128 MinMemoryCPU=0 MinTmpDiskNode=0
   Features=(null) DelayBoot=00:00:00
   OverSubscribe=NO Contiguous=0 Licenses=(null) Network=(null)
   Command=/pfs/lustrep1/projappl/project_465001212/fede/JUBE4MaX/max-inputs/interface/siesta/_CovidWeakKPoints/000001/000011_submit/work/submit.job
   WorkDir=/pfs/lustrep1/projappl/project_465001212/fede/JUBE4MaX/max-inputs/interface/siesta/_CovidWeakKPoints/000001/000011_submit/work
   StdErr=/pfs/lustrep1/projappl/project_465001212/fede/JUBE4MaX/max-inputs/interface/siesta/_CovidWeakKPoints/000001/000011_submit/work/slurm-8022894.out
   StdIn=/dev/null
   StdOut=/pfs/lustrep1/projappl/project_465001212/fede/JUBE4MaX/max-inputs/interface/siesta/_CovidWeakKPoints/000001/000011_submit/work/slurm-8022894.out
   Power=
   

