{
 "global_section": { "_calls": 1, "_time":     1434.462, "_%":   100.00,
   "siesta": { "_calls": 1, "_time":     1434.462, "_%":   100.00,
     "Setup": { "_calls": 1, "_time":        1.865, "_%":     0.13,
       "bands": { "_calls": 1, "_time":        0.003, "_%":     0.00},
       "KSV_init": { "_calls": 1, "_time":        0.001, "_%":     0.00}
     },
     "IterGeom": { "_calls": 1, "_time":     1432.413, "_%":    99.86,
       "geom_init": { "_calls": 1, "_time":       48.781, "_%":     3.40,
         "state_init": { "_calls": 1, "_time":        1.002, "_%":     0.07,
           "hsparse": { "_calls": 1, "_time":        0.122, "_%":     0.01},
           "overlap": { "_calls": 1, "_time":        0.034, "_%":     0.00}
         },
         "Setup_H0": { "_calls": 1, "_time":       47.779, "_%":     3.33,
           "naefs": { "_calls": 1, "_time":        0.022, "_%":     0.00},
           "MolMec": { "_calls": 1, "_time":        0.000, "_%":     0.00},
           "kinefsm": { "_calls": 1, "_time":        0.026, "_%":     0.00},
           "nlefsm": { "_calls": 1, "_time":        0.102, "_%":     0.01},
           "DHSCF_Init": { "_calls": 1, "_time":       47.614, "_%":     3.32,
             "DHSCF1": { "_calls": 1, "_time":        0.039, "_%":     0.00,
               "INITMESH": { "_calls": 1, "_time":        0.000, "_%":     0.00}
             },
             "DHSCF2": { "_calls": 1, "_time":       47.556, "_%":     3.32,
               "REMESH": { "_calls": 1, "_time":       38.360, "_%":     2.67,
                 "INITMESH": { "_calls": 2, "_time":       36.440, "_%":     2.54,
                   "SPLOAD": { "_calls": 2, "_time":        6.355, "_%":     0.44}
                 }
               },
               "REORD": { "_calls": 2, "_time":        0.000, "_%":     0.00},
               "PHION": { "_calls": 1, "_time":        0.012, "_%":     0.00},
               "COMM_BSC": { "_calls": 1, "_time":        0.018, "_%":     0.00},
               "POISON": { "_calls": 1, "_time":        0.398, "_%":     0.03,
                 "fft": { "_calls": 2, "_time":        0.393, "_%":     0.03}
               }
             }
           }
         }
       },
       "IterSCF": { "_calls": 5, "_time":     1383.546, "_%":    96.45,
         "setup_H": { "_calls": 5, "_time":        2.788, "_%":     0.19,
           "DHSCF": { "_calls": 5, "_time":        2.752, "_%":     0.19,
             "DHSCF3": { "_calls": 5, "_time":        2.752, "_%":     0.19,
               "rhoofd": { "_calls": 5, "_time":        0.031, "_%":     0.00},
               "COMM_BSC": { "_calls": 10, "_time":        0.161, "_%":     0.01},
               "POISON": { "_calls": 5, "_time":        1.484, "_%":     0.10,
                 "fft": { "_calls": 10, "_time":        1.443, "_%":     0.10}
               },
               "XC": { "_calls": 5, "_time":        0.905, "_%":     0.06,
                 "COMM_BSC": { "_calls": 10, "_time":        0.145, "_%":     0.01},
                 "GXC-CellXC": { "_calls": 5, "_time":        0.751, "_%":     0.05,
                   "gridxc@cellXC": { "_calls": 5, "_time":        0.751, "_%":     0.05}
                 }
               },
               "vmat": { "_calls": 5, "_time":        0.029, "_%":     0.00}
             }
           }
         },
         "compute_dm": { "_calls": 5, "_time":     1380.682, "_%":    96.25,
           "redist_orbs_fwd": { "_calls": 160, "_time":      316.706, "_%":    22.08},
           "elsi-complex-solver": { "_calls": 5, "_time":     1059.850, "_%":    73.88,
             "elsi-solver": { "_calls": 5, "_time":     1054.355, "_%":    73.50}
           },
           "redist_dm-edm_bck": { "_calls": 5, "_time":        4.033, "_%":     0.28}
         },
         "MIXER": { "_calls": 5, "_time":        0.054, "_%":     0.00}
       },
       "state_analysis": { "_calls": 1, "_time":        0.068, "_%":     0.00},
       "siesta_move": { "_calls": 1, "_time":        0.000, "_%":     0.00}
     },
     "Analysis": { "_calls": 1, "_time":        0.165, "_%":     0.01,
       "optical": { "_calls": 1, "_time":        0.001, "_%":     0.00}
     }
   }
 }}
