JobId=155743 JobName=CovidWeakKPoints
   UserId=aalcaraz(30093) GroupId=aalcaraz(40093) MCS_label=N/A
   Priority=1 Nice=0 Account=eehpc-ben-2024b07-051x QOS=normal
   JobState=RUNNING Reason=None Dependency=(null)
   Requeue=1 Restarts=0 BatchFlag=1 Reboot=0 ExitCode=0:0
   DerivedExitCode=0:0
   RunTime=00:00:04 TimeLimit=00:59:00 TimeMin=N/A
   SubmitTime=2024-10-04T13:10:48 EligibleTime=2024-10-04T13:10:48
   AccrueTime=2024-10-04T13:10:48
   StartTime=2024-10-04T15:56:43 EndTime=2024-10-04T16:55:43 Deadline=N/A
   SuspendTime=None SecsPreSuspend=0 LastSchedEval=2024-10-04T15:56:42 Scheduler=Backfill
   Partition=normal-x86 AllocNode:Sid=ln01-x86:1296123
   ReqNodeList=(null) ExcNodeList=(null)
   NodeList=cnx[353-360]
   BatchHost=cnx353
   NumNodes=8 NumCPUs=1024 NumTasks=1024 CPUs/Task=1 ReqB:S:C:T=0:0:*:1
   ReqTRES=cpu=1024,mem=1936G,node=8,billing=1024
   AllocTRES=cpu=1024,mem=1936G,node=8,billing=1024
   Socks/Node=* NtasksPerN:B:S:C=128:0:*:* CoreSpec=*
   JOB_GRES=(null)
     Nodes=cnx[353-360] CPU_IDs=0-127 Mem=247808 GRES=
   MinCPUsNode=128 MinMemoryNode=0 MinTmpDiskNode=0
   Features=(null) DelayBoot=00:00:00
   OverSubscribe=NO Contiguous=0 Licenses=(null) Network=(null)
   Command=/projects/EEHPC-BEN-2024B07-051/JUBE4MaX/max-inputs/interface/siesta/_CovidWeakKPoints/000000/000012_submit/work/submit.job
   WorkDir=/projects/EEHPC-BEN-2024B07-051/JUBE4MaX/max-inputs/interface/siesta/_CovidWeakKPoints/000000/000012_submit/work
   StdErr=/projects/EEHPC-BEN-2024B07-051/JUBE4MaX/max-inputs/interface/siesta/_CovidWeakKPoints/000000/000012_submit/work/slurm-155743.out
   StdIn=/dev/null
   StdOut=/projects/EEHPC-BEN-2024B07-051/JUBE4MaX/max-inputs/interface/siesta/_CovidWeakKPoints/000000/000012_submit/work/slurm-155743.out
   Power=
   TresPerTask=cpu:1
   

