{
 "global_section": { "_calls": 1, "_time":     1302.146, "_%":   100.00,
   "siesta": { "_calls": 1, "_time":     1302.146, "_%":   100.00,
     "Setup": { "_calls": 1, "_time":        2.054, "_%":     0.16,
       "bands": { "_calls": 1, "_time":        0.004, "_%":     0.00},
       "KSV_init": { "_calls": 1, "_time":        0.001, "_%":     0.00}
     },
     "IterGeom": { "_calls": 1, "_time":     1299.776, "_%":    99.82,
       "geom_init": { "_calls": 1, "_time":       22.401, "_%":     1.72,
         "state_init": { "_calls": 1, "_time":        0.573, "_%":     0.04,
           "hsparse": { "_calls": 1, "_time":        0.173, "_%":     0.01},
           "overlap": { "_calls": 1, "_time":        0.114, "_%":     0.01}
         },
         "Setup_H0": { "_calls": 1, "_time":       21.827, "_%":     1.68,
           "naefs": { "_calls": 1, "_time":        0.031, "_%":     0.00},
           "MolMec": { "_calls": 1, "_time":        0.000, "_%":     0.00},
           "kinefsm": { "_calls": 1, "_time":        0.101, "_%":     0.01},
           "nlefsm": { "_calls": 1, "_time":        0.428, "_%":     0.03},
           "DHSCF_Init": { "_calls": 1, "_time":       21.247, "_%":     1.63,
             "DHSCF1": { "_calls": 1, "_time":        0.097, "_%":     0.01,
               "INITMESH": { "_calls": 1, "_time":        0.000, "_%":     0.00}
             },
             "DHSCF2": { "_calls": 1, "_time":       21.120, "_%":     1.62,
               "REMESH": { "_calls": 1, "_time":        0.177, "_%":     0.01,
                 "INITMESH": { "_calls": 2, "_time":        0.138, "_%":     0.01,
                   "SPLOAD": { "_calls": 2, "_time":        0.123, "_%":     0.01}
                 }
               },
               "REORD": { "_calls": 2, "_time":        0.105, "_%":     0.01},
               "PHION": { "_calls": 1, "_time":        0.510, "_%":     0.04},
               "COMM_BSC": { "_calls": 1, "_time":        0.458, "_%":     0.04},
               "POISON": { "_calls": 1, "_time":       18.496, "_%":     1.42,
                 "fft": { "_calls": 2, "_time":       17.630, "_%":     1.35}
               }
             }
           }
         }
       },
       "IterSCF": { "_calls": 5, "_time":     1277.282, "_%":    98.09,
         "setup_H": { "_calls": 5, "_time":      134.734, "_%":    10.35,
           "DHSCF": { "_calls": 5, "_time":      134.654, "_%":    10.34,
             "DHSCF3": { "_calls": 5, "_time":      134.653, "_%":    10.34,
               "rhoofd": { "_calls": 5, "_time":        0.816, "_%":     0.06},
               "COMM_BSC": { "_calls": 10, "_time":        4.142, "_%":     0.32},
               "POISON": { "_calls": 5, "_time":       93.168, "_%":     7.15,
                 "fft": { "_calls": 10, "_time":       89.083, "_%":     6.84}
               },
               "XC": { "_calls": 5, "_time":       28.918, "_%":     2.22,
                 "COMM_BSC": { "_calls": 10, "_time":        4.226, "_%":     0.32},
                 "GXC-CellXC": { "_calls": 5, "_time":       23.413, "_%":     1.80,
                   "gridxc@cellXC": { "_calls": 5, "_time":       23.413, "_%":     1.80}
                 }
               },
               "vmat": { "_calls": 5, "_time":        0.450, "_%":     0.03}
             }
           }
         },
         "compute_dm": { "_calls": 5, "_time":     1142.508, "_%":    87.74,
           "diagon": { "_calls": 5, "_time":     1142.269, "_%":    87.72,
             "r-eigvec": { "_calls": 5, "_time":     1095.038, "_%":    84.09,
               "r-buildHS": { "_calls": 5, "_time":        0.533, "_%":     0.04},
               "rdiag": { "_calls": 5, "_time":     1094.505, "_%":    84.05,
                 "rdiag1": { "_calls": 5, "_time":       25.874, "_%":     1.99},
                 "rdiag2": { "_calls": 5, "_time":       77.420, "_%":     5.95},
                 "rdiag3": { "_calls": 5, "_time":      881.652, "_%":    67.71},
                 "rdiag4": { "_calls": 5, "_time":      104.684, "_%":     8.04}
               }
             },
             "r-buildD": { "_calls": 5, "_time":       45.918, "_%":     3.53}
           }
         },
         "MIXER": { "_calls": 5, "_time":        0.006, "_%":     0.00}
       },
       "state_analysis": { "_calls": 1, "_time":        0.084, "_%":     0.01},
       "siesta_move": { "_calls": 1, "_time":        0.000, "_%":     0.00}
     },
     "Analysis": { "_calls": 1, "_time":        0.308, "_%":     0.02,
       "optical": { "_calls": 1, "_time":        0.001, "_%":     0.00}
     }
   }
 }}
