[2025-03-06 22:20:42.953 Control 556545] Starting control daemon using socket ./pipe2/control
[2025-03-06 22:20:42.953 Control 556545] To connect CUDA applications to this daemon, set env CUDA_MPS_PIPE_DIRECTORY=./pipe2
[2025-03-06 22:20:43.933 Control 556545] Accepting connection...
[2025-03-06 22:20:43.934 Control 556545] User did not send valid credentials
[2025-03-06 22:20:43.934 Control 556545] Accepting connection...
[2025-03-06 22:20:43.934 Control 556545] User did not send valid credentials
[2025-03-06 22:20:43.934 Control 556545] Accepting connection...
[2025-03-06 22:20:43.934 Control 556545] User did not send valid credentials
[2025-03-06 22:20:43.934 Control 556545] Accepting connection...
[2025-03-06 22:20:43.934 Control 556545] NEW CLIENT 556540 from user 33678: Server is not ready, push client to pending list
[2025-03-06 22:20:43.934 Control 556545] Starting new server 556583 for user 33678
[2025-03-06 22:20:43.934 Control 556545] Accepting connection...
[2025-03-06 22:20:43.934 Control 556545] NEW CLIENT 556542 from user 33678: Server is not ready, push client to pending list
[2025-03-06 22:20:43.934 Control 556545] Accepting connection...
[2025-03-06 22:20:43.934 Control 556545] NEW CLIENT 556530 from user 33678: Server is not ready, push client to pending list
[2025-03-06 22:20:43.934 Control 556545] Accepting connection...
[2025-03-06 22:20:43.934 Control 556545] User did not send valid credentials
[2025-03-06 22:20:43.934 Control 556545] Accepting connection...
[2025-03-06 22:20:43.934 Control 556545] User did not send valid credentials
[2025-03-06 22:20:43.934 Control 556545] Accepting connection...
[2025-03-06 22:20:43.934 Control 556545] User did not send valid credentials
[2025-03-06 22:20:43.934 Control 556545] Accepting connection...
[2025-03-06 22:20:43.934 Control 556545] NEW CLIENT 556533 from user 33678: Server is not ready, push client to pending list
[2025-03-06 22:20:43.934 Control 556545] Accepting connection...
[2025-03-06 22:20:43.934 Control 556545] NEW CLIENT 556528 from user 33678: Server is not ready, push client to pending list
[2025-03-06 22:20:43.934 Control 556545] Accepting connection...
[2025-03-06 22:20:43.934 Control 556545] NEW CLIENT 556535 from user 33678: Server is not ready, push client to pending list
[2025-03-06 22:20:43.934 Control 556545] Accepting connection...
[2025-03-06 22:20:43.934 Control 556545] User did not send valid credentials
[2025-03-06 22:20:43.934 Control 556545] Accepting connection...
[2025-03-06 22:20:43.934 Control 556545] NEW CLIENT 556539 from user 33678: Server is not ready, push client to pending list
[2025-03-06 22:20:43.934 Control 556545] Accepting connection...
[2025-03-06 22:20:43.934 Control 556545] User did not send valid credentials
[2025-03-06 22:20:43.934 Control 556545] Accepting connection...
[2025-03-06 22:20:43.934 Control 556545] NEW CLIENT 556547 from user 33678: Server is not ready, push client to pending list
[2025-03-06 22:20:43.934 Control 556545] Accepting connection...
[2025-03-06 22:20:43.934 Control 556545] User did not send valid credentials
[2025-03-06 22:20:43.934 Control 556545] Accepting connection...
[2025-03-06 22:20:43.934 Control 556545] NEW CLIENT 556541 from user 33678: Server is not ready, push client to pending list
[2025-03-06 22:20:43.934 Control 556545] Accepting connection...
[2025-03-06 22:20:43.934 Control 556545] User did not send valid credentials
[2025-03-06 22:20:43.934 Control 556545] Accepting connection...
[2025-03-06 22:20:43.934 Control 556545] NEW CLIENT 556537 from user 33678: Server is not ready, push client to pending list
[2025-03-06 22:20:43.934 Control 556545] Accepting connection...
[2025-03-06 22:20:43.934 Control 556545] User did not send valid credentials
[2025-03-06 22:20:43.934 Control 556545] Accepting connection...
[2025-03-06 22:20:43.934 Control 556545] User did not send valid credentials
[2025-03-06 22:20:43.934 Control 556545] Accepting connection...
[2025-03-06 22:20:43.934 Control 556545] NEW CLIENT 556531 from user 33678: Server is not ready, push client to pending list
[2025-03-06 22:20:43.934 Control 556545] Accepting connection...
[2025-03-06 22:20:43.934 Control 556545] NEW CLIENT 556534 from user 33678: Server is not ready, push client to pending list
[2025-03-06 22:20:43.934 Control 556545] Accepting connection...
[2025-03-06 22:20:43.935 Control 556545] User did not send valid credentials
[2025-03-06 22:20:43.935 Control 556545] Accepting connection...
[2025-03-06 22:20:43.935 Control 556545] NEW CLIENT 556536 from user 33678: Server is not ready, push client to pending list
[2025-03-06 22:20:43.941 Control 556545] Accepting connection...
[2025-03-06 22:20:44.170 Control 556545] NEW SERVER 556583: Ready
[2025-03-06 22:20:44.195 Control 556545] Accepting connection...
[2025-03-06 22:20:44.196 Control 556545] User did not send valid credentials
[2025-03-06 22:20:44.196 Control 556545] Accepting connection...
[2025-03-06 22:20:44.196 Control 556545] User did not send valid credentials
[2025-03-06 22:20:44.196 Control 556545] Accepting connection...
[2025-03-06 22:20:44.196 Control 556545] User did not send valid credentials
[2025-03-06 22:20:44.196 Control 556545] Accepting connection...
[2025-03-06 22:20:44.196 Control 556545] NEW CLIENT 556532 from user 33678: Server already exists
[2025-03-06 22:20:44.196 Control 556545] Accepting connection...
[2025-03-06 22:20:44.196 Control 556545] NEW CLIENT 556529 from user 33678: Server already exists
[2025-03-06 22:20:44.196 Control 556545] Accepting connection...
[2025-03-06 22:20:44.196 Control 556545] NEW CLIENT 556538 from user 33678: Server already exists
[2025-03-06 22:20:44.908 Control 556545] Accepting connection...
[2025-03-06 22:20:44.908 Control 556545] NEW CLIENT 556532 from user 33678: Server already exists
[2025-03-06 22:20:44.909 Control 556545] Accepting connection...
[2025-03-06 22:20:44.909 Control 556545] NEW CLIENT 556533 from user 33678: Server already exists
[2025-03-06 22:20:44.909 Control 556545] Accepting connection...
[2025-03-06 22:20:44.909 Control 556545] NEW CLIENT 556530 from user 33678: Server already exists
[2025-03-06 22:20:44.909 Control 556545] Accepting connection...
[2025-03-06 22:20:44.909 Control 556545] NEW CLIENT 556529 from user 33678: Server already exists
[2025-03-06 22:20:44.909 Control 556545] Accepting connection...
[2025-03-06 22:20:44.909 Control 556545] NEW CLIENT 556535 from user 33678: Server already exists
[2025-03-06 22:20:44.909 Control 556545] Accepting connection...
[2025-03-06 22:20:44.909 Control 556545] NEW CLIENT 556539 from user 33678: Server already exists
[2025-03-06 22:20:44.909 Control 556545] Accepting connection...
[2025-03-06 22:20:44.909 Control 556545] NEW CLIENT 556531 from user 33678: Server already exists
[2025-03-06 22:20:44.909 Control 556545] Accepting connection...
[2025-03-06 22:20:44.909 Control 556545] NEW CLIENT 556540 from user 33678: Server already exists
[2025-03-06 22:20:44.909 Control 556545] Accepting connection...
[2025-03-06 22:20:44.909 Control 556545] NEW CLIENT 556537 from user 33678: Server already exists
[2025-03-06 22:20:44.910 Control 556545] Accepting connection...
[2025-03-06 22:20:44.910 Control 556545] NEW CLIENT 556542 from user 33678: Server already exists
[2025-03-06 22:20:44.910 Control 556545] Accepting connection...
[2025-03-06 22:20:44.910 Control 556545] NEW CLIENT 556536 from user 33678: Server already exists
[2025-03-06 22:20:44.910 Control 556545] Accepting connection...
[2025-03-06 22:20:44.910 Control 556545] NEW CLIENT 556528 from user 33678: Server already exists
[2025-03-06 22:20:44.929 Control 556545] Accepting connection...
[2025-03-06 22:20:44.929 Control 556545] NEW CLIENT 556534 from user 33678: Server already exists
[2025-03-06 22:20:44.929 Control 556545] Accepting connection...
[2025-03-06 22:20:44.929 Control 556545] NEW CLIENT 556541 from user 33678: Server already exists
[2025-03-06 22:20:44.929 Control 556545] Accepting connection...
[2025-03-06 22:20:44.929 Control 556545] NEW CLIENT 556538 from user 33678: Server already exists
[2025-03-06 22:20:44.929 Control 556545] Accepting connection...
[2025-03-06 22:20:44.929 Control 556545] NEW CLIENT 556547 from user 33678: Server already exists
