JobID        JobIDRaw        JobName  Partition  MaxVMSize  MaxVMSizeNode  MaxVMSizeTask  AveVMSize     MaxRSS MaxRSSNode MaxRSSTask     AveRSS MaxPages MaxPagesNode   MaxPagesTask   AvePages     MinCPU MinCPUNode MinCPUTask     AveCPU   NTasks  AllocCPUS    Elapsed      State ExitCode AveCPUFreq ReqCPUFreqMin ReqCPUFreqMax ReqCPUFreqGov     ReqMem ConsumedEnergy  MaxDiskRead MaxDiskReadNode MaxDiskReadTask    AveDiskRead MaxDiskWrite MaxDiskWriteNode MaxDiskWriteTask   AveDiskWrite    ReqTRES  AllocTRES TRESUsageInAve TRESUsageInMax TRESUsageInMaxNode TRESUsageInMaxTask TRESUsageInMin TRESUsageInMinNode TRESUsageInMinTask TRESUsageInTot TRESUsageOutMax TRESUsageOutMaxNode TRESUsageOutMaxTask TRESUsageOutAve TRESUsageOutTot 
------------ ------------ ---------- ---------- ---------- -------------- -------------- ---------- ---------- ---------- ---------- ---------- -------- ------------ -------------- ---------- ---------- ---------- ---------- ---------- -------- ---------- ---------- ---------- -------- ---------- ------------- ------------- ------------- ---------- -------------- ------------ --------------- --------------- -------------- ------------ ---------------- ---------------- -------------- ---------- ---------- -------------- -------------- ------------------ ------------------ -------------- ------------------ ------------------ -------------- --------------- ------------------- ------------------- --------------- --------------- 
13549129     13549129     submit.job boost_usr+                                                                                                                                                                                                             160   00:10:17    RUNNING      0:0                  Unknown       Unknown       Unknown   2464000M                                                                                                                                          billing=1+ billing=1+                                                                                                                                                                                                                                 
13549129.ba+ 13549129.ba+      batch                                                                                                                                                                                                               1         32   00:10:17    RUNNING      0:0          0             0             0             0                         0                                                                                                                                      cpu=32,gr+                                                                                                                                                                                                                                 
13549129.ex+ 13549129.ex+     extern                                                                                                                                                                                                               5        160   00:10:17    RUNNING      0:0          0             0             0             0                         0                                                                                                                                      billing=1+                                                                                                                                                                                                                                 
13549129.0   13549129.0   wrapper-s+              1887768K       lrdn2447              0  360388070   1745392K   lrdn2447          0  338724966      676     lrdn2447              2         62   00:09:58   lrdn2447          9   00:10:01      160        160   00:10:11  COMPLETED      0:0    117.41M       Unknown       Unknown       Unknown                         0        0.08M        lrdn2505             128          0.07M        0.00M         lrdn2505              144          0.00M            cpu=160,g+ cpu=00:10:01,+ cpu=00:10:02,+ cpu=lrdn2468,ener+ cpu=42,fs/disk=12+ cpu=00:09:58,+ cpu=lrdn2447,ener+ cpu=9,fs/disk=116+ cpu=1-02:42:5+ energy=0,fs/di+ energy=lrdn2505,fs+         fs/disk=144 energy=0,fs/di+ energy=0,fs/di+ 
13549129.1   13549129.1   wrapper-s+                  540K       lrdn2447              0      65689       540K   lrdn2447          0      65664        0     lrdn2447             10          0   00:00:00   lrdn2492        105   00:00:00      160        160   00:00:01  COMPLETED      0:0     83.76G       Unknown       Unknown       Unknown                         0        0.07M        lrdn2481              66          0.06M        0.00M         lrdn2447                1          0.00M            cpu=160,g+ cpu=00:00:00,+ cpu=00:00:00,+ cpu=lrdn2447,ener+ cpu=0,fs/disk=66,+ cpu=00:00:00,+ cpu=lrdn2492,ener+ cpu=105,fs/disk=1+ cpu=00:00:04,+ energy=0,fs/di+ energy=lrdn2447,fs+           fs/disk=1 energy=0,fs/di+ energy=0,fs/di+ 
