JobID        JobIDRaw        JobName  Partition  MaxVMSize  MaxVMSizeNode  MaxVMSizeTask  AveVMSize     MaxRSS MaxRSSNode MaxRSSTask     AveRSS MaxPages MaxPagesNode   MaxPagesTask   AvePages     MinCPU MinCPUNode MinCPUTask     AveCPU   NTasks  AllocCPUS    Elapsed      State ExitCode AveCPUFreq ReqCPUFreqMin ReqCPUFreqMax ReqCPUFreqGov     ReqMem ConsumedEnergy  MaxDiskRead MaxDiskReadNode MaxDiskReadTask    AveDiskRead MaxDiskWrite MaxDiskWriteNode MaxDiskWriteTask   AveDiskWrite    ReqTRES  AllocTRES TRESUsageInAve TRESUsageInMax TRESUsageInMaxNode TRESUsageInMaxTask TRESUsageInMin TRESUsageInMinNode TRESUsageInMinTask TRESUsageInTot TRESUsageOutMax TRESUsageOutMaxNode TRESUsageOutMaxTask TRESUsageOutAve TRESUsageOutTot 
------------ ------------ ---------- ---------- ---------- -------------- -------------- ---------- ---------- ---------- ---------- ---------- -------- ------------ -------------- ---------- ---------- ---------- ---------- ---------- -------- ---------- ---------- ---------- -------- ---------- ------------- ------------- ------------- ---------- -------------- ------------ --------------- --------------- -------------- ------------ ---------------- ---------------- -------------- ---------- ---------- -------------- -------------- ------------------ ------------------ -------------- ------------------ ------------------ -------------- --------------- ------------------- ------------------- --------------- --------------- 
6872704      6872704      submit.job ju-standa+                                                                                                                                                                                                             224   00:19:18    RUNNING      0:0                  Unknown       Unknown       Unknown       960G                                                                                                                                          billing=1+ billing=2+                                                                                                                                                                                                                                 
6872704.bat+ 6872704.bat+      batch                                                                                                                                                                                                               1        112   00:19:18    RUNNING      0:0          0             0             0             0                         0                                                                                                                                      cpu=112,g+                                                                                                                                                                                                                                 
6872704.0    6872704.0    select_gpu             86241988K      nid005309             12 828446917+  35344836K  nid005309          8 351240209+     6140    nid005308              7       5312   00:18:30  nid005308          4   00:19:02       16        224   00:18:28  COMPLETED      0:0     13.99M       Unknown       Unknown       Unknown                   976.23K      131.96M       nid005308               0        129.43M        3.32M        nid005308                0          3.23M            cpu=224,g+ cpu=00:19:02,+ cpu=00:19:15,+ cpu=nid005309,ene+ cpu=9,fs/disk=0,m+ cpu=00:18:30,+ cpu=nid005308,ene+ cpu=4,fs/disk=12,+ cpu=05:04:33,+ energy=2637,fs+ energy=nid005309,f+           fs/disk=0 energy=97,fs/d+ energy=1553,fs+ 
