load mkl/2024.0 (LD_LIBRARY_PATH)
load HDF5/1.14.1-2 (PATH, LD_LIBRARY_PATH, LIBRARY_PATH, C_INCLUDE_PATH,
CPLUS_INCLUDE_PATH, HDF5_DIR, HDF5_ROOT) 
load QUANTUMESPRESSO/7.3.1 (PATH)
Warning: ieee_inexact is signaling
FORTRAN STOP
Warning: ieee_inexact is signaling
FORTRAN STOP
Warning: ieee_inexact is signaling
FORTRAN STOP
Warning: ieee_inexact is signaling
FORTRAN STOP
Warning: ieee_inexact is signaling
FORTRAN STOP
Warning: ieee_inexact is signaling
FORTRAN STOP
Warning: ieee_inexact is signaling
FORTRAN STOP
Warning: ieee_inexact is signaling
FORTRAN STOP
[as01r3b20:1107431:0:1107431] Caught signal 11 (Segmentation fault: address not mapped to object at address 0xffffffffa426e058)
Warning: ieee_inexact is signaling
FORTRAN STOP
Warning: ieee_inexact is signaling
FORTRAN STOP
Warning: ieee_inexact is signaling
FORTRAN STOP
[as01r3b20:1107432:0:1107432] Caught signal 11 (Segmentation fault: address not mapped to object at address 0xfffffffffd05a058)
Warning: ieee_inexact is signaling
FORTRAN STOP
[as01r3b20:1107434:0:1107434] Caught signal 11 (Segmentation fault: address not mapped to object at address 0xffffffffd4807058)
[as01r3b20:1107433:0:1107433] Caught signal 11 (Segmentation fault: address not mapped to object at address 0x373ca058)
Warning: ieee_inexact is signaling
FORTRAN STOP
[as01r3b22:3353569:0:3353569] Caught signal 11 (Segmentation fault: address not mapped to object at address 0xffffffff9e448058)
[as01r3b22:3353566:0:3353566] Caught signal 11 (Segmentation fault: invalid permissions for mapped object at address 0x11d2d058)
[as01r3b22:3353568:0:3353568] Caught signal 11 (Segmentation fault: invalid permissions for mapped object at address 0x8aea058)
[as01r3b22:3353567:0:3353567] Caught signal 11 (Segmentation fault: invalid permissions for mapped object at address 0x11bdb058)
Warning: ieee_inexact is signaling
FORTRAN STOP
Warning: ieee_divide_by_zero is signaling
Warning: ieee_inexact is signaling
FORTRAN STOP
[as01r3b18:1777065:0:1777065] Caught signal 11 (Segmentation fault: address not mapped to object at address 0xffffffff82df7058)
[as01r3b24:2703656:0:2703656] Caught signal 11 (Segmentation fault: invalid permissions for mapped object at address 0x7f78058)
[as01r3b24:2703658:0:2703658] Caught signal 11 (Segmentation fault: address not mapped to object at address 0x313e3058)
[as01r3b18:1777066:0:1777066] Caught signal 11 (Segmentation fault: address not mapped to object at address 0xffffffffbf6c2058)
[as01r3b24:2703657:0:2703657] Caught signal 11 (Segmentation fault: address not mapped to object at address 0xfffffffffd818058)
[as01r3b24:2703655:0:2703655] Caught signal 11 (Segmentation fault: address not mapped to object at address 0x71b27058)
Warning: ieee_inexact is signaling
FORTRAN STOP
[as01r3b18:1777063:0:1777063] Caught signal 11 (Segmentation fault: address not mapped to object at address 0xffffffffacc18058)
[as01r3b18:1777064:0:1777064] Caught signal 11 (Segmentation fault: address not mapped to object at address 0x25d14058)
==== backtrace (tid:2703656) ====
 0 0x0000000000054df0 __GI___sigaction()  :0
=================================
[as01r3b24:2703656] *** Process received signal ***
[as01r3b24:2703656] Signal: Segmentation fault (11)
[as01r3b24:2703656] Signal code:  (-6)
[as01r3b24:2703656] Failing at address: 0xbe800294128
[as01r3b24:2703656] [ 0] /lib64/libc.so.6(+0x54df0)[0x7f051d2c1df0]
[as01r3b24:2703656] [ 1] [0x7f78058]
[as01r3b24:2703656] *** End of error message ***
--------------------------------------------------------------------------
Primary job  terminated normally, but 1 process returned
a non-zero exit code. Per user-direction, the job has been aborted.
--------------------------------------------------------------------------
==== backtrace (tid:3353568) ====
 0 0x0000000000054df0 __GI___sigaction()  :0
==== backtrace (tid:3353567) ====
 0 0x0000000000054df0 __GI___sigaction()  :0
=================================
=================================
==== backtrace (tid:3353566) ====
 0 0x0000000000054df0 __GI___sigaction()  :0
=================================
[as01r3b22:3353568] *** Process received signal ***
[as01r3b22:3353567] *** Process received signal ***
[as01r3b22:3353567] Signal: Segmentation fault (11)
[as01r3b22:3353567] Signal code:  (-6)
[as01r3b22:3353567] Failing at address: 0xbe800332bdf
[as01r3b22:3353568] Signal: Segmentation fault (11)
[as01r3b22:3353568] Signal code:  (-6)
[as01r3b22:3353568] Failing at address: 0xbe800332be0
[as01r3b22:3353566] *** Process received signal ***
[as01r3b22:3353566] Signal: Segmentation fault (11)
[as01r3b22:3353566] Signal code:  (-6)
[as01r3b22:3353566] Failing at address: 0xbe800332bde
[as01r3b22:3353568] [ 0] [as01r3b22:3353567] [ 0] [as01r3b22:3353566] [ 0] /lib64/libc.so.6(+0x54df0)[0x7f5e1de33df0]
[as01r3b22:3353568] [ 1] [0x8aea058]
[as01r3b22:3353568] *** End of error message ***
/lib64/libc.so.6(+0x54df0)[0x7fae26f24df0]
[as01r3b22:3353567] [ 1] [0x11bdb058]
[as01r3b22:3353567] *** End of error message ***
/lib64/libc.so.6(+0x54df0)[0x7f1a27076df0]
[as01r3b22:3353566] [ 1] [0x11d2d058]
[as01r3b22:3353566] *** End of error message ***
--------------------------------------------------------------------------
mpirun noticed that process rank 11 with PID 3353569 on node as01r3b22 exited on signal 11 (Segmentation fault).
--------------------------------------------------------------------------
