JobID        JobIDRaw        JobName  Partition  MaxVMSize  MaxVMSizeNode  MaxVMSizeTask  AveVMSize     MaxRSS MaxRSSNode MaxRSSTask     AveRSS MaxPages MaxPagesNode   MaxPagesTask   AvePages     MinCPU MinCPUNode MinCPUTask     AveCPU   NTasks  AllocCPUS    Elapsed      State ExitCode AveCPUFreq ReqCPUFreqMin ReqCPUFreqMax ReqCPUFreqGov     ReqMem ConsumedEnergy  MaxDiskRead MaxDiskReadNode MaxDiskReadTask    AveDiskRead MaxDiskWrite MaxDiskWriteNode MaxDiskWriteTask   AveDiskWrite    ReqTRES  AllocTRES TRESUsageInAve TRESUsageInMax TRESUsageInMaxNode TRESUsageInMaxTask TRESUsageInMin TRESUsageInMinNode TRESUsageInMinTask TRESUsageInTot TRESUsageOutMax TRESUsageOutMaxNode TRESUsageOutMaxTask TRESUsageOutAve TRESUsageOutTot 
------------ ------------ ---------- ---------- ---------- -------------- -------------- ---------- ---------- ---------- ---------- ---------- -------- ------------ -------------- ---------- ---------- ---------- ---------- ---------- -------- ---------- ---------- ---------- -------- ---------- ------------- ------------- ------------- ---------- -------------- ------------ --------------- --------------- -------------- ------------ ---------------- ---------------- -------------- ---------- ---------- -------------- -------------- ------------------ ------------------ -------------- ------------------ ------------------ -------------- --------------- ------------------- ------------------- --------------- --------------- 
1422994      1422994       CovidWeak        cpu                                                                                                                                                                                                            4096   00:14:15    RUNNING      0:0                  Unknown       Unknown       Unknown      7.50T                                                                                                                                          billing=2+ billing=4+                                                                                                                                                                                                                                 
1422994.bat+ 1422994.bat+      batch                                                                                                                                                                                                               1        256   00:14:15    RUNNING      0:0          0             0             0             0                         0                                                                                                                                      cpu=256,g+                                                                                                                                                                                                                                 
1422994.0    1422994.0        siesta                                                                                                                                                                                                            2048       2048   00:14:09    RUNNING      0:0          0       Unknown       Unknown       Unknown                         0                                                                                                                                      cpu=2048,+                                                                                                                                                                                                                                 
