JobId=7208480 JobName=submit.job
   UserId=nspallan(25378) GroupId=interactive(25200) MCS_label=N/A
   Priority=195177 Nice=0 Account=euhpc_b12_044 QOS=dcgp_qos_bprod
   JobState=RUNNING Reason=None Dependency=(null)
   Requeue=0 Restarts=0 BatchFlag=1 Reboot=0 ExitCode=0:0
   DerivedExitCode=0:0
   RunTime=00:00:04 TimeLimit=12:00:00 TimeMin=N/A
   SubmitTime=2024-08-23T13:56:35 EligibleTime=2024-08-23T13:56:35
   AccrueTime=2024-08-23T13:56:35
   StartTime=2024-08-23T18:56:15 EndTime=2024-08-24T06:56:16 Deadline=N/A
   SuspendTime=None SecsPreSuspend=0 LastSchedEval=2024-08-23T18:56:15 Scheduler=Main
   Partition=dcgp_usr_prod AllocNode:Sid=slurm-controller:938051
   ReqNodeList=(null) ExcNodeList=(null)
   NodeList=lrdn[3542-3543,3580-3581,3641-3642,3686-3687,3730,3734,3782-3783,3819-3820,3848,3853,3890,3892,3939,3941,3972,3974,4009,4013,4045,4051,4081,4095,4125-4126,4203-4204,4243-4244,4284-4285,4332,4334,4362-4363,4396-4397,4440-4441,4478,4480,4514-4515,4555,4590,4643,4668,4709,4745,4793,4824,4864,4898,4934,4973]
   BatchHost=lrdn3542
   NumNodes=60 NumCPUs=6720 NumTasks=120 CPUs/Task=56 ReqB:S:C:T=0:0:*:*
   TRES=cpu=6720,mem=28875G,node=60,billing=6720,gres/tmpfs=197912092999680
   Socks/Node=* NtasksPerN:B:S:C=2:0:1:* CoreSpec=*
   JOB_GRES=tmpfs:197912092999680
     Nodes=lrdn[3542-3543,3580-3581,3641-3642,3686-3687,3730,3734,3782-3783,3819-3820,3848,3853,3890,3892,3939,3941,3972,3974,4009,4013,4045,4051,4081,4095,4125-4126,4203-4204,4243-4244,4284-4285,4332,4334,4362-4363,4396-4397,4440-4441,4478,4480,4514-4515,4555,4590,4643,4668,4709,4745,4793,4824,4864,4898,4934,4973] CPU_IDs=0-111 Mem=492800 GRES=tmpfs(CNT:3298534883328)
   MinCPUsNode=112 MinMemoryCPU=4400M MinTmpDiskNode=0
   Features=(null) DelayBoot=00:00:00
   OverSubscribe=NO Contiguous=0 Licenses=(null) Network=(null)
   Command=/leonardo_work/EUHPC_E01_022/nspallan/benchmarks/strongscaling_dcgp_61k_8tpn/000000/000003_submit/work/submit.job
   WorkDir=/leonardo_work/EUHPC_E01_022/nspallan/benchmarks/strongscaling_dcgp_61k_8tpn/000000/000003_submit/work
   StdErr=/leonardo_work/EUHPC_E01_022/nspallan/benchmarks/strongscaling_dcgp_61k_8tpn/000000/000003_submit/work/slurm-7208480.out
   StdIn=/dev/null
   StdOut=/leonardo_work/EUHPC_E01_022/nspallan/benchmarks/strongscaling_dcgp_61k_8tpn/000000/000003_submit/work/slurm-7208480.out
   Power=
   TresPerNode=gres:tmpfs:10g
   

