{
 "global_section": { "_calls": 1, "_time":     7823.413, "_%":   100.00,
   "siesta": { "_calls": 1, "_time":     7823.413, "_%":   100.00,
     "Setup": { "_calls": 1, "_time":        0.737, "_%":     0.01,
       "bands": { "_calls": 1, "_time":        0.001, "_%":     0.00},
       "KSV_init": { "_calls": 1, "_time":        0.000, "_%":     0.00}
     },
     "IterGeom": { "_calls": 1, "_time":     7821.973, "_%":    99.98,
       "geom_init": { "_calls": 1, "_time":        4.041, "_%":     0.05,
         "state_init": { "_calls": 1, "_time":        0.994, "_%":     0.01,
           "hsparse": { "_calls": 1, "_time":        0.098, "_%":     0.00},
           "overlap": { "_calls": 1, "_time":        0.545, "_%":     0.01}
         },
         "Setup_H0": { "_calls": 1, "_time":        3.047, "_%":     0.04,
           "naefs": { "_calls": 1, "_time":        0.019, "_%":     0.00},
           "MolMec": { "_calls": 1, "_time":        0.000, "_%":     0.00},
           "kinefsm": { "_calls": 1, "_time":        0.558, "_%":     0.01},
           "nlefsm": { "_calls": 1, "_time":        0.809, "_%":     0.01},
           "DHSCF_Init": { "_calls": 1, "_time":        1.649, "_%":     0.02,
             "DHSCF1": { "_calls": 1, "_time":        0.014, "_%":     0.00,
               "INITMESH": { "_calls": 1, "_time":        0.000, "_%":     0.00}
             },
             "DHSCF2": { "_calls": 1, "_time":        1.621, "_%":     0.02,
               "REMESH": { "_calls": 1, "_time":        0.091, "_%":     0.00,
                 "INITMESH": { "_calls": 2, "_time":        0.085, "_%":     0.00,
                   "SPLOAD": { "_calls": 2, "_time":        0.078, "_%":     0.00}
                 }
               },
               "REORD": { "_calls": 2, "_time":        0.003, "_%":     0.00},
               "PHION": { "_calls": 1, "_time":        0.153, "_%":     0.00},
               "COMM_BSC": { "_calls": 1, "_time":        0.039, "_%":     0.00},
               "POISON": { "_calls": 1, "_time":        1.136, "_%":     0.01,
                 "fft": { "_calls": 2, "_time":        1.088, "_%":     0.01}
               }
             }
           }
         }
       },
       "IterSCF": { "_calls": 5, "_time":     7817.877, "_%":    99.93,
         "setup_H": { "_calls": 5, "_time":        9.581, "_%":     0.12,
           "DHSCF": { "_calls": 5, "_time":        9.543, "_%":     0.12,
             "DHSCF3": { "_calls": 5, "_time":        9.543, "_%":     0.12,
               "rhoofd": { "_calls": 5, "_time":        0.169, "_%":     0.00},
               "COMM_BSC": { "_calls": 10, "_time":        0.345, "_%":     0.00},
               "POISON": { "_calls": 5, "_time":        5.506, "_%":     0.07,
                 "fft": { "_calls": 10, "_time":        5.205, "_%":     0.07}
               },
               "XC": { "_calls": 5, "_time":        2.840, "_%":     0.04,
                 "COMM_BSC": { "_calls": 10, "_time":        0.297, "_%":     0.00},
                 "GXC-CellXC": { "_calls": 5, "_time":        2.467, "_%":     0.03,
                   "gridxc@cellXC": { "_calls": 5, "_time":        2.467, "_%":     0.03}
                 }
               },
               "vmat": { "_calls": 5, "_time":        0.162, "_%":     0.00}
             }
           }
         },
         "compute_dm": { "_calls": 5, "_time":     7808.114, "_%":    99.80,
           "elsi": { "_calls": 5, "_time":     7808.106, "_%":    99.80,
             "find nnz_g": { "_calls": 5, "_time":        0.000, "_%":     0.00},
             "elsi-solver": { "_calls": 5, "_time":     7808.089, "_%":    99.80}
           }
         },
         "MIXER": { "_calls": 5, "_time":        0.125, "_%":     0.00}
       },
       "state_analysis": { "_calls": 1, "_time":        0.024, "_%":     0.00},
       "siesta_move": { "_calls": 1, "_time":        0.000, "_%":     0.00}
     },
     "Analysis": { "_calls": 1, "_time":        0.106, "_%":     0.00,
       "optical": { "_calls": 1, "_time":        0.000, "_%":     0.00}
     }
   }
 }}
