Unloading profile/base
  ERROR: Module evaluation aborted
[0] MPI startup(): Intel(R) MPI Library, Version 2021.10  Build 20230619 (id: c2e19c2f3e)
[0] MPI startup(): Copyright (C) 2003-2023 Intel Corporation.  All rights reserved.
[0] MPI startup(): library kind: release
[0] MPI startup(): libfabric version: 1.18.0-impi
[0] MPI startup(): libfabric provider: mlx
[0] MPI startup(): File "/leonardo/prod/spack/05/install/0.21/linux-rhel8-icelake/gcc-8.5.0/intel-oneapi-mpi-2021.10.0-6ff7efudnkj4xa7o4j67mxatygwzfwqc/mpi/2021.10.0/etc/tuning_spr_shm-ofi_mlx_100.dat" not found
[0] MPI startup(): Load tuning file: "/leonardo/prod/spack/05/install/0.21/linux-rhel8-icelake/gcc-8.5.0/intel-oneapi-mpi-2021.10.0-6ff7efudnkj4xa7o4j67mxatygwzfwqc/mpi/2021.10.0/etc/tuning_spr_shm-ofi.dat"
[0] MPI startup(): Rank    Pid      Node name                Pin cpu
[0] MPI startup(): 0       1433856  lrdn4526.leonardo.local  {0,1,2,3,4,5,6,7,8,9,10,11,12,13}
[0] MPI startup(): 1       1433857  lrdn4526.leonardo.local  {14,15,16,17,18,19,20,21,22,23,24,25,26,27}
[0] MPI startup(): 2       1433858  lrdn4526.leonardo.local  {28,29,30,31,32,33,34,35,36,37,38,39,40,41}
[0] MPI startup(): 3       1433859  lrdn4526.leonardo.local  {42,43,44,45,46,47,48,49,50,51,52,53,54,55}
[0] MPI startup(): 4       1433860  lrdn4526.leonardo.local  {56,57,58,59,60,61,62,63,64,65,66,67,68,69}
[0] MPI startup(): 5       1433861  lrdn4526.leonardo.local  {70,71,72,73,74,75,76,77,78,79,80,81,82,83}
[0] MPI startup(): 6       1433862  lrdn4526.leonardo.local  {84,85,86,87,88,89,90,91,92,93,94,95,96,97}
[0] MPI startup(): 7       1433863  lrdn4526.leonardo.local  {98,99,100,101,102,103,104,105,106,107,108,109,110,111}
[0] MPI startup(): 8       430713   lrdn4530.leonardo.local  {0,1,2,3,4,5,6,7,8,9,10,11,12,13}
[0] MPI startup(): 9       430714   lrdn4530.leonardo.local  {14,15,16,17,18,19,20,21,22,23,24,25,26,27}
[0] MPI startup(): 10      430715   lrdn4530.leonardo.local  {28,29,30,31,32,33,34,35,36,37,38,39,40,41}
[0] MPI startup(): 11      430716   lrdn4530.leonardo.local  {42,43,44,45,46,47,48,49,50,51,52,53,54,55}
[0] MPI startup(): 12      430717   lrdn4530.leonardo.local  {56,57,58,59,60,61,62,63,64,65,66,67,68,69}
[0] MPI startup(): 13      430718   lrdn4530.leonardo.local  {70,71,72,73,74,75,76,77,78,79,80,81,82,83}
[0] MPI startup(): 14      430719   lrdn4530.leonardo.local  {84,85,86,87,88,89,90,91,92,93,94,95,96,97}
[0] MPI startup(): 15      430720   lrdn4530.leonardo.local  {98,99,100,101,102,103,104,105,106,107,108,109,110,111}
[0] MPI startup(): 16      1455376  lrdn4531.leonardo.local  {0,1,2,3,4,5,6,7,8,9,10,11,12,13}
[0] MPI startup(): 17      1455377  lrdn4531.leonardo.local  {14,15,16,17,18,19,20,21,22,23,24,25,26,27}
[0] MPI startup(): 18      1455378  lrdn4531.leonardo.local  {28,29,30,31,32,33,34,35,36,37,38,39,40,41}
[0] MPI startup(): 19      1455379  lrdn4531.leonardo.local  {42,43,44,45,46,47,48,49,50,51,52,53,54,55}
[0] MPI startup(): 20      1455380  lrdn4531.leonardo.local  {56,57,58,59,60,61,62,63,64,65,66,67,68,69}
[0] MPI startup(): 21      1455381  lrdn4531.leonardo.local  {70,71,72,73,74,75,76,77,78,79,80,81,82,83}
[0] MPI startup(): 22      1455382  lrdn4531.leonardo.local  {84,85,86,87,88,89,90,91,92,93,94,95,96,97}
[0] MPI startup(): 23      1455383  lrdn4531.leonardo.local  {98,99,100,101,102,103,104,105,106,107,108,109,110,111}
[0] MPI startup(): 24      434870   lrdn4532.leonardo.local  {0,1,2,3,4,5,6,7,8,9,10,11,12,13}
[0] MPI startup(): 25      434871   lrdn4532.leonardo.local  {14,15,16,17,18,19,20,21,22,23,24,25,26,27}
[0] MPI startup(): 26      434872   lrdn4532.leonardo.local  {28,29,30,31,32,33,34,35,36,37,38,39,40,41}
[0] MPI startup(): 27      434873   lrdn4532.leonardo.local  {42,43,44,45,46,47,48,49,50,51,52,53,54,55}
[0] MPI startup(): 28      434874   lrdn4532.leonardo.local  {56,57,58,59,60,61,62,63,64,65,66,67,68,69}
[0] MPI startup(): 29      434875   lrdn4532.leonardo.local  {70,71,72,73,74,75,76,77,78,79,80,81,82,83}
[0] MPI startup(): 30      434876   lrdn4532.leonardo.local  {84,85,86,87,88,89,90,91,92,93,94,95,96,97}
[0] MPI startup(): 31      434877   lrdn4532.leonardo.local  {98,99,100,101,102,103,104,105,106,107,108,109,110,111}
[0] MPI startup(): I_MPI_ROOT=/leonardo/prod/spack/05/install/0.21/linux-rhel8-icelake/gcc-8.5.0/intel-oneapi-mpi-2021.10.0-6ff7efudnkj4xa7o4j67mxatygwzfwqc/mpi/2021.10.0
[0] MPI startup(): I_MPI_MPIRUN=mpirun
[0] MPI startup(): I_MPI_BIND_WIN_ALLOCATE=localalloc
[0] MPI startup(): I_MPI_HYDRA_TOPOLIB=hwloc
[0] MPI startup(): I_MPI_JOB_RESPECT_PROCESS_PLACEMENT=0
[0] MPI startup(): I_MPI_HYDRA_BOOTSTRAP=slurm
[0] MPI startup(): I_MPI_RETURN_WIN_MEM_NUMA=0
[0] MPI startup(): I_MPI_PIN_CELL=core
[0] MPI startup(): I_MPI_PIN_DOMAIN=14
[0] MPI startup(): I_MPI_PIN_ORDER=range
[0] MPI startup(): I_MPI_INTERNAL_MEM_POLICY=default
[0] MPI startup(): I_MPI_DEBUG=5
      Welcome to FLEUR        (www.flapw.de)   
      MaX-Release 7.0          (www.max-centre.eu)
 Running on           32  PE
           1  jobs are distributed on           32  unassigned PE
 Now copying inp_dump.xml
 
 ========== k-point set info ==========
 Selected k-point list: default
 k-point list type: unspecified
 Number of k points: 1
 
 --------------------------------------------------------
 Number of MPI-tasks:            32
 Number of PE/node  :             8
 Number of OMP-threads:          12
 k-points in parallel:            1
 pe's per k-point:               32
 # of k-point loops:              1
 --------------------------------------------------------
 Signal           11  detected on PE:           0
 This might be due to either:
  - A bug
  - Your job running out of memory
  - Your job got killed externally (e.g. no cpu-time left)
  - ....
 Please check and report if you believe you found a bug
 Signal           11  detected on PE:           3
 This might be due to either:
  - A bug
  - Your job running out of memory
  - Your job got killed externally (e.g. no cpu-time left)
  - ....
 Please check and report if you believe you found a bug
 Signal           11  detected on PE:           2
 This might be due to either:
  - A bug
  - Your job running out of memory
  - Your job got killed externally (e.g. no cpu-time left)
  - ....
 Please check and report if you believe you found a bug
 Signal           11  detected on PE:           1
 This might be due to either:
  - A bug
  - Your job running out of memory
  - Your job got killed externally (e.g. no cpu-time left)
  - ....
 Please check and report if you believe you found a bug
 Signal           11  detected on PE:           4
 This might be due to either:
  - A bug
  - Your job running out of memory
  - Your job got killed externally (e.g. no cpu-time left)
  - ....
 Please check and report if you believe you found a bug
 Signal           11  detected on PE:           5
 This might be due to either:
  - A bug
  - Your job running out of memory
  - Your job got killed externally (e.g. no cpu-time left)
  - ....
 Please check and report if you believe you found a bug
 Signal           11  detected on PE:           6
 This might be due to either:
  - A bug
  - Your job running out of memory
  - Your job got killed externally (e.g. no cpu-time left)
  - ....
 Please check and report if you believe you found a bug
 Signal           11  detected on PE:           7
 This might be due to either:
  - A bug
  - Your job running out of memory
  - Your job got killed externally (e.g. no cpu-time left)
  - ....
 Please check and report if you believe you found a bug
 Signal           11  detected on PE:          20
 This might be due to either:
  - A bug
  - Your job running out of memory
  - Your job got killed externally (e.g. no cpu-time left)
  - ....
 Please check and report if you believe you found a bug
 Signal           11  detected on PE:          19
 This might be due to either:
  - A bug
  - Your job running out of memory
  - Your job got killed externally (e.g. no cpu-time left)
  - ....
 Please check and report if you believe you found a bug
 Signal           11  detected on PE:          21
 This might be due to either:
  - A bug
  - Your job running out of memory
  - Your job got killed externally (e.g. no cpu-time left)
  - ....
 Please check and report if you believe you found a bug
 Signal           11  detected on PE:           8
 This might be due to either:
  - A bug
  - Your job running out of memory
  - Your job got killed externally (e.g. no cpu-time left)
  - ....
 Please check and report if you believe you found a bug
 Signal           11  detected on PE:          17
 Signal           11  detected on PE:          12
 This might be due to either:
  - A bug
  - Your job running out of memory
  - Your job got killed externally (e.g. no cpu-time left)
  - ....
 Please check and report if you believe you found a bug
 This might be due to either:
  - A bug
  - Your job running out of memory
 Signal           11  detected on PE:          13
 This might be due to either:
  - A bug
  - Your job running out of memory
  - Your job got killed externally (e.g. no cpu-time left)
  - ....
 Please check and report if you believe you found a bug
 Signal           11  detected on PE:          23
 Signal           11  detected on PE:           9
 This might be due to either:
  - A bug
  - Your job running out of memory
  - Your job got killed externally (e.g. no cpu-time left)
  - ....
 Please check and report if you believe you found a bug
  - Your job got killed externally (e.g. no cpu-time left)
  - ....
 Please check and report if you believe you found a bug
 Signal           11  detected on PE:          10
 This might be due to either:
  - A bug
  - Your job running out of memory
  - Your job got killed externally (e.g. no cpu-time left)
  - ....
 Please check and report if you believe you found a bug
 Signal           11  detected on PE:          22
 Signal           11  detected on PE:          11
 This might be due to either:
  - A bug
  - Your job running out of memory
  - Your job got killed externally (e.g. no cpu-time left)
  - ....
 Please check and report if you believe you found a bug
 This might be due to either:
  - A bug
  - Your job running out of memory
  - Your job got killed externally (e.g. no cpu-time left)
  - ....
 Signal           11  detected on PE:          14
 This might be due to either:
  - A bug
  - Your job running out of memory
  - Your job got killed externally (e.g. no cpu-time left)
  - ....
 Please check and report if you believe you found a bug
 This might be due to either:
  - A bug
  - Your job running out of memory
  - Your job got killed externally (e.g. no cpu-time left)
  - ....
 Please check and report if you believe you found a bug
 Signal           11  detected on PE:          15
 This might be due to either:
  - A bug
  - Your job running out of memory
  - Your job got killed externally (e.g. no cpu-time left)
  - ....
 Please check and report if you believe you found a bug
 Signal           11  detected on PE:          16
 Please check and report if you believe you found a bug
 Signal           11  detected on PE:          18
 This might be due to either:
  - A bug
  - Your job running out of memory
  - Your job got killed externally (e.g. no cpu-time left)
  - ....
 Please check and report if you believe you found a bug
 This might be due to either:
  - A bug
  - Your job running out of memory
  - Your job got killed externally (e.g. no cpu-time left)
  - ....
 Please check and report if you believe you found a bug
 Signal           11  detected on PE:          26
 Signal           11  detected on PE:          27
 This might be due to either:
  - A bug
  - Your job running out of memory
  - Your job got killed externally (e.g. no cpu-time left)
  - ....
 Please check and report if you believe you found a bug
 Signal           11  detected on PE:          28
 This might be due to either:
  - A bug
  - Your job running out of memory
  - Your job got killed externally (e.g. no cpu-time left)
  - ....
 Please check and report if you believe you found a bug
 Signal           11  detected on PE:          29
 This might be due to either:
  - A bug
  - Your job running out of memory
  - Your job got killed externally (e.g. no cpu-time left)
  - ....
 Please check and report if you believe you found a bug
 Signal           11  detected on PE:          31
 This might be due to either:
  - A bug
  - Your job running out of memory
  - Your job got killed externally (e.g. no cpu-time left)
  - ....
 Please check and report if you believe you found a bug
 Signal           11  detected on PE:          24
 This might be due to either:
  - A bug
  - Your job running out of memory
  - Your job got killed externally (e.g. no cpu-time left)
  - ....
 Please check and report if you believe you found a bug
 Signal           11  detected on PE:          25
 This might be due to either:
  - A bug
  - Your job running out of memory
  - Your job got killed externally (e.g. no cpu-time left)
  - ....
 Please check and report if you believe you found a bug
 This might be due to either:
  - A bug
  - Your job running out of memory
  - Your job got killed externally (e.g. no cpu-time left)
  - ....
 Please check and report if you believe you found a bug
 Signal           11  detected on PE:          30
 This might be due to either:
  - A bug
  - Your job running out of memory
  - Your job got killed externally (e.g. no cpu-time left)
  - ....
 Please check and report if you believe you found a bug
Abort(0) on node 3 (rank 3 in comm 0): application called MPI_Abort(MPI_COMM_WORLD, 0) - process 3
Abort(0) on node 17 (rank 17 in comm 0): application called MPI_Abort(MPI_COMM_WORLD, 0) - process 17
Abort(0) on node 18 (rank 18 in comm 0): application called MPI_Abort(MPI_COMM_WORLD, 0) - process 18
Abort(0) on node 19 (rank 19 in comm 0): application called MPI_Abort(MPI_COMM_WORLD, 0) - process 19
Abort(0) on node 8 (rank 8 in comm 0): application called MPI_Abort(MPI_COMM_WORLD, 0) - process 8
Abort(0) on node 10 (rank 10 in comm 0): application called MPI_Abort(MPI_COMM_WORLD, 0) - process 10
Abort(0) on node 11 (rank 11 in comm 0): application called MPI_Abort(MPI_COMM_WORLD, 0) - process 11
Abort(0) on node 21 (rank 21 in comm 0): application called MPI_Abort(MPI_COMM_WORLD, 0) - process 21
Abort(0) on node 12 (rank 12 in comm 0): application called MPI_Abort(MPI_COMM_WORLD, 0) - process 12
Abort(0) on node 13 (rank 13 in comm 0): application called MPI_Abort(MPI_COMM_WORLD, 0) - process 13
Abort(0) on node 16 (rank 16 in comm 0): application called MPI_Abort(MPI_COMM_WORLD, 0) - process 16
Abort(0) on node 15 (rank 15 in comm 0): application called MPI_Abort(MPI_COMM_WORLD, 0) - process 15
Abort(0) on node 20 (rank 20 in comm 0): application called MPI_Abort(MPI_COMM_WORLD, 0) - process 20
Abort(0) on node 22 (rank 22 in comm 0): application called MPI_Abort(MPI_COMM_WORLD, 0) - process 22
Abort(0) on node 23 (rank 23 in comm 0): application called MPI_Abort(MPI_COMM_WORLD, 0) - process 23
Abort(0) on node 1 (rank 1 in comm 0): application called MPI_Abort(MPI_COMM_WORLD, 0) - process 1
Abort(0) on node 2 (rank 2 in comm 0): application called MPI_Abort(MPI_COMM_WORLD, 0) - process 2
Abort(0) on node 4 (rank 4 in comm 0): application called MPI_Abort(MPI_COMM_WORLD, 0) - process 4
Abort(0) on node 5 (rank 5 in comm 0): application called MPI_Abort(MPI_COMM_WORLD, 0) - process 5
Abort(0) on node 6 (rank 6 in comm 0): application called MPI_Abort(MPI_COMM_WORLD, 0) - process 6
Abort(0) on node 7 (rank 7 in comm 0): application called MPI_Abort(MPI_COMM_WORLD, 0) - process 7
Abort(0) on node 9 (rank 9 in comm 0): application called MPI_Abort(MPI_COMM_WORLD, 0) - process 9
Abort(0) on node 14 (rank 14 in comm 0): application called MPI_Abort(MPI_COMM_WORLD, 0) - process 14
