JobID        JobIDRaw        JobName  Partition  MaxVMSize  MaxVMSizeNode  MaxVMSizeTask  AveVMSize     MaxRSS MaxRSSNode MaxRSSTask     AveRSS MaxPages MaxPagesNode   MaxPagesTask   AvePages     MinCPU MinCPUNode MinCPUTask     AveCPU   NTasks  AllocCPUS    Elapsed      State ExitCode AveCPUFreq ReqCPUFreqMin ReqCPUFreqMax ReqCPUFreqGov     ReqMem ConsumedEnergy  MaxDiskRead MaxDiskReadNode MaxDiskReadTask    AveDiskRead MaxDiskWrite MaxDiskWriteNode MaxDiskWriteTask   AveDiskWrite    ReqTRES  AllocTRES TRESUsageInAve TRESUsageInMax TRESUsageInMaxNode TRESUsageInMaxTask TRESUsageInMin TRESUsageInMinNode TRESUsageInMinTask TRESUsageInTot TRESUsageOutMax TRESUsageOutMaxNode TRESUsageOutMaxTask TRESUsageOutAve TRESUsageOutTot 
------------ ------------ ---------- ---------- ---------- -------------- -------------- ---------- ---------- ---------- ---------- ---------- -------- ------------ -------------- ---------- ---------- ---------- ---------- ---------- -------- ---------- ---------- ---------- -------- ---------- ------------- ------------- ------------- ---------- -------------- ------------ --------------- --------------- -------------- ------------ ---------------- ---------------- -------------- ---------- ---------- -------------- -------------- ------------------ ------------------ -------------- ------------------ ------------------ -------------- --------------- ------------------- ------------------- --------------- --------------- 
13573406     13573406     submit.job boost_usr+                                                                                                                                                                                                              32   01:02:46    RUNNING      0:0                  Unknown       Unknown       Unknown    492800M                                                                                                                                          billing=3+ billing=3+                                                                                                                                                                                                                                 
13573406.ba+ 13573406.ba+      batch                                                                                                                                                                                                               1         32   01:02:46    RUNNING      0:0          0             0             0             0                         0                                                                                                                                      cpu=32,gr+                                                                                                                                                                                                                                 
13573406.ex+ 13573406.ex+     extern                                                                                                                                                                                                               1         32   01:02:46    RUNNING      0:0          0             0             0             0                         0                                                                                                                                      billing=3+                                                                                                                                                                                                                                 
13573406.0   13573406.0   wrapper-s+             32702460K       lrdn0671              5  32009936K  32618844K   lrdn0671          5  31922442K     1690     lrdn0671              2       1222   01:02:30   lrdn0671          0   01:02:36        8         32   01:02:35  COMPLETED      0:0      3.42M       Unknown       Unknown       Unknown                         0        0.09M        lrdn0671               6          0.09M        0.00M         lrdn0671                6          0.00M            cpu=32,gr+ cpu=01:02:36,+ cpu=01:02:40,+ cpu=lrdn0671,ener+ cpu=5,fs/disk=6,m+ cpu=01:02:30,+ cpu=lrdn0671,ener+ cpu=0,fs/disk=2,m+ cpu=08:20:54,+ energy=0,fs/di+ energy=lrdn0671,fs+           fs/disk=6 energy=0,fs/di+ energy=0,fs/di+ 
