JobID        JobIDRaw        JobName  Partition  MaxVMSize  MaxVMSizeNode  MaxVMSizeTask  AveVMSize     MaxRSS MaxRSSNode MaxRSSTask     AveRSS MaxPages MaxPagesNode   MaxPagesTask   AvePages     MinCPU MinCPUNode MinCPUTask     AveCPU   NTasks  AllocCPUS    Elapsed      State ExitCode AveCPUFreq ReqCPUFreqMin ReqCPUFreqMax ReqCPUFreqGov     ReqMem ConsumedEnergy  MaxDiskRead MaxDiskReadNode MaxDiskReadTask    AveDiskRead MaxDiskWrite MaxDiskWriteNode MaxDiskWriteTask   AveDiskWrite    ReqTRES  AllocTRES TRESUsageInAve TRESUsageInMax TRESUsageInMaxNode TRESUsageInMaxTask TRESUsageInMin TRESUsageInMinNode TRESUsageInMinTask TRESUsageInTot TRESUsageOutMax TRESUsageOutMaxNode TRESUsageOutMaxTask TRESUsageOutAve TRESUsageOutTot 
------------ ------------ ---------- ---------- ---------- -------------- -------------- ---------- ---------- ---------- ---------- ---------- -------- ------------ -------------- ---------- ---------- ---------- ---------- ---------- -------- ---------- ---------- ---------- -------- ---------- ------------- ------------- ------------- ---------- -------------- ------------ --------------- --------------- -------------- ------------ ---------------- ---------------- -------------- ---------- ---------- -------------- -------------- ------------------ ------------------ -------------- ------------------ ------------------ -------------- --------------- ------------------- ------------------- --------------- --------------- 
8025986      8025986           yambo standard-g                                                                                                                                                                                                            7168   00:03:53    RUNNING      0:0                  Unknown       Unknown       Unknown        30T                                                                                                                                          billing=5+ billing=7+                                                                                                                                                                                                                                 
8025986.bat+ 8025986.bat+      batch                                                                                                                                                                                                               1        112   00:03:53    RUNNING      0:0          0             0             0             0                         0                                                                                                                                      cpu=112,g+                                                                                                                                                                                                                                 
8025986.0    8025986.0    select_gpu             11547332K      nid005702            287 110158985+   2384688K  nid007481        451 2267297032     2075    nid005276              0       1144   00:20:46  nid005276          1   00:22:35      512       7168   00:03:49  COMPLETED      0:0    794.93M       Unknown       Unknown       Unknown                                807.76M       nid005277               8        725.50M     1036.96M        nid005276                0         87.32M            cpu=7168,+ cpu=00:22:35,+ cpu=00:23:04,+ cpu=nid005277,ene+ cpu=10,fs/disk=8,+ cpu=00:20:46,+ cpu=nid005276,ene+ cpu=1,fs/disk=1,m+ cpu=8-00:44:4+ energy=2760,fs+ energy=nid005661,f+           fs/disk=0 energy=95,fs/d+ energy=49017,f+ 
