{
 "global_section": { "_calls": 1, "_time":       59.027, "_%":   100.00,
   "siesta": { "_calls": 1, "_time":       59.027, "_%":   100.00,
     "Setup": { "_calls": 1, "_time":        1.290, "_%":     2.19,
       "bands": { "_calls": 1, "_time":        0.002, "_%":     0.00},
       "KSV_init": { "_calls": 1, "_time":        0.001, "_%":     0.00}
     },
     "IterGeom": { "_calls": 1, "_time":       57.581, "_%":    97.55,
       "geom_init": { "_calls": 1, "_time":       12.345, "_%":    20.91,
         "state_init": { "_calls": 1, "_time":        1.991, "_%":     3.37,
           "hsparse": { "_calls": 1, "_time":        0.133, "_%":     0.22},
           "overlap": { "_calls": 1, "_time":        0.745, "_%":     1.26}
         },
         "Setup_H0": { "_calls": 1, "_time":       10.353, "_%":    17.54,
           "naefs": { "_calls": 1, "_time":        0.022, "_%":     0.04},
           "MolMec": { "_calls": 1, "_time":        0.000, "_%":     0.00},
           "kinefsm": { "_calls": 1, "_time":        0.742, "_%":     1.26},
           "nlefsm": { "_calls": 1, "_time":        1.655, "_%":     2.80},
           "DHSCF_Init": { "_calls": 1, "_time":        7.919, "_%":    13.42,
             "DHSCF1": { "_calls": 1, "_time":        0.060, "_%":     0.10,
               "INITMESH": { "_calls": 1, "_time":        0.000, "_%":     0.00}
             },
             "DHSCF2": { "_calls": 1, "_time":        7.840, "_%":    13.28,
               "REMESH": { "_calls": 1, "_time":        2.305, "_%":     3.90,
                 "INITMESH": { "_calls": 2, "_time":        2.278, "_%":     3.86,
                   "SPLOAD": { "_calls": 2, "_time":        2.249, "_%":     3.81}
                 }
               },
               "REORD": { "_calls": 2, "_time":        0.020, "_%":     0.03},
               "PHION": { "_calls": 1, "_time":        0.510, "_%":     0.86},
               "COMM_BSC": { "_calls": 1, "_time":        0.121, "_%":     0.20},
               "POISON": { "_calls": 1, "_time":        4.298, "_%":     7.28,
                 "fft": { "_calls": 2, "_time":        4.096, "_%":     6.94}
               }
             }
           }
         }
       },
       "IterSCF": { "_calls": 5, "_time":       45.109, "_%":    76.42,
         "setup_H": { "_calls": 5, "_time":       35.112, "_%":    59.49,
           "DHSCF": { "_calls": 5, "_time":       35.032, "_%":    59.35,
             "DHSCF3": { "_calls": 5, "_time":       35.032, "_%":    59.35,
               "rhoofd": { "_calls": 5, "_time":        0.343, "_%":     0.58},
               "COMM_BSC": { "_calls": 10, "_time":        1.252, "_%":     2.12},
               "POISON": { "_calls": 5, "_time":       21.548, "_%":    36.51,
                 "fft": { "_calls": 10, "_time":       20.574, "_%":    34.86}
               },
               "XC": { "_calls": 5, "_time":        9.290, "_%":    15.74,
                 "COMM_BSC": { "_calls": 10, "_time":        0.928, "_%":     1.57},
                 "GXC-CellXC": { "_calls": 5, "_time":        8.065, "_%":    13.66,
                   "gridxc@cellXC": { "_calls": 5, "_time":        8.065, "_%":    13.66}
                 }
               },
               "vmat": { "_calls": 5, "_time":        0.361, "_%":     0.61}
             }
           }
         },
         "compute_dm": { "_calls": 5, "_time":        9.835, "_%":    16.66,
           "elsi": { "_calls": 5, "_time":        9.805, "_%":    16.61,
             "find nnz_g": { "_calls": 5, "_time":        0.000, "_%":     0.00},
             "elsi-solver": { "_calls": 5, "_time":        9.752, "_%":    16.52}
           }
         },
         "MIXER": { "_calls": 5, "_time":        0.066, "_%":     0.11}
       },
       "state_analysis": { "_calls": 1, "_time":        0.052, "_%":     0.09},
       "siesta_move": { "_calls": 1, "_time":        0.000, "_%":     0.00}
     },
     "Analysis": { "_calls": 1, "_time":        0.144, "_%":     0.24,
       "optical": { "_calls": 1, "_time":        0.001, "_%":     0.00}
     }
   }
 }}
