Currently Loaded Modulefiles:
 1) profile/base(default)                                                                 
 2) profile/chem-phys                                                                     
 3) intel-oneapi-mpi/2021.10.0 <aL>                                                       
 4) intel-oneapi-tbb/2021.10.0 <aL>                                                       
 5) intel-oneapi-mkl/2023.2.0--intel-oneapi-mpi--2021.10.0-scalapack-openmp-qkfqalj <aL>  
 6) libxc/5.2.3--intel--2021.10.0-hf2rg24 <aL>                                            
 7) quantum-espresso/7.3.1--intel-oneapi-mpi--2021.10.0--intel--2021.10.0-mkl             

Key:
(symbolic-version)  <module-tag>  <aL>=auto-loaded  
