JobId=7331903 JobName=submit.job
   UserId=nspallan(25378) GroupId=interactive(25200) MCS_label=N/A
   Priority=200481 Nice=0 Account=euhpc_e01_022 QOS=boost_qos_bprod
   JobState=RUNNING Reason=None Dependency=(null)
   Requeue=0 Restarts=0 BatchFlag=1 Reboot=0 ExitCode=0:0
   DerivedExitCode=0:0
   RunTime=00:00:06 TimeLimit=03:00:00 TimeMin=N/A
   SubmitTime=2024-08-30T17:14:49 EligibleTime=2024-08-30T17:14:49
   AccrueTime=2024-08-30T17:14:49
   StartTime=2024-08-31T01:23:05 EndTime=2024-08-31T04:23:07 Deadline=N/A
   SuspendTime=None SecsPreSuspend=0 LastSchedEval=2024-08-31T01:23:05 Scheduler=Main
   Partition=boost_usr_prod AllocNode:Sid=slurm-controller:2033042
   ReqNodeList=(null) ExcNodeList=(null)
   NodeList=lrdn[0004,0012,0021,0038,0056,0064,0151,0172,0227,0282,0296,0310,0336,0354,0372-0373,0412,0419,0433,0435,0505,0535,0603,0654,0659,0706,0755,0759,0776,0781,0845,0863,0887,0907,0910,0936,0946,1032,1055,1097,1150,1307,1317,1349,1553,1589,1639,1646,1656,1681,1706,1719,1737,1745,1759,1764,1786,1800,1803,1810,1827,1836,1847,1855,1866,1871,1883,1895,1910,1918,1928,1940,1945,1994,2010,2042,2089,2103,2111,2122,2142-2143,2168,2179,2184,2197,2226,2255,2277,2279,2290,2316,2319,2370,2419,2451,2461,2476,2480,2497,2506,2510,2525,2542,2557,2586,2599,2601,2616,2646,2651,2665,2672,2681,2686,2701,2718,2723,2733,2751]
   BatchHost=lrdn0004
   NumNodes=120 NumCPUs=3840 NumTasks=480 CPUs/Task=8 ReqB:S:C:T=0:0:*:*
   TRES=cpu=3840,mem=57750G,node=120,billing=3840,gres/gpu=480
   Socks/Node=* NtasksPerN:B:S:C=4:0:*:* CoreSpec=*
   JOB_GRES=gpu:a100:480
     Nodes=lrdn[0004,0012,0021,0038,0056,0064,0151,0172,0227,0282,0296,0310,0336,0354,0372-0373,0412,0419,0433,0435,0505,0535,0603,0654,0659,0706,0755,0759,0776,0781,0845,0863,0887,0907,0910,0936,0946,1032,1055,1097,1150,1307,1317,1349,1553,1589,1639,1646,1656,1681,1706,1719,1737,1745,1759,1764,1786,1800,1803,1810,1827,1836,1847,1855,1866,1871,1883,1895,1910,1918,1928,1940,1945,1994,2010,2042,2089,2103,2111,2122,2142-2143,2168,2179,2184,2197,2226,2255,2277,2279,2290,2316,2319,2370,2419,2451,2461,2476,2480,2497,2506,2510,2525,2542,2557,2586,2599,2601,2616,2646,2651,2665,2672,2681,2686,2701,2718,2723,2733,2751] CPU_IDs=0-31 Mem=492800 GRES=gpu:a100:4(IDX:0-3)
   MinCPUsNode=32 MinMemoryCPU=15400M MinTmpDiskNode=0
   Features=(null) DelayBoot=00:00:00
   OverSubscribe=NO Contiguous=0 Licenses=(null) Network=(null)
   Command=/leonardo_work/EUHPC_E01_022/nspallan/benchmarks/run_workflow_dft/000004/000004_submit/work/submit.job
   WorkDir=/leonardo_work/EUHPC_E01_022/nspallan/benchmarks/run_workflow_dft/000004/000004_submit/work
   StdErr=/leonardo_work/EUHPC_E01_022/nspallan/benchmarks/run_workflow_dft/000004/000004_submit/work/slurm-7331903.out
   StdIn=/dev/null
   StdOut=/leonardo_work/EUHPC_E01_022/nspallan/benchmarks/run_workflow_dft/000004/000004_submit/work/slurm-7331903.out
   Power=
   TresPerNode=gres:gpu:4
   

