JobID        JobIDRaw        JobName  Partition  MaxVMSize  MaxVMSizeNode  MaxVMSizeTask  AveVMSize     MaxRSS MaxRSSNode MaxRSSTask     AveRSS MaxPages MaxPagesNode   MaxPagesTask   AvePages     MinCPU MinCPUNode MinCPUTask     AveCPU   NTasks  AllocCPUS    Elapsed      State ExitCode AveCPUFreq ReqCPUFreqMin ReqCPUFreqMax ReqCPUFreqGov     ReqMem ConsumedEnergy  MaxDiskRead MaxDiskReadNode MaxDiskReadTask    AveDiskRead MaxDiskWrite MaxDiskWriteNode MaxDiskWriteTask   AveDiskWrite    ReqTRES  AllocTRES TRESUsageInAve TRESUsageInMax TRESUsageInMaxNode TRESUsageInMaxTask TRESUsageInMin TRESUsageInMinNode TRESUsageInMinTask TRESUsageInTot TRESUsageOutMax TRESUsageOutMaxNode TRESUsageOutMaxTask TRESUsageOutAve TRESUsageOutTot 
------------ ------------ ---------- ---------- ---------- -------------- -------------- ---------- ---------- ---------- ---------- ---------- -------- ------------ -------------- ---------- ---------- ---------- ---------- ---------- -------- ---------- ---------- ---------- -------- ---------- ------------- ------------- ------------- ---------- -------------- ------------ --------------- --------------- -------------- ------------ ---------------- ---------------- -------------- ---------- ---------- -------------- -------------- ------------------ ------------------ -------------- ------------------ ------------------ -------------- --------------- ------------------- ------------------- --------------- --------------- 
9592934      9592934       CovidWeak        gpp                                                                                                                                                                                                            7168   01:11:10    RUNNING      0:0                  Unknown       Unknown       Unknown      7000G                                                                                                                                          billing=3+ billing=7+                                                                                                                                                                                                                                 
9592934.bat+ 9592934.bat+      batch                                                                                                                                                                                                               1        224   01:11:10    RUNNING      0:0          0             0             0             0                         0                                                                                                                                      cpu=224,m+                                                                                                                                                                                                                                 
9592934.ext+ 9592934.ext+     extern                                                                                                                                                                                                              32       7168   01:11:10    RUNNING      0:0          0             0             0             0                         0                                                                                                                                      billing=7+                                                                                                                                                                                                                                 
9592934.0    9592934.0        siesta                                                                                                                                                                                                            3584       7168   01:04:57    RUNNING      0:0          0       Unknown       Unknown       Unknown                         0                                                                                                                                      cpu=7168,+                                                                                                                                                                                                                                 
