Nodes;Tasks;electrons;cbands;diaghg;Xeterg;vloc_psi;h_psi;sum_band;walltime;vloc_calls
1;24;1883.54;1685.02;114.94;1672.53;254.64;744.63;169.06;1970.1;66
2;48;978.44;881.72;72.19;874.83;130.22;381.77;82.3;1031.14;68
4;96;542.3;489.02;53.11;485.16;77.04;206.69;46.14;577.31;67
8;192;389.22;345.22;44.43;342.8;94.45;166.87;39.38;416.71;69
8;192;385.85;349.52;57.94;346.95;60.35;138.02;31.4;416.28;69
16;384;333.78;295.6;42.06;293.87;132.83;175.99;35.12;363.69;67
16;384;240.0;216.45;41.64;214.77;49.42;91.84;20.55;267.64;68
16;384;248.36;225.59;55.93;223.82;34.72;78.66;19.66;275.3;65
32;768;555.86;483.37;34.51;482.09;366.14;395.43;69.29;601.18;63
32;768;301.8;273.55;68.51;272.19;85.2;117.35;25.06;337.56;64
32;768;166.02;150.95;35.57;149.83;27.29;54.79;13.42;199.97;64
32;768;184.94;169.59;51.65;168.41;21.43;50.52;13.08;220.59;64
64;1536;398.5;351.5;38.97;350.5;272.39;295.03;44.51;482.37;63
64;1536;175.34;161.18;52.59;160.21;24.26;47.33;11.46;234.44;63
64;1536;277.99;247.11;33.88;246.2;158.85;182.47;29.11;344.86;63
64;1536;263.69;216.93;57.77;215.78;54.19;79.48;42.83;331.79;64
64;1536;135.62;124.0;33.8;123.07;18.82;40.91;10.47;185.82;63
