JobId=34415374 JobName=CovidWeakKPoints
   UserId=eufedericop(1977552410) GroupId=eufedericop(1977552410) MCS_label=N/A
   Priority=66231171 Nice=0 Account=b2024b06-053-users QOS=normal
   JobState=RUNNING Reason=None Dependency=(null)
   Requeue=1 Restarts=0 BatchFlag=1 Reboot=0 ExitCode=0:0
   DerivedExitCode=0:0
   RunTime=00:00:01 TimeLimit=1-00:00:00 TimeMin=N/A
   SubmitTime=2024-09-10T09:03:43 EligibleTime=2024-09-10T09:03:43
   AccrueTime=2024-09-10T09:03:43
   StartTime=2024-09-11T10:13:03 EndTime=2024-09-12T10:13:03 Deadline=N/A
   SuspendTime=None SecsPreSuspend=0 LastSchedEval=2024-09-11T10:13:03 Scheduler=Main
   Partition=largemem AllocNode:Sid=login0007-dmz:3061085
   ReqNodeList=(null) ExcNodeList=(null)
   NodeList=cn[0432,0489,0494-0495,0497-0501,0511,0514,0519,0522,0531,0534,0557]
   BatchHost=cn0432
   NumNodes=16 NumCPUs=4096 NumTasks=2048 CPUs/Task=1 ReqB:S:C:T=0:0:*:1
   ReqTRES=cpu=2048,mem=16505808M,node=16,billing=4029
   AllocTRES=cpu=4096,mem=16505808M,node=16,billing=4096
   Socks/Node=* NtasksPerN:B:S:C=128:0:*:* CoreSpec=*
   JOB_GRES=(null)
     Nodes=cn[0432,0489,0494-0495,0497-0501,0511,0514,0519,0522,0531,0534,0557] CPU_IDs=0-255 Mem=1031613 GRES=
   MinCPUsNode=128 MinMemoryNode=0 MinTmpDiskNode=0
   Features=(null) DelayBoot=00:00:00
   OverSubscribe=NO Contiguous=0 Licenses=(null) Network=(null)
   Command=/ceph/hpc/home/eufedericop/JUBE4MaX/max-inputs/interface/siesta/_CovidWeakKPoints/000000/000014_submit/work/submit.job
   WorkDir=/ceph/hpc/home/eufedericop/JUBE4MaX/max-inputs/interface/siesta/_CovidWeakKPoints/000000/000014_submit/work
   StdErr=/ceph/hpc/home/eufedericop/JUBE4MaX/max-inputs/interface/siesta/_CovidWeakKPoints/000000/000014_submit/work/slurm-34415374.out
   StdIn=/dev/null
   StdOut=/ceph/hpc/home/eufedericop/JUBE4MaX/max-inputs/interface/siesta/_CovidWeakKPoints/000000/000014_submit/work/slurm-34415374.out
   Power=
   TresPerTask=cpu:1
   

