{
 "global_section": { "_calls": 1, "_time":      113.439, "_%":   100.00,
   "siesta": { "_calls": 1, "_time":      113.439, "_%":   100.00,
     "Setup": { "_calls": 1, "_time":        2.673, "_%":     2.36,
       "bands": { "_calls": 1, "_time":        0.003, "_%":     0.00},
       "KSV_init": { "_calls": 1, "_time":        0.001, "_%":     0.00}
     },
     "IterGeom": { "_calls": 1, "_time":      110.416, "_%":    97.34,
       "geom_init": { "_calls": 1, "_time":       21.509, "_%":    18.96,
         "state_init": { "_calls": 1, "_time":        2.962, "_%":     2.61,
           "hsparse": { "_calls": 1, "_time":        0.197, "_%":     0.17},
           "overlap": { "_calls": 1, "_time":        1.868, "_%":     1.65}
         },
         "Setup_H0": { "_calls": 1, "_time":       18.546, "_%":    16.35,
           "naefs": { "_calls": 1, "_time":        0.034, "_%":     0.03},
           "MolMec": { "_calls": 1, "_time":        0.000, "_%":     0.00},
           "kinefsm": { "_calls": 1, "_time":        1.844, "_%":     1.63},
           "nlefsm": { "_calls": 1, "_time":        4.578, "_%":     4.04},
           "DHSCF_Init": { "_calls": 1, "_time":       12.069, "_%":    10.64,
             "DHSCF1": { "_calls": 1, "_time":        0.104, "_%":     0.09,
               "INITMESH": { "_calls": 1, "_time":        0.000, "_%":     0.00}
             },
             "DHSCF2": { "_calls": 1, "_time":       11.939, "_%":    10.52,
               "REMESH": { "_calls": 1, "_time":        0.487, "_%":     0.43,
                 "INITMESH": { "_calls": 2, "_time":        0.421, "_%":     0.37,
                   "SPLOAD": { "_calls": 2, "_time":        0.407, "_%":     0.36}
                 }
               },
               "REORD": { "_calls": 2, "_time":        0.050, "_%":     0.04},
               "PHION": { "_calls": 1, "_time":        1.454, "_%":     1.28},
               "COMM_BSC": { "_calls": 1, "_time":        0.160, "_%":     0.14},
               "POISON": { "_calls": 1, "_time":        8.925, "_%":     7.87,
                 "fft": { "_calls": 2, "_time":        8.569, "_%":     7.55}
               }
             }
           }
         }
       },
       "IterSCF": { "_calls": 5, "_time":       88.761, "_%":    78.25,
         "setup_H": { "_calls": 5, "_time":       74.655, "_%":    65.81,
           "DHSCF": { "_calls": 5, "_time":       74.542, "_%":    65.71,
             "DHSCF3": { "_calls": 5, "_time":       74.542, "_%":    65.71,
               "rhoofd": { "_calls": 5, "_time":        1.033, "_%":     0.91},
               "COMM_BSC": { "_calls": 10, "_time":        1.901, "_%":     1.68},
               "POISON": { "_calls": 5, "_time":       44.005, "_%":    38.79,
                 "fft": { "_calls": 10, "_time":       42.013, "_%":    37.04}
               },
               "XC": { "_calls": 5, "_time":       22.490, "_%":    19.83,
                 "COMM_BSC": { "_calls": 10, "_time":        2.252, "_%":     1.99},
                 "GXC-CellXC": { "_calls": 5, "_time":       19.717, "_%":    17.38,
                   "gridxc@cellXC": { "_calls": 5, "_time":       19.717, "_%":    17.38}
                 }
               },
               "vmat": { "_calls": 5, "_time":        0.794, "_%":     0.70}
             }
           }
         },
         "compute_dm": { "_calls": 5, "_time":       14.084, "_%":    12.42,
           "elsi": { "_calls": 5, "_time":       14.080, "_%":    12.41,
             "find nnz_g": { "_calls": 5, "_time":        0.000, "_%":     0.00},
             "elsi-solver": { "_calls": 5, "_time":       14.039, "_%":    12.38}
           }
         },
         "MIXER": { "_calls": 5, "_time":        0.006, "_%":     0.01}
       },
       "state_analysis": { "_calls": 1, "_time":        0.093, "_%":     0.08},
       "siesta_move": { "_calls": 1, "_time":        0.000, "_%":     0.00}
     },
     "Analysis": { "_calls": 1, "_time":        0.297, "_%":     0.26,
       "optical": { "_calls": 1, "_time":        0.001, "_%":     0.00}
     }
   }
 }}
