JobID        JobIDRaw        JobName  Partition  MaxVMSize  MaxVMSizeNode  MaxVMSizeTask  AveVMSize     MaxRSS MaxRSSNode MaxRSSTask     AveRSS MaxPages MaxPagesNode   MaxPagesTask   AvePages     MinCPU MinCPUNode MinCPUTask     AveCPU   NTasks  AllocCPUS    Elapsed      State ExitCode AveCPUFreq ReqCPUFreqMin ReqCPUFreqMax ReqCPUFreqGov     ReqMem ConsumedEnergy  MaxDiskRead MaxDiskReadNode MaxDiskReadTask    AveDiskRead MaxDiskWrite MaxDiskWriteNode MaxDiskWriteTask   AveDiskWrite    ReqTRES  AllocTRES TRESUsageInAve TRESUsageInMax TRESUsageInMaxNode TRESUsageInMaxTask TRESUsageInMin TRESUsageInMinNode TRESUsageInMinTask TRESUsageInTot TRESUsageOutMax TRESUsageOutMaxNode TRESUsageOutMaxTask TRESUsageOutAve TRESUsageOutTot 
------------ ------------ ---------- ---------- ---------- -------------- -------------- ---------- ---------- ---------- ---------- ---------- -------- ------------ -------------- ---------- ---------- ---------- ---------- ---------- -------- ---------- ---------- ---------- -------- ---------- ------------- ------------- ------------- ---------- -------------- ------------ --------------- --------------- -------------- ------------ ---------------- ---------------- -------------- ---------- ---------- -------------- -------------- ------------------ ------------------ -------------- ------------------ ------------------ -------------- --------------- ------------------- ------------------- --------------- --------------- 
8026418      8026418           yambo standard-g                                                                                                                                                                                                           13440   03:16:45    RUNNING      0:0                  Unknown       Unknown       Unknown     57600G                                                                                                                                          billing=9+ billing=1+                                                                                                                                                                                                                                 
8026418.bat+ 8026418.bat+      batch                                                                                                                                                                                                               1        112   03:16:45    RUNNING      0:0          0             0             0             0                         0                                                                                                                                      cpu=112,g+                                                                                                                                                                                                                                 
8026418.0    8026418.0    select_gpu             19906060K      nid005750            287 153403575+   8682208K  nid005656         13 4908764398     2769    nid005655              0       1475   20:07:24  nid005655          1   20:25:22      960      13440   03:16:40  COMPLETED      0:0     28.61M       Unknown       Unknown       Unknown                               2856.60M       nid006280             376       2694.66M     8115.82M        nid005655                0         98.10M            cpu=13440+ cpu=20:25:22,+ cpu=20:48:35,+ cpu=nid005657,ene+ cpu=22,fs/disk=37+ cpu=20:07:24,+ cpu=nid005655,ene+ cpu=1,fs/disk=1,m+ cpu=816-21:59+ energy=23997,f+ energy=nid006286,f+           fs/disk=0 energy=130,fs/+ energy=124898,+ 
