JobID        JobIDRaw        JobName  Partition  MaxVMSize  MaxVMSizeNode  MaxVMSizeTask  AveVMSize     MaxRSS MaxRSSNode MaxRSSTask     AveRSS MaxPages MaxPagesNode   MaxPagesTask   AvePages     MinCPU MinCPUNode MinCPUTask     AveCPU   NTasks  AllocCPUS    Elapsed      State ExitCode AveCPUFreq ReqCPUFreqMin ReqCPUFreqMax ReqCPUFreqGov     ReqMem ConsumedEnergy  MaxDiskRead MaxDiskReadNode MaxDiskReadTask    AveDiskRead MaxDiskWrite MaxDiskWriteNode MaxDiskWriteTask   AveDiskWrite    ReqTRES  AllocTRES TRESUsageInAve TRESUsageInMax TRESUsageInMaxNode TRESUsageInMaxTask TRESUsageInMin TRESUsageInMinNode TRESUsageInMinTask TRESUsageInTot TRESUsageOutMax TRESUsageOutMaxNode TRESUsageOutMaxTask TRESUsageOutAve TRESUsageOutTot 
------------ ------------ ---------- ---------- ---------- -------------- -------------- ---------- ---------- ---------- ---------- ---------- -------- ------------ -------------- ---------- ---------- ---------- ---------- ---------- -------- ---------- ---------- ---------- -------- ---------- ------------- ------------- ------------- ---------- -------------- ------------ --------------- --------------- -------------- ------------ ---------------- ---------------- -------------- ---------- ---------- -------------- -------------- ------------------ ------------------ -------------- ------------------ ------------------ -------------- --------------- ------------------- ------------------- --------------- --------------- 
1425783      1425783      CovidWeak+        gpu                                                                                                                                                                                                             512   00:16:29    RUNNING      0:0                  Unknown       Unknown       Unknown      1920G                                                                                                                                          billing=1+ billing=5+                                                                                                                                                                                                                                 
1425783.bat+ 1425783.bat+      batch                                                                                                                                                                                                               1        128   00:16:29    RUNNING      0:0          0             0             0             0                         0                                                                                                                                      cpu=128,g+                                                                                                                                                                                                                                 
1425783.0    1425783.0    meluxina-+                                                                                                                                                                                                             128        512   00:16:18    RUNNING      0:0          0       Unknown       Unknown       Unknown                         0                                                                                                                                      cpu=512,g+                                                                                                                                                                                                                                 
