{
 "global_section": { "_calls": 1, "_time":     6815.269, "_%":   100.00,
   "siesta": { "_calls": 1, "_time":     6815.269, "_%":   100.00,
     "Setup": { "_calls": 1, "_time":        1.964, "_%":     0.03,
       "bands": { "_calls": 1, "_time":        0.003, "_%":     0.00},
       "KSV_init": { "_calls": 1, "_time":        0.001, "_%":     0.00}
     },
     "IterGeom": { "_calls": 1, "_time":     6812.994, "_%":    99.97,
       "geom_init": { "_calls": 1, "_time":       18.452, "_%":     0.27,
         "state_init": { "_calls": 1, "_time":        2.209, "_%":     0.03,
           "hsparse": { "_calls": 1, "_time":        0.146, "_%":     0.00},
           "overlap": { "_calls": 1, "_time":        1.291, "_%":     0.02}
         },
         "Setup_H0": { "_calls": 1, "_time":       16.242, "_%":     0.24,
           "naefs": { "_calls": 1, "_time":        0.023, "_%":     0.00},
           "MolMec": { "_calls": 1, "_time":        0.000, "_%":     0.00},
           "kinefsm": { "_calls": 1, "_time":        1.274, "_%":     0.02},
           "nlefsm": { "_calls": 1, "_time":        3.161, "_%":     0.05},
           "DHSCF_Init": { "_calls": 1, "_time":       11.769, "_%":     0.17,
             "DHSCF1": { "_calls": 1, "_time":        0.079, "_%":     0.00,
               "INITMESH": { "_calls": 1, "_time":        0.000, "_%":     0.00}
             },
             "DHSCF2": { "_calls": 1, "_time":       11.668, "_%":     0.17,
               "REMESH": { "_calls": 1, "_time":        0.710, "_%":     0.01,
                 "INITMESH": { "_calls": 2, "_time":        0.661, "_%":     0.01,
                   "SPLOAD": { "_calls": 2, "_time":        0.650, "_%":     0.01}
                 }
               },
               "REORD": { "_calls": 2, "_time":        0.048, "_%":     0.00},
               "PHION": { "_calls": 1, "_time":        1.053, "_%":     0.02},
               "COMM_BSC": { "_calls": 1, "_time":        0.167, "_%":     0.00},
               "POISON": { "_calls": 1, "_time":        8.933, "_%":     0.13,
                 "fft": { "_calls": 2, "_time":        8.579, "_%":     0.13}
               }
             }
           }
         }
       },
       "IterSCF": { "_calls": 5, "_time":     6794.311, "_%":    99.69,
         "setup_H": { "_calls": 5, "_time":       68.602, "_%":     1.01,
           "DHSCF": { "_calls": 5, "_time":       68.531, "_%":     1.01,
             "DHSCF3": { "_calls": 5, "_time":       68.531, "_%":     1.01,
               "rhoofd": { "_calls": 5, "_time":        0.610, "_%":     0.01},
               "COMM_BSC": { "_calls": 10, "_time":        1.960, "_%":     0.03},
               "POISON": { "_calls": 5, "_time":       44.102, "_%":     0.65,
                 "fft": { "_calls": 10, "_time":       42.216, "_%":     0.62}
               },
               "XC": { "_calls": 5, "_time":       17.622, "_%":     0.26,
                 "COMM_BSC": { "_calls": 10, "_time":        2.247, "_%":     0.03},
                 "GXC-CellXC": { "_calls": 5, "_time":       14.848, "_%":     0.22,
                   "gridxc@cellXC": { "_calls": 5, "_time":       14.848, "_%":     0.22}
                 }
               },
               "vmat": { "_calls": 5, "_time":        0.623, "_%":     0.01}
             }
           }
         },
         "compute_dm": { "_calls": 5, "_time":     6725.503, "_%":    98.68,
           "elsi": { "_calls": 5, "_time":     6724.947, "_%":    98.67,
             "find nnz_g": { "_calls": 5, "_time":        0.000, "_%":     0.00},
             "elsi-solver": { "_calls": 5, "_time":     6724.925, "_%":    98.67}
           }
         },
         "MIXER": { "_calls": 5, "_time":        0.156, "_%":     0.00}
       },
       "state_analysis": { "_calls": 1, "_time":        0.077, "_%":     0.00},
       "siesta_move": { "_calls": 1, "_time":        0.000, "_%":     0.00}
     },
     "Analysis": { "_calls": 1, "_time":        0.291, "_%":     0.00,
       "optical": { "_calls": 1, "_time":        0.001, "_%":     0.00}
     }
   }
 }}
