+ cd /archive/group/labs_max3/JUBE/qe_davinci1_jube/davinci_test/ausurf_2steps/000000/000003_submit/work
+ conda deactivate

CommandNotFoundError: Your shell has not been properly configured to use 'conda deactivate'.
To initialize your shell, run

    $ conda init <SHELL_NAME>

Currently supported shells are:
  - bash
  - fish
  - tcsh
  - xonsh
  - zsh
  - powershell

See 'conda init --help' for more information and options.

IMPORTANT: You may need to close and restart your shell after running 'conda init'.


+ module load cmake/3.20.2 OneAPI_2022/mkl/latest cuda11.4/ nv-sdk-tool/nvhpc/21.9
+ unset _mlshdbg
+ '[' 0 = 1 ']'
+ unset _mlre _mlIFS
+ '[' -n x ']'
+ _mlIFS=' 	
'
+ IFS=' '
+ '[' -n '' ']'
++ /usr/bin/tclsh /cm/local/apps/environment-modules/4.5.3/libexec/modulecmd.tcl bash load cmake/3.20.2 OneAPI_2022/mkl/latest cuda11.4/ nv-sdk-tool/nvhpc/21.9
Loading mkl version 2022.0.1
Loading tbb version 2021.5.0
Loading compiler-rt version 2022.0.1

Loading OneAPI_2022/mkl/latest
  Loading requirement: OneAPI_2022/tbb/latest OneAPI_2022/compiler-rt/latest
+ eval 'CPATH=/archive/apps/nvidia/hpc_sdk/Linux_x86_64/21.9/compilers/extras/qd/include/qd:/archive/apps/nvidia/hpc_sdk/Linux_x86_64/21.9/comm_libs/nvshmem/include:/archive/apps/nvidia/hpc_sdk/Linux_x86_64/21.9/comm_libs/nccl/include:/archive/apps/nvidia/hpc_sdk/Linux_x86_64/21.9/comm_libs/mpi/include:/archive/apps/nvidia/hpc_sdk/Linux_x86_64/21.9/math_libs/include:/cm/shared/apps/cuda11.4/sdk/11.4.2/common/inc:/cm/shared/apps/cuda11.4/toolkit/11.4.2/targets/x86_64-linux/include:/archive/apps/INTEL/OneAPI_2022/mkl/2022.0.1/include:/archive/apps/INTEL/OneAPI_2022/tbb/2021.5.0/include;' export 'CPATH;
CMAKE_PREFIX_PATH=/archive/apps/INTEL/OneAPI_2022/tbb/2021.5.0;' export 'CMAKE_PREFIX_PATH;
NVHPC_ROOT=/archive/apps/nvidia/hpc_sdk/Linux_x86_64/21.9;' export 'NVHPC_ROOT;
TBBROOT=/archive/apps/INTEL/OneAPI_2022/tbb/2021.5.0;' export 'TBBROOT;
F77=/archive/apps/nvidia/hpc_sdk/Linux_x86_64/21.9/compilers/bin/nvfortran;' export 'F77;
CMAKE_PREFIX_PATH_modshare=/archive/apps/INTEL/OneAPI_2022/tbb/2021.5.0:1;' export 'CMAKE_PREFIX_PATH_modshare;
NVHPC=/archive/apps/nvidia/hpc_sdk;' export 'NVHPC;
MANPATH=/archive/apps/nvidia/hpc_sdk/Linux_x86_64/21.9/compilers/man:/cm/local/apps/cuda/libs/current/share/man:/cm/local/apps/environment-modules/4.5.3//share/man:/usr/share/man:/usr/local/share/man:/cm/local/apps/environment-modules/current/share/man:/cm/shared/apps/pbspro/current/man:/cm/shared/apps/pbspro/current/share/man;' export 'MANPATH;
CPP=cpp;' export 'CPP;
PKG_CONFIG_PATH=/archive/apps/INTEL/OneAPI_2022/mkl/2022.0.1/lib/pkgconfig;' export 'PKG_CONFIG_PATH;
MANPATH_modshare=/cm/local/apps/cuda/libs/current/share/man:1:/usr/local/share/man:1:/cm/shared/apps/pbspro/current/share/man:1:/cm/local/apps/environment-modules/4.5.3//share/man:1:/cm/local/apps/environment-modules/current/share/man:1:/usr/share/man:1:/cm/shared/apps/pbspro/current/man:1:/archive/apps/nvidia/hpc_sdk/Linux_x86_64/21.9/compilers/man:1;' export 'MANPATH_modshare;
F90=/archive/apps/nvidia/hpc_sdk/Linux_x86_64/21.9/compilers/bin/nvfortran;' export 'F90;
OPAL_PREFIX=/archive/apps/nvidia/hpc_sdk/Linux_x86_64/21.9/comm_libs/mpi;' export 'OPAL_PREFIX;
MODULES_LMNOTUASKED_modshare=OneAPI_2022/tbb/latest:1:OneAPI_2022/compiler-rt/latest:1;' export 'MODULES_LMNOTUASKED_modshare;
LD_LIBRARY_PATH_modshare=/archive/apps/nvidia/hpc_sdk/Linux_x86_64/21.9/comm_libs/nccl/lib:1:/archive/apps/nvidia/hpc_sdk/Linux_x86_64/21.9/math_libs/lib64:1:/archive/apps/INTEL/OneAPI_2022/compiler/2022.0.1/linux/lib/x64:1:/archive/apps/nvidia/hpc_sdk/Linux_x86_64/21.9/compilers/lib:1:/cm/shared/apps/cuda11.4/toolkit/11.4.2/targets/x86_64-linux/lib:1:/archive/apps/cmake/cmake-3.20.2-linux-x86_64/lib:1:/archive/apps/INTEL/OneAPI_2022/tbb/2021.5.0/lib/intel64/gcc4.8:1:/archive/apps/nvidia/hpc_sdk/Linux_x86_64/21.9/compilers/extras/qd/lib:1:/archive/apps/INTEL/OneAPI_2022/compiler/2022.0.1/linux/lib:1:/archive/apps/INTEL/OneAPI_2022/compiler/2022.0.1/linux/compiler/lib/intel64_lin:1:/archive/apps/nvidia/hpc_sdk/Linux_x86_64/21.9/cuda/lib64:1:/cm/local/apps/cuda/libs/current/lib64:1:/archive/apps/nvidia/hpc_sdk/Linux_x86_64/21.9/cuda/extras/CUPTI/lib64:1:/archive/apps/nvidia/hpc_sdk/Linux_x86_64/21.9/comm_libs/nvshmem/lib:1:/archive/apps/nvidia/hpc_sdk/Linux_x86_64/21.9/comm_libs/mpi/lib:1:/archive/apps/INTEL/OneAPI_2022/mkl/2022.0.1/lib/intel64:1;' export 'LD_LIBRARY_PATH_modshare;
MODULES_LMPREREQ_modshare=OneAPI_2022/mkl/latest\&OneAPI_2022/tbb\&OneAPI_2022/compiler-rt:1;' export 'MODULES_LMPREREQ_modshare;
PATH=/archive/apps/nvidia/hpc_sdk/Linux_x86_64/21.9/compilers/extras/qd/bin:/archive/apps/nvidia/hpc_sdk/Linux_x86_64/21.9/comm_libs/mpi/bin:/archive/apps/nvidia/hpc_sdk/Linux_x86_64/21.9/compilers/bin:/archive/apps/nvidia/hpc_sdk/Linux_x86_64/21.9/cuda/bin:/cm/local/apps/cuda/libs/current/bin:/cm/shared/apps/cuda11.4/sdk/11.4.2/bin/x86_64/linux/release:/cm/shared/apps/cuda11.4/toolkit/11.4.2/bin:/archive/apps/cmake/cmake-3.20.2-linux-x86_64/bin:/davinci-1/home/mvandelli/.conda/envs/qiskit_scipy1.10.0/bin:/apps/anaconda/anaconda3/anaconda3-2020.11/condabin:/davinci-1/home/mvandelli/.local/bin:/davinci-1/home/mvandelli/bin:/cm/local/apps/environment-modules/4.5.3/bin:/bin:/usr/bin:/usr/local/sbin:/usr/sbin:/sbin:/usr/sbin:/cm/local/apps/environment-modules/4.5.3/bin:/cm/shared/apps/pbspro/current/bin:/var/lib/snapd/snap/bin;' export 'PATH;
CUDA_HOME=/cm/shared/apps/cuda11.4/toolkit/11.4.2;' export 'CUDA_HOME;
CC=/archive/apps/nvidia/hpc_sdk/Linux_x86_64/21.9/compilers/bin/nvc;' export 'CC;
LD_LIBRARY_PATH=/archive/apps/nvidia/hpc_sdk/Linux_x86_64/21.9/comm_libs/nvshmem/lib:/archive/apps/nvidia/hpc_sdk/Linux_x86_64/21.9/comm_libs/nccl/lib:/archive/apps/nvidia/hpc_sdk/Linux_x86_64/21.9/comm_libs/mpi/lib:/archive/apps/nvidia/hpc_sdk/Linux_x86_64/21.9/math_libs/lib64:/archive/apps/nvidia/hpc_sdk/Linux_x86_64/21.9/compilers/lib:/archive/apps/nvidia/hpc_sdk/Linux_x86_64/21.9/compilers/extras/qd/lib:/archive/apps/nvidia/hpc_sdk/Linux_x86_64/21.9/cuda/extras/CUPTI/lib64:/archive/apps/nvidia/hpc_sdk/Linux_x86_64/21.9/cuda/lib64:/cm/local/apps/cuda/libs/current/lib64:/cm/shared/apps/cuda11.4/toolkit/11.4.2/targets/x86_64-linux/lib:/archive/apps/INTEL/OneAPI_2022/mkl/2022.0.1/lib/intel64:/archive/apps/INTEL/OneAPI_2022/compiler/2022.0.1/linux/lib:/archive/apps/INTEL/OneAPI_2022/compiler/2022.0.1/linux/lib/x64:/archive/apps/INTEL/OneAPI_2022/compiler/2022.0.1/linux/compiler/lib/intel64_lin:/archive/apps/INTEL/OneAPI_2022/tbb/2021.5.0/lib/intel64/gcc4.8:/archive/apps/cmake/cmake-3.20.2-linux-x86_64/lib;' export 'LD_LIBRARY_PATH;
MODULES_LMPREREQ=OneAPI_2022/mkl/latest\&OneAPI_2022/tbb\&OneAPI_2022/compiler-rt;' export 'MODULES_LMPREREQ;
LOADEDMODULES=cmake/3.20.2:OneAPI_2022/tbb/latest:OneAPI_2022/compiler-rt/latest:OneAPI_2022/mkl/latest:cuda11.4/toolkit/11.4.2:nv-sdk-tool/nvhpc/21.9;' export 'LOADEDMODULES;
CUDA_CMLOCAL_ROOT=/cm/local/apps/cuda/libs/current;' export 'CUDA_CMLOCAL_ROOT;
CUDA_INC_PATH=/cm/shared/apps/cuda11.4/toolkit/11.4.2;' export 'CUDA_INC_PATH;
MODULES_LMCONFLICT=cmake/3.20.2\&cmake:OneAPI_2022/tbb/latest\&tbb32\&tbb:OneAPI_2022/compiler-rt/latest\&compiler-rt32\&compiler-rt:OneAPI_2022/mkl/latest\&mkl32\&mkl:nv-sdk-tool/nvhpc/21.9\&nv-sdk-tool/nvhpc\&nv-sdk-tool/nvhpc-nompi\&nv-sdk-tool/nvhpc-byo-compiler;' export 'MODULES_LMCONFLICT;
CXX=/archive/apps/nvidia/hpc_sdk/Linux_x86_64/21.9/compilers/bin/nvc++;' export 'CXX;
PKG_CONFIG_PATH_modshare=/archive/apps/INTEL/OneAPI_2022/mkl/2022.0.1/lib/pkgconfig:1;' export 'PKG_CONFIG_PATH_modshare;
MODULES_LMNOTUASKED=OneAPI_2022/tbb/latest:OneAPI_2022/compiler-rt/latest;' export 'MODULES_LMNOTUASKED;
MKLROOT=/archive/apps/INTEL/OneAPI_2022/mkl/2022.0.1;' export 'MKLROOT;
NLSPATH=/archive/apps/INTEL/OneAPI_2022/mkl/2022.0.1/lib/intel64/locale/%l_%t/%N;' export 'NLSPATH;
LD_RUN_PATH_modshare=/cm/local/apps/cuda/libs/current/lib64:1;' export 'LD_RUN_PATH_modshare;
LOADEDMODULES_modshare=OneAPI_2022/tbb/latest:1:OneAPI_2022/mkl/latest:1:nv-sdk-tool/nvhpc/21.9:1:cuda11.4/toolkit/11.4.2:1:OneAPI_2022/compiler-rt/latest:1:cmake/3.20.2:1;' export 'LOADEDMODULES_modshare;
CUDA_INC_PATH_modshare=/cm/shared/apps/cuda11.4/toolkit/11.4.2:1;' export 'CUDA_INC_PATH_modshare;
CUDA_SDK=/cm/shared/apps/cuda11.4/sdk/11.4.2;' export 'CUDA_SDK;
LD_RUN_PATH=/cm/local/apps/cuda/libs/current/lib64;' export 'LD_RUN_PATH;
LIBRARY_PATH=/cm/local/apps/cuda/libs/current/lib64:/cm/shared/apps/cuda11.4/toolkit/11.4.2/targets/x86_64-linux/lib:/archive/apps/INTEL/OneAPI_2022/mkl/2022.0.1/lib/intel64:/archive/apps/INTEL/OneAPI_2022/compiler/2022.0.1/linux/lib:/archive/apps/INTEL/OneAPI_2022/tbb/2021.5.0/lib/intel64/gcc4.8;' export 'LIBRARY_PATH;
INCLUDEPATH=/cm/shared/apps/cuda11.4/toolkit/11.4.2/extras/Debugger/include:/cm/shared/apps/cuda11.4/toolkit/11.4.2/targets/x86_64-linux/include/CL:/cm/shared/apps/cuda11.4/sdk/11.4.2/common/inc:/cm/shared/apps/cuda11.4/toolkit/11.4.2/targets/x86_64-linux/include;' export 'INCLUDEPATH;
_LMFILES_=/cm/shared/modulefiles/cmake/3.20.2:/cm/shared/modulefiles/OneAPI_2022/tbb/latest:/cm/shared/modulefiles/OneAPI_2022/compiler-rt/latest:/cm/shared/modulefiles/OneAPI_2022/mkl/latest:/cm/shared/modulefiles/cuda11.4/toolkit/11.4.2:/cm/shared/modulefiles/nv-sdk-tool/nvhpc/21.9;' export '_LMFILES_;
LIBRARY_PATH_modshare=/archive/apps/INTEL/OneAPI_2022/compiler/2022.0.1/linux/lib:1:/archive/apps/INTEL/OneAPI_2022/tbb/2021.5.0/lib/intel64/gcc4.8:1:/cm/shared/apps/cuda11.4/toolkit/11.4.2/targets/x86_64-linux/lib:1:/cm/local/apps/cuda/libs/current/lib64:1:/archive/apps/INTEL/OneAPI_2022/mkl/2022.0.1/lib/intel64:1;' export 'LIBRARY_PATH_modshare;
INCLUDEPATH_modshare=/cm/shared/apps/cuda11.4/toolkit/11.4.2/extras/Debugger/include:1:/cm/shared/apps/cuda11.4/toolkit/11.4.2/targets/x86_64-linux/include/CL:1:/cm/shared/apps/cuda11.4/sdk/11.4.2/common/inc:1:/cm/shared/apps/cuda11.4/toolkit/11.4.2/targets/x86_64-linux/include:1;' export 'INCLUDEPATH_modshare;
CUDA_CACHE_DISABLE=1;' export 'CUDA_CACHE_DISABLE;
NLSPATH_modshare=/archive/apps/INTEL/OneAPI_2022/mkl/2022.0.1/lib/intel64/locale/%l_%t/%N:1;' export 'NLSPATH_modshare;
MODULES_LMCONFLICT_modshare=OneAPI_2022/tbb/latest\&tbb32\&tbb:1:OneAPI_2022/mkl/latest\&mkl32\&mkl:1:nv-sdk-tool/nvhpc/21.9\&nv-sdk-tool/nvhpc\&nv-sdk-tool/nvhpc-nompi\&nv-sdk-tool/nvhpc-byo-compiler:1:cmake/3.20.2\&cmake:1:OneAPI_2022/compiler-rt/latest\&compiler-rt32\&compiler-rt:1;' export 'MODULES_LMCONFLICT_modshare;
unset' 'INTEL_TARGET_ARCH_IA32;
CUDA_INSTALL_PATH=/cm/shared/apps/cuda11.4/toolkit/11.4.2;' export 'CUDA_INSTALL_PATH;
CUDA_ROOT=/cm/shared/apps/cuda11.4/toolkit/11.4.2;' export 'CUDA_ROOT;
CUDA_PATH=/cm/shared/apps/cuda11.4/toolkit/11.4.2;' export 'CUDA_PATH;
FC=/archive/apps/nvidia/hpc_sdk/Linux_x86_64/21.9/compilers/bin/nvfortran;' export 'FC;
CPATH_modshare=/archive/apps/nvidia/hpc_sdk/Linux_x86_64/21.9/math_libs/include:1:/archive/apps/nvidia/hpc_sdk/Linux_x86_64/21.9/compilers/extras/qd/include/qd:1:/archive/apps/nvidia/hpc_sdk/Linux_x86_64/21.9/comm_libs/nccl/include:1:/cm/shared/apps/cuda11.4/sdk/11.4.2/common/inc:1:/archive/apps/INTEL/OneAPI_2022/tbb/2021.5.0/include:1:/archive/apps/nvidia/hpc_sdk/Linux_x86_64/21.9/comm_libs/nvshmem/include:1:/archive/apps/nvidia/hpc_sdk/Linux_x86_64/21.9/comm_libs/mpi/include:1:/cm/shared/apps/cuda11.4/toolkit/11.4.2/targets/x86_64-linux/include:1:/archive/apps/INTEL/OneAPI_2022/mkl/2022.0.1/include:1;' export 'CPATH_modshare;
_LMFILES__modshare=/cm/shared/modulefiles/OneAPI_2022/tbb/latest:1:/cm/shared/modulefiles/OneAPI_2022/mkl/latest:1:/cm/shared/modulefiles/nv-sdk-tool/nvhpc/21.9:1:/cm/shared/modulefiles/cuda11.4/toolkit/11.4.2:1:/cm/shared/modulefiles/OneAPI_2022/compiler-rt/latest:1:/cm/shared/modulefiles/cmake/3.20.2:1;' export '_LMFILES__modshare;
PATH_modshare=/archive/apps/nvidia/hpc_sdk/Linux_x86_64/21.9/comm_libs/mpi/bin:1:/usr/bin:1:/archive/apps/nvidia/hpc_sdk/Linux_x86_64/21.9/cuda/bin:1:/cm/local/apps/cuda/libs/current/bin:1:/apps/anaconda/anaconda3/anaconda3-2020.11/condabin:1:/archive/apps/nvidia/hpc_sdk/Linux_x86_64/21.9/compilers/bin:1:/davinci-1/home/mvandelli/.conda/envs/qiskit_scipy1.10.0/bin:1:/archive/apps/cmake/cmake-3.20.2-linux-x86_64/bin:1:/archive/apps/nvidia/hpc_sdk/Linux_x86_64/21.9/compilers/extras/qd/bin:1:/davinci-1/home/mvandelli/.local/bin:1:/cm/shared/apps/pbspro/current/bin:1:/bin:1:/cm/shared/apps/cuda11.4/toolkit/11.4.2/bin:1:/cm/shared/apps/cuda11.4/sdk/11.4.2/bin/x86_64/linux/release:1:/sbin:1:/usr/sbin:1:/var/lib/snapd/snap/bin:1:/cm/local/apps/environment-modules/4.5.3/bin:1:/davinci-1/home/mvandelli/bin:1:/usr/local/sbin:1;' export 'PATH_modshare;
test' '0;'
++ CPATH=/archive/apps/nvidia/hpc_sdk/Linux_x86_64/21.9/compilers/extras/qd/include/qd:/archive/apps/nvidia/hpc_sdk/Linux_x86_64/21.9/comm_libs/nvshmem/include:/archive/apps/nvidia/hpc_sdk/Linux_x86_64/21.9/comm_libs/nccl/include:/archive/apps/nvidia/hpc_sdk/Linux_x86_64/21.9/comm_libs/mpi/include:/archive/apps/nvidia/hpc_sdk/Linux_x86_64/21.9/math_libs/include:/cm/shared/apps/cuda11.4/sdk/11.4.2/common/inc:/cm/shared/apps/cuda11.4/toolkit/11.4.2/targets/x86_64-linux/include:/archive/apps/INTEL/OneAPI_2022/mkl/2022.0.1/include:/archive/apps/INTEL/OneAPI_2022/tbb/2021.5.0/include
++ export CPATH
++ CMAKE_PREFIX_PATH=/archive/apps/INTEL/OneAPI_2022/tbb/2021.5.0
++ export CMAKE_PREFIX_PATH
++ NVHPC_ROOT=/archive/apps/nvidia/hpc_sdk/Linux_x86_64/21.9
++ export NVHPC_ROOT
++ TBBROOT=/archive/apps/INTEL/OneAPI_2022/tbb/2021.5.0
++ export TBBROOT
++ F77=/archive/apps/nvidia/hpc_sdk/Linux_x86_64/21.9/compilers/bin/nvfortran
++ export F77
++ CMAKE_PREFIX_PATH_modshare=/archive/apps/INTEL/OneAPI_2022/tbb/2021.5.0:1
++ export CMAKE_PREFIX_PATH_modshare
++ NVHPC=/archive/apps/nvidia/hpc_sdk
++ export NVHPC
++ MANPATH=/archive/apps/nvidia/hpc_sdk/Linux_x86_64/21.9/compilers/man:/cm/local/apps/cuda/libs/current/share/man:/cm/local/apps/environment-modules/4.5.3//share/man:/usr/share/man:/usr/local/share/man:/cm/local/apps/environment-modules/current/share/man:/cm/shared/apps/pbspro/current/man:/cm/shared/apps/pbspro/current/share/man
++ export MANPATH
++ CPP=cpp
++ export CPP
++ PKG_CONFIG_PATH=/archive/apps/INTEL/OneAPI_2022/mkl/2022.0.1/lib/pkgconfig
++ export PKG_CONFIG_PATH
++ MANPATH_modshare=/cm/local/apps/cuda/libs/current/share/man:1:/usr/local/share/man:1:/cm/shared/apps/pbspro/current/share/man:1:/cm/local/apps/environment-modules/4.5.3//share/man:1:/cm/local/apps/environment-modules/current/share/man:1:/usr/share/man:1:/cm/shared/apps/pbspro/current/man:1:/archive/apps/nvidia/hpc_sdk/Linux_x86_64/21.9/compilers/man:1
++ export MANPATH_modshare
++ F90=/archive/apps/nvidia/hpc_sdk/Linux_x86_64/21.9/compilers/bin/nvfortran
++ export F90
++ OPAL_PREFIX=/archive/apps/nvidia/hpc_sdk/Linux_x86_64/21.9/comm_libs/mpi
++ export OPAL_PREFIX
++ MODULES_LMNOTUASKED_modshare=OneAPI_2022/tbb/latest:1:OneAPI_2022/compiler-rt/latest:1
++ export MODULES_LMNOTUASKED_modshare
++ LD_LIBRARY_PATH_modshare=/archive/apps/nvidia/hpc_sdk/Linux_x86_64/21.9/comm_libs/nccl/lib:1:/archive/apps/nvidia/hpc_sdk/Linux_x86_64/21.9/math_libs/lib64:1:/archive/apps/INTEL/OneAPI_2022/compiler/2022.0.1/linux/lib/x64:1:/archive/apps/nvidia/hpc_sdk/Linux_x86_64/21.9/compilers/lib:1:/cm/shared/apps/cuda11.4/toolkit/11.4.2/targets/x86_64-linux/lib:1:/archive/apps/cmake/cmake-3.20.2-linux-x86_64/lib:1:/archive/apps/INTEL/OneAPI_2022/tbb/2021.5.0/lib/intel64/gcc4.8:1:/archive/apps/nvidia/hpc_sdk/Linux_x86_64/21.9/compilers/extras/qd/lib:1:/archive/apps/INTEL/OneAPI_2022/compiler/2022.0.1/linux/lib:1:/archive/apps/INTEL/OneAPI_2022/compiler/2022.0.1/linux/compiler/lib/intel64_lin:1:/archive/apps/nvidia/hpc_sdk/Linux_x86_64/21.9/cuda/lib64:1:/cm/local/apps/cuda/libs/current/lib64:1:/archive/apps/nvidia/hpc_sdk/Linux_x86_64/21.9/cuda/extras/CUPTI/lib64:1:/archive/apps/nvidia/hpc_sdk/Linux_x86_64/21.9/comm_libs/nvshmem/lib:1:/archive/apps/nvidia/hpc_sdk/Linux_x86_64/21.9/comm_libs/mpi/lib:1:/archive/apps/INTEL/OneAPI_2022/mkl/2022.0.1/lib/intel64:1
++ export LD_LIBRARY_PATH_modshare
++ MODULES_LMPREREQ_modshare='OneAPI_2022/mkl/latest&OneAPI_2022/tbb&OneAPI_2022/compiler-rt:1'
++ export MODULES_LMPREREQ_modshare
++ PATH=/archive/apps/nvidia/hpc_sdk/Linux_x86_64/21.9/compilers/extras/qd/bin:/archive/apps/nvidia/hpc_sdk/Linux_x86_64/21.9/comm_libs/mpi/bin:/archive/apps/nvidia/hpc_sdk/Linux_x86_64/21.9/compilers/bin:/archive/apps/nvidia/hpc_sdk/Linux_x86_64/21.9/cuda/bin:/cm/local/apps/cuda/libs/current/bin:/cm/shared/apps/cuda11.4/sdk/11.4.2/bin/x86_64/linux/release:/cm/shared/apps/cuda11.4/toolkit/11.4.2/bin:/archive/apps/cmake/cmake-3.20.2-linux-x86_64/bin:/davinci-1/home/mvandelli/.conda/envs/qiskit_scipy1.10.0/bin:/apps/anaconda/anaconda3/anaconda3-2020.11/condabin:/davinci-1/home/mvandelli/.local/bin:/davinci-1/home/mvandelli/bin:/cm/local/apps/environment-modules/4.5.3/bin:/bin:/usr/bin:/usr/local/sbin:/usr/sbin:/sbin:/usr/sbin:/cm/local/apps/environment-modules/4.5.3/bin:/cm/shared/apps/pbspro/current/bin:/var/lib/snapd/snap/bin
++ export PATH
++ CUDA_HOME=/cm/shared/apps/cuda11.4/toolkit/11.4.2
++ export CUDA_HOME
++ CC=/archive/apps/nvidia/hpc_sdk/Linux_x86_64/21.9/compilers/bin/nvc
++ export CC
++ LD_LIBRARY_PATH=/archive/apps/nvidia/hpc_sdk/Linux_x86_64/21.9/comm_libs/nvshmem/lib:/archive/apps/nvidia/hpc_sdk/Linux_x86_64/21.9/comm_libs/nccl/lib:/archive/apps/nvidia/hpc_sdk/Linux_x86_64/21.9/comm_libs/mpi/lib:/archive/apps/nvidia/hpc_sdk/Linux_x86_64/21.9/math_libs/lib64:/archive/apps/nvidia/hpc_sdk/Linux_x86_64/21.9/compilers/lib:/archive/apps/nvidia/hpc_sdk/Linux_x86_64/21.9/compilers/extras/qd/lib:/archive/apps/nvidia/hpc_sdk/Linux_x86_64/21.9/cuda/extras/CUPTI/lib64:/archive/apps/nvidia/hpc_sdk/Linux_x86_64/21.9/cuda/lib64:/cm/local/apps/cuda/libs/current/lib64:/cm/shared/apps/cuda11.4/toolkit/11.4.2/targets/x86_64-linux/lib:/archive/apps/INTEL/OneAPI_2022/mkl/2022.0.1/lib/intel64:/archive/apps/INTEL/OneAPI_2022/compiler/2022.0.1/linux/lib:/archive/apps/INTEL/OneAPI_2022/compiler/2022.0.1/linux/lib/x64:/archive/apps/INTEL/OneAPI_2022/compiler/2022.0.1/linux/compiler/lib/intel64_lin:/archive/apps/INTEL/OneAPI_2022/tbb/2021.5.0/lib/intel64/gcc4.8:/archive/apps/cmake/cmake-3.20.2-linux-x86_64/lib
++ export LD_LIBRARY_PATH
++ MODULES_LMPREREQ='OneAPI_2022/mkl/latest&OneAPI_2022/tbb&OneAPI_2022/compiler-rt'
++ export MODULES_LMPREREQ
++ LOADEDMODULES=cmake/3.20.2:OneAPI_2022/tbb/latest:OneAPI_2022/compiler-rt/latest:OneAPI_2022/mkl/latest:cuda11.4/toolkit/11.4.2:nv-sdk-tool/nvhpc/21.9
++ export LOADEDMODULES
++ CUDA_CMLOCAL_ROOT=/cm/local/apps/cuda/libs/current
++ export CUDA_CMLOCAL_ROOT
++ CUDA_INC_PATH=/cm/shared/apps/cuda11.4/toolkit/11.4.2
++ export CUDA_INC_PATH
++ MODULES_LMCONFLICT='cmake/3.20.2&cmake:OneAPI_2022/tbb/latest&tbb32&tbb:OneAPI_2022/compiler-rt/latest&compiler-rt32&compiler-rt:OneAPI_2022/mkl/latest&mkl32&mkl:nv-sdk-tool/nvhpc/21.9&nv-sdk-tool/nvhpc&nv-sdk-tool/nvhpc-nompi&nv-sdk-tool/nvhpc-byo-compiler'
++ export MODULES_LMCONFLICT
++ CXX=/archive/apps/nvidia/hpc_sdk/Linux_x86_64/21.9/compilers/bin/nvc++
++ export CXX
++ PKG_CONFIG_PATH_modshare=/archive/apps/INTEL/OneAPI_2022/mkl/2022.0.1/lib/pkgconfig:1
++ export PKG_CONFIG_PATH_modshare
++ MODULES_LMNOTUASKED=OneAPI_2022/tbb/latest:OneAPI_2022/compiler-rt/latest
++ export MODULES_LMNOTUASKED
++ MKLROOT=/archive/apps/INTEL/OneAPI_2022/mkl/2022.0.1
++ export MKLROOT
++ NLSPATH=/archive/apps/INTEL/OneAPI_2022/mkl/2022.0.1/lib/intel64/locale/%l_%t/%N
++ export NLSPATH
++ LD_RUN_PATH_modshare=/cm/local/apps/cuda/libs/current/lib64:1
++ export LD_RUN_PATH_modshare
++ LOADEDMODULES_modshare=OneAPI_2022/tbb/latest:1:OneAPI_2022/mkl/latest:1:nv-sdk-tool/nvhpc/21.9:1:cuda11.4/toolkit/11.4.2:1:OneAPI_2022/compiler-rt/latest:1:cmake/3.20.2:1
++ export LOADEDMODULES_modshare
++ CUDA_INC_PATH_modshare=/cm/shared/apps/cuda11.4/toolkit/11.4.2:1
++ export CUDA_INC_PATH_modshare
++ CUDA_SDK=/cm/shared/apps/cuda11.4/sdk/11.4.2
++ export CUDA_SDK
++ LD_RUN_PATH=/cm/local/apps/cuda/libs/current/lib64
++ export LD_RUN_PATH
++ LIBRARY_PATH=/cm/local/apps/cuda/libs/current/lib64:/cm/shared/apps/cuda11.4/toolkit/11.4.2/targets/x86_64-linux/lib:/archive/apps/INTEL/OneAPI_2022/mkl/2022.0.1/lib/intel64:/archive/apps/INTEL/OneAPI_2022/compiler/2022.0.1/linux/lib:/archive/apps/INTEL/OneAPI_2022/tbb/2021.5.0/lib/intel64/gcc4.8
++ export LIBRARY_PATH
++ INCLUDEPATH=/cm/shared/apps/cuda11.4/toolkit/11.4.2/extras/Debugger/include:/cm/shared/apps/cuda11.4/toolkit/11.4.2/targets/x86_64-linux/include/CL:/cm/shared/apps/cuda11.4/sdk/11.4.2/common/inc:/cm/shared/apps/cuda11.4/toolkit/11.4.2/targets/x86_64-linux/include
++ export INCLUDEPATH
++ _LMFILES_=/cm/shared/modulefiles/cmake/3.20.2:/cm/shared/modulefiles/OneAPI_2022/tbb/latest:/cm/shared/modulefiles/OneAPI_2022/compiler-rt/latest:/cm/shared/modulefiles/OneAPI_2022/mkl/latest:/cm/shared/modulefiles/cuda11.4/toolkit/11.4.2:/cm/shared/modulefiles/nv-sdk-tool/nvhpc/21.9
++ export _LMFILES_
++ LIBRARY_PATH_modshare=/archive/apps/INTEL/OneAPI_2022/compiler/2022.0.1/linux/lib:1:/archive/apps/INTEL/OneAPI_2022/tbb/2021.5.0/lib/intel64/gcc4.8:1:/cm/shared/apps/cuda11.4/toolkit/11.4.2/targets/x86_64-linux/lib:1:/cm/local/apps/cuda/libs/current/lib64:1:/archive/apps/INTEL/OneAPI_2022/mkl/2022.0.1/lib/intel64:1
++ export LIBRARY_PATH_modshare
++ INCLUDEPATH_modshare=/cm/shared/apps/cuda11.4/toolkit/11.4.2/extras/Debugger/include:1:/cm/shared/apps/cuda11.4/toolkit/11.4.2/targets/x86_64-linux/include/CL:1:/cm/shared/apps/cuda11.4/sdk/11.4.2/common/inc:1:/cm/shared/apps/cuda11.4/toolkit/11.4.2/targets/x86_64-linux/include:1
++ export INCLUDEPATH_modshare
++ CUDA_CACHE_DISABLE=1
++ export CUDA_CACHE_DISABLE
++ NLSPATH_modshare=/archive/apps/INTEL/OneAPI_2022/mkl/2022.0.1/lib/intel64/locale/%l_%t/%N:1
++ export NLSPATH_modshare
++ MODULES_LMCONFLICT_modshare='OneAPI_2022/tbb/latest&tbb32&tbb:1:OneAPI_2022/mkl/latest&mkl32&mkl:1:nv-sdk-tool/nvhpc/21.9&nv-sdk-tool/nvhpc&nv-sdk-tool/nvhpc-nompi&nv-sdk-tool/nvhpc-byo-compiler:1:cmake/3.20.2&cmake:1:OneAPI_2022/compiler-rt/latest&compiler-rt32&compiler-rt:1'
++ export MODULES_LMCONFLICT_modshare
++ unset INTEL_TARGET_ARCH_IA32
++ CUDA_INSTALL_PATH=/cm/shared/apps/cuda11.4/toolkit/11.4.2
++ export CUDA_INSTALL_PATH
++ CUDA_ROOT=/cm/shared/apps/cuda11.4/toolkit/11.4.2
++ export CUDA_ROOT
++ CUDA_PATH=/cm/shared/apps/cuda11.4/toolkit/11.4.2
++ export CUDA_PATH
++ FC=/archive/apps/nvidia/hpc_sdk/Linux_x86_64/21.9/compilers/bin/nvfortran
++ export FC
++ CPATH_modshare=/archive/apps/nvidia/hpc_sdk/Linux_x86_64/21.9/math_libs/include:1:/archive/apps/nvidia/hpc_sdk/Linux_x86_64/21.9/compilers/extras/qd/include/qd:1:/archive/apps/nvidia/hpc_sdk/Linux_x86_64/21.9/comm_libs/nccl/include:1:/cm/shared/apps/cuda11.4/sdk/11.4.2/common/inc:1:/archive/apps/INTEL/OneAPI_2022/tbb/2021.5.0/include:1:/archive/apps/nvidia/hpc_sdk/Linux_x86_64/21.9/comm_libs/nvshmem/include:1:/archive/apps/nvidia/hpc_sdk/Linux_x86_64/21.9/comm_libs/mpi/include:1:/cm/shared/apps/cuda11.4/toolkit/11.4.2/targets/x86_64-linux/include:1:/archive/apps/INTEL/OneAPI_2022/mkl/2022.0.1/include:1
++ export CPATH_modshare
++ _LMFILES__modshare=/cm/shared/modulefiles/OneAPI_2022/tbb/latest:1:/cm/shared/modulefiles/OneAPI_2022/mkl/latest:1:/cm/shared/modulefiles/nv-sdk-tool/nvhpc/21.9:1:/cm/shared/modulefiles/cuda11.4/toolkit/11.4.2:1:/cm/shared/modulefiles/OneAPI_2022/compiler-rt/latest:1:/cm/shared/modulefiles/cmake/3.20.2:1
++ export _LMFILES__modshare
++ PATH_modshare=/archive/apps/nvidia/hpc_sdk/Linux_x86_64/21.9/comm_libs/mpi/bin:1:/usr/bin:1:/archive/apps/nvidia/hpc_sdk/Linux_x86_64/21.9/cuda/bin:1:/cm/local/apps/cuda/libs/current/bin:1:/apps/anaconda/anaconda3/anaconda3-2020.11/condabin:1:/archive/apps/nvidia/hpc_sdk/Linux_x86_64/21.9/compilers/bin:1:/davinci-1/home/mvandelli/.conda/envs/qiskit_scipy1.10.0/bin:1:/archive/apps/cmake/cmake-3.20.2-linux-x86_64/bin:1:/archive/apps/nvidia/hpc_sdk/Linux_x86_64/21.9/compilers/extras/qd/bin:1:/davinci-1/home/mvandelli/.local/bin:1:/cm/shared/apps/pbspro/current/bin:1:/bin:1:/cm/shared/apps/cuda11.4/toolkit/11.4.2/bin:1:/cm/shared/apps/cuda11.4/sdk/11.4.2/bin/x86_64/linux/release:1:/sbin:1:/usr/sbin:1:/var/lib/snapd/snap/bin:1:/cm/local/apps/environment-modules/4.5.3/bin:1:/davinci-1/home/mvandelli/bin:1:/usr/local/sbin:1
++ export PATH_modshare
++ test 0
+ _mlstatus=0
+ '[' -n x ']'
+ IFS=' 	
'
+ unset _mlre _mlv _mlrv _mlIFS
+ '[' -n '' ']'
+ unset _mlshdbg
+ return 0
+ export CUDA_VISIBLE_DEVICES=0,1,2,3
+ CUDA_VISIBLE_DEVICES=0,1,2,3
+ mpirun -np 4 /archive/group/labs_max3/q-e-source/q-e-cmake/build/bin/pw.x -nk 4 -input ausurf.in
--------------------------------------------------------------------------
WARNING: No preset parameters were found for the device that Open MPI
detected:

  Local host:            dvgpu048
  Device name:           mlx5_0
  Device vendor ID:      0x02c9
  Device vendor part ID: 4123

Default device parameters will be used, which may result in lower
performance.  You can edit any of the files specified by the
btl_openib_device_param_files MCA parameter to set values for your
device.

NOTE: You can turn off this warning by setting the MCA parameter
      btl_openib_warn_no_device_params_found to 0.
--------------------------------------------------------------------------
--------------------------------------------------------------------------
WARNING: There was an error initializing an OpenFabrics device.

  Local host:   dvgpu048
  Local device: mlx5_0
--------------------------------------------------------------------------
[dvgpu048:1621700] 3 more processes have sent help message help-mpi-btl-openib.txt / no device params found
[dvgpu048:1621700] Set MCA parameter "orte_base_help_aggregate" to 0 to see all help / error messages
[dvgpu048:1621700] 3 more processes have sent help message help-mpi-btl-openib.txt / error in device init
Warning: ieee_divide_by_zero is signaling
Warning: ieee_underflow is signaling
Warning: ieee_inexact is signaling
FORTRAN STOP
Warning: ieee_divide_by_zero is signaling
Warning: ieee_underflow is signaling
Warning: ieee_inexact is signaling
FORTRAN STOP
Warning: ieee_divide_by_zero is signaling
Warning: ieee_inexact is signaling
FORTRAN STOP
Warning: ieee_divide_by_zero is signaling
Warning: ieee_inexact is signaling
FORTRAN STOP
+ touch ready_qe
