[2024-12-28 22:22:12.732 Control 1124025] Starting control daemon using socket ./pipe0/control
[2024-12-28 22:22:12.732 Control 1124025] To connect CUDA applications to this daemon, set env CUDA_MPS_PIPE_DIRECTORY=./pipe0
[2024-12-28 22:22:14.008 Control 1124025] Accepting connection...
[2024-12-28 22:22:14.008 Control 1124025] User did not send valid credentials
[2024-12-28 22:22:14.008 Control 1124025] Accepting connection...
[2024-12-28 22:22:14.008 Control 1124025] User did not send valid credentials
[2024-12-28 22:22:14.008 Control 1124025] Accepting connection...
[2024-12-28 22:22:14.008 Control 1124025] User did not send valid credentials
[2024-12-28 22:22:14.008 Control 1124025] Accepting connection...
[2024-12-28 22:22:14.008 Control 1124025] NEW CLIENT 1124047 from user 33678: Server is not ready, push client to pending list
[2024-12-28 22:22:14.008 Control 1124025] Starting new server 1124086 for user 33678
[2024-12-28 22:22:14.008 Control 1124025] Accepting connection...
[2024-12-28 22:22:14.009 Control 1124025] NEW CLIENT 1124048 from user 33678: Server is not ready, push client to pending list
[2024-12-28 22:22:14.009 Control 1124025] Accepting connection...
[2024-12-28 22:22:14.009 Control 1124025] NEW CLIENT 1124036 from user 33678: Server is not ready, push client to pending list
[2024-12-28 22:22:14.009 Control 1124025] Accepting connection...
[2024-12-28 22:22:14.009 Control 1124025] User did not send valid credentials
[2024-12-28 22:22:14.009 Control 1124025] Accepting connection...
[2024-12-28 22:22:14.009 Control 1124025] User did not send valid credentials
[2024-12-28 22:22:14.009 Control 1124025] Accepting connection...
[2024-12-28 22:22:14.009 Control 1124025] NEW CLIENT 1124045 from user 33678: Server is not ready, push client to pending list
[2024-12-28 22:22:14.009 Control 1124025] Accepting connection...
[2024-12-28 22:22:14.009 Control 1124025] NEW CLIENT 1124046 from user 33678: Server is not ready, push client to pending list
[2024-12-28 22:22:14.009 Control 1124025] Accepting connection...
[2024-12-28 22:22:14.009 Control 1124025] User did not send valid credentials
[2024-12-28 22:22:14.009 Control 1124025] Accepting connection...
[2024-12-28 22:22:14.009 Control 1124025] NEW CLIENT 1124041 from user 33678: Server is not ready, push client to pending list
[2024-12-28 22:22:14.009 Control 1124025] Accepting connection...
[2024-12-28 22:22:14.009 Control 1124025] User did not send valid credentials
[2024-12-28 22:22:14.009 Control 1124025] Accepting connection...
[2024-12-28 22:22:14.009 Control 1124025] NEW CLIENT 1124035 from user 33678: Server is not ready, push client to pending list
[2024-12-28 22:22:14.009 Control 1124025] Accepting connection...
[2024-12-28 22:22:14.009 Control 1124025] User did not send valid credentials
[2024-12-28 22:22:14.009 Control 1124025] Accepting connection...
[2024-12-28 22:22:14.009 Control 1124025] NEW CLIENT 1124049 from user 33678: Server is not ready, push client to pending list
[2024-12-28 22:22:14.009 Control 1124025] Accepting connection...
[2024-12-28 22:22:14.009 Control 1124025] User did not send valid credentials
[2024-12-28 22:22:14.009 Control 1124025] Accepting connection...
[2024-12-28 22:22:14.009 Control 1124025] NEW CLIENT 1124037 from user 33678: Server is not ready, push client to pending list
[2024-12-28 22:22:14.009 Control 1124025] Accepting connection...
[2024-12-28 22:22:14.009 Control 1124025] User did not send valid credentials
[2024-12-28 22:22:14.009 Control 1124025] Accepting connection...
[2024-12-28 22:22:14.009 Control 1124025] NEW CLIENT 1124038 from user 33678: Server is not ready, push client to pending list
[2024-12-28 22:22:14.009 Control 1124025] Accepting connection...
[2024-12-28 22:22:14.009 Control 1124025] User did not send valid credentials
[2024-12-28 22:22:14.009 Control 1124025] Accepting connection...
[2024-12-28 22:22:14.009 Control 1124025] NEW CLIENT 1124039 from user 33678: Server is not ready, push client to pending list
[2024-12-28 22:22:14.009 Control 1124025] Accepting connection...
[2024-12-28 22:22:14.009 Control 1124025] User did not send valid credentials
[2024-12-28 22:22:14.009 Control 1124025] Accepting connection...
[2024-12-28 22:22:14.009 Control 1124025] NEW CLIENT 1124040 from user 33678: Server is not ready, push client to pending list
[2024-12-28 22:22:14.009 Control 1124025] Accepting connection...
[2024-12-28 22:22:14.009 Control 1124025] User did not send valid credentials
[2024-12-28 22:22:14.009 Control 1124025] Accepting connection...
[2024-12-28 22:22:14.009 Control 1124025] NEW CLIENT 1124034 from user 33678: Server is not ready, push client to pending list
[2024-12-28 22:22:14.010 Control 1124025] Accepting connection...
[2024-12-28 22:22:14.010 Control 1124025] User did not send valid credentials
[2024-12-28 22:22:14.010 Control 1124025] Accepting connection...
[2024-12-28 22:22:14.010 Control 1124025] NEW CLIENT 1124042 from user 33678: Server is not ready, push client to pending list
[2024-12-28 22:22:14.010 Control 1124025] Accepting connection...
[2024-12-28 22:22:14.010 Control 1124025] User did not send valid credentials
[2024-12-28 22:22:14.010 Control 1124025] Accepting connection...
[2024-12-28 22:22:14.010 Control 1124025] NEW CLIENT 1124044 from user 33678: Server is not ready, push client to pending list
[2024-12-28 22:22:14.010 Control 1124025] Accepting connection...
[2024-12-28 22:22:14.010 Control 1124025] User did not send valid credentials
[2024-12-28 22:22:14.010 Control 1124025] Accepting connection...
[2024-12-28 22:22:14.010 Control 1124025] NEW CLIENT 1124043 from user 33678: Server is not ready, push client to pending list
[2024-12-28 22:22:14.027 Control 1124025] Accepting connection...
[2024-12-28 22:22:14.081 Control 1124025] NEW SERVER 1124086: Ready
[2024-12-28 22:22:14.764 Control 1124025] Accepting connection...
[2024-12-28 22:22:14.764 Control 1124025] NEW CLIENT 1124049 from user 33678: Server already exists
[2024-12-28 22:22:14.778 Control 1124025] Accepting connection...
[2024-12-28 22:22:14.778 Control 1124025] NEW CLIENT 1124042 from user 33678: Server already exists
[2024-12-28 22:22:14.778 Control 1124025] Accepting connection...
[2024-12-28 22:22:14.778 Control 1124025] NEW CLIENT 1124041 from user 33678: Server already exists
[2024-12-28 22:22:14.778 Control 1124025] Accepting connection...
[2024-12-28 22:22:14.778 Control 1124025] NEW CLIENT 1124036 from user 33678: Server already exists
[2024-12-28 22:22:14.778 Control 1124025] Accepting connection...
[2024-12-28 22:22:14.778 Control 1124025] NEW CLIENT 1124048 from user 33678: Server already exists
[2024-12-28 22:22:14.778 Control 1124025] Accepting connection...
[2024-12-28 22:22:14.778 Control 1124025] NEW CLIENT 1124046 from user 33678: Server already exists
[2024-12-28 22:22:14.778 Control 1124025] Accepting connection...
[2024-12-28 22:22:14.778 Control 1124025] NEW CLIENT 1124037 from user 33678: Server already exists
[2024-12-28 22:22:14.778 Control 1124025] Accepting connection...
[2024-12-28 22:22:14.778 Control 1124025] NEW CLIENT 1124040 from user 33678: Server already exists
[2024-12-28 22:22:14.779 Control 1124025] Accepting connection...
[2024-12-28 22:22:14.779 Control 1124025] NEW CLIENT 1124038 from user 33678: Server already exists
[2024-12-28 22:22:14.779 Control 1124025] Accepting connection...
[2024-12-28 22:22:14.779 Control 1124025] NEW CLIENT 1124045 from user 33678: Server already exists
[2024-12-28 22:22:14.779 Control 1124025] Accepting connection...
[2024-12-28 22:22:14.779 Control 1124025] NEW CLIENT 1124043 from user 33678: Server already exists
[2024-12-28 22:22:14.779 Control 1124025] Accepting connection...
[2024-12-28 22:22:14.779 Control 1124025] NEW CLIENT 1124035 from user 33678: Server already exists
[2024-12-28 22:22:14.779 Control 1124025] Accepting connection...
[2024-12-28 22:22:14.779 Control 1124025] NEW CLIENT 1124034 from user 33678: Server already exists
[2024-12-28 22:22:14.779 Control 1124025] Accepting connection...
[2024-12-28 22:22:14.779 Control 1124025] NEW CLIENT 1124039 from user 33678: Server already exists
[2024-12-28 22:22:14.779 Control 1124025] Accepting connection...
[2024-12-28 22:22:14.779 Control 1124025] NEW CLIENT 1124047 from user 33678: Server already exists
[2024-12-28 22:22:14.779 Control 1124025] Accepting connection...
[2024-12-28 22:22:14.779 Control 1124025] NEW CLIENT 1124044 from user 33678: Server already exists
[2024-12-28 22:23:04.453 Control 1124025] Accepting connection...
[2024-12-28 22:23:04.453 Control 1124025] NEW UI
[2024-12-28 22:23:04.453 Control 1124025] Cmd:quit
[2024-12-28 22:23:04.472 Control 1124025] Server 1124086 exited with status 0
[2024-12-28 22:23:04.472 Control 1124025] Removed Shm file at /cuda.shm.838e.1126f6.1
[2024-12-28 22:23:04.472 Control 1124025] Exit with status 0
