Current loaded modules
----------------------

Currently Loaded Modules:
  1) GCCcore/12.3.0                    18) OpenBLAS/0.3.23-GCC-12.3.0
  2) zlib/1.2.13-GCCcore-12.3.0        19) FlexiBLAS/3.3.1-GCC-12.3.0
  3) binutils/2.40-GCCcore-12.3.0      20) ScaLAPACK/2.2.0-gompi-2023a-fb
  4) GCC/12.3.0                        21) Szip/2.1.1-GCCcore-12.3.0
  5) numactl/2.0.16-GCCcore-12.3.0     22) HDF5/1.14.0-gompi-2023a
  6) XZ/5.4.2-GCCcore-12.3.0           23) cURL/8.0.1-GCCcore-12.3.0
  7) libxml2/2.11.4-GCCcore-12.3.0     24) gzip/1.12-GCCcore-12.3.0
  8) libpciaccess/0.17-GCCcore-12.3.0  25) lz4/1.9.4-GCCcore-12.3.0
  9) hwloc/2.9.1-GCCcore-12.3.0        26) zstd/1.5.5-GCCcore-12.3.0
 10) OpenSSL/1.1                       27) bzip2/1.0.8-GCCcore-12.3.0
 11) libevent/2.1.12-GCCcore-12.3.0    28) netCDF/4.9.2-gompi-2023a
 12) UCX/1.14.1-GCCcore-12.3.0         29) netCDF-Fortran/4.6.1-gompi-2023a
 13) libfabric/1.18.0-GCCcore-12.3.0   30) FFTW/3.3.10-GCC-12.3.0
 14) PMIx/4.2.4-GCCcore-12.3.0         31) CUDA/12.4.0
 15) UCC/1.2.0-GCCcore-12.3.0          32) ncurses/6.4-GCCcore-12.3.0
 16) OpenMPI/4.1.5-GCC-12.3.0          33) libreadline/8.2-GCCcore-12.3.0
 17) gompi/2023a

 


Current environment variables
-----------------------------
HYDRA_LAUNCHER_EXTRA_ARGS=--external-launcher
LC_ALL=en_GB.UTF-8
LD_LIBRARY_PATH=/eb/x86_64/software/libreadline/8.2-GCCcore-12.3.0/lib:/eb/x86_64/software/ncurses/6.4-GCCcore-12.3.0/lib:/eb/x86_64/software/CUDA/12.4.0/nvvm/lib64:/eb/x86_64/software/CUDA/12.4.0/extras/CUPTI/lib64:/eb/x86_64/software/CUDA/12.4.0/lib:/eb/x86_64/software/FFTW/3.3.10-GCC-12.3.0/lib:/eb/x86_64/software/netCDF-Fortran/4.6.1-gompi-2023a/lib:/eb/x86_64/software/netCDF/4.9.2-gompi-2023a/lib:/eb/x86_64/software/bzip2/1.0.8-GCCcore-12.3.0/lib:/eb/x86_64/software/zstd/1.5.5-GCCcore-12.3.0/lib:/eb/x86_64/software/lz4/1.9.4-GCCcore-12.3.0/lib:/eb/x86_64/software/cURL/8.0.1-GCCcore-12.3.0/lib:/eb/x86_64/software/HDF5/1.14.0-gompi-2023a/lib:/eb/x86_64/software/Szip/2.1.1-GCCcore-12.3.0/lib:/eb/x86_64/software/ScaLAPACK/2.2.0-gompi-2023a-fb/lib:/eb/x86_64/software/FlexiBLAS/3.3.1-GCC-12.3.0/lib:/eb/x86_64/software/OpenBLAS/0.3.23-GCC-12.3.0/lib:/eb/x86_64/software/OpenMPI/4.1.5-GCC-12.3.0/lib:/eb/x86_64/software/UCC/1.2.0-GCCcore-12.3.0/lib:/eb/x86_64/software/PMIx/4.2.4-GCCcore-12.3.0/lib:/eb/x86_64/software/libfabric/1.18.0-GCCcore-12.3.0/lib:/eb/x86_64/software/UCX/1.14.1-GCCcore-12.3.0/lib:/eb/x86_64/software/libevent/2.1.12-GCCcore-12.3.0/lib:/eb/x86_64/software/OpenSSL/1.1/lib:/eb/x86_64/software/hwloc/2.9.1-GCCcore-12.3.0/lib:/eb/x86_64/software/libpciaccess/0.17-GCCcore-12.3.0/lib:/eb/x86_64/software/libxml2/2.11.4-GCCcore-12.3.0/lib:/eb/x86_64/software/XZ/5.4.2-GCCcore-12.3.0/lib:/eb/x86_64/software/numactl/2.0.16-GCCcore-12.3.0/lib:/eb/x86_64/software/binutils/2.40-GCCcore-12.3.0/lib:/eb/x86_64/software/zlib/1.2.13-GCCcore-12.3.0/lib:/eb/x86_64/software/GCCcore/12.3.0/lib64::/projects/EEHPC-BEN-2024B07-051/elpa-gpu-gnu/lib:
LS_COLORS=rs=0:di=38;5;33:ln=38;5;51:mh=00:pi=40;38;5;11:so=38;5;13:do=38;5;5:bd=48;5;232;38;5;11:cd=48;5;232;38;5;3:or=48;5;232;38;5;9:mi=01;05;37;41:su=48;5;196;38;5;15:sg=48;5;11;38;5;16:ca=48;5;196;38;5;226:tw=48;5;10;38;5;16:ow=48;5;10;38;5;21:st=48;5;21;38;5;15:ex=38;5;40:*.tar=38;5;9:*.tgz=38;5;9:*.arc=38;5;9:*.arj=38;5;9:*.taz=38;5;9:*.lha=38;5;9:*.lz4=38;5;9:*.lzh=38;5;9:*.lzma=38;5;9:*.tlz=38;5;9:*.txz=38;5;9:*.tzo=38;5;9:*.t7z=38;5;9:*.zip=38;5;9:*.z=38;5;9:*.dz=38;5;9:*.gz=38;5;9:*.lrz=38;5;9:*.lz=38;5;9:*.lzo=38;5;9:*.xz=38;5;9:*.zst=38;5;9:*.tzst=38;5;9:*.bz2=38;5;9:*.bz=38;5;9:*.tbz=38;5;9:*.tbz2=38;5;9:*.tz=38;5;9:*.deb=38;5;9:*.rpm=38;5;9:*.jar=38;5;9:*.war=38;5;9:*.ear=38;5;9:*.sar=38;5;9:*.rar=38;5;9:*.alz=38;5;9:*.ace=38;5;9:*.zoo=38;5;9:*.cpio=38;5;9:*.7z=38;5;9:*.rz=38;5;9:*.cab=38;5;9:*.wim=38;5;9:*.swm=38;5;9:*.dwm=38;5;9:*.esd=38;5;9:*.jpg=38;5;13:*.jpeg=38;5;13:*.mjpg=38;5;13:*.mjpeg=38;5;13:*.gif=38;5;13:*.bmp=38;5;13:*.pbm=38;5;13:*.pgm=38;5;13:*.ppm=38;5;13:*.tga=38;5;13:*.xbm=38;5;13:*.xpm=38;5;13:*.tif=38;5;13:*.tiff=38;5;13:*.png=38;5;13:*.svg=38;5;13:*.svgz=38;5;13:*.mng=38;5;13:*.pcx=38;5;13:*.mov=38;5;13:*.mpg=38;5;13:*.mpeg=38;5;13:*.m2v=38;5;13:*.mkv=38;5;13:*.webm=38;5;13:*.ogm=38;5;13:*.mp4=38;5;13:*.m4v=38;5;13:*.mp4v=38;5;13:*.vob=38;5;13:*.qt=38;5;13:*.nuv=38;5;13:*.wmv=38;5;13:*.asf=38;5;13:*.rm=38;5;13:*.rmvb=38;5;13:*.flc=38;5;13:*.avi=38;5;13:*.fli=38;5;13:*.flv=38;5;13:*.gl=38;5;13:*.dl=38;5;13:*.xcf=38;5;13:*.xwd=38;5;13:*.yuv=38;5;13:*.cgm=38;5;13:*.emf=38;5;13:*.ogv=38;5;13:*.ogx=38;5;13:*.aac=38;5;45:*.au=38;5;45:*.flac=38;5;45:*.m4a=38;5;45:*.mid=38;5;45:*.midi=38;5;45:*.mka=38;5;45:*.mp3=38;5;45:*.mpc=38;5;45:*.ogg=38;5;45:*.ra=38;5;45:*.wav=38;5;45:*.oga=38;5;45:*.opus=38;5;45:*.spx=38;5;45:*.xspf=38;5;45:
EBVERSIONXZ=5.4.2
J4M_ACCOUNT=eehpc-ben-2024b07-051g
_ModuleTable017_=MDAwMDAwMDIuMDAwMDAwMDAxLjAwMDAwMDAxMi4qZ2NjY29yZS4qemZpbmFsLS4wMDAwMDAwMTIuMDAwMDAwMDAzLip6ZmluYWwiLAp9LApsaWJmYWJyaWMgPSB7CmZuID0gIi9lYi94ODZfNjQvbW9kdWxlcy9hbGwvbGliZmFicmljLzEuMTguMC1HQ0Njb3JlLTEyLjMuMC5sdWEiLApmdWxsTmFtZSA9ICJsaWJmYWJyaWMvMS4xOC4wLUdDQ2NvcmUtMTIuMy4wIiwKbG9hZE9yZGVyID0gMTMsCnByb3BUID0ge30sCnN0YWNrRGVwdGggPSAzLApzdGF0dXMgPSAiYWN0aXZlIiwKdXNlck5hbWUgPSAibGliZmFicmljLzEuMTguMC1HQ0Njb3JlLTEyLjMuMCIsCndWID0gIjAwMDAwMDAwMS4wMDAwMDAwMTguKmdjY2NvcmUuKnpmaW5hbC0uMDAwMDAwMDEyLjAwMDAwMDAwMy4qemZp
EBROOTBINUTILS=/eb/x86_64/software/binutils/2.40-GCCcore-12.3.0
SLURM_NODEID=0
EBVERSIONPMIX=4.2.4
EBDEVELSZIP=/eb/x86_64/software/Szip/2.1.1-GCCcore-12.3.0/easybuild/Szip-2.1.1-GCCcore-12.3.0-easybuild-devel
SLURM_TASK_PID=186212
__LMOD_REF_COUNT_PATH=/eb/x86_64/software/ncurses/6.4-GCCcore-12.3.0/bin:1;/eb/x86_64/software/CUDA/12.4.0/nvvm/bin:1;/eb/x86_64/software/CUDA/12.4.0/bin:1;/eb/x86_64/software/FFTW/3.3.10-GCC-12.3.0/bin:1;/eb/x86_64/software/netCDF-Fortran/4.6.1-gompi-2023a/bin:1;/eb/x86_64/software/netCDF/4.9.2-gompi-2023a/bin:1;/eb/x86_64/software/bzip2/1.0.8-GCCcore-12.3.0/bin:1;/eb/x86_64/software/zstd/1.5.5-GCCcore-12.3.0/bin:1;/eb/x86_64/software/lz4/1.9.4-GCCcore-12.3.0/bin:1;/eb/x86_64/software/gzip/1.12-GCCcore-12.3.0/bin:1;/eb/x86_64/software/cURL/8.0.1-GCCcore-12.3.0/bin:1;/eb/x86_64/software/HDF5/1.14.0-gompi-2023a/bin:1;/eb/x86_64/software/FlexiBLAS/3.3.1-GCC-12.3.0/bin:1;/eb/x86_64/software/OpenMPI/4.1.5-GCC-12.3.0/bin:1;/eb/x86_64/software/UCC/1.2.0-GCCcore-12.3.0/bin:1;/eb/x86_64/software/PMIx/4.2.4-GCCcore-12.3.0/bin:1;/eb/x86_64/software/libfabric/1.18.0-GCCcore-12.3.0/bin:1;/eb/x86_64/software/UCX/1.14.1-GCCcore-12.3.0/bin:1;/eb/x86_64/software/libevent/2.1.12-GCCcore-12.3.0/bin:1;/eb/x86_64/software/OpenSSL/1.1/bin:1;/eb/x86_64/software/hwloc/2.9.1-GCCcore-12.3.0/sbin:1;/eb/x86_64/software/hwloc/2.9.1-GCCcore-12.3.0/bin:1;/eb/x86_64/software/libxml2/2.11.4-GCCcore-12.3.0/bin:1;/eb/x86_64/software/XZ/5.4.2-GCCcore-12.3.0/bin:1;/eb/x86_64/software/numactl/2.0.16-GCCcore-12.3.0/bin:1;/eb/x86_64/software/binutils/2.40-GCCcore-12.3.0/bin:1;/eb/x86_64/software/GCCcore/12.3.0/bin:1;/home/aalcaraz/.local/bin:1;/home/aalcaraz/bin:1;/usr/local/bin:1;/usr/bin:1;/usr/local/sbin:1;/usr/sbin:1
EBVERSIONCUDA=12.4.0
_ModuleTable002_=IiwKZnVsbE5hbWUgPSAiRkZUVy8zLjMuMTAtR0NDLTEyLjMuMCIsCmxvYWRPcmRlciA9IDMwLApwcm9wVCA9IHt9LApzdGFja0RlcHRoID0gMCwKc3RhdHVzID0gImFjdGl2ZSIsCnVzZXJOYW1lID0gIkZGVFcvMy4zLjEwLUdDQy0xMi4zLjAiLAp3ViA9ICIwMDAwMDAwMDMuMDAwMDAwMDAzLjAwMDAwMDAxMC4qZ2NjLip6ZmluYWwtLjAwMDAwMDAxMi4wMDAwMDAwMDMuKnpmaW5hbCIsCn0sCkZsZXhpQkxBUyA9IHsKZm4gPSAiL2ViL3g4Nl82NC9tb2R1bGVzL2FsbC9GbGV4aUJMQVMvMy4zLjEtR0NDLTEyLjMuMC5sdWEiLApmdWxsTmFtZSA9ICJGbGV4aUJMQVMvMy4zLjEtR0NDLTEyLjMuMCIsCmxvYWRPcmRlciA9IDE5LApwcm9wVCA9IHt9LApzdGFja0RlcHRoID0gMSwK
SSH_CONNECTION=172.16.20.20 57366 172.16.20.1 22
SLURM_PRIO_PROCESS=0
EBVERSIONCURL=8.0.1
GOTO_NUM_THREADS=1
EBVERSIONNUMACTL=2.0.16
EBROOTOPENBLAS=/eb/x86_64/software/OpenBLAS/0.3.23-GCC-12.3.0
I_MPI_HYDRA_BOOTSTRAP_EXEC_EXTRA_ARGS=--external-launcher
EBVERSIONSCALAPACK=2.2.0
LANG=en_GB.UTF-8
EBROOTGCC=/eb/x86_64/software/GCCcore/12.3.0
_ModuleTable019_=OC4yLUdDQ2NvcmUtMTIuMy4wLmx1YSIsCmZ1bGxOYW1lID0gImxpYnJlYWRsaW5lLzguMi1HQ0Njb3JlLTEyLjMuMCIsCmxvYWRPcmRlciA9IDMzLApwcm9wVCA9IHt9LApzdGFja0RlcHRoID0gMCwKc3RhdHVzID0gImFjdGl2ZSIsCnVzZXJOYW1lID0gImxpYnJlYWRsaW5lLzguMi1HQ0Njb3JlLTEyLjMuMCIsCndWID0gIjAwMDAwMDAwOC4wMDAwMDAwMDIuKmdjY2NvcmUuKnpmaW5hbC0uMDAwMDAwMDEyLjAwMDAwMDAwMy4qemZpbmFsIiwKfSwKbGlieG1sMiA9IHsKZm4gPSAiL2ViL3g4Nl82NC9tb2R1bGVzL2FsbC9saWJ4bWwyLzIuMTEuNC1HQ0Njb3JlLTEyLjMuMC5sdWEiLApmdWxsTmFtZSA9ICJsaWJ4bWwyLzIuMTEuNC1HQ0Njb3JlLTEyLjMuMCIsCmxvYWRPcmRl
SLURM_SUBMIT_DIR=/projects/EEHPC-BEN-2024B07-051/JUBE4MaX_GPU/max-inputs/interface/siesta/_CovidWeakKPoints/000000/000000_submit/work
HISTCONTROL=ignoredups
_ModuleTable008_=bC0uMDAwMDAwMDEyLjAwMDAwMDAwMy4qemZpbmFsIiwKfSwKU2NhTEFQQUNLID0gewpmbiA9ICIvZWIveDg2XzY0L21vZHVsZXMvYWxsL1NjYUxBUEFDSy8yLjIuMC1nb21waS0yMDIzYS1mYi5sdWEiLApmdWxsTmFtZSA9ICJTY2FMQVBBQ0svMi4yLjAtZ29tcGktMjAyM2EtZmIiLApsb2FkT3JkZXIgPSAyMCwKcHJvcFQgPSB7fSwKc3RhY2tEZXB0aCA9IDAsCnN0YXR1cyA9ICJhY3RpdmUiLAp1c2VyTmFtZSA9ICJTY2FMQVBBQ0svMi4yLjAtZ29tcGktMjAyM2EtZmIiLAp3ViA9ICIwMDAwMDAwMDIuMDAwMDAwMDAyLipnb21waS4qemZpbmFsLS4wMDAwMDIwMjMuKmEuKmZiLip6ZmluYWwiLAp9LApTemlwID0gewpmbiA9ICIvZWIveDg2XzY0L21vZHVsZXMvYWxsL1N6aXAv
EBROOTFLEXIBLAS=/eb/x86_64/software/FlexiBLAS/3.3.1-GCC-12.3.0
OMPI_MCA_plm_slurm_args=--external-launcher
MODULERCFILE=/share/apps-x86/ohpc/easybuild/modules-ui-v0/modulerc.lua
EBVERSIONGOMPI=2023a
HOSTNAME=gnx513
OPENBLAS_NUM_THREADS=1
OLDPWD=/projects/EEHPC-BEN-2024B07-051/JUBE4MaX
EBDEVELNUMACTL=/eb/x86_64/software/numactl/2.0.16-GCCcore-12.3.0/easybuild/numactl-2.0.16-GCCcore-12.3.0-easybuild-devel
__LMOD_REF_COUNT__LMFILES_=/eb/x86_64/modules/all/GCCcore/12.3.0.lua:1;/eb/x86_64/modules/all/zlib/1.2.13-GCCcore-12.3.0.lua:1;/eb/x86_64/modules/all/binutils/2.40-GCCcore-12.3.0.lua:1;/eb/x86_64/modules/all/GCC/12.3.0.lua:1;/eb/x86_64/modules/all/numactl/2.0.16-GCCcore-12.3.0.lua:1;/eb/x86_64/modules/all/XZ/5.4.2-GCCcore-12.3.0.lua:1;/eb/x86_64/modules/all/libxml2/2.11.4-GCCcore-12.3.0.lua:1;/eb/x86_64/modules/all/libpciaccess/0.17-GCCcore-12.3.0.lua:1;/eb/x86_64/modules/all/hwloc/2.9.1-GCCcore-12.3.0.lua:1;/eb/x86_64/modules/all/OpenSSL/1.1.lua:1;/eb/x86_64/modules/all/libevent/2.1.12-GCCcore-12.3.0.lua:1;/eb/x86_64/modules/all/UCX/1.14.1-GCCcore-12.3.0.lua:1;/eb/x86_64/modules/all/libfabric/1.18.0-GCCcore-12.3.0.lua:1;/eb/x86_64/modules/all/PMIx/4.2.4-GCCcore-12.3.0.lua:1;/eb/x86_64/modules/all/UCC/1.2.0-GCCcore-12.3.0.lua:1;/eb/x86_64/modules/all/OpenMPI/4.1.5-GCC-12.3.0.lua:1;/eb/x86_64/modules/all/gompi/2023a.lua:1;/eb/x86_64/modules/all/OpenBLAS/0.3.23-GCC-12.3.0.lua:1;/eb/x86_64/modules/all/FlexiBLAS/3.3.1-GCC-12.3.0.lua:1;/eb/x86_64/modules/all/ScaLAPACK/2.2.0-gompi-2023a-fb.lua:1;/eb/x86_64/modules/all/Szip/2.1.1-GCCcore-12.3.0.lua:1;/eb/x86_64/modules/all/HDF5/1.14.0-gompi-2023a.lua:1;/eb/x86_64/modules/all/cURL/8.0.1-GCCcore-12.3.0.lua:1;/eb/x86_64/modules/all/gzip/1.12-GCCcore-12.3.0.lua:1;/eb/x86_64/modules/all/lz4/1.9.4-GCCcore-12.3.0.lua:1;/eb/x86_64/modules/all/zstd/1.5.5-GCCcore-12.3.0.lua:1;/eb/x86_64/modules/all/bzip2/1.0.8-GCCcore-12.3.0.lua:1;/eb/x86_64/modules/all/netCDF/4.9.2-gompi-2023a.lua:1;/eb/x86_64/modules/all/netCDF-Fortran/4.6.1-gompi-2023a.lua:1;/eb/x86_64/modules/all/FFTW/3.3.10-GCC-12.3.0.lua:1;/eb/x86_64/modules/all/CUDA/12.4.0.lua:1;/eb/x86_64/modules/all/ncurses/6.4-GCCcore-12.3.0.lua:1;/eb/x86_64/modules/all/libreadline/8.2-GCCcore-12.3.0.lua:1
J4M_BIN_PATH=/projects/EEHPC-BEN-2024B07-051/siesta_elpa/_siesta_bin_gnu_gpu/bin/
EBVERSIONZSTD=1.5.5
OMP_PROC_BIND=true
ENVIRONMENT=BATCH
EBDEVELBZIP2=/eb/x86_64/software/bzip2/1.0.8-GCCcore-12.3.0/easybuild/bzip2-1.0.8-GCCcore-12.3.0-easybuild-devel
__LMOD_SET_FPATH=1
EBDEVELNETCDF=/eb/x86_64/software/netCDF/4.9.2-gompi-2023a/easybuild/netCDF-4.9.2-gompi-2023a-easybuild-devel
__LMOD_REF_COUNT_XDG_DATA_DIRS=/eb/x86_64/software/libreadline/8.2-GCCcore-12.3.0/share:1;/eb/x86_64/software/ncurses/6.4-GCCcore-12.3.0/share:1;/eb/x86_64/software/CUDA/12.4.0/share:1;/eb/x86_64/software/FFTW/3.3.10-GCC-12.3.0/share:1;/eb/x86_64/software/netCDF-Fortran/4.6.1-gompi-2023a/share:1;/eb/x86_64/software/netCDF/4.9.2-gompi-2023a/share:1;/eb/x86_64/software/zstd/1.5.5-GCCcore-12.3.0/share:1;/eb/x86_64/software/lz4/1.9.4-GCCcore-12.3.0/share:1;/eb/x86_64/software/gzip/1.12-GCCcore-12.3.0/share:1;/eb/x86_64/software/cURL/8.0.1-GCCcore-12.3.0/share:1;/eb/x86_64/software/HDF5/1.14.0-gompi-2023a/share:1;/eb/x86_64/software/FlexiBLAS/3.3.1-GCC-12.3.0/share:1;/eb/x86_64/software/OpenMPI/4.1.5-GCC-12.3.0/share:1;/eb/x86_64/software/PMIx/4.2.4-GCCcore-12.3.0/share:1;/eb/x86_64/software/libfabric/1.18.0-GCCcore-12.3.0/share:1;/eb/x86_64/software/UCX/1.14.1-GCCcore-12.3.0/share:1;/eb/x86_64/software/hwloc/2.9.1-GCCcore-12.3.0/share:1;/eb/x86_64/software/libxml2/2.11.4-GCCcore-12.3.0/share:1;/eb/x86_64/software/XZ/5.4.2-GCCcore-12.3.0/share:1;/eb/x86_64/software/numactl/2.0.16-GCCcore-12.3.0/share:1;/eb/x86_64/software/binutils/2.40-GCCcore-12.3.0/share:1;/eb/x86_64/software/zlib/1.2.13-GCCcore-12.3.0/share:1;/eb/x86_64/software/GCCcore/12.3.0/share:1
EBVERSIONOPENMPI=4.1.5
CUDA_PATH=/eb/x86_64/software/CUDA/12.4.0
FPATH=/opt/ohpc/admin/lmod/lmod/init/ksh_funcs
EBROOTNCURSES=/eb/x86_64/software/ncurses/6.4-GCCcore-12.3.0
_ModuleTable007_=ciA9IDEwLApwcm9wVCA9IHt9LApzdGFja0RlcHRoID0gNCwKc3RhdHVzID0gImFjdGl2ZSIsCnVzZXJOYW1lID0gIk9wZW5TU0wvMS4xIiwKd1YgPSAiMDAwMDAwMDAxLjAwMDAwMDAwMS4qemZpbmFsIiwKfSwKUE1JeCA9IHsKZm4gPSAiL2ViL3g4Nl82NC9tb2R1bGVzL2FsbC9QTUl4LzQuMi40LUdDQ2NvcmUtMTIuMy4wLmx1YSIsCmZ1bGxOYW1lID0gIlBNSXgvNC4yLjQtR0NDY29yZS0xMi4zLjAiLApsb2FkT3JkZXIgPSAxNCwKcHJvcFQgPSB7fSwKc3RhY2tEZXB0aCA9IDMsCnN0YXR1cyA9ICJhY3RpdmUiLAp1c2VyTmFtZSA9ICJQTUl4LzQuMi40LUdDQ2NvcmUtMTIuMy4wIiwKd1YgPSAiMDAwMDAwMDA0LjAwMDAwMDAwMi4wMDAwMDAwMDQuKmdjY2NvcmUuKnpmaW5h
EBDEVELLIBEVENT=/eb/x86_64/software/libevent/2.1.12-GCCcore-12.3.0/easybuild/libevent-2.1.12-GCCcore-12.3.0-easybuild-devel
EBVERSIONOPENBLAS=0.3.23
_ModuleTable026_=LAp9LAp9LAptcGF0aEEgPSB7CiIvZWIveDg2XzY0L21vZHVsZXMvYWxsIgosICIvc2hhcmUvYXBwcy14ODYvb2hwYy9lYXN5YnVpbGQvaHBjeC92Mi4xMy4xLWdjYy1NTE5YX09GRURfTElOVVgtNS1yZWRoYXQ4LWN1ZGExMS1nZHJjb3B5Mi1uY2NsMi4xMi14ODZfNjQvbW9kdWxlZmlsZXMiCiwgIi9zaGFyZS9hcHBzLXg4Ni9vaHBjL2Vhc3lidWlsZC9zb2Z0d2FyZS9jb21tb24vbW9kdWxlcy9hbGwiCiwgIi9zaGFyZS9hcHBzLWFybS9GSlNWL21vZHVsZWZpbGVzIiwgIi9ldGMvc2NsL21vZHVsZWZpbGVzIiwgIi9vcHQvb2hwYy9wdWIvbW9kdWxlZmlsZXMiLAp9LApzeXN0ZW1CYXNlTVBBVEggPSAiL29wdC9vaHBjL3B1Yi9tb2R1bGVmaWxlcyIsCn0K
EBROOTGOMPI=/eb/x86_64/software/gompi/2023a
SLURM_PROCID=0
SLURM_JOB_GID=40093
EBROOTOPENMPI=/eb/x86_64/software/OpenMPI/4.1.5-GCC-12.3.0
I_MPI_HYDRA_BOOTSTRAP=slurm
LMOD_RC=/share/apps-x86/ohpc/easybuild/modules-ui-v0/lmodrc.lua
__LMOD_REF_COUNT_LD_LIBRARY_PATH=/eb/x86_64/software/libreadline/8.2-GCCcore-12.3.0/lib:1;/eb/x86_64/software/ncurses/6.4-GCCcore-12.3.0/lib:1;/eb/x86_64/software/CUDA/12.4.0/nvvm/lib64:1;/eb/x86_64/software/CUDA/12.4.0/extras/CUPTI/lib64:1;/eb/x86_64/software/CUDA/12.4.0/lib:1;/eb/x86_64/software/FFTW/3.3.10-GCC-12.3.0/lib:1;/eb/x86_64/software/netCDF-Fortran/4.6.1-gompi-2023a/lib:1;/eb/x86_64/software/netCDF/4.9.2-gompi-2023a/lib:1;/eb/x86_64/software/bzip2/1.0.8-GCCcore-12.3.0/lib:1;/eb/x86_64/software/zstd/1.5.5-GCCcore-12.3.0/lib:1;/eb/x86_64/software/lz4/1.9.4-GCCcore-12.3.0/lib:1;/eb/x86_64/software/cURL/8.0.1-GCCcore-12.3.0/lib:1;/eb/x86_64/software/HDF5/1.14.0-gompi-2023a/lib:1;/eb/x86_64/software/Szip/2.1.1-GCCcore-12.3.0/lib:1;/eb/x86_64/software/ScaLAPACK/2.2.0-gompi-2023a-fb/lib:1;/eb/x86_64/software/FlexiBLAS/3.3.1-GCC-12.3.0/lib:1;/eb/x86_64/software/OpenBLAS/0.3.23-GCC-12.3.0/lib:1;/eb/x86_64/software/OpenMPI/4.1.5-GCC-12.3.0/lib:1;/eb/x86_64/software/UCC/1.2.0-GCCcore-12.3.0/lib:1;/eb/x86_64/software/PMIx/4.2.4-GCCcore-12.3.0/lib:1;/eb/x86_64/software/libfabric/1.18.0-GCCcore-12.3.0/lib:1;/eb/x86_64/software/UCX/1.14.1-GCCcore-12.3.0/lib:1;/eb/x86_64/software/libevent/2.1.12-GCCcore-12.3.0/lib:1;/eb/x86_64/software/OpenSSL/1.1/lib:1;/eb/x86_64/software/hwloc/2.9.1-GCCcore-12.3.0/lib:1;/eb/x86_64/software/libpciaccess/0.17-GCCcore-12.3.0/lib:1;/eb/x86_64/software/libxml2/2.11.4-GCCcore-12.3.0/lib:1;/eb/x86_64/software/XZ/5.4.2-GCCcore-12.3.0/lib:1;/eb/x86_64/software/numactl/2.0.16-GCCcore-12.3.0/lib:1;/eb/x86_64/software/binutils/2.40-GCCcore-12.3.0/lib:1;/eb/x86_64/software/zlib/1.2.13-GCCcore-12.3.0/lib:1;/eb/x86_64/software/GCCcore/12.3.0/lib64:1;/projects/EEHPC-BEN-2024B07-051/elpa-gpu-gnu/lib:1
__LMOD_REF_COUNT_PKG_CONFIG_PATH=/eb/x86_64/software/libreadline/8.2-GCCcore-12.3.0/lib/pkgconfig:1;/eb/x86_64/software/CUDA/12.4.0/pkgconfig:1;/eb/x86_64/software/FFTW/3.3.10-GCC-12.3.0/lib/pkgconfig:1;/eb/x86_64/software/netCDF-Fortran/4.6.1-gompi-2023a/lib/pkgconfig:1;/eb/x86_64/software/netCDF/4.9.2-gompi-2023a/lib/pkgconfig:1;/eb/x86_64/software/bzip2/1.0.8-GCCcore-12.3.0/lib/pkgconfig:1;/eb/x86_64/software/zstd/1.5.5-GCCcore-12.3.0/lib/pkgconfig:1;/eb/x86_64/software/lz4/1.9.4-GCCcore-12.3.0/lib/pkgconfig:1;/eb/x86_64/software/cURL/8.0.1-GCCcore-12.3.0/lib/pkgconfig:1;/eb/x86_64/software/HDF5/1.14.0-gompi-2023a/lib/pkgconfig:1;/eb/x86_64/software/ScaLAPACK/2.2.0-gompi-2023a-fb/lib/pkgconfig:1;/eb/x86_64/software/FlexiBLAS/3.3.1-GCC-12.3.0/lib/pkgconfig:1;/eb/x86_64/software/OpenBLAS/0.3.23-GCC-12.3.0/lib/pkgconfig:1;/eb/x86_64/software/OpenMPI/4.1.5-GCC-12.3.0/lib/pkgconfig:1;/eb/x86_64/software/PMIx/4.2.4-GCCcore-12.3.0/lib/pkgconfig:1;/eb/x86_64/software/libfabric/1.18.0-GCCcore-12.3.0/lib/pkgconfig:1;/eb/x86_64/software/UCX/1.14.1-GCCcore-12.3.0/lib/pkgconfig:1;/eb/x86_64/software/libevent/2.1.12-GCCcore-12.3.0/lib/pkgconfig:1;/eb/x86_64/software/OpenSSL/1.1/lib/pkgconfig:1;/eb/x86_64/software/hwloc/2.9.1-GCCcore-12.3.0/lib/pkgconfig:1;/eb/x86_64/software/libpciaccess/0.17-GCCcore-12.3.0/lib/pkgconfig:1;/eb/x86_64/software/libxml2/2.11.4-GCCcore-12.3.0/lib/pkgconfig:1;/eb/x86_64/software/XZ/5.4.2-GCCcore-12.3.0/lib/pkgconfig:1;/eb/x86_64/software/numactl/2.0.16-GCCcore-12.3.0/lib/pkgconfig:1;/eb/x86_64/software/zlib/1.2.13-GCCcore-12.3.0/lib/pkgconfig:1;/projects/EEHPC-BEN-2024B07-051/elpa-gpu-gnu/lib/pkgconfig:1
SLURM_CPU_BIND=32,33,34,35,36,37,38,39,40,41,42,43,44,45,46,47,96,97,98,99,100,101,102,103,104,105,106,107,108,109,110,111
EBVERSIONHDF5=1.14.0
SLURMD_NODENAME=gnx513
_ModuleTable024_=IHt9LApzdGFja0RlcHRoID0gNCwKc3RhdHVzID0gImFjdGl2ZSIsCnVzZXJOYW1lID0gIm51bWFjdGwvMi4wLjE2LUdDQ2NvcmUtMTIuMy4wIiwKd1YgPSAiMDAwMDAwMDAyLjAwMDAwMDAwMC4wMDAwMDAwMTYuKmdjY2NvcmUuKnpmaW5hbC0uMDAwMDAwMDEyLjAwMDAwMDAwMy4qemZpbmFsIiwKfSwKemxpYiA9IHsKZm4gPSAiL2ViL3g4Nl82NC9tb2R1bGVzL2FsbC96bGliLzEuMi4xMy1HQ0Njb3JlLTEyLjMuMC5sdWEiLApmdWxsTmFtZSA9ICJ6bGliLzEuMi4xMy1HQ0Njb3JlLTEyLjMuMCIsCmxvYWRPcmRlciA9IDIsCnByb3BUID0ge30sCnN0YWNrRGVwdGggPSA0LApzdGF0dXMgPSAiYWN0aXZlIiwKdXNlck5hbWUgPSAiemxpYi8xLjIuMTMtR0NDY29yZS0xMi4zLjAi
EBROOTGCCCORE=/eb/x86_64/software/GCCcore/12.3.0
_ModuleTable015_=MC5sdWEiLApmdWxsTmFtZSA9ICJnemlwLzEuMTItR0NDY29yZS0xMi4zLjAiLApsb2FkT3JkZXIgPSAyNCwKcHJvcFQgPSB7fSwKc3RhY2tEZXB0aCA9IDMsCnN0YXR1cyA9ICJhY3RpdmUiLAp1c2VyTmFtZSA9ICJnemlwLzEuMTItR0NDY29yZS0xMi4zLjAiLAp3ViA9ICIwMDAwMDAwMDEuMDAwMDAwMDEyLipnY2Njb3JlLip6ZmluYWwtLjAwMDAwMDAxMi4wMDAwMDAwMDMuKnpmaW5hbCIsCn0sCmh3bG9jID0gewpmbiA9ICIvZWIveDg2XzY0L21vZHVsZXMvYWxsL2h3bG9jLzIuOS4xLUdDQ2NvcmUtMTIuMy4wLmx1YSIsCmZ1bGxOYW1lID0gImh3bG9jLzIuOS4xLUdDQ2NvcmUtMTIuMy4wIiwKbG9hZE9yZGVyID0gOSwKcHJvcFQgPSB7fSwKc3RhY2tEZXB0aCA9IDMsCnN0
SLURM_JOB_END_TIME=1728047593
EBROOTSCALAPACK=/eb/x86_64/software/ScaLAPACK/2.2.0-gompi-2023a-fb
_ModuleTable004_=L2FsbC9HQ0Njb3JlLzEyLjMuMC5sdWEiLApmdWxsTmFtZSA9ICJHQ0Njb3JlLzEyLjMuMCIsCmxvYWRPcmRlciA9IDEsCnByb3BUID0ge30sCnN0YWNrRGVwdGggPSAzLApzdGF0dXMgPSAiYWN0aXZlIiwKdXNlck5hbWUgPSAiR0NDY29yZS8xMi4zLjAiLAp3ViA9ICIwMDAwMDAwMTIuMDAwMDAwMDAzLip6ZmluYWwiLAp9LApIREY1ID0gewpmbiA9ICIvZWIveDg2XzY0L21vZHVsZXMvYWxsL0hERjUvMS4xNC4wLWdvbXBpLTIwMjNhLmx1YSIsCmZ1bGxOYW1lID0gIkhERjUvMS4xNC4wLWdvbXBpLTIwMjNhIiwKbG9hZE9yZGVyID0gMjIsCnByb3BUID0ge30sCnN0YWNrRGVwdGggPSAyLApzdGF0dXMgPSAiYWN0aXZlIiwKdXNlck5hbWUgPSAiSERGNS8xLjE0LjAtZ29tcGkt
EBVERSIONLIBEVENT=2.1.12
SLURM_TASKS_PER_NODE=32
EBVERSIONGCC=12.3.0
PRTE_MCA_plm_slurm_args=--external-launcher
which_declare=declare -f
EBVERSIONUCX=1.14.1
EBDEVELXZ=/eb/x86_64/software/XZ/5.4.2-GCCcore-12.3.0/easybuild/XZ-5.4.2-GCCcore-12.3.0-easybuild-devel
EBDEVELHWLOC=/eb/x86_64/software/hwloc/2.9.1-GCCcore-12.3.0/easybuild/hwloc-2.9.1-GCCcore-12.3.0-easybuild-devel
EBVERSIONLIBFABRIC=1.18.0
EBVERSIONUCC=1.2.0
EBROOTZLIB=/eb/x86_64/software/zlib/1.2.13-GCCcore-12.3.0
XDG_SESSION_ID=45055
SLURM_NNODES=1
USER=aalcaraz
EBDEVELLIBXML2=/eb/x86_64/software/libxml2/2.11.4-GCCcore-12.3.0/easybuild/libxml2-2.11.4-GCCcore-12.3.0-easybuild-devel
EBVERSIONHWLOC=2.9.1
__LMOD_REF_COUNT_CMAKE_LIBRARY_PATH=/eb/x86_64/software/GCCcore/12.3.0/lib64:1
_ModuleTable023_=bHVhIiwKZnVsbE5hbWUgPSAibmV0Q0RGLUZvcnRyYW4vNC42LjEtZ29tcGktMjAyM2EiLApsb2FkT3JkZXIgPSAyOSwKcHJvcFQgPSB7fSwKc3RhY2tEZXB0aCA9IDAsCnN0YXR1cyA9ICJhY3RpdmUiLAp1c2VyTmFtZSA9ICJuZXRDREYtRm9ydHJhbi80LjYuMS1nb21waS0yMDIzYSIsCndWID0gIjAwMDAwMDAwNC4wMDAwMDAwMDYuMDAwMDAwMDAxLipnb21waS4qemZpbmFsLS4wMDAwMDIwMjMuKmEuKnpmaW5hbCIsCn0sCm51bWFjdGwgPSB7CmZuID0gIi9lYi94ODZfNjQvbW9kdWxlcy9hbGwvbnVtYWN0bC8yLjAuMTYtR0NDY29yZS0xMi4zLjAubHVhIiwKZnVsbE5hbWUgPSAibnVtYWN0bC8yLjAuMTYtR0NDY29yZS0xMi4zLjAiLApsb2FkT3JkZXIgPSA1LApwcm9wVCA9
_ModuleTable012_=L2ViL3g4Nl82NC9tb2R1bGVzL2FsbC9iaW51dGlscy8yLjQwLUdDQ2NvcmUtMTIuMy4wLmx1YSIsCmZ1bGxOYW1lID0gImJpbnV0aWxzLzIuNDAtR0NDY29yZS0xMi4zLjAiLApsb2FkT3JkZXIgPSAzLApwcm9wVCA9IHt9LApzdGFja0RlcHRoID0gMywKc3RhdHVzID0gImFjdGl2ZSIsCnVzZXJOYW1lID0gImJpbnV0aWxzLzIuNDAtR0NDY29yZS0xMi4zLjAiLAp3ViA9ICIwMDAwMDAwMDIuMDAwMDAwMDQwLipnY2Njb3JlLip6ZmluYWwtLjAwMDAwMDAxMi4wMDAwMDAwMDMuKnpmaW5hbCIsCn0sCmJ6aXAyID0gewpmbiA9ICIvZWIveDg2XzY0L21vZHVsZXMvYWxsL2J6aXAyLzEuMC44LUdDQ2NvcmUtMTIuMy4wLmx1YSIsCmZ1bGxOYW1lID0gImJ6aXAyLzEuMC44LUdDQ2Nv
EBVERSIONGCCCORE=12.3.0
EBDEVELGZIP=/eb/x86_64/software/gzip/1.12-GCCcore-12.3.0/easybuild/gzip-1.12-GCCcore-12.3.0-easybuild-devel
EBROOTXZ=/eb/x86_64/software/XZ/5.4.2-GCCcore-12.3.0
EBVERSIONOPENSSL=1.1
SLURM_JOB_START_TIME=1728044053
SLURM_NTASKS_PER_NODE=32
EBROOTNETCDFMINFORTRAN=/eb/x86_64/software/netCDF-Fortran/4.6.1-gompi-2023a
__LMOD_REF_COUNT_MODULEPATH=/eb/x86_64/modules/all:1;/share/apps-x86/ohpc/easybuild/hpcx/v2.13.1-gcc-MLNX_OFED_LINUX-5-redhat8-cuda11-gdrcopy2-nccl2.12-x86_64/modulefiles:1;/share/apps-x86/ohpc/easybuild/software/common/modules/all:1;/share/apps-arm/FJSV/modulefiles:1;/etc/scl/modulefiles:1;/opt/ohpc/pub/modulefiles:1
__LMOD_REF_COUNT_LOADEDMODULES=GCCcore/12.3.0:1;zlib/1.2.13-GCCcore-12.3.0:1;binutils/2.40-GCCcore-12.3.0:1;GCC/12.3.0:1;numactl/2.0.16-GCCcore-12.3.0:1;XZ/5.4.2-GCCcore-12.3.0:1;libxml2/2.11.4-GCCcore-12.3.0:1;libpciaccess/0.17-GCCcore-12.3.0:1;hwloc/2.9.1-GCCcore-12.3.0:1;OpenSSL/1.1:1;libevent/2.1.12-GCCcore-12.3.0:1;UCX/1.14.1-GCCcore-12.3.0:1;libfabric/1.18.0-GCCcore-12.3.0:1;PMIx/4.2.4-GCCcore-12.3.0:1;UCC/1.2.0-GCCcore-12.3.0:1;OpenMPI/4.1.5-GCC-12.3.0:1;gompi/2023a:1;OpenBLAS/0.3.23-GCC-12.3.0:1;FlexiBLAS/3.3.1-GCC-12.3.0:1;ScaLAPACK/2.2.0-gompi-2023a-fb:1;Szip/2.1.1-GCCcore-12.3.0:1;HDF5/1.14.0-gompi-2023a:1;cURL/8.0.1-GCCcore-12.3.0:1;gzip/1.12-GCCcore-12.3.0:1;lz4/1.9.4-GCCcore-12.3.0:1;zstd/1.5.5-GCCcore-12.3.0:1;bzip2/1.0.8-GCCcore-12.3.0:1;netCDF/4.9.2-gompi-2023a:1;netCDF-Fortran/4.6.1-gompi-2023a:1;FFTW/3.3.10-GCC-12.3.0:1;CUDA/12.4.0:1;ncurses/6.4-GCCcore-12.3.0:1;libreadline/8.2-GCCcore-12.3.0:1
EBROOTOPENSSL=/eb/x86_64/software/OpenSSL/1.1
PWD=/projects/EEHPC-BEN-2024B07-051/JUBE4MaX_GPU/max-inputs/interface/siesta/_CovidWeakKPoints/000000/000000_submit/work
EBDEVELCUDA=/eb/x86_64/software/CUDA/12.4.0/easybuild/CUDA-12.4.0-easybuild-devel
EBDEVELOPENBLAS=/eb/x86_64/software/OpenBLAS/0.3.23-GCC-12.3.0/easybuild/OpenBLAS-0.3.23-GCC-12.3.0-easybuild-devel
EBDEVELFLEXIBLAS=/eb/x86_64/software/FlexiBLAS/3.3.1-GCC-12.3.0/easybuild/FlexiBLAS-3.3.1-GCC-12.3.0-easybuild-devel
EBROOTLIBREADLINE=/eb/x86_64/software/libreadline/8.2-GCCcore-12.3.0
SLURM_JOB_NODELIST=gnx513
HOME=/home/aalcaraz
SLURM_CLUSTER_NAME=deucalion
EBROOTBZIP2=/eb/x86_64/software/bzip2/1.0.8-GCCcore-12.3.0
EBROOTGZIP=/eb/x86_64/software/gzip/1.12-GCCcore-12.3.0
CMAKE_PREFIX_PATH=/eb/x86_64/software/libreadline/8.2-GCCcore-12.3.0:/eb/x86_64/software/ncurses/6.4-GCCcore-12.3.0:/eb/x86_64/software/CUDA/12.4.0:/eb/x86_64/software/FFTW/3.3.10-GCC-12.3.0:/eb/x86_64/software/netCDF-Fortran/4.6.1-gompi-2023a:/eb/x86_64/software/netCDF/4.9.2-gompi-2023a:/eb/x86_64/software/bzip2/1.0.8-GCCcore-12.3.0:/eb/x86_64/software/zstd/1.5.5-GCCcore-12.3.0:/eb/x86_64/software/lz4/1.9.4-GCCcore-12.3.0:/eb/x86_64/software/gzip/1.12-GCCcore-12.3.0:/eb/x86_64/software/cURL/8.0.1-GCCcore-12.3.0:/eb/x86_64/software/HDF5/1.14.0-gompi-2023a:/eb/x86_64/software/Szip/2.1.1-GCCcore-12.3.0:/eb/x86_64/software/ScaLAPACK/2.2.0-gompi-2023a-fb:/eb/x86_64/software/FlexiBLAS/3.3.1-GCC-12.3.0:/eb/x86_64/software/OpenBLAS/0.3.23-GCC-12.3.0:/eb/x86_64/software/OpenMPI/4.1.5-GCC-12.3.0:/eb/x86_64/software/UCC/1.2.0-GCCcore-12.3.0:/eb/x86_64/software/PMIx/4.2.4-GCCcore-12.3.0:/eb/x86_64/software/libfabric/1.18.0-GCCcore-12.3.0:/eb/x86_64/software/UCX/1.14.1-GCCcore-12.3.0:/eb/x86_64/software/libevent/2.1.12-GCCcore-12.3.0:/eb/x86_64/software/OpenSSL/1.1:/eb/x86_64/software/hwloc/2.9.1-GCCcore-12.3.0:/eb/x86_64/software/libpciaccess/0.17-GCCcore-12.3.0:/eb/x86_64/software/libxml2/2.11.4-GCCcore-12.3.0:/eb/x86_64/software/XZ/5.4.2-GCCcore-12.3.0:/eb/x86_64/software/numactl/2.0.16-GCCcore-12.3.0:/eb/x86_64/software/binutils/2.40-GCCcore-12.3.0:/eb/x86_64/software/zlib/1.2.13-GCCcore-12.3.0:/eb/x86_64/software/GCCcore/12.3.0
LMOD_COLORIZE=no
SLURM_NODELIST=gnx513
SSH_CLIENT=172.16.20.20 57366 22
EBDEVELSCALAPACK=/eb/x86_64/software/ScaLAPACK/2.2.0-gompi-2023a-fb/easybuild/ScaLAPACK-2.2.0-gompi-2023a-fb-easybuild-devel
EBDEVELLIBFABRIC=/eb/x86_64/software/libfabric/1.18.0-GCCcore-12.3.0/easybuild/libfabric-1.18.0-GCCcore-12.3.0-easybuild-devel
LMOD_VERSION=8.5.22
EBDEVELUCX=/eb/x86_64/software/UCX/1.14.1-GCCcore-12.3.0/easybuild/UCX-1.14.1-GCCcore-12.3.0-easybuild-devel
CUDA_HOME=/eb/x86_64/software/CUDA/12.4.0
EBDEVELUCC=/eb/x86_64/software/UCC/1.2.0-GCCcore-12.3.0/easybuild/UCC-1.2.0-GCCcore-12.3.0-easybuild-devel
CPATH=/eb/x86_64/software/libreadline/8.2-GCCcore-12.3.0/include:/eb/x86_64/software/ncurses/6.4-GCCcore-12.3.0/include:/eb/x86_64/software/CUDA/12.4.0/nvvm/include:/eb/x86_64/software/CUDA/12.4.0/extras/CUPTI/include:/eb/x86_64/software/CUDA/12.4.0/include:/eb/x86_64/software/FFTW/3.3.10-GCC-12.3.0/include:/eb/x86_64/software/netCDF-Fortran/4.6.1-gompi-2023a/include:/eb/x86_64/software/netCDF/4.9.2-gompi-2023a/include:/eb/x86_64/software/bzip2/1.0.8-GCCcore-12.3.0/include:/eb/x86_64/software/zstd/1.5.5-GCCcore-12.3.0/include:/eb/x86_64/software/lz4/1.9.4-GCCcore-12.3.0/include:/eb/x86_64/software/cURL/8.0.1-GCCcore-12.3.0/include:/eb/x86_64/software/HDF5/1.14.0-gompi-2023a/include:/eb/x86_64/software/Szip/2.1.1-GCCcore-12.3.0/include:/eb/x86_64/software/FlexiBLAS/3.3.1-GCC-12.3.0/include:/eb/x86_64/software/OpenBLAS/0.3.23-GCC-12.3.0/include:/eb/x86_64/software/OpenMPI/4.1.5-GCC-12.3.0/include:/eb/x86_64/software/UCC/1.2.0-GCCcore-12.3.0/include:/eb/x86_64/software/PMIx/4.2.4-GCCcore-12.3.0/include:/eb/x86_64/software/libfabric/1.18.0-GCCcore-12.3.0/include:/eb/x86_64/software/UCX/1.14.1-GCCcore-12.3.0/include:/eb/x86_64/software/libevent/2.1.12-GCCcore-12.3.0/include:/eb/x86_64/software/OpenSSL/1.1/include:/eb/x86_64/software/hwloc/2.9.1-GCCcore-12.3.0/include:/eb/x86_64/software/libpciaccess/0.17-GCCcore-12.3.0/include:/eb/x86_64/software/libxml2/2.11.4-GCCcore-12.3.0/include/libxml2:/eb/x86_64/software/libxml2/2.11.4-GCCcore-12.3.0/include:/eb/x86_64/software/XZ/5.4.2-GCCcore-12.3.0/include:/eb/x86_64/software/numactl/2.0.16-GCCcore-12.3.0/include:/eb/x86_64/software/binutils/2.40-GCCcore-12.3.0/include:/eb/x86_64/software/zlib/1.2.13-GCCcore-12.3.0/include
SLURM_NTASKS=32
EBROOTSZIP=/eb/x86_64/software/Szip/2.1.1-GCCcore-12.3.0
LMOD_SETTARG_CMD=:
EBROOTHDF5=/eb/x86_64/software/HDF5/1.14.0-gompi-2023a
EBVERSIONGZIP=1.12
EBDEVELCURL=/eb/x86_64/software/cURL/8.0.1-GCCcore-12.3.0/easybuild/cURL-8.0.1-GCCcore-12.3.0-easybuild-devel
SLURM_JOB_CPUS_PER_NODE=128
BASH_ENV=/opt/ohpc/admin/lmod/lmod/init/bash
EBROOTCURL=/eb/x86_64/software/cURL/8.0.1-GCCcore-12.3.0
EBDEVELPMIX=/eb/x86_64/software/PMIx/4.2.4-GCCcore-12.3.0/easybuild/PMIx-4.2.4-GCCcore-12.3.0-easybuild-devel
XDG_DATA_DIRS=/eb/x86_64/software/libreadline/8.2-GCCcore-12.3.0/share:/eb/x86_64/software/ncurses/6.4-GCCcore-12.3.0/share:/eb/x86_64/software/CUDA/12.4.0/share:/eb/x86_64/software/FFTW/3.3.10-GCC-12.3.0/share:/eb/x86_64/software/netCDF-Fortran/4.6.1-gompi-2023a/share:/eb/x86_64/software/netCDF/4.9.2-gompi-2023a/share:/eb/x86_64/software/zstd/1.5.5-GCCcore-12.3.0/share:/eb/x86_64/software/lz4/1.9.4-GCCcore-12.3.0/share:/eb/x86_64/software/gzip/1.12-GCCcore-12.3.0/share:/eb/x86_64/software/cURL/8.0.1-GCCcore-12.3.0/share:/eb/x86_64/software/HDF5/1.14.0-gompi-2023a/share:/eb/x86_64/software/FlexiBLAS/3.3.1-GCC-12.3.0/share:/eb/x86_64/software/OpenMPI/4.1.5-GCC-12.3.0/share:/eb/x86_64/software/PMIx/4.2.4-GCCcore-12.3.0/share:/eb/x86_64/software/libfabric/1.18.0-GCCcore-12.3.0/share:/eb/x86_64/software/UCX/1.14.1-GCCcore-12.3.0/share:/eb/x86_64/software/hwloc/2.9.1-GCCcore-12.3.0/share:/eb/x86_64/software/libxml2/2.11.4-GCCcore-12.3.0/share:/eb/x86_64/software/XZ/5.4.2-GCCcore-12.3.0/share:/eb/x86_64/software/numactl/2.0.16-GCCcore-12.3.0/share:/eb/x86_64/software/binutils/2.40-GCCcore-12.3.0/share:/eb/x86_64/software/zlib/1.2.13-GCCcore-12.3.0/share:/eb/x86_64/software/GCCcore/12.3.0/share
LMOD_AVAIL_EXTENSIONS=no
I_MPI_SHM_CMA=0
SLURM_TOPOLOGY_ADDR=gnx513
SLURM_THREADS_PER_CORE=1
EBVERSIONLIBPCIACCESS=0.17
EBROOTLIBXML2=/eb/x86_64/software/libxml2/2.11.4-GCCcore-12.3.0
CURL_INCLUDES=/eb/x86_64/software/cURL/8.0.1-GCCcore-12.3.0/include
__LMOD_REF_COUNT_LIBRARY_PATH=/eb/x86_64/software/libreadline/8.2-GCCcore-12.3.0/lib:1;/eb/x86_64/software/ncurses/6.4-GCCcore-12.3.0/lib:1;/eb/x86_64/software/CUDA/12.4.0/stubs/lib64:1;/eb/x86_64/software/CUDA/12.4.0/lib:1;/eb/x86_64/software/FFTW/3.3.10-GCC-12.3.0/lib:1;/eb/x86_64/software/netCDF-Fortran/4.6.1-gompi-2023a/lib:1;/eb/x86_64/software/netCDF/4.9.2-gompi-2023a/lib:1;/eb/x86_64/software/bzip2/1.0.8-GCCcore-12.3.0/lib:1;/eb/x86_64/software/zstd/1.5.5-GCCcore-12.3.0/lib:1;/eb/x86_64/software/lz4/1.9.4-GCCcore-12.3.0/lib:1;/eb/x86_64/software/cURL/8.0.1-GCCcore-12.3.0/lib:1;/eb/x86_64/software/HDF5/1.14.0-gompi-2023a/lib:1;/eb/x86_64/software/Szip/2.1.1-GCCcore-12.3.0/lib:1;/eb/x86_64/software/ScaLAPACK/2.2.0-gompi-2023a-fb/lib:1;/eb/x86_64/software/FlexiBLAS/3.3.1-GCC-12.3.0/lib:1;/eb/x86_64/software/OpenBLAS/0.3.23-GCC-12.3.0/lib:1;/eb/x86_64/software/OpenMPI/4.1.5-GCC-12.3.0/lib:1;/eb/x86_64/software/UCC/1.2.0-GCCcore-12.3.0/lib:1;/eb/x86_64/software/PMIx/4.2.4-GCCcore-12.3.0/lib:1;/eb/x86_64/software/libfabric/1.18.0-GCCcore-12.3.0/lib:1;/eb/x86_64/software/UCX/1.14.1-GCCcore-12.3.0/lib:1;/eb/x86_64/software/libevent/2.1.12-GCCcore-12.3.0/lib:1;/eb/x86_64/software/OpenSSL/1.1/lib:1;/eb/x86_64/software/hwloc/2.9.1-GCCcore-12.3.0/lib:1;/eb/x86_64/software/libpciaccess/0.17-GCCcore-12.3.0/lib:1;/eb/x86_64/software/libxml2/2.11.4-GCCcore-12.3.0/lib:1;/eb/x86_64/software/XZ/5.4.2-GCCcore-12.3.0/lib:1;/eb/x86_64/software/numactl/2.0.16-GCCcore-12.3.0/lib:1;/eb/x86_64/software/binutils/2.40-GCCcore-12.3.0/lib:1;/eb/x86_64/software/zlib/1.2.13-GCCcore-12.3.0/lib:1;/projects/EEHPC-BEN-2024B07-051/elpa-gpu-gnu/lib:1
EBVERSIONLIBXML2=2.11.4
CUDA_ROOT=/eb/x86_64/software/CUDA/12.4.0
SLURM_JOB_NAME=CovidWeakKPoints
EBVERSIONNCURSES=6.4
TMPDIR=/tmp
LIBRARY_PATH=/eb/x86_64/software/libreadline/8.2-GCCcore-12.3.0/lib:/eb/x86_64/software/ncurses/6.4-GCCcore-12.3.0/lib:/eb/x86_64/software/CUDA/12.4.0/stubs/lib64:/eb/x86_64/software/CUDA/12.4.0/lib:/eb/x86_64/software/FFTW/3.3.10-GCC-12.3.0/lib:/eb/x86_64/software/netCDF-Fortran/4.6.1-gompi-2023a/lib:/eb/x86_64/software/netCDF/4.9.2-gompi-2023a/lib:/eb/x86_64/software/bzip2/1.0.8-GCCcore-12.3.0/lib:/eb/x86_64/software/zstd/1.5.5-GCCcore-12.3.0/lib:/eb/x86_64/software/lz4/1.9.4-GCCcore-12.3.0/lib:/eb/x86_64/software/cURL/8.0.1-GCCcore-12.3.0/lib:/eb/x86_64/software/HDF5/1.14.0-gompi-2023a/lib:/eb/x86_64/software/Szip/2.1.1-GCCcore-12.3.0/lib:/eb/x86_64/software/ScaLAPACK/2.2.0-gompi-2023a-fb/lib:/eb/x86_64/software/FlexiBLAS/3.3.1-GCC-12.3.0/lib:/eb/x86_64/software/OpenBLAS/0.3.23-GCC-12.3.0/lib:/eb/x86_64/software/OpenMPI/4.1.5-GCC-12.3.0/lib:/eb/x86_64/software/UCC/1.2.0-GCCcore-12.3.0/lib:/eb/x86_64/software/PMIx/4.2.4-GCCcore-12.3.0/lib:/eb/x86_64/software/libfabric/1.18.0-GCCcore-12.3.0/lib:/eb/x86_64/software/UCX/1.14.1-GCCcore-12.3.0/lib:/eb/x86_64/software/libevent/2.1.12-GCCcore-12.3.0/lib:/eb/x86_64/software/OpenSSL/1.1/lib:/eb/x86_64/software/hwloc/2.9.1-GCCcore-12.3.0/lib:/eb/x86_64/software/libpciaccess/0.17-GCCcore-12.3.0/lib:/eb/x86_64/software/libxml2/2.11.4-GCCcore-12.3.0/lib:/eb/x86_64/software/XZ/5.4.2-GCCcore-12.3.0/lib:/eb/x86_64/software/numactl/2.0.16-GCCcore-12.3.0/lib:/eb/x86_64/software/binutils/2.40-GCCcore-12.3.0/lib:/eb/x86_64/software/zlib/1.2.13-GCCcore-12.3.0/lib::/projects/EEHPC-BEN-2024B07-051/elpa-gpu-gnu/lib:
_ModuleTable021_=LTEyLjMuMCIsCndWID0gIjAwMDAwMDAwMS4wMDAwMDAwMDkuMDAwMDAwMDA0LipnY2Njb3JlLip6ZmluYWwtLjAwMDAwMDAxMi4wMDAwMDAwMDMuKnpmaW5hbCIsCn0sCm5jdXJzZXMgPSB7CmZuID0gIi9lYi94ODZfNjQvbW9kdWxlcy9hbGwvbmN1cnNlcy82LjQtR0NDY29yZS0xMi4zLjAubHVhIiwKZnVsbE5hbWUgPSAibmN1cnNlcy82LjQtR0NDY29yZS0xMi4zLjAiLApsb2FkT3JkZXIgPSAzMiwKcHJvcFQgPSB7fSwKc3RhY2tEZXB0aCA9IDEsCnN0YXR1cyA9ICJhY3RpdmUiLAp1c2VyTmFtZSA9ICJuY3Vyc2VzLzYuNC1HQ0Njb3JlLTEyLjMuMCIsCndWID0gIjAwMDAwMDAwNi4wMDAwMDAwMDQuKmdjY2NvcmUuKnpmaW5hbC0uMDAwMDAwMDEyLjAwMDAwMDAwMy4qemZp
__LMOD_REF_COUNT_CMAKE_PREFIX_PATH=/eb/x86_64/software/libreadline/8.2-GCCcore-12.3.0:1;/eb/x86_64/software/ncurses/6.4-GCCcore-12.3.0:1;/eb/x86_64/software/CUDA/12.4.0:1;/eb/x86_64/software/FFTW/3.3.10-GCC-12.3.0:1;/eb/x86_64/software/netCDF-Fortran/4.6.1-gompi-2023a:1;/eb/x86_64/software/netCDF/4.9.2-gompi-2023a:1;/eb/x86_64/software/bzip2/1.0.8-GCCcore-12.3.0:1;/eb/x86_64/software/zstd/1.5.5-GCCcore-12.3.0:1;/eb/x86_64/software/lz4/1.9.4-GCCcore-12.3.0:1;/eb/x86_64/software/gzip/1.12-GCCcore-12.3.0:1;/eb/x86_64/software/cURL/8.0.1-GCCcore-12.3.0:1;/eb/x86_64/software/HDF5/1.14.0-gompi-2023a:1;/eb/x86_64/software/Szip/2.1.1-GCCcore-12.3.0:1;/eb/x86_64/software/ScaLAPACK/2.2.0-gompi-2023a-fb:1;/eb/x86_64/software/FlexiBLAS/3.3.1-GCC-12.3.0:1;/eb/x86_64/software/OpenBLAS/0.3.23-GCC-12.3.0:1;/eb/x86_64/software/OpenMPI/4.1.5-GCC-12.3.0:1;/eb/x86_64/software/UCC/1.2.0-GCCcore-12.3.0:1;/eb/x86_64/software/PMIx/4.2.4-GCCcore-12.3.0:1;/eb/x86_64/software/libfabric/1.18.0-GCCcore-12.3.0:1;/eb/x86_64/software/UCX/1.14.1-GCCcore-12.3.0:1;/eb/x86_64/software/libevent/2.1.12-GCCcore-12.3.0:1;/eb/x86_64/software/OpenSSL/1.1:1;/eb/x86_64/software/hwloc/2.9.1-GCCcore-12.3.0:1;/eb/x86_64/software/libpciaccess/0.17-GCCcore-12.3.0:1;/eb/x86_64/software/libxml2/2.11.4-GCCcore-12.3.0:1;/eb/x86_64/software/XZ/5.4.2-GCCcore-12.3.0:1;/eb/x86_64/software/numactl/2.0.16-GCCcore-12.3.0:1;/eb/x86_64/software/binutils/2.40-GCCcore-12.3.0:1;/eb/x86_64/software/zlib/1.2.13-GCCcore-12.3.0:1;/eb/x86_64/software/GCCcore/12.3.0:1
_ModuleTable010_=VCA9IHt9LApzdGFja0RlcHRoID0gMywKc3RhdHVzID0gImFjdGl2ZSIsCnVzZXJOYW1lID0gIlVDQy8xLjIuMC1HQ0Njb3JlLTEyLjMuMCIsCndWID0gIjAwMDAwMDAwMS4wMDAwMDAwMDIuKmdjY2NvcmUuKnpmaW5hbC0uMDAwMDAwMDEyLjAwMDAwMDAwMy4qemZpbmFsIiwKfSwKVUNYID0gewpmbiA9ICIvZWIveDg2XzY0L21vZHVsZXMvYWxsL1VDWC8xLjE0LjEtR0NDY29yZS0xMi4zLjAubHVhIiwKZnVsbE5hbWUgPSAiVUNYLzEuMTQuMS1HQ0Njb3JlLTEyLjMuMCIsCmxvYWRPcmRlciA9IDEyLApwcm9wVCA9IHt9LApzdGFja0RlcHRoID0gMywKc3RhdHVzID0gImFjdGl2ZSIsCnVzZXJOYW1lID0gIlVDWC8xLjE0LjEtR0NDY29yZS0xMi4zLjAiLAp3ViA9ICIwMDAwMDAw
SLURM_JOBID=155779
_ModuleTable001_=X01vZHVsZVRhYmxlXyA9IHsKTVR2ZXJzaW9uID0gMywKY19yZWJ1aWxkVGltZSA9IGZhbHNlLApjX3Nob3J0VGltZSA9IGZhbHNlLApkZXB0aFQgPSB7fSwKZmFtaWx5ID0ge30sCm1UID0gewpDVURBID0gewpmbiA9ICIvZWIveDg2XzY0L21vZHVsZXMvYWxsL0NVREEvMTIuNC4wLmx1YSIsCmZ1bGxOYW1lID0gIkNVREEvMTIuNC4wIiwKbG9hZE9yZGVyID0gMzEsCnByb3BUID0ge30sCnN0YWNrRGVwdGggPSAwLApzdGF0dXMgPSAiYWN0aXZlIiwKdXNlck5hbWUgPSAiQ1VEQS8xMi40LjAiLAp3ViA9ICIwMDAwMDAwMTIuMDAwMDAwMDA0Lip6ZmluYWwiLAp9LApGRlRXID0gewpmbiA9ICIvZWIveDg2XzY0L21vZHVsZXMvYWxsL0ZGVFcvMy4zLjEwLUdDQy0xMi4zLjAubHVh
SLURM_CONF=/etc/slurm/slurm.conf
EBDEVELGOMPI=/eb/x86_64/software/gompi/2023a/easybuild/gompi-2023a-easybuild-devel
LOADEDMODULES=GCCcore/12.3.0:zlib/1.2.13-GCCcore-12.3.0:binutils/2.40-GCCcore-12.3.0:GCC/12.3.0:numactl/2.0.16-GCCcore-12.3.0:XZ/5.4.2-GCCcore-12.3.0:libxml2/2.11.4-GCCcore-12.3.0:libpciaccess/0.17-GCCcore-12.3.0:hwloc/2.9.1-GCCcore-12.3.0:OpenSSL/1.1:libevent/2.1.12-GCCcore-12.3.0:UCX/1.14.1-GCCcore-12.3.0:libfabric/1.18.0-GCCcore-12.3.0:PMIx/4.2.4-GCCcore-12.3.0:UCC/1.2.0-GCCcore-12.3.0:OpenMPI/4.1.5-GCC-12.3.0:gompi/2023a:OpenBLAS/0.3.23-GCC-12.3.0:FlexiBLAS/3.3.1-GCC-12.3.0:ScaLAPACK/2.2.0-gompi-2023a-fb:Szip/2.1.1-GCCcore-12.3.0:HDF5/1.14.0-gompi-2023a:cURL/8.0.1-GCCcore-12.3.0:gzip/1.12-GCCcore-12.3.0:lz4/1.9.4-GCCcore-12.3.0:zstd/1.5.5-GCCcore-12.3.0:bzip2/1.0.8-GCCcore-12.3.0:netCDF/4.9.2-gompi-2023a:netCDF-Fortran/4.6.1-gompi-2023a:FFTW/3.3.10-GCC-12.3.0:CUDA/12.4.0:ncurses/6.4-GCCcore-12.3.0:libreadline/8.2-GCCcore-12.3.0
LMOD_AVAIL_STYLE=en_grouped
__LMOD_REF_COUNT_ACLOCAL_PATH=/eb/x86_64/software/cURL/8.0.1-GCCcore-12.3.0/share/aclocal:1;/eb/x86_64/software/libxml2/2.11.4-GCCcore-12.3.0/share/aclocal:1
EBDEVELOPENMPI=/eb/x86_64/software/OpenMPI/4.1.5-GCC-12.3.0/easybuild/OpenMPI-4.1.5-GCC-12.3.0-easybuild-devel
EBROOTLIBEVENT=/eb/x86_64/software/libevent/2.1.12-GCCcore-12.3.0
EBDEVELHDF5=/eb/x86_64/software/HDF5/1.14.0-gompi-2023a/easybuild/HDF5-1.14.0-gompi-2023a-easybuild-devel
EBVERSIONNETCDFMINFORTRAN=4.6.1
_ModuleTable006_=UEkgPSB7CmZuID0gIi9lYi94ODZfNjQvbW9kdWxlcy9hbGwvT3Blbk1QSS80LjEuNS1HQ0MtMTIuMy4wLmx1YSIsCmZ1bGxOYW1lID0gIk9wZW5NUEkvNC4xLjUtR0NDLTEyLjMuMCIsCmxvYWRPcmRlciA9IDE2LApwcm9wVCA9IHt9LApzdGFja0RlcHRoID0gMiwKc3RhdHVzID0gImFjdGl2ZSIsCnVzZXJOYW1lID0gIk9wZW5NUEkvNC4xLjUtR0NDLTEyLjMuMCIsCndWID0gIjAwMDAwMDAwNC4wMDAwMDAwMDEuMDAwMDAwMDA1LipnY2MuKnpmaW5hbC0uMDAwMDAwMDEyLjAwMDAwMDAwMy4qemZpbmFsIiwKfSwKT3BlblNTTCA9IHsKZm4gPSAiL2ViL3g4Nl82NC9tb2R1bGVzL2FsbC9PcGVuU1NMLzEuMS5sdWEiLApmdWxsTmFtZSA9ICJPcGVuU1NMLzEuMSIsCmxvYWRPcmRl
__LMOD_REF_COUNT_MANPATH=/eb/x86_64/software/libreadline/8.2-GCCcore-12.3.0/share/man:1;/eb/x86_64/software/ncurses/6.4-GCCcore-12.3.0/share/man:1;/eb/x86_64/software/FFTW/3.3.10-GCC-12.3.0/share/man:1;/eb/x86_64/software/netCDF-Fortran/4.6.1-gompi-2023a/share/man:1;/eb/x86_64/software/netCDF/4.9.2-gompi-2023a/share/man:1;/eb/x86_64/software/bzip2/1.0.8-GCCcore-12.3.0/man:1;/eb/x86_64/software/zstd/1.5.5-GCCcore-12.3.0/share/man:1;/eb/x86_64/software/lz4/1.9.4-GCCcore-12.3.0/share/man:1;/eb/x86_64/software/gzip/1.12-GCCcore-12.3.0/share/man:1;/eb/x86_64/software/cURL/8.0.1-GCCcore-12.3.0/share/man:1;/eb/x86_64/software/FlexiBLAS/3.3.1-GCC-12.3.0/share/man:1;/eb/x86_64/software/OpenMPI/4.1.5-GCC-12.3.0/share/man:1;/eb/x86_64/software/PMIx/4.2.4-GCCcore-12.3.0/share/man:1;/eb/x86_64/software/libfabric/1.18.0-GCCcore-12.3.0/share/man:1;/eb/x86_64/software/hwloc/2.9.1-GCCcore-12.3.0/share/man:1;/eb/x86_64/software/libxml2/2.11.4-GCCcore-12.3.0/share/man:1;/eb/x86_64/software/XZ/5.4.2-GCCcore-12.3.0/share/man:1;/eb/x86_64/software/numactl/2.0.16-GCCcore-12.3.0/share/man:1;/eb/x86_64/software/binutils/2.40-GCCcore-12.3.0/share/man:1;/eb/x86_64/software/zlib/1.2.13-GCCcore-12.3.0/share/man:1;/eb/x86_64/software/GCCcore/12.3.0/share/man:1
EBVERSIONZLIB=1.2.13
_ModuleTable003_=c3RhdHVzID0gImFjdGl2ZSIsCnVzZXJOYW1lID0gIkZsZXhpQkxBUy8zLjMuMS1HQ0MtMTIuMy4wIiwKd1YgPSAiMDAwMDAwMDAzLjAwMDAwMDAwMy4wMDAwMDAwMDEuKmdjYy4qemZpbmFsLS4wMDAwMDAwMTIuMDAwMDAwMDAzLip6ZmluYWwiLAp9LApHQ0MgPSB7CmZuID0gIi9lYi94ODZfNjQvbW9kdWxlcy9hbGwvR0NDLzEyLjMuMC5sdWEiLApmdWxsTmFtZSA9ICJHQ0MvMTIuMy4wIiwKbG9hZE9yZGVyID0gNCwKcHJvcFQgPSB7fSwKc3RhY2tEZXB0aCA9IDIsCnN0YXR1cyA9ICJhY3RpdmUiLAp1c2VyTmFtZSA9ICJHQ0MvMTIuMy4wIiwKd1YgPSAiMDAwMDAwMDEyLjAwMDAwMDAwMy4qemZpbmFsIiwKfSwKR0NDY29yZSA9IHsKZm4gPSAiL2ViL3g4Nl82NC9tb2R1bGVz
HDF5_DIR=/eb/x86_64/software/HDF5/1.14.0-gompi-2023a
EBDEVELZSTD=/eb/x86_64/software/zstd/1.5.5-GCCcore-12.3.0/easybuild/zstd-1.5.5-GCCcore-12.3.0-easybuild-devel
SLURM_JOB_QOS=normal
LMOD_ROOT=/opt/ohpc/admin/lmod
SLURM_TOPOLOGY_ADDR_PATTERN=node
SSH_TTY=/dev/pts/10
_ModuleTable022_=bmFsIiwKfSwKbmV0Q0RGID0gewpmbiA9ICIvZWIveDg2XzY0L21vZHVsZXMvYWxsL25ldENERi80LjkuMi1nb21waS0yMDIzYS5sdWEiLApmdWxsTmFtZSA9ICJuZXRDREYvNC45LjItZ29tcGktMjAyM2EiLApsb2FkT3JkZXIgPSAyOCwKcHJvcFQgPSB7fSwKc3RhY2tEZXB0aCA9IDEsCnN0YXR1cyA9ICJhY3RpdmUiLAp1c2VyTmFtZSA9ICJuZXRDREYvNC45LjItZ29tcGktMjAyM2EiLAp3ViA9ICIwMDAwMDAwMDQuMDAwMDAwMDA5LjAwMDAwMDAwMi4qZ29tcGkuKnpmaW5hbC0uMDAwMDAyMDIzLiphLip6ZmluYWwiLAp9LApbIm5ldENERi1Gb3J0cmFuIl0gPSB7CmZuID0gIi9lYi94ODZfNjQvbW9kdWxlcy9hbGwvbmV0Q0RGLUZvcnRyYW4vNC42LjEtZ29tcGktMjAyM2Eu
_ModuleTable013_=cmUtMTIuMy4wIiwKbG9hZE9yZGVyID0gMjcsCnByb3BUID0ge30sCnN0YWNrRGVwdGggPSAyLApzdGF0dXMgPSAiYWN0aXZlIiwKdXNlck5hbWUgPSAiYnppcDIvMS4wLjgtR0NDY29yZS0xMi4zLjAiLAp3ViA9ICIwMDAwMDAwMDEuMDAwMDAwMDAwLjAwMDAwMDAwOC4qZ2NjY29yZS4qemZpbmFsLS4wMDAwMDAwMTIuMDAwMDAwMDAzLip6ZmluYWwiLAp9LApjVVJMID0gewpmbiA9ICIvZWIveDg2XzY0L21vZHVsZXMvYWxsL2NVUkwvOC4wLjEtR0NDY29yZS0xMi4zLjAubHVhIiwKZnVsbE5hbWUgPSAiY1VSTC84LjAuMS1HQ0Njb3JlLTEyLjMuMCIsCmxvYWRPcmRlciA9IDIzLApwcm9wVCA9IHt9LApzdGFja0RlcHRoID0gMiwKc3RhdHVzID0gImFjdGl2ZSIsCnVzZXJOYW1l
MAIL=/var/spool/mail/aalcaraz
EBDEVELLIBPCIACCESS=/eb/x86_64/software/libpciaccess/0.17-GCCcore-12.3.0/easybuild/libpciaccess-0.17-GCCcore-12.3.0-easybuild-devel
SLURM_CPUS_ON_NODE=128
SLURM_JOB_NUM_NODES=1
OMP_PLACES=cores
_ModuleTable016_=YXR1cyA9ICJhY3RpdmUiLAp1c2VyTmFtZSA9ICJod2xvYy8yLjkuMS1HQ0Njb3JlLTEyLjMuMCIsCndWID0gIjAwMDAwMDAwMi4wMDAwMDAwMDkuMDAwMDAwMDAxLipnY2Njb3JlLip6ZmluYWwtLjAwMDAwMDAxMi4wMDAwMDAwMDMuKnpmaW5hbCIsCn0sCmxpYmV2ZW50ID0gewpmbiA9ICIvZWIveDg2XzY0L21vZHVsZXMvYWxsL2xpYmV2ZW50LzIuMS4xMi1HQ0Njb3JlLTEyLjMuMC5sdWEiLApmdWxsTmFtZSA9ICJsaWJldmVudC8yLjEuMTItR0NDY29yZS0xMi4zLjAiLApsb2FkT3JkZXIgPSAxMSwKcHJvcFQgPSB7fSwKc3RhY2tEZXB0aCA9IDMsCnN0YXR1cyA9ICJhY3RpdmUiLAp1c2VyTmFtZSA9ICJsaWJldmVudC8yLjEuMTItR0NDY29yZS0xMi4zLjAiLAp3ViA9ICIw
EBROOTFFTW=/eb/x86_64/software/FFTW/3.3.10-GCC-12.3.0
_ModuleTable009_=Mi4xLjEtR0NDY29yZS0xMi4zLjAubHVhIiwKZnVsbE5hbWUgPSAiU3ppcC8yLjEuMS1HQ0Njb3JlLTEyLjMuMCIsCmxvYWRPcmRlciA9IDIxLApwcm9wVCA9IHt9LApzdGFja0RlcHRoID0gMywKc3RhdHVzID0gImFjdGl2ZSIsCnVzZXJOYW1lID0gIlN6aXAvMi4xLjEtR0NDY29yZS0xMi4zLjAiLAp3ViA9ICIwMDAwMDAwMDIuMDAwMDAwMDAxLjAwMDAwMDAwMS4qZ2NjY29yZS4qemZpbmFsLS4wMDAwMDAwMTIuMDAwMDAwMDAzLip6ZmluYWwiLAp9LApVQ0MgPSB7CmZuID0gIi9lYi94ODZfNjQvbW9kdWxlcy9hbGwvVUNDLzEuMi4wLUdDQ2NvcmUtMTIuMy4wLmx1YSIsCmZ1bGxOYW1lID0gIlVDQy8xLjIuMC1HQ0Njb3JlLTEyLjMuMCIsCmxvYWRPcmRlciA9IDE1LApwcm9w
EBDEVELOPENSSL=/eb/x86_64/software/OpenSSL/1.1/easybuild/OpenSSL-1.1-easybuild-devel
SHELL=/bin/bash
TERM=xterm-256color
J4M_LIB_PATH=
EBDEVELGCCCORE=/eb/x86_64/software/GCCcore/12.3.0/easybuild/GCCcore-12.3.0-easybuild-devel
EBROOTHWLOC=/eb/x86_64/software/hwloc/2.9.1-GCCcore-12.3.0
SLURM_JOB_UID=30093
_ModuleTable_Sz_=26
EBVERSIONLZ4=1.9.4
__LMOD_REF_COUNT_CPATH=/eb/x86_64/software/libreadline/8.2-GCCcore-12.3.0/include:1;/eb/x86_64/software/ncurses/6.4-GCCcore-12.3.0/include:1;/eb/x86_64/software/CUDA/12.4.0/nvvm/include:1;/eb/x86_64/software/CUDA/12.4.0/extras/CUPTI/include:1;/eb/x86_64/software/CUDA/12.4.0/include:1;/eb/x86_64/software/FFTW/3.3.10-GCC-12.3.0/include:1;/eb/x86_64/software/netCDF-Fortran/4.6.1-gompi-2023a/include:1;/eb/x86_64/software/netCDF/4.9.2-gompi-2023a/include:1;/eb/x86_64/software/bzip2/1.0.8-GCCcore-12.3.0/include:1;/eb/x86_64/software/zstd/1.5.5-GCCcore-12.3.0/include:1;/eb/x86_64/software/lz4/1.9.4-GCCcore-12.3.0/include:1;/eb/x86_64/software/cURL/8.0.1-GCCcore-12.3.0/include:1;/eb/x86_64/software/HDF5/1.14.0-gompi-2023a/include:1;/eb/x86_64/software/Szip/2.1.1-GCCcore-12.3.0/include:1;/eb/x86_64/software/FlexiBLAS/3.3.1-GCC-12.3.0/include:1;/eb/x86_64/software/OpenBLAS/0.3.23-GCC-12.3.0/include:1;/eb/x86_64/software/OpenMPI/4.1.5-GCC-12.3.0/include:1;/eb/x86_64/software/UCC/1.2.0-GCCcore-12.3.0/include:1;/eb/x86_64/software/PMIx/4.2.4-GCCcore-12.3.0/include:1;/eb/x86_64/software/libfabric/1.18.0-GCCcore-12.3.0/include:1;/eb/x86_64/software/UCX/1.14.1-GCCcore-12.3.0/include:1;/eb/x86_64/software/libevent/2.1.12-GCCcore-12.3.0/include:1;/eb/x86_64/software/OpenSSL/1.1/include:1;/eb/x86_64/software/hwloc/2.9.1-GCCcore-12.3.0/include:1;/eb/x86_64/software/libpciaccess/0.17-GCCcore-12.3.0/include:1;/eb/x86_64/software/libxml2/2.11.4-GCCcore-12.3.0/include/libxml2:1;/eb/x86_64/software/libxml2/2.11.4-GCCcore-12.3.0/include:1;/eb/x86_64/software/XZ/5.4.2-GCCcore-12.3.0/include:1;/eb/x86_64/software/numactl/2.0.16-GCCcore-12.3.0/include:1;/eb/x86_64/software/binutils/2.40-GCCcore-12.3.0/include:1;/eb/x86_64/software/zlib/1.2.13-GCCcore-12.3.0/include:1
SLURM_JOB_PARTITION=normal-a100-40
EBDEVELNCURSES=/eb/x86_64/software/ncurses/6.4-GCCcore-12.3.0/easybuild/ncurses-6.4-GCCcore-12.3.0-easybuild-devel
EBROOTLZ4=/eb/x86_64/software/lz4/1.9.4-GCCcore-12.3.0
EBVERSIONBZIP2=1.0.8
_ModuleTable018_=bmFsIiwKfSwKbGlicGNpYWNjZXNzID0gewpmbiA9ICIvZWIveDg2XzY0L21vZHVsZXMvYWxsL2xpYnBjaWFjY2Vzcy8wLjE3LUdDQ2NvcmUtMTIuMy4wLmx1YSIsCmZ1bGxOYW1lID0gImxpYnBjaWFjY2Vzcy8wLjE3LUdDQ2NvcmUtMTIuMy4wIiwKbG9hZE9yZGVyID0gOCwKcHJvcFQgPSB7fSwKc3RhY2tEZXB0aCA9IDQsCnN0YXR1cyA9ICJhY3RpdmUiLAp1c2VyTmFtZSA9ICJsaWJwY2lhY2Nlc3MvMC4xNy1HQ0Njb3JlLTEyLjMuMCIsCndWID0gIjAwMDAwMDAwMC4wMDAwMDAwMTcuKmdjY2NvcmUuKnpmaW5hbC0uMDAwMDAwMDEyLjAwMDAwMDAwMy4qemZpbmFsIiwKfSwKbGlicmVhZGxpbmUgPSB7CmZuID0gIi9lYi94ODZfNjQvbW9kdWxlcy9hbGwvbGlicmVhZGxpbmUv
SLURM_HINT=nomultithread
EBVERSIONNETCDF=4.9.2
EBDEVELBINUTILS=/eb/x86_64/software/binutils/2.40-GCCcore-12.3.0/easybuild/binutils-2.40-GCCcore-12.3.0-easybuild-devel
SLURM_JOB_USER=aalcaraz
SLURM_NPROCS=32
SHLVL=4
LANGUAGE=en_GB.UTF-8
SLURM_SUBMIT_HOST=ln01
SLURM_JOB_ACCOUNT=eehpc-ben-2024b07-051g
EBDEVELNETCDFMINFORTRAN=/eb/x86_64/software/netCDF-Fortran/4.6.1-gompi-2023a/easybuild/netCDF-Fortran-4.6.1-gompi-2023a-easybuild-devel
ACLOCAL_PATH=/eb/x86_64/software/cURL/8.0.1-GCCcore-12.3.0/share/aclocal:/eb/x86_64/software/libxml2/2.11.4-GCCcore-12.3.0/share/aclocal
MANPATH=/eb/x86_64/software/libreadline/8.2-GCCcore-12.3.0/share/man:/eb/x86_64/software/ncurses/6.4-GCCcore-12.3.0/share/man:/eb/x86_64/software/FFTW/3.3.10-GCC-12.3.0/share/man:/eb/x86_64/software/netCDF-Fortran/4.6.1-gompi-2023a/share/man:/eb/x86_64/software/netCDF/4.9.2-gompi-2023a/share/man:/eb/x86_64/software/bzip2/1.0.8-GCCcore-12.3.0/man:/eb/x86_64/software/zstd/1.5.5-GCCcore-12.3.0/share/man:/eb/x86_64/software/lz4/1.9.4-GCCcore-12.3.0/share/man:/eb/x86_64/software/gzip/1.12-GCCcore-12.3.0/share/man:/eb/x86_64/software/cURL/8.0.1-GCCcore-12.3.0/share/man:/eb/x86_64/software/FlexiBLAS/3.3.1-GCC-12.3.0/share/man:/eb/x86_64/software/OpenMPI/4.1.5-GCC-12.3.0/share/man:/eb/x86_64/software/PMIx/4.2.4-GCCcore-12.3.0/share/man:/eb/x86_64/software/libfabric/1.18.0-GCCcore-12.3.0/share/man:/eb/x86_64/software/hwloc/2.9.1-GCCcore-12.3.0/share/man:/eb/x86_64/software/libxml2/2.11.4-GCCcore-12.3.0/share/man:/eb/x86_64/software/XZ/5.4.2-GCCcore-12.3.0/share/man:/eb/x86_64/software/numactl/2.0.16-GCCcore-12.3.0/share/man:/eb/x86_64/software/binutils/2.40-GCCcore-12.3.0/share/man:/eb/x86_64/software/zlib/1.2.13-GCCcore-12.3.0/share/man:/eb/x86_64/software/GCCcore/12.3.0/share/man
EBDEVELGCC=/eb/x86_64/software/GCC/12.3.0/easybuild/GCC-12.3.0-easybuild-devel
HYDRA_BOOTSTRAP=slurm
EBVERSIONFFTW=3.3.10
LMOD_PREPEND_BLOCK=normal
MODULEPATH=/eb/x86_64/modules/all:/share/apps-x86/ohpc/easybuild/hpcx/v2.13.1-gcc-MLNX_OFED_LINUX-5-redhat8-cuda11-gdrcopy2-nccl2.12-x86_64/modulefiles:/share/apps-x86/ohpc/easybuild/software/common/modules/all:/share/apps-arm/FJSV/modulefiles:/etc/scl/modulefiles:/opt/ohpc/pub/modulefiles
EBROOTZSTD=/eb/x86_64/software/zstd/1.5.5-GCCcore-12.3.0
EBDEVELLIBREADLINE=/eb/x86_64/software/libreadline/8.2-GCCcore-12.3.0/easybuild/libreadline-8.2-GCCcore-12.3.0-easybuild-devel
EBDEVELFFTW=/eb/x86_64/software/FFTW/3.3.10-GCC-12.3.0/easybuild/FFTW-3.3.10-GCC-12.3.0-easybuild-devel
SLURM_GTIDS=0
LOGNAME=aalcaraz
DBUS_SESSION_BUS_ADDRESS=unix:path=/run/user/30093/bus
XDG_RUNTIME_DIR=/run/user/30093
EBVERSIONBINUTILS=2.40
EBROOTCUDA=/eb/x86_64/software/CUDA/12.4.0
LMOD_PACKAGE_PATH=/share/apps-x86/ohpc/easybuild/modules-ui-v0
EBROOTPMIX=/eb/x86_64/software/PMIx/4.2.4-GCCcore-12.3.0
EBDEVELZLIB=/eb/x86_64/software/zlib/1.2.13-GCCcore-12.3.0/easybuild/zlib-1.2.13-GCCcore-12.3.0-easybuild-devel
_ModuleTable025_=LAp3ViA9ICIwMDAwMDAwMDEuMDAwMDAwMDAyLjAwMDAwMDAxMy4qZ2NjY29yZS4qemZpbmFsLS4wMDAwMDAwMTIuMDAwMDAwMDAzLip6ZmluYWwiLAp9LAp6c3RkID0gewpmbiA9ICIvZWIveDg2XzY0L21vZHVsZXMvYWxsL3pzdGQvMS41LjUtR0NDY29yZS0xMi4zLjAubHVhIiwKZnVsbE5hbWUgPSAienN0ZC8xLjUuNS1HQ0Njb3JlLTEyLjMuMCIsCmxvYWRPcmRlciA9IDI2LApwcm9wVCA9IHt9LApzdGFja0RlcHRoID0gMiwKc3RhdHVzID0gImFjdGl2ZSIsCnVzZXJOYW1lID0gInpzdGQvMS41LjUtR0NDY29yZS0xMi4zLjAiLAp3ViA9ICIwMDAwMDAwMDEuMDAwMDAwMDA1LjAwMDAwMDAwNS4qZ2NjY29yZS4qemZpbmFsLS4wMDAwMDAwMTIuMDAwMDAwMDAzLip6ZmluYWwi
EBROOTLIBFABRIC=/eb/x86_64/software/libfabric/1.18.0-GCCcore-12.3.0
PATH=/eb/x86_64/software/ncurses/6.4-GCCcore-12.3.0/bin:/eb/x86_64/software/CUDA/12.4.0/nvvm/bin:/eb/x86_64/software/CUDA/12.4.0/bin:/eb/x86_64/software/FFTW/3.3.10-GCC-12.3.0/bin:/eb/x86_64/software/netCDF-Fortran/4.6.1-gompi-2023a/bin:/eb/x86_64/software/netCDF/4.9.2-gompi-2023a/bin:/eb/x86_64/software/bzip2/1.0.8-GCCcore-12.3.0/bin:/eb/x86_64/software/zstd/1.5.5-GCCcore-12.3.0/bin:/eb/x86_64/software/lz4/1.9.4-GCCcore-12.3.0/bin:/eb/x86_64/software/gzip/1.12-GCCcore-12.3.0/bin:/eb/x86_64/software/cURL/8.0.1-GCCcore-12.3.0/bin:/eb/x86_64/software/HDF5/1.14.0-gompi-2023a/bin:/eb/x86_64/software/FlexiBLAS/3.3.1-GCC-12.3.0/bin:/eb/x86_64/software/OpenMPI/4.1.5-GCC-12.3.0/bin:/eb/x86_64/software/UCC/1.2.0-GCCcore-12.3.0/bin:/eb/x86_64/software/PMIx/4.2.4-GCCcore-12.3.0/bin:/eb/x86_64/software/libfabric/1.18.0-GCCcore-12.3.0/bin:/eb/x86_64/software/UCX/1.14.1-GCCcore-12.3.0/bin:/eb/x86_64/software/libevent/2.1.12-GCCcore-12.3.0/bin:/eb/x86_64/software/OpenSSL/1.1/bin:/eb/x86_64/software/hwloc/2.9.1-GCCcore-12.3.0/sbin:/eb/x86_64/software/hwloc/2.9.1-GCCcore-12.3.0/bin:/eb/x86_64/software/libxml2/2.11.4-GCCcore-12.3.0/bin:/eb/x86_64/software/XZ/5.4.2-GCCcore-12.3.0/bin:/eb/x86_64/software/numactl/2.0.16-GCCcore-12.3.0/bin:/eb/x86_64/software/binutils/2.40-GCCcore-12.3.0/bin:/eb/x86_64/software/GCCcore/12.3.0/bin:/home/aalcaraz/.local/bin:/home/aalcaraz/bin:/usr/local/bin:/usr/bin:/usr/local/sbin:/usr/sbin:/projects/EEHPC-BEN-2024B07-051/siesta_elpa/_siesta_bin_gnu_gpu/bin/
_ModuleTable014_=ID0gImNVUkwvOC4wLjEtR0NDY29yZS0xMi4zLjAiLAp3ViA9ICIwMDAwMDAwMDguMDAwMDAwMDAwLjAwMDAwMDAwMS4qZ2NjY29yZS4qemZpbmFsLS4wMDAwMDAwMTIuMDAwMDAwMDAzLip6ZmluYWwiLAp9LApnb21waSA9IHsKZm4gPSAiL2ViL3g4Nl82NC9tb2R1bGVzL2FsbC9nb21waS8yMDIzYS5sdWEiLApmdWxsTmFtZSA9ICJnb21waS8yMDIzYSIsCmxvYWRPcmRlciA9IDE3LApwcm9wVCA9IHt9LApzdGFja0RlcHRoID0gMSwKc3RhdHVzID0gImFjdGl2ZSIsCnVzZXJOYW1lID0gImdvbXBpLzIwMjNhIiwKd1YgPSAiMDAwMDAyMDIzLiphLip6ZmluYWwiLAp9LApnemlwID0gewpmbiA9ICIvZWIveDg2XzY0L21vZHVsZXMvYWxsL2d6aXAvMS4xMi1HQ0Njb3JlLTEyLjMu
SLURM_JOB_ID=155779
_LMFILES_=/eb/x86_64/modules/all/GCCcore/12.3.0.lua:/eb/x86_64/modules/all/zlib/1.2.13-GCCcore-12.3.0.lua:/eb/x86_64/modules/all/binutils/2.40-GCCcore-12.3.0.lua:/eb/x86_64/modules/all/GCC/12.3.0.lua:/eb/x86_64/modules/all/numactl/2.0.16-GCCcore-12.3.0.lua:/eb/x86_64/modules/all/XZ/5.4.2-GCCcore-12.3.0.lua:/eb/x86_64/modules/all/libxml2/2.11.4-GCCcore-12.3.0.lua:/eb/x86_64/modules/all/libpciaccess/0.17-GCCcore-12.3.0.lua:/eb/x86_64/modules/all/hwloc/2.9.1-GCCcore-12.3.0.lua:/eb/x86_64/modules/all/OpenSSL/1.1.lua:/eb/x86_64/modules/all/libevent/2.1.12-GCCcore-12.3.0.lua:/eb/x86_64/modules/all/UCX/1.14.1-GCCcore-12.3.0.lua:/eb/x86_64/modules/all/libfabric/1.18.0-GCCcore-12.3.0.lua:/eb/x86_64/modules/all/PMIx/4.2.4-GCCcore-12.3.0.lua:/eb/x86_64/modules/all/UCC/1.2.0-GCCcore-12.3.0.lua:/eb/x86_64/modules/all/OpenMPI/4.1.5-GCC-12.3.0.lua:/eb/x86_64/modules/all/gompi/2023a.lua:/eb/x86_64/modules/all/OpenBLAS/0.3.23-GCC-12.3.0.lua:/eb/x86_64/modules/all/FlexiBLAS/3.3.1-GCC-12.3.0.lua:/eb/x86_64/modules/all/ScaLAPACK/2.2.0-gompi-2023a-fb.lua:/eb/x86_64/modules/all/Szip/2.1.1-GCCcore-12.3.0.lua:/eb/x86_64/modules/all/HDF5/1.14.0-gompi-2023a.lua:/eb/x86_64/modules/all/cURL/8.0.1-GCCcore-12.3.0.lua:/eb/x86_64/modules/all/gzip/1.12-GCCcore-12.3.0.lua:/eb/x86_64/modules/all/lz4/1.9.4-GCCcore-12.3.0.lua:/eb/x86_64/modules/all/zstd/1.5.5-GCCcore-12.3.0.lua:/eb/x86_64/modules/all/bzip2/1.0.8-GCCcore-12.3.0.lua:/eb/x86_64/modules/all/netCDF/4.9.2-gompi-2023a.lua:/eb/x86_64/modules/all/netCDF-Fortran/4.6.1-gompi-2023a.lua:/eb/x86_64/modules/all/FFTW/3.3.10-GCC-12.3.0.lua:/eb/x86_64/modules/all/CUDA/12.4.0.lua:/eb/x86_64/modules/all/ncurses/6.4-GCCcore-12.3.0.lua:/eb/x86_64/modules/all/libreadline/8.2-GCCcore-12.3.0.lua
EBVERSIONLIBREADLINE=8.2
EBROOTLIBPCIACCESS=/eb/x86_64/software/libpciaccess/0.17-GCCcore-12.3.0
EBDEVELLZ4=/eb/x86_64/software/lz4/1.9.4-GCCcore-12.3.0/easybuild/lz4-1.9.4-GCCcore-12.3.0-easybuild-devel
MODULESHOME=/opt/ohpc/admin/lmod/lmod
PKG_CONFIG_PATH=/eb/x86_64/software/libreadline/8.2-GCCcore-12.3.0/lib/pkgconfig:/eb/x86_64/software/CUDA/12.4.0/pkgconfig:/eb/x86_64/software/FFTW/3.3.10-GCC-12.3.0/lib/pkgconfig:/eb/x86_64/software/netCDF-Fortran/4.6.1-gompi-2023a/lib/pkgconfig:/eb/x86_64/software/netCDF/4.9.2-gompi-2023a/lib/pkgconfig:/eb/x86_64/software/bzip2/1.0.8-GCCcore-12.3.0/lib/pkgconfig:/eb/x86_64/software/zstd/1.5.5-GCCcore-12.3.0/lib/pkgconfig:/eb/x86_64/software/lz4/1.9.4-GCCcore-12.3.0/lib/pkgconfig:/eb/x86_64/software/cURL/8.0.1-GCCcore-12.3.0/lib/pkgconfig:/eb/x86_64/software/HDF5/1.14.0-gompi-2023a/lib/pkgconfig:/eb/x86_64/software/ScaLAPACK/2.2.0-gompi-2023a-fb/lib/pkgconfig:/eb/x86_64/software/FlexiBLAS/3.3.1-GCC-12.3.0/lib/pkgconfig:/eb/x86_64/software/OpenBLAS/0.3.23-GCC-12.3.0/lib/pkgconfig:/eb/x86_64/software/OpenMPI/4.1.5-GCC-12.3.0/lib/pkgconfig:/eb/x86_64/software/PMIx/4.2.4-GCCcore-12.3.0/lib/pkgconfig:/eb/x86_64/software/libfabric/1.18.0-GCCcore-12.3.0/lib/pkgconfig:/eb/x86_64/software/UCX/1.14.1-GCCcore-12.3.0/lib/pkgconfig:/eb/x86_64/software/libevent/2.1.12-GCCcore-12.3.0/lib/pkgconfig:/eb/x86_64/software/OpenSSL/1.1/lib/pkgconfig:/eb/x86_64/software/hwloc/2.9.1-GCCcore-12.3.0/lib/pkgconfig:/eb/x86_64/software/libpciaccess/0.17-GCCcore-12.3.0/lib/pkgconfig:/eb/x86_64/software/libxml2/2.11.4-GCCcore-12.3.0/lib/pkgconfig:/eb/x86_64/software/XZ/5.4.2-GCCcore-12.3.0/lib/pkgconfig:/eb/x86_64/software/numactl/2.0.16-GCCcore-12.3.0/lib/pkgconfig:/eb/x86_64/software/zlib/1.2.13-GCCcore-12.3.0/lib/pkgconfig::/projects/EEHPC-BEN-2024B07-051/elpa-gpu-gnu/lib/pkgconfig
LMOD_SETTARG_FULL_SUPPORT=no
EBVERSIONFLEXIBLAS=3.3.1
_ModuleTable011_=MDEuMDAwMDAwMDE0LjAwMDAwMDAwMS4qZ2NjY29yZS4qemZpbmFsLS4wMDAwMDAwMTIuMDAwMDAwMDAzLip6ZmluYWwiLAp9LApYWiA9IHsKZm4gPSAiL2ViL3g4Nl82NC9tb2R1bGVzL2FsbC9YWi81LjQuMi1HQ0Njb3JlLTEyLjMuMC5sdWEiLApmdWxsTmFtZSA9ICJYWi81LjQuMi1HQ0Njb3JlLTEyLjMuMCIsCmxvYWRPcmRlciA9IDYsCnByb3BUID0ge30sCnN0YWNrRGVwdGggPSA1LApzdGF0dXMgPSAiYWN0aXZlIiwKdXNlck5hbWUgPSAiWFovNS40LjItR0NDY29yZS0xMi4zLjAiLAp3ViA9ICIwMDAwMDAwMDUuMDAwMDAwMDA0LjAwMDAwMDAwMi4qZ2NjY29yZS4qemZpbmFsLS4wMDAwMDAwMTIuMDAwMDAwMDAzLip6ZmluYWwiLAp9LApiaW51dGlscyA9IHsKZm4gPSAi
EBROOTNUMACTL=/eb/x86_64/software/numactl/2.0.16-GCCcore-12.3.0
HISTSIZE=1000
LMOD_PKG=/opt/ohpc/admin/lmod/lmod
CMAKE_LIBRARY_PATH=/eb/x86_64/software/GCCcore/12.3.0/lib64
EBROOTNETCDF=/eb/x86_64/software/netCDF/4.9.2-gompi-2023a
J4M_HOME=/projects/EEHPC-BEN-2024B07-051/JUBE4MaX_GPU/max-inputs/
EBVERSIONSZIP=2.1.1
EBROOTUCX=/eb/x86_64/software/UCX/1.14.1-GCCcore-12.3.0
_ModuleTable005_=MjAyM2EiLAp3ViA9ICIwMDAwMDAwMDEuMDAwMDAwMDE0Lipnb21waS4qemZpbmFsLS4wMDAwMDIwMjMuKmEuKnpmaW5hbCIsCn0sCk9wZW5CTEFTID0gewpmbiA9ICIvZWIveDg2XzY0L21vZHVsZXMvYWxsL09wZW5CTEFTLzAuMy4yMy1HQ0MtMTIuMy4wLmx1YSIsCmZ1bGxOYW1lID0gIk9wZW5CTEFTLzAuMy4yMy1HQ0MtMTIuMy4wIiwKbG9hZE9yZGVyID0gMTgsCnByb3BUID0ge30sCnN0YWNrRGVwdGggPSAyLApzdGF0dXMgPSAiYWN0aXZlIiwKdXNlck5hbWUgPSAiT3BlbkJMQVMvMC4zLjIzLUdDQy0xMi4zLjAiLAp3ViA9ICIwMDAwMDAwMDAuMDAwMDAwMDAzLjAwMDAwMDAyMy4qZ2NjLip6ZmluYWwtLjAwMDAwMDAxMi4wMDAwMDAwMDMuKnpmaW5hbCIsCn0sCk9wZW5N
LMOD_CMD=/opt/ohpc/admin/lmod/lmod/libexec/lmod
SLURM_LOCALID=0
OMP_NUM_THREADS=1
LESSOPEN=||/usr/bin/lesspipe.sh %s
_ModuleTable020_=ciA9IDcsCnByb3BUID0ge30sCnN0YWNrRGVwdGggPSA0LApzdGF0dXMgPSAiYWN0aXZlIiwKdXNlck5hbWUgPSAibGlieG1sMi8yLjExLjQtR0NDY29yZS0xMi4zLjAiLAp3ViA9ICIwMDAwMDAwMDIuMDAwMDAwMDExLjAwMDAwMDAwNC4qZ2NjY29yZS4qemZpbmFsLS4wMDAwMDAwMTIuMDAwMDAwMDAzLip6ZmluYWwiLAp9LApsejQgPSB7CmZuID0gIi9lYi94ODZfNjQvbW9kdWxlcy9hbGwvbHo0LzEuOS40LUdDQ2NvcmUtMTIuMy4wLmx1YSIsCmZ1bGxOYW1lID0gImx6NC8xLjkuNC1HQ0Njb3JlLTEyLjMuMCIsCmxvYWRPcmRlciA9IDI1LApwcm9wVCA9IHt9LApzdGFja0RlcHRoID0gMywKc3RhdHVzID0gImFjdGl2ZSIsCnVzZXJOYW1lID0gImx6NC8xLjkuNC1HQ0Njb3Jl
EBROOTUCC=/eb/x86_64/software/UCC/1.2.0-GCCcore-12.3.0
LMOD_FULL_SETTARG_SUPPORT=no
LMOD_DIR=/opt/ohpc/admin/lmod/lmod/libexec
BASH_FUNC_which%%=() {  ( alias;
 eval ${which_declare} ) | /usr/bin/which --tty-only --read-alias --read-functions --show-tilde --show-dot "$@"
}
BASH_FUNC_module%%=() {  eval $($LMOD_CMD bash "$@") && eval $(${LMOD_SETTARG_CMD:-:} -s sh)
}
BASH_FUNC_scl%%=() {  if [ "$1" = "load" -o "$1" = "unload" ]; then
 eval "module $@";
 else
 /usr/bin/scl "$@";
 fi
}
BASH_FUNC_ml%%=() {  eval $($LMOD_DIR/ml_cmd "$@")
}
_=/usr/bin/env

Current SIESTA linked libraries
-------------------------------
	linux-vdso.so.1 (0x00007fffb0f2c000)
	libnetcdff.so.7 => /eb/x86_64/software/netCDF-Fortran/4.6.1-gompi-2023a/lib/libnetcdff.so.7 (0x00007fbbbdbd9000)
	libnetcdf.so.19 => /eb/x86_64/software/netCDF/4.9.2-gompi-2023a/lib/libnetcdf.so.19 (0x00007fbbbd81d000)
	libdl.so.2 => /lib64/libdl.so.2 (0x00007fbbbd619000)
	libgfortran.so.5 => /eb/x86_64/software/GCCcore/12.3.0/lib64/libgfortran.so.5 (0x00007fbbbd34b000)
	libm.so.6 => /lib64/libm.so.6 (0x00007fbbbcfc9000)
	libmvec.so.1 => /lib64/libmvec.so.1 (0x00007fbbbcd9e000)
	libpthread.so.0 => /lib64/libpthread.so.0 (0x00007fbbbcb7e000)
	libreadline.so.8 => /eb/x86_64/software/libreadline/8.2-GCCcore-12.3.0/lib/libreadline.so.8 (0x00007fbbbdb75000)
	libelpa.so.19 => /projects/EEHPC-BEN-2024B07-051/elpa-gpu-gnu/lib/libelpa.so.19 (0x00007fbbbc7d6000)
	libcusolver.so.11 => /eb/x86_64/software/CUDA/12.4.0/lib/libcusolver.so.11 (0x00007fbbb52de000)
	libcudart.so.12 => /eb/x86_64/software/CUDA/12.4.0/lib/libcudart.so.12 (0x00007fbbb502f000)
	libcublasLt.so.12 => /eb/x86_64/software/CUDA/12.4.0/lib/libcublasLt.so.12 (0x00007fbb97198000)
	libcublas.so.12 => /eb/x86_64/software/CUDA/12.4.0/lib/libcublas.so.12 (0x00007fbb906e0000)
	libscalapack.so => /eb/x86_64/software/ScaLAPACK/2.2.0-gompi-2023a-fb/lib/libscalapack.so (0x00007fbb900fe000)
	libflexiblas.so.3 => /eb/x86_64/software/FlexiBLAS/3.3.1-GCC-12.3.0/lib/libflexiblas.so.3 (0x00007fbb8fd1a000)
	libmpi_usempif08.so.40 => /eb/x86_64/software/OpenMPI/4.1.5-GCC-12.3.0/lib/libmpi_usempif08.so.40 (0x00007fbbbdb39000)
	libmpi_usempi_ignore_tkr.so.40 => /eb/x86_64/software/OpenMPI/4.1.5-GCC-12.3.0/lib/libmpi_usempi_ignore_tkr.so.40 (0x00007fbbbdb2c000)
	libmpi_mpifh.so.40 => /eb/x86_64/software/OpenMPI/4.1.5-GCC-12.3.0/lib/libmpi_mpifh.so.40 (0x00007fbbbdac0000)
	libmpi.so.40 => /eb/x86_64/software/OpenMPI/4.1.5-GCC-12.3.0/lib/libmpi.so.40 (0x00007fbb8fbef000)
	libopenblas.so.0 => /eb/x86_64/software/OpenBLAS/0.3.23-GCC-12.3.0/lib/libopenblas.so.0 (0x00007fbb8ee40000)
	libgomp.so.1 => /eb/x86_64/software/GCCcore/12.3.0/lib64/libgomp.so.1 (0x00007fbb8edf7000)
	libgcc_s.so.1 => /eb/x86_64/software/GCCcore/12.3.0/lib64/libgcc_s.so.1 (0x00007fbb8edd6000)
	libquadmath.so.0 => /eb/x86_64/software/GCCcore/12.3.0/lib64/libquadmath.so.0 (0x00007fbb8ed8f000)
	libc.so.6 => /lib64/libc.so.6 (0x00007fbb8e9ca000)
	libhdf5_hl.so.310 => /eb/x86_64/software/HDF5/1.14.0-gompi-2023a/lib64/libhdf5_hl.so.310 (0x00007fbb8e9a5000)
	libhdf5.so.310 => /eb/x86_64/software/HDF5/1.14.0-gompi-2023a/lib64/libhdf5.so.310 (0x00007fbb8e556000)
	libz.so.1 => /eb/x86_64/software/zlib/1.2.13-GCCcore-12.3.0/lib/../lib64/libz.so.1 (0x00007fbb8e53b000)
	libzstd.so.1 => /eb/x86_64/software/zstd/1.5.5-GCCcore-12.3.0/lib64/libzstd.so.1 (0x00007fbb8e480000)
	libbz2.so.1.0 => /eb/x86_64/software/bzip2/1.0.8-GCCcore-12.3.0/lib64/libbz2.so.1.0 (0x00007fbb8e46a000)
	libsz.so.2 => /eb/x86_64/software/Szip/2.1.1-GCCcore-12.3.0/lib64/libsz.so.2 (0x00007fbb8e450000)
	libcurl.so.4 => /eb/x86_64/software/cURL/8.0.1-GCCcore-12.3.0/lib64/libcurl.so.4 (0x00007fbb8e3aa000)
	libxml2.so.2 => /eb/x86_64/software/libxml2/2.11.4-GCCcore-12.3.0/lib64/libxml2.so.2 (0x00007fbb8e244000)
	/lib64/ld-linux-x86-64.so.2 (0x00007fbbbda77000)
	libncurses.so.6 => /eb/x86_64/software/ncurses/6.4-GCCcore-12.3.0/lib64/libncurses.so.6 (0x00007fbb8e1de000)
	libstdc++.so.6 => /eb/x86_64/software/GCCcore/12.3.0/lib64/libstdc++.so.6 (0x00007fbb8dfb5000)
	libopen-rte.so.40 => /eb/x86_64/software/OpenMPI/4.1.5-GCC-12.3.0/lib/libopen-rte.so.40 (0x00007fbb8defb000)
	libopen-pal.so.40 => /eb/x86_64/software/OpenMPI/4.1.5-GCC-12.3.0/lib/libopen-pal.so.40 (0x00007fbb8de48000)
	librt.so.1 => /lib64/librt.so.1 (0x00007fbb8dc40000)
	libutil.so.1 => /lib64/libutil.so.1 (0x00007fbb8da3c000)
	libhwloc.so.15 => /eb/x86_64/software/hwloc/2.9.1-GCCcore-12.3.0/lib/libhwloc.so.15 (0x00007fbb8d9dd000)
	libpciaccess.so.0 => /eb/x86_64/software/libpciaccess/0.17-GCCcore-12.3.0/lib/libpciaccess.so.0 (0x00007fbbbdaa8000)
	liblzma.so.5 => /eb/x86_64/software/XZ/5.4.2-GCCcore-12.3.0/lib/liblzma.so.5 (0x00007fbb8d9ae000)
	libevent_core-2.1.so.7 => /eb/x86_64/software/libevent/2.1.12-GCCcore-12.3.0/lib/libevent_core-2.1.so.7 (0x00007fbb8d976000)
	libevent_pthreads-2.1.so.7 => /eb/x86_64/software/libevent/2.1.12-GCCcore-12.3.0/lib/libevent_pthreads-2.1.so.7 (0x00007fbb8d971000)
	libnvJitLink.so.12 => /eb/x86_64/software/CUDA/12.4.0/lib/libnvJitLink.so.12 (0x00007fbb8a3e0000)
	libcusparse.so.12 => /eb/x86_64/software/CUDA/12.4.0/lib/libcusparse.so.12 (0x00007fbb79597000)
	libssl.so.1.1 => /eb/x86_64/software/OpenSSL/1.1/lib64/libssl.so.1.1 (0x00007fbb79303000)
	libcrypto.so.1.1 => /eb/x86_64/software/OpenSSL/1.1/lib64/libcrypto.so.1.1 (0x00007fbb78e1a000)
	libldap-2.4.so.2 => /lib64/libldap-2.4.so.2 (0x00007fbb78bcb000)
	liblber-2.4.so.2 => /lib64/liblber-2.4.so.2 (0x00007fbb789bb000)
	libresolv.so.2 => /lib64/libresolv.so.2 (0x00007fbb787a2000)
	libsasl2.so.3 => /lib64/libsasl2.so.3 (0x00007fbb78584000)
	libcrypt.so.1 => /lib64/libcrypt.so.1 (0x00007fbb7835b000)
	libgssapi_krb5.so.2 => /lib64/libgssapi_krb5.so.2 (0x00007fbb78106000)
	libkrb5.so.3 => /lib64/libkrb5.so.3 (0x00007fbb77e1c000)
	libk5crypto.so.3 => /lib64/libk5crypto.so.3 (0x00007fbb77c03000)
	libcom_err.so.2 => /lib64/libcom_err.so.2 (0x00007fbb779ff000)
	libkrb5support.so.0 => /lib64/libkrb5support.so.0 (0x00007fbb777ee000)
	libkeyutils.so.1 => /lib64/libkeyutils.so.1 (0x00007fbb775ea000)
	libselinux.so.1 => /lib64/libselinux.so.1 (0x00007fbb773c0000)
	libpcre2-8.so.0 => /lib64/libpcre2-8.so.0 (0x00007fbb7713a000)

SCF_NOT_CONV: SCF did not converge  in maximum number of steps.
Geom step, scf iteration, dDmax, dHmax:    0     5   1234.657410     0.006850
Job completed
