{
 "global_section": { "_calls": 1, "_time":       32.448, "_%":   100.00,
   "siesta": { "_calls": 1, "_time":       32.448, "_%":   100.00,
     "Setup": { "_calls": 1, "_time":        1.226, "_%":     3.78,
       "bands": { "_calls": 1, "_time":        0.002, "_%":     0.01},
       "KSV_init": { "_calls": 1, "_time":        0.001, "_%":     0.00}
     },
     "IterGeom": { "_calls": 1, "_time":       31.038, "_%":    95.66,
       "geom_init": { "_calls": 1, "_time":        8.258, "_%":    25.45,
         "state_init": { "_calls": 1, "_time":        1.671, "_%":     5.15,
           "hsparse": { "_calls": 1, "_time":        0.128, "_%":     0.40},
           "overlap": { "_calls": 1, "_time":        0.726, "_%":     2.24}
         },
         "Setup_H0": { "_calls": 1, "_time":        6.586, "_%":    20.30,
           "naefs": { "_calls": 1, "_time":        0.023, "_%":     0.07},
           "MolMec": { "_calls": 1, "_time":        0.000, "_%":     0.00},
           "kinefsm": { "_calls": 1, "_time":        0.732, "_%":     2.25},
           "nlefsm": { "_calls": 1, "_time":        1.716, "_%":     5.29},
           "DHSCF_Init": { "_calls": 1, "_time":        4.100, "_%":    12.64,
             "DHSCF1": { "_calls": 1, "_time":        0.043, "_%":     0.13,
               "INITMESH": { "_calls": 1, "_time":        0.000, "_%":     0.00}
             },
             "DHSCF2": { "_calls": 1, "_time":        4.034, "_%":    12.43,
               "REMESH": { "_calls": 1, "_time":        2.323, "_%":     7.16,
                 "INITMESH": { "_calls": 2, "_time":        2.202, "_%":     6.79,
                   "SPLOAD": { "_calls": 2, "_time":        1.386, "_%":     4.27}
                 }
               },
               "REORD": { "_calls": 2, "_time":        0.004, "_%":     0.01},
               "PHION": { "_calls": 1, "_time":        0.135, "_%":     0.42},
               "COMM_BSC": { "_calls": 1, "_time":        0.024, "_%":     0.07},
               "POISON": { "_calls": 1, "_time":        1.125, "_%":     3.47,
                 "fft": { "_calls": 2, "_time":        1.077, "_%":     3.32}
               }
             }
           }
         }
       },
       "IterSCF": { "_calls": 5, "_time":       22.722, "_%":    70.03,
         "setup_H": { "_calls": 5, "_time":        8.936, "_%":    27.54,
           "DHSCF": { "_calls": 5, "_time":        8.913, "_%":    27.47,
             "DHSCF3": { "_calls": 5, "_time":        8.913, "_%":    27.47,
               "rhoofd": { "_calls": 5, "_time":        0.120, "_%":     0.37},
               "COMM_BSC": { "_calls": 10, "_time":        0.270, "_%":     0.83},
               "POISON": { "_calls": 5, "_time":        5.504, "_%":    16.96,
                 "fft": { "_calls": 10, "_time":        5.264, "_%":    16.22}
               },
               "XC": { "_calls": 5, "_time":        2.383, "_%":     7.34,
                 "COMM_BSC": { "_calls": 10, "_time":        0.243, "_%":     0.75},
                 "GXC-CellXC": { "_calls": 5, "_time":        2.078, "_%":     6.40,
                   "gridxc@cellXC": { "_calls": 5, "_time":        2.078, "_%":     6.40}
                 }
               },
               "vmat": { "_calls": 5, "_time":        0.107, "_%":     0.33}
             }
           }
         },
         "compute_dm": { "_calls": 5, "_time":       13.764, "_%":    42.42,
           "elsi": { "_calls": 5, "_time":       13.630, "_%":    42.01,
             "find nnz_g": { "_calls": 5, "_time":        0.000, "_%":     0.00},
             "elsi-solver": { "_calls": 5, "_time":       13.611, "_%":    41.95}
           }
         },
         "MIXER": { "_calls": 5, "_time":        0.003, "_%":     0.01}
       },
       "state_analysis": { "_calls": 1, "_time":        0.050, "_%":     0.15},
       "siesta_move": { "_calls": 1, "_time":        0.000, "_%":     0.00}
     },
     "Analysis": { "_calls": 1, "_time":        0.144, "_%":     0.44,
       "optical": { "_calls": 1, "_time":        0.001, "_%":     0.00}
     }
   }
 }}
