{
 "global_section": { "_calls": 1, "_time":      937.249, "_%":   100.00,
   "siesta": { "_calls": 1, "_time":      937.249, "_%":   100.00,
     "Setup": { "_calls": 1, "_time":        1.422, "_%":     0.15,
       "bands": { "_calls": 1, "_time":        0.003, "_%":     0.00},
       "KSV_init": { "_calls": 1, "_time":        0.001, "_%":     0.00}
     },
     "IterGeom": { "_calls": 1, "_time":      935.668, "_%":    99.83,
       "geom_init": { "_calls": 1, "_time":        3.975, "_%":     0.42,
         "state_init": { "_calls": 1, "_time":        0.507, "_%":     0.05,
           "hsparse": { "_calls": 1, "_time":        0.129, "_%":     0.01},
           "overlap": { "_calls": 1, "_time":        0.046, "_%":     0.00}
         },
         "Setup_H0": { "_calls": 1, "_time":        3.467, "_%":     0.37,
           "naefs": { "_calls": 1, "_time":        0.024, "_%":     0.00},
           "MolMec": { "_calls": 1, "_time":        0.000, "_%":     0.00},
           "kinefsm": { "_calls": 1, "_time":        0.042, "_%":     0.00},
           "nlefsm": { "_calls": 1, "_time":        0.178, "_%":     0.02},
           "DHSCF_Init": { "_calls": 1, "_time":        3.208, "_%":     0.34,
             "DHSCF1": { "_calls": 1, "_time":        0.053, "_%":     0.01,
               "INITMESH": { "_calls": 1, "_time":        0.000, "_%":     0.00}
             },
             "DHSCF2": { "_calls": 1, "_time":        3.135, "_%":     0.33,
               "REMESH": { "_calls": 1, "_time":        0.457, "_%":     0.05,
                 "INITMESH": { "_calls": 2, "_time":        0.423, "_%":     0.05,
                   "SPLOAD": { "_calls": 2, "_time":        0.236, "_%":     0.03}
                 }
               },
               "REORD": { "_calls": 2, "_time":        0.013, "_%":     0.00},
               "PHION": { "_calls": 1, "_time":        0.077, "_%":     0.01},
               "COMM_BSC": { "_calls": 1, "_time":        0.063, "_%":     0.01},
               "POISON": { "_calls": 1, "_time":        2.211, "_%":     0.24,
                 "fft": { "_calls": 2, "_time":        2.130, "_%":     0.23}
               }
             }
           }
         }
       },
       "IterSCF": { "_calls": 5, "_time":      931.505, "_%":    99.39,
         "setup_H": { "_calls": 5, "_time":       18.242, "_%":     1.95,
           "DHSCF": { "_calls": 5, "_time":       18.136, "_%":     1.94,
             "DHSCF3": { "_calls": 5, "_time":       18.136, "_%":     1.94,
               "rhoofd": { "_calls": 5, "_time":        0.298, "_%":     0.03},
               "COMM_BSC": { "_calls": 10, "_time":        0.670, "_%":     0.07},
               "POISON": { "_calls": 5, "_time":       10.954, "_%":     1.17,
                 "fft": { "_calls": 10, "_time":       10.470, "_%":     1.12}
               },
               "XC": { "_calls": 5, "_time":        5.000, "_%":     0.53,
                 "COMM_BSC": { "_calls": 10, "_time":        0.472, "_%":     0.05},
                 "GXC-CellXC": { "_calls": 5, "_time":        4.337, "_%":     0.46,
                   "gridxc@cellXC": { "_calls": 5, "_time":        4.337, "_%":     0.46}
                 }
               },
               "vmat": { "_calls": 5, "_time":        0.269, "_%":     0.03}
             }
           }
         },
         "compute_dm": { "_calls": 5, "_time":      912.819, "_%":    97.39,
           "redist_orbs_fwd": { "_calls": 20, "_time":        0.770, "_%":     0.08},
           "elsi-complex-solver": { "_calls": 5, "_time":      911.078, "_%":    97.21,
             "elsi-solver": { "_calls": 5, "_time":      910.679, "_%":    97.17}
           },
           "redist_dm-edm_bck": { "_calls": 5, "_time":        0.614, "_%":     0.07}
         },
         "MIXER": { "_calls": 5, "_time":        0.201, "_%":     0.02}
       },
       "state_analysis": { "_calls": 1, "_time":        0.053, "_%":     0.01},
       "siesta_move": { "_calls": 1, "_time":        0.000, "_%":     0.00}
     },
     "Analysis": { "_calls": 1, "_time":        0.145, "_%":     0.02,
       "optical": { "_calls": 1, "_time":        0.001, "_%":     0.00}
     }
   }
 }}
