JobId=1589564 JobName=CovidWeakKPoints
   UserId=it4i-fpedron(9897) GroupId=it4i-fpedron(11979) MCS_label=N/A
   Priority=202339174 Nice=0 Account=dd-24-70 QOS=2820_4663
   JobState=RUNNING Reason=None Dependency=(null)
   Requeue=1 Restarts=0 BatchFlag=1 Reboot=0 ExitCode=0:0
   DerivedExitCode=0:0
   RunTime=00:00:03 TimeLimit=03:59:00 TimeMin=N/A
   SubmitTime=2024-09-06T10:20:33 EligibleTime=2024-09-06T10:20:33
   AccrueTime=2024-09-06T10:20:33
   StartTime=2024-09-06T10:20:34 EndTime=2024-09-06T14:19:34 Deadline=N/A
   PreemptEligibleTime=2024-09-06T10:20:34 PreemptTime=None
   SuspendTime=None SecsPreSuspend=0 LastSchedEval=2024-09-06T10:20:34 Scheduler=Main
   Partition=qcpu AllocNode:Sid=login4.karolina.it4i.cz:2057582
   ReqNodeList=(null) ExcNodeList=(null)
   NodeList=cn[142,677-683]
   BatchHost=cn142
   NumNodes=8 NumCPUs=1024 NumTasks=1024 CPUs/Task=1 ReqB:S:C:T=0:0:*:*
   ReqTRES=cpu=1024,mem=1840G,node=8,billing=8
   AllocTRES=cpu=1024,mem=1840G,node=8,billing=8
   Socks/Node=* NtasksPerN:B:S:C=128:0:*:* CoreSpec=*
   JOB_GRES=(null)
     Nodes=cn[142,677-683] CPU_IDs=0-127 Mem=235520 GRES=
   MinCPUsNode=128 MinMemoryNode=230G MinTmpDiskNode=0
   Features=(null) DelayBoot=00:00:00
   OverSubscribe=NO Contiguous=0 Licenses=(null) Network=(null)
   Command=/home/it4i-fpedron/JUBE4MaX/max-inputs/interface/siesta/_CovidWeakKPoints/000000/000003_submit/work/submit.job
   WorkDir=/home/it4i-fpedron/JUBE4MaX/max-inputs/interface/siesta/_CovidWeakKPoints/000000/000003_submit/work
   StdErr=/home/it4i-fpedron/JUBE4MaX/max-inputs/interface/siesta/_CovidWeakKPoints/000000/000003_submit/work/slurm-1589564.out
   StdIn=/dev/null
   StdOut=/home/it4i-fpedron/JUBE4MaX/max-inputs/interface/siesta/_CovidWeakKPoints/000000/000003_submit/work/slurm-1589564.out
   Power=
   TresPerTask=cpu:1
   

