{
 "global_section": { "_calls": 1, "_time":    24974.773, "_%":   100.00,
   "siesta": { "_calls": 1, "_time":    24974.773, "_%":   100.00,
     "Setup": { "_calls": 1, "_time":        7.478, "_%":     0.03,
       "bands": { "_calls": 1, "_time":        0.003, "_%":     0.00},
       "KSV_init": { "_calls": 1, "_time":        0.001, "_%":     0.00}
     },
     "IterGeom": { "_calls": 1, "_time":    24965.724, "_%":    99.96,
       "geom_init": { "_calls": 1, "_time":      182.778, "_%":     0.73,
         "state_init": { "_calls": 1, "_time":       27.689, "_%":     0.11,
           "hsparse": { "_calls": 1, "_time":        0.575, "_%":     0.00},
           "overlap": { "_calls": 1, "_time":        0.257, "_%":     0.00}
         },
         "Setup_H0": { "_calls": 1, "_time":      155.088, "_%":     0.62,
           "naefs": { "_calls": 1, "_time":        0.134, "_%":     0.00},
           "MolMec": { "_calls": 1, "_time":        0.000, "_%":     0.00},
           "kinefsm": { "_calls": 1, "_time":        0.264, "_%":     0.00},
           "nlefsm": { "_calls": 1, "_time":        0.826, "_%":     0.00},
           "DHSCF_Init": { "_calls": 1, "_time":      153.780, "_%":     0.62,
             "DHSCF1": { "_calls": 1, "_time":        0.276, "_%":     0.00,
               "INITMESH": { "_calls": 1, "_time":        0.000, "_%":     0.00}
             },
             "DHSCF2": { "_calls": 1, "_time":      153.417, "_%":     0.61,
               "REMESH": { "_calls": 1, "_time":      130.032, "_%":     0.52,
                 "INITMESH": { "_calls": 2, "_time":      129.941, "_%":     0.52,
                   "SPLOAD": { "_calls": 2, "_time":      129.766, "_%":     0.52}
                 }
               },
               "REORD": { "_calls": 2, "_time":        0.013, "_%":     0.00},
               "PHION": { "_calls": 1, "_time":        0.703, "_%":     0.00},
               "COMM_BSC": { "_calls": 1, "_time":        1.056, "_%":     0.00},
               "POISON": { "_calls": 1, "_time":       10.867, "_%":     0.04,
                 "fft": { "_calls": 2, "_time":       10.688, "_%":     0.04}
               }
             }
           }
         }
       },
       "IterSCF": { "_calls": 5, "_time":    24782.608, "_%":    99.23,
         "setup_H": { "_calls": 5, "_time":      140.023, "_%":     0.56,
           "DHSCF": { "_calls": 5, "_time":      137.864, "_%":     0.55,
             "DHSCF3": { "_calls": 5, "_time":      137.864, "_%":     0.55,
               "rhoofd": { "_calls": 5, "_time":        3.124, "_%":     0.01},
               "COMM_BSC": { "_calls": 10, "_time":        9.824, "_%":     0.04},
               "POISON": { "_calls": 5, "_time":       38.979, "_%":     0.16,
                 "fft": { "_calls": 10, "_time":       37.709, "_%":     0.15}
               },
               "XC": { "_calls": 5, "_time":       74.372, "_%":     0.30,
                 "COMM_BSC": { "_calls": 10, "_time":        8.919, "_%":     0.04},
                 "GXC-CellXC": { "_calls": 5, "_time":       64.899, "_%":     0.26,
                   "gridxc@cellXC": { "_calls": 5, "_time":       64.899, "_%":     0.26}
                 }
               },
               "vmat": { "_calls": 5, "_time":        4.855, "_%":     0.02}
             }
           }
         },
         "compute_dm": { "_calls": 5, "_time":    24635.606, "_%":    98.64,
           "redist_orbs_fwd": { "_calls": 20, "_time":       41.058, "_%":     0.16},
           "elsi-complex-solver": { "_calls": 5, "_time":    24581.317, "_%":    98.42,
             "elsi-solver": { "_calls": 5, "_time":    24579.481, "_%":    98.42}
           },
           "redist_dm-edm_bck": { "_calls": 5, "_time":        4.446, "_%":     0.02}
         },
         "MIXER": { "_calls": 5, "_time":        1.706, "_%":     0.01}
       },
       "state_analysis": { "_calls": 1, "_time":        0.118, "_%":     0.00},
       "siesta_move": { "_calls": 1, "_time":        0.000, "_%":     0.00}
     },
     "Analysis": { "_calls": 1, "_time":        0.731, "_%":     0.00,
       "optical": { "_calls": 1, "_time":        0.001, "_%":     0.00}
     }
   }
 }}
