{
 "global_section": { "_calls": 1, "_time":     8581.241, "_%":   100.00,
   "siesta": { "_calls": 1, "_time":     8581.241, "_%":   100.00,
     "Setup": { "_calls": 1, "_time":        1.530, "_%":     0.02,
       "bands": { "_calls": 1, "_time":        0.002, "_%":     0.00},
       "KSV_init": { "_calls": 1, "_time":        0.001, "_%":     0.00}
     },
     "IterGeom": { "_calls": 1, "_time":     8579.403, "_%":    99.98,
       "geom_init": { "_calls": 1, "_time":       17.686, "_%":     0.21,
         "state_init": { "_calls": 1, "_time":        2.077, "_%":     0.02,
           "hsparse": { "_calls": 1, "_time":        0.140, "_%":     0.00},
           "overlap": { "_calls": 1, "_time":        1.247, "_%":     0.01}
         },
         "Setup_H0": { "_calls": 1, "_time":       15.608, "_%":     0.18,
           "naefs": { "_calls": 1, "_time":        0.023, "_%":     0.00},
           "MolMec": { "_calls": 1, "_time":        0.000, "_%":     0.00},
           "kinefsm": { "_calls": 1, "_time":        1.231, "_%":     0.01},
           "nlefsm": { "_calls": 1, "_time":        3.047, "_%":     0.04},
           "DHSCF_Init": { "_calls": 1, "_time":       11.292, "_%":     0.13,
             "DHSCF1": { "_calls": 1, "_time":        0.080, "_%":     0.00,
               "INITMESH": { "_calls": 1, "_time":        0.000, "_%":     0.00}
             },
             "DHSCF2": { "_calls": 1, "_time":       11.192, "_%":     0.13,
               "REMESH": { "_calls": 1, "_time":        0.549, "_%":     0.01,
                 "INITMESH": { "_calls": 2, "_time":        0.497, "_%":     0.01,
                   "SPLOAD": { "_calls": 2, "_time":        0.486, "_%":     0.01}
                 }
               },
               "REORD": { "_calls": 2, "_time":        0.050, "_%":     0.00},
               "PHION": { "_calls": 1, "_time":        1.047, "_%":     0.01},
               "COMM_BSC": { "_calls": 1, "_time":        0.167, "_%":     0.00},
               "POISON": { "_calls": 1, "_time":        8.621, "_%":     0.10,
                 "fft": { "_calls": 2, "_time":        8.263, "_%":     0.10}
               }
             }
           }
         }
       },
       "IterSCF": { "_calls": 5, "_time":     8561.660, "_%":    99.77,
         "setup_H": { "_calls": 5, "_time":       66.898, "_%":     0.78,
           "DHSCF": { "_calls": 5, "_time":       66.744, "_%":     0.78,
             "DHSCF3": { "_calls": 5, "_time":       66.744, "_%":     0.78,
               "rhoofd": { "_calls": 5, "_time":        0.618, "_%":     0.01},
               "COMM_BSC": { "_calls": 10, "_time":        1.892, "_%":     0.02},
               "POISON": { "_calls": 5, "_time":       42.673, "_%":     0.50,
                 "fft": { "_calls": 10, "_time":       40.826, "_%":     0.48}
               },
               "XC": { "_calls": 5, "_time":       17.340, "_%":     0.20,
                 "COMM_BSC": { "_calls": 10, "_time":        2.150, "_%":     0.03},
                 "GXC-CellXC": { "_calls": 5, "_time":       14.657, "_%":     0.17,
                   "gridxc@cellXC": { "_calls": 5, "_time":       14.657, "_%":     0.17}
                 }
               },
               "vmat": { "_calls": 5, "_time":        0.582, "_%":     0.01}
             }
           }
         },
         "compute_dm": { "_calls": 5, "_time":     8494.717, "_%":    98.99,
           "diagon": { "_calls": 5, "_time":     8489.734, "_%":    98.93,
             "r-eigvec": { "_calls": 5, "_time":     8321.444, "_%":    96.97,
               "r-buildHS": { "_calls": 5, "_time":        1.794, "_%":     0.02},
               "rdiag": { "_calls": 5, "_time":     8319.649, "_%":    96.95,
                 "rdiag1": { "_calls": 5, "_time":      187.146, "_%":     2.18},
                 "rdiag2": { "_calls": 5, "_time":      549.594, "_%":     6.40},
                 "rdiag3": { "_calls": 5, "_time":     6716.449, "_%":    78.27},
                 "rdiag4": { "_calls": 5, "_time":      851.290, "_%":     9.92}
               }
             },
             "r-buildD": { "_calls": 5, "_time":      164.740, "_%":     1.92}
           }
         },
         "MIXER": { "_calls": 5, "_time":        0.012, "_%":     0.00}
       },
       "state_analysis": { "_calls": 1, "_time":        0.049, "_%":     0.00},
       "siesta_move": { "_calls": 1, "_time":        0.000, "_%":     0.00}
     },
     "Analysis": { "_calls": 1, "_time":        0.297, "_%":     0.00,
       "optical": { "_calls": 1, "_time":        0.001, "_%":     0.00}
     }
   }
 }}
