{
 "global_section": { "_calls": 1, "_time":      801.591, "_%":   100.00,
   "siesta": { "_calls": 1, "_time":      801.591, "_%":   100.00,
     "Setup": { "_calls": 1, "_time":        1.485, "_%":     0.19,
       "bands": { "_calls": 1, "_time":        0.002, "_%":     0.00},
       "KSV_init": { "_calls": 1, "_time":        0.000, "_%":     0.00}
     },
     "IterGeom": { "_calls": 1, "_time":      799.571, "_%":    99.75,
       "geom_init": { "_calls": 1, "_time":        2.750, "_%":     0.34,
         "state_init": { "_calls": 1, "_time":        0.512, "_%":     0.06,
           "hsparse": { "_calls": 1, "_time":        0.114, "_%":     0.01},
           "overlap": { "_calls": 1, "_time":        0.034, "_%":     0.00}
         },
         "Setup_H0": { "_calls": 1, "_time":        2.237, "_%":     0.28,
           "naefs": { "_calls": 1, "_time":        0.017, "_%":     0.00},
           "MolMec": { "_calls": 1, "_time":        0.000, "_%":     0.00},
           "kinefsm": { "_calls": 1, "_time":        0.032, "_%":     0.00},
           "nlefsm": { "_calls": 1, "_time":        0.117, "_%":     0.01},
           "DHSCF_Init": { "_calls": 1, "_time":        2.060, "_%":     0.26,
             "DHSCF1": { "_calls": 1, "_time":        0.026, "_%":     0.00,
               "INITMESH": { "_calls": 1, "_time":        0.000, "_%":     0.00}
             },
             "DHSCF2": { "_calls": 1, "_time":        2.020, "_%":     0.25,
               "REMESH": { "_calls": 1, "_time":        0.853, "_%":     0.11,
                 "INITMESH": { "_calls": 2, "_time":        0.757, "_%":     0.09,
                   "SPLOAD": { "_calls": 2, "_time":        0.185, "_%":     0.02}
                 }
               },
               "REORD": { "_calls": 2, "_time":        0.006, "_%":     0.00},
               "PHION": { "_calls": 1, "_time":        0.031, "_%":     0.00},
               "COMM_BSC": { "_calls": 1, "_time":        0.033, "_%":     0.00},
               "POISON": { "_calls": 1, "_time":        0.791, "_%":     0.10,
                 "fft": { "_calls": 2, "_time":        0.750, "_%":     0.09}
               }
             }
           }
         }
       },
       "IterSCF": { "_calls": 5, "_time":      796.665, "_%":    99.39,
         "setup_H": { "_calls": 5, "_time":        6.521, "_%":     0.81,
           "DHSCF": { "_calls": 5, "_time":        6.519, "_%":     0.81,
             "DHSCF3": { "_calls": 5, "_time":        6.519, "_%":     0.81,
               "rhoofd": { "_calls": 5, "_time":        0.089, "_%":     0.01},
               "COMM_BSC": { "_calls": 10, "_time":        0.284, "_%":     0.04},
               "POISON": { "_calls": 5, "_time":        3.583, "_%":     0.45,
                 "fft": { "_calls": 10, "_time":        3.359, "_%":     0.42}
               },
               "XC": { "_calls": 5, "_time":        2.073, "_%":     0.26,
                 "COMM_BSC": { "_calls": 10, "_time":        0.209, "_%":     0.03},
                 "GXC-CellXC": { "_calls": 5, "_time":        1.801, "_%":     0.22,
                   "gridxc@cellXC": { "_calls": 5, "_time":        1.801, "_%":     0.22}
                 }
               },
               "vmat": { "_calls": 5, "_time":        0.082, "_%":     0.01}
             }
           }
         },
         "compute_dm": { "_calls": 5, "_time":      790.122, "_%":    98.57,
           "redist_orbs_fwd": { "_calls": 80, "_time":        5.404, "_%":     0.67},
           "elsi-complex-solver": { "_calls": 5, "_time":      784.537, "_%":    97.87,
             "elsi-solver": { "_calls": 5, "_time":      784.435, "_%":    97.86}
           },
           "redist_dm-edm_bck": { "_calls": 5, "_time":        0.164, "_%":     0.02}
         },
         "MIXER": { "_calls": 5, "_time":        0.007, "_%":     0.00}
       },
       "state_analysis": { "_calls": 1, "_time":        0.076, "_%":     0.01},
       "siesta_move": { "_calls": 1, "_time":        0.000, "_%":     0.00}
     },
     "Analysis": { "_calls": 1, "_time":        0.194, "_%":     0.02,
       "optical": { "_calls": 1, "_time":        0.001, "_%":     0.00}
     }
   }
 }}
