{
 "global_section": { "_calls": 1, "_time":      107.718, "_%":   100.00,
   "siesta": { "_calls": 1, "_time":      107.718, "_%":   100.00,
     "Setup": { "_calls": 1, "_time":        2.012, "_%":     1.87,
       "bands": { "_calls": 1, "_time":        0.002, "_%":     0.00},
       "KSV_init": { "_calls": 1, "_time":        0.001, "_%":     0.00}
     },
     "IterGeom": { "_calls": 1, "_time":      105.411, "_%":    97.86,
       "geom_init": { "_calls": 1, "_time":       12.209, "_%":    11.33,
         "state_init": { "_calls": 1, "_time":        0.874, "_%":     0.81,
           "hsparse": { "_calls": 1, "_time":        0.257, "_%":     0.24},
           "overlap": { "_calls": 1, "_time":        0.098, "_%":     0.09}
         },
         "Setup_H0": { "_calls": 1, "_time":       11.332, "_%":    10.52,
           "naefs": { "_calls": 1, "_time":        0.043, "_%":     0.04},
           "MolMec": { "_calls": 1, "_time":        0.000, "_%":     0.00},
           "kinefsm": { "_calls": 1, "_time":        0.090, "_%":     0.08},
           "nlefsm": { "_calls": 1, "_time":        0.290, "_%":     0.27},
           "DHSCF_Init": { "_calls": 1, "_time":       10.880, "_%":    10.10,
             "DHSCF1": { "_calls": 1, "_time":        0.077, "_%":     0.07,
               "INITMESH": { "_calls": 1, "_time":        0.000, "_%":     0.00}
             },
             "DHSCF2": { "_calls": 1, "_time":       10.768, "_%":    10.00,
               "REMESH": { "_calls": 1, "_time":        8.234, "_%":     7.64,
                 "INITMESH": { "_calls": 2, "_time":        7.784, "_%":     7.23,
                   "SPLOAD": { "_calls": 2, "_time":        1.121, "_%":     1.04}
                 }
               },
               "REORD": { "_calls": 2, "_time":        0.003, "_%":     0.00},
               "PHION": { "_calls": 1, "_time":        0.050, "_%":     0.05},
               "COMM_BSC": { "_calls": 1, "_time":        0.073, "_%":     0.07},
               "POISON": { "_calls": 1, "_time":        1.366, "_%":     1.27,
                 "fft": { "_calls": 2, "_time":        1.336, "_%":     1.24}
               }
             }
           }
         }
       },
       "IterSCF": { "_calls": 5, "_time":       93.041, "_%":    86.37,
         "setup_H": { "_calls": 5, "_time":       11.628, "_%":    10.80,
           "DHSCF": { "_calls": 5, "_time":       11.586, "_%":    10.76,
             "DHSCF3": { "_calls": 5, "_time":       11.586, "_%":    10.76,
               "rhoofd": { "_calls": 5, "_time":        0.172, "_%":     0.16},
               "COMM_BSC": { "_calls": 10, "_time":        1.963, "_%":     1.82},
               "POISON": { "_calls": 5, "_time":        5.892, "_%":     5.47,
                 "fft": { "_calls": 10, "_time":        5.649, "_%":     5.24}
               },
               "XC": { "_calls": 5, "_time":        2.670, "_%":     2.48,
                 "COMM_BSC": { "_calls": 10, "_time":        0.284, "_%":     0.26},
                 "GXC-CellXC": { "_calls": 5, "_time":        2.342, "_%":     2.17,
                   "gridxc@cellXC": { "_calls": 5, "_time":        2.341, "_%":     2.17}
                 }
               },
               "vmat": { "_calls": 5, "_time":        0.100, "_%":     0.09}
             }
           }
         },
         "compute_dm": { "_calls": 5, "_time":       81.131, "_%":    75.32,
           "elsi": { "_calls": 5, "_time":       80.946, "_%":    75.15,
             "find nnz_g": { "_calls": 5, "_time":        0.000, "_%":     0.00},
             "elsi-solver": { "_calls": 5, "_time":       80.896, "_%":    75.10}
           }
         },
         "MIXER": { "_calls": 5, "_time":        0.150, "_%":     0.14}
       },
       "state_analysis": { "_calls": 1, "_time":        0.100, "_%":     0.09},
       "siesta_move": { "_calls": 1, "_time":        0.000, "_%":     0.00}
     },
     "Analysis": { "_calls": 1, "_time":        0.279, "_%":     0.26,
       "optical": { "_calls": 1, "_time":        0.001, "_%":     0.00}
     }
   }
 }}
