JobID        JobIDRaw        JobName  Partition  MaxVMSize  MaxVMSizeNode  MaxVMSizeTask  AveVMSize     MaxRSS MaxRSSNode MaxRSSTask     AveRSS MaxPages MaxPagesNode   MaxPagesTask   AvePages     MinCPU MinCPUNode MinCPUTask     AveCPU   NTasks  AllocCPUS    Elapsed      State ExitCode AveCPUFreq ReqCPUFreqMin ReqCPUFreqMax ReqCPUFreqGov     ReqMem ConsumedEnergy  MaxDiskRead MaxDiskReadNode MaxDiskReadTask    AveDiskRead MaxDiskWrite MaxDiskWriteNode MaxDiskWriteTask   AveDiskWrite    ReqTRES  AllocTRES TRESUsageInAve TRESUsageInMax TRESUsageInMaxNode TRESUsageInMaxTask TRESUsageInMin TRESUsageInMinNode TRESUsageInMinTask TRESUsageInTot TRESUsageOutMax TRESUsageOutMaxNode TRESUsageOutMaxTask TRESUsageOutAve TRESUsageOutTot 
------------ ------------ ---------- ---------- ---------- -------------- -------------- ---------- ---------- ---------- ---------- ---------- -------- ------------ -------------- ---------- ---------- ---------- ---------- ---------- -------- ---------- ---------- ---------- -------- ---------- ------------- ------------- ------------- ---------- -------------- ------------ --------------- --------------- -------------- ------------ ---------------- ---------------- -------------- ---------- ---------- -------------- -------------- ------------------ ------------------ -------------- ------------------ ------------------ -------------- --------------- ------------------- ------------------- --------------- --------------- 
13549128     13549128     submit.job boost_usr+                                                                                                                                                                                                             160   00:05:36    RUNNING      0:0                  Unknown       Unknown       Unknown   2464000M                                                                                                                                          billing=1+ billing=1+                                                                                                                                                                                                                                 
13549128.ba+ 13549128.ba+      batch                                                                                                                                                                                                               1         32   00:05:36    RUNNING      0:0          0             0             0             0                         0                                                                                                                                      cpu=32,gr+                                                                                                                                                                                                                                 
13549128.ex+ 13549128.ex+     extern                                                                                                                                                                                                               5        160   00:05:36    RUNNING      0:0          0             0             0             0                         0                                                                                                                                      billing=1+                                                                                                                                                                                                                                 
13549128.0   13549128.0   wrapper-s+              1891920K       lrdn2345              0  374144614   1729372K   lrdn2345          0  348936140      858     lrdn2345              0        119   00:05:22   lrdn2345          0   00:05:23       80        160   00:05:30  COMPLETED      0:0    137.22M       Unknown       Unknown       Unknown                         0        0.08M        lrdn2446              64          0.07M        0.00M         lrdn2446               75          0.00M            cpu=160,g+ cpu=00:05:23,+ cpu=00:05:24,+ cpu=lrdn2437,ener+ cpu=48,fs/disk=64+ cpu=00:05:22,+ cpu=lrdn2345,ener+ cpu=0,fs/disk=7,m+ cpu=07:11:24,+ energy=0,fs/di+ energy=lrdn2446,fs+          fs/disk=75 energy=0,fs/di+ energy=0,fs/di+ 
13549128.1   13549128.1   wrapper-s+                  544K       lrdn2345              0      23296       540K   lrdn2345          0      23244        0     lrdn2446             70          0   00:00:00   lrdn2446         70   00:00:00       80        160   00:00:00  COMPLETED      0:0     41.88G       Unknown       Unknown       Unknown                         0        0.07M        lrdn2446              79          0.06M        0.00M         lrdn2446               79          0.00M            cpu=160,g+ cpu=00:00:00,+ cpu=00:00:00,+ cpu=lrdn2407,ener+ cpu=16,fs/disk=79+ cpu=00:00:00,+ cpu=lrdn2446,ener+ cpu=70,fs/disk=70+ cpu=00:00:01,+ energy=0,fs/di+ energy=lrdn2446,fs+          fs/disk=79 energy=0,fs/di+ energy=0,fs/di+ 
