JobId=13549128 JobName=submit.job
   UserId=lbellen1(33678) GroupId=interactive(25200) MCS_label=N/A
   Priority=139245 Nice=0 Account=cin_staff QOS=normal
   JobState=RUNNING Reason=Prolog Dependency=(null)
   Requeue=0 Restarts=0 BatchFlag=1 Reboot=0 ExitCode=0:0
   DerivedExitCode=0:0
   RunTime=00:00:05 TimeLimit=00:30:00 TimeMin=N/A
   SubmitTime=2025-03-06T22:20:34 EligibleTime=2025-03-06T22:20:34
   AccrueTime=2025-03-06T22:20:34
   StartTime=2025-03-06T22:20:37 EndTime=2025-03-06T22:50:38 Deadline=N/A
   SuspendTime=None SecsPreSuspend=0 LastSchedEval=2025-03-06T22:20:37 Scheduler=Main
   Partition=boost_usr_prod AllocNode:Sid=slurm-controller:2127974
   ReqNodeList=(null) ExcNodeList=(null)
   NodeList=lrdn[2345,2407,2418,2437,2446]
   BatchHost=lrdn2345
   NumNodes=5 NumCPUs=160 NumTasks=80 CPUs/Task=2 ReqB:S:C:T=0:0:*:*
   TRES=cpu=160,mem=2464000M,node=5,billing=160,gres/gpu=20
   Socks/Node=* NtasksPerN:B:S:C=16:0:*:* CoreSpec=*
   JOB_GRES=gpu:a100:20
     Nodes=lrdn[2345,2407,2418,2437,2446] CPU_IDs=0-31 Mem=492800 GRES=gpu:a100:4(IDX:0-3)
   MinCPUsNode=32 MinMemoryCPU=15400M MinTmpDiskNode=0
   Features=(null) DelayBoot=00:00:00
   OverSubscribe=NO Contiguous=0 Licenses=(null) Network=(null)
   Command=/leonardo_scratch/fast/Max3_devel_2/WP3/qe/mps/phonon/quartz9/phonon-distr/mps/logfiles_mixed/000001/000018_submit_N5np16/work/submit.job
   WorkDir=/leonardo_scratch/fast/Max3_devel_2/WP3/qe/mps/phonon/quartz9/phonon-distr/mps/logfiles_mixed/000001/000018_submit_N5np16/work
   StdErr=/leonardo_scratch/fast/Max3_devel_2/WP3/qe/mps/phonon/quartz9/phonon-distr/mps/logfiles_mixed/000001/000018_submit_N5np16/work/slurm-13549128.out
   StdIn=/dev/null
   StdOut=/leonardo_scratch/fast/Max3_devel_2/WP3/qe/mps/phonon/quartz9/phonon-distr/mps/logfiles_mixed/000001/000018_submit_N5np16/work/slurm-13549128.out
   Power=
   TresPerNode=gres:gpu:4
   

