{
 "global_section": { "_calls": 1, "_time":      570.470, "_%":   100.00,
   "siesta": { "_calls": 1, "_time":      570.470, "_%":   100.00,
     "Setup": { "_calls": 1, "_time":        1.178, "_%":     0.21,
       "bands": { "_calls": 1, "_time":        0.002, "_%":     0.00},
       "KSV_init": { "_calls": 1, "_time":        0.001, "_%":     0.00}
     },
     "IterGeom": { "_calls": 1, "_time":      569.124, "_%":    99.76,
       "geom_init": { "_calls": 1, "_time":       14.391, "_%":     2.52,
         "state_init": { "_calls": 1, "_time":        0.416, "_%":     0.07,
           "hsparse": { "_calls": 1, "_time":        0.120, "_%":     0.02},
           "overlap": { "_calls": 1, "_time":        0.115, "_%":     0.02}
         },
         "Setup_H0": { "_calls": 1, "_time":       13.974, "_%":     2.45,
           "naefs": { "_calls": 1, "_time":        0.020, "_%":     0.00},
           "MolMec": { "_calls": 1, "_time":        0.000, "_%":     0.00},
           "kinefsm": { "_calls": 1, "_time":        0.113, "_%":     0.02},
           "nlefsm": { "_calls": 1, "_time":        0.413, "_%":     0.07},
           "DHSCF_Init": { "_calls": 1, "_time":       13.413, "_%":     2.35,
             "DHSCF1": { "_calls": 1, "_time":        0.091, "_%":     0.02,
               "INITMESH": { "_calls": 1, "_time":        0.000, "_%":     0.00}
             },
             "DHSCF2": { "_calls": 1, "_time":       13.306, "_%":     2.33,
               "REMESH": { "_calls": 1, "_time":        0.136, "_%":     0.02,
                 "INITMESH": { "_calls": 2, "_time":        0.096, "_%":     0.02,
                   "SPLOAD": { "_calls": 2, "_time":        0.092, "_%":     0.02}
                 }
               },
               "REORD": { "_calls": 2, "_time":        0.049, "_%":     0.01},
               "PHION": { "_calls": 1, "_time":        0.814, "_%":     0.14},
               "COMM_BSC": { "_calls": 1, "_time":        0.297, "_%":     0.05},
               "POISON": { "_calls": 1, "_time":       11.066, "_%":     1.94,
                 "fft": { "_calls": 2, "_time":       10.580, "_%":     1.85}
               }
             }
           }
         }
       },
       "IterSCF": { "_calls": 5, "_time":      554.358, "_%":    97.18,
         "setup_H": { "_calls": 5, "_time":       90.742, "_%":    15.91,
           "DHSCF": { "_calls": 5, "_time":       90.350, "_%":    15.84,
             "DHSCF3": { "_calls": 5, "_time":       90.350, "_%":    15.84,
               "rhoofd": { "_calls": 5, "_time":        0.701, "_%":     0.12},
               "COMM_BSC": { "_calls": 10, "_time":        2.824, "_%":     0.49},
               "POISON": { "_calls": 5, "_time":       54.049, "_%":     9.47,
                 "fft": { "_calls": 10, "_time":       51.453, "_%":     9.02}
               },
               "XC": { "_calls": 5, "_time":       28.399, "_%":     4.98,
                 "COMM_BSC": { "_calls": 10, "_time":        3.028, "_%":     0.53},
                 "GXC-CellXC": { "_calls": 5, "_time":       24.348, "_%":     4.27,
                   "gridxc@cellXC": { "_calls": 5, "_time":       24.348, "_%":     4.27}
                 }
               },
               "vmat": { "_calls": 5, "_time":        0.425, "_%":     0.07}
             }
           }
         },
         "compute_dm": { "_calls": 5, "_time":      463.294, "_%":    81.21,
           "elsi": { "_calls": 5, "_time":      463.012, "_%":    81.16,
             "find nnz_g": { "_calls": 5, "_time":        0.000, "_%":     0.00},
             "elsi-solver": { "_calls": 5, "_time":      462.910, "_%":    81.15}
           }
         },
         "MIXER": { "_calls": 5, "_time":        0.116, "_%":     0.02}
       },
       "state_analysis": { "_calls": 1, "_time":        0.046, "_%":     0.01},
       "siesta_move": { "_calls": 1, "_time":        0.000, "_%":     0.00}
     },
     "Analysis": { "_calls": 1, "_time":        0.152, "_%":     0.03,
       "optical": { "_calls": 1, "_time":        0.001, "_%":     0.00}
     }
   }
 }}
