JobId=10715102 JobName=submit.job
   UserId=lbellen1(33678) GroupId=interactive(25200) MCS_label=N/A
   Priority=260461 Nice=0 Account=cin_staff QOS=boost_qos_dbg
   JobState=RUNNING Reason=None Dependency=(null)
   Requeue=0 Restarts=0 BatchFlag=1 Reboot=0 ExitCode=0:0
   DerivedExitCode=0:0
   RunTime=00:00:04 TimeLimit=00:30:00 TimeMin=N/A
   SubmitTime=2024-12-28T18:23:36 EligibleTime=2024-12-28T18:23:36
   AccrueTime=2024-12-28T18:23:36
   StartTime=2024-12-28T18:24:48 EndTime=2024-12-28T18:54:48 Deadline=N/A
   SuspendTime=None SecsPreSuspend=0 LastSchedEval=2024-12-28T18:24:48 Scheduler=Main
   Partition=boost_usr_prod AllocNode:Sid=slurm-controller:277449
   ReqNodeList=(null) ExcNodeList=(null)
   NodeList=lrdn0597
   BatchHost=lrdn0597
   NumNodes=1 NumCPUs=32 NumTasks=2 CPUs/Task=1 ReqB:S:C:T=0:0:*:*
   TRES=cpu=32,mem=492800M,node=1,billing=32,gres/gpu=4
   Socks/Node=* NtasksPerN:B:S:C=2:0:*:* CoreSpec=*
   JOB_GRES=gpu:a100:4
     Nodes=lrdn0597 CPU_IDs=0-31 Mem=492800 GRES=gpu:a100:4(IDX:0-3)
   MinCPUsNode=2 MinMemoryCPU=15400M MinTmpDiskNode=0
   Features=(null) DelayBoot=00:00:00
   OverSubscribe=NO Contiguous=0 Licenses=(null) Network=(null)
   Command=/leonardo_scratch/fast/Max3_devel_2/WP3/qe/mps/phonon/weak-scaling-pw/logfiles/000000/000011_submit_N1np2/work/submit.job
   WorkDir=/leonardo_scratch/fast/Max3_devel_2/WP3/qe/mps/phonon/weak-scaling-pw/logfiles/000000/000011_submit_N1np2/work
   StdErr=/leonardo_scratch/fast/Max3_devel_2/WP3/qe/mps/phonon/weak-scaling-pw/logfiles/000000/000011_submit_N1np2/work/slurm-10715102.out
   StdIn=/dev/null
   StdOut=/leonardo_scratch/fast/Max3_devel_2/WP3/qe/mps/phonon/weak-scaling-pw/logfiles/000000/000011_submit_N1np2/work/slurm-10715102.out
   Power=
   TresPerNode=gres:gpu:1
   

