JobId=8092030 JobName=submit.job
   UserId=lbellen1(33678) GroupId=interactive(25200) MCS_label=N/A
   Priority=135571 Nice=0 Account=cin_staff QOS=normal
   JobState=RUNNING Reason=None Dependency=(null)
   Requeue=0 Restarts=0 BatchFlag=1 Reboot=0 ExitCode=0:0
   DerivedExitCode=0:0
   RunTime=00:00:03 TimeLimit=00:20:00 TimeMin=N/A
   SubmitTime=2024-10-07T16:41:58 EligibleTime=2024-10-07T16:41:58
   AccrueTime=2024-10-07T16:41:58
   StartTime=2024-10-07T16:42:07 EndTime=2024-10-07T17:02:08 Deadline=N/A
   SuspendTime=None SecsPreSuspend=0 LastSchedEval=2024-10-07T16:42:07 Scheduler=Main
   Partition=boost_usr_prod AllocNode:Sid=slurm-controller:686023
   ReqNodeList=(null) ExcNodeList=(null)
   NodeList=lrdn[0097,0154,1830,2085]
   BatchHost=lrdn0097
   NumNodes=4 NumCPUs=128 NumTasks=16 CPUs/Task=8 ReqB:S:C:T=0:0:*:*
   TRES=cpu=128,mem=1925G,node=4,billing=128,gres/gpu=16
   Socks/Node=* NtasksPerN:B:S:C=4:0:*:* CoreSpec=*
   JOB_GRES=gpu:a100:16
     Nodes=lrdn[0097,0154,1830,2085] CPU_IDs=0-31 Mem=492800 GRES=gpu:a100:4(IDX:0-3)
   MinCPUsNode=32 MinMemoryCPU=15400M MinTmpDiskNode=0
   Features=(null) DelayBoot=00:00:00
   OverSubscribe=NO Contiguous=0 Licenses=(null) Network=(null)
   Command=/leonardo_scratch/fast/Max3_devel_2/WP3/qe/benchmarks/bench-qe7.3.1-grir/booster/grir443_opt/000000/000002_submit_N4np4/work/submit.job
   WorkDir=/leonardo_scratch/fast/Max3_devel_2/WP3/qe/benchmarks/bench-qe7.3.1-grir/booster/grir443_opt/000000/000002_submit_N4np4/work
   StdErr=/leonardo_scratch/fast/Max3_devel_2/WP3/qe/benchmarks/bench-qe7.3.1-grir/booster/grir443_opt/000000/000002_submit_N4np4/work/slurm-8092030.out
   StdIn=/dev/null
   StdOut=/leonardo_scratch/fast/Max3_devel_2/WP3/qe/benchmarks/bench-qe7.3.1-grir/booster/grir443_opt/000000/000002_submit_N4np4/work/slurm-8092030.out
   Power=
   TresPerNode=gres:gpu:4
   

