{
 "global_section": { "_calls": 1, "_time":     1941.828, "_%":   100.00,
   "siesta": { "_calls": 1, "_time":     1941.828, "_%":   100.00,
     "Setup": { "_calls": 1, "_time":        2.008, "_%":     0.10,
       "bands": { "_calls": 1, "_time":        0.004, "_%":     0.00},
       "KSV_init": { "_calls": 1, "_time":        0.001, "_%":     0.00}
     },
     "IterGeom": { "_calls": 1, "_time":     1939.582, "_%":    99.88,
       "geom_init": { "_calls": 1, "_time":        6.991, "_%":     0.36,
         "state_init": { "_calls": 1, "_time":        0.754, "_%":     0.04,
           "hsparse": { "_calls": 1, "_time":        0.175, "_%":     0.01},
           "overlap": { "_calls": 1, "_time":        0.082, "_%":     0.00}
         },
         "Setup_H0": { "_calls": 1, "_time":        6.236, "_%":     0.32,
           "naefs": { "_calls": 1, "_time":        0.034, "_%":     0.00},
           "MolMec": { "_calls": 1, "_time":        0.000, "_%":     0.00},
           "kinefsm": { "_calls": 1, "_time":        0.067, "_%":     0.00},
           "nlefsm": { "_calls": 1, "_time":        0.251, "_%":     0.01},
           "DHSCF_Init": { "_calls": 1, "_time":        5.864, "_%":     0.30,
             "DHSCF1": { "_calls": 1, "_time":        0.070, "_%":     0.00,
               "INITMESH": { "_calls": 1, "_time":        0.000, "_%":     0.00}
             },
             "DHSCF2": { "_calls": 1, "_time":        5.760, "_%":     0.30,
               "REMESH": { "_calls": 1, "_time":        0.704, "_%":     0.04,
                 "INITMESH": { "_calls": 2, "_time":        0.643, "_%":     0.03,
                   "SPLOAD": { "_calls": 2, "_time":        0.290, "_%":     0.01}
                 }
               },
               "REORD": { "_calls": 2, "_time":        0.029, "_%":     0.00},
               "PHION": { "_calls": 1, "_time":        0.119, "_%":     0.01},
               "COMM_BSC": { "_calls": 1, "_time":        0.105, "_%":     0.01},
               "POISON": { "_calls": 1, "_time":        4.255, "_%":     0.22,
                 "fft": { "_calls": 2, "_time":        4.065, "_%":     0.21}
               }
             }
           }
         }
       },
       "IterSCF": { "_calls": 5, "_time":     1932.480, "_%":    99.52,
         "setup_H": { "_calls": 5, "_time":       31.961, "_%":     1.65,
           "DHSCF": { "_calls": 5, "_time":       31.905, "_%":     1.64,
             "DHSCF3": { "_calls": 5, "_time":       31.905, "_%":     1.64,
               "rhoofd": { "_calls": 5, "_time":        0.247, "_%":     0.01},
               "COMM_BSC": { "_calls": 10, "_time":        0.864, "_%":     0.04},
               "POISON": { "_calls": 5, "_time":       21.427, "_%":     1.10,
                 "fft": { "_calls": 10, "_time":       20.425, "_%":     1.05}
               },
               "XC": { "_calls": 5, "_time":        7.305, "_%":     0.38,
                 "COMM_BSC": { "_calls": 10, "_time":        0.812, "_%":     0.04},
                 "GXC-CellXC": { "_calls": 5, "_time":        6.246, "_%":     0.32,
                   "gridxc@cellXC": { "_calls": 5, "_time":        6.246, "_%":     0.32}
                 }
               },
               "vmat": { "_calls": 5, "_time":        0.192, "_%":     0.01}
             }
           }
         },
         "compute_dm": { "_calls": 5, "_time":     1900.356, "_%":    97.86,
           "redist_orbs_fwd": { "_calls": 20, "_time":        0.940, "_%":     0.05},
           "elsi-complex-solver": { "_calls": 5, "_time":     1899.304, "_%":    97.81,
             "elsi-solver": { "_calls": 5, "_time":     1899.202, "_%":    97.80}
           },
           "redist_dm-edm_bck": { "_calls": 5, "_time":        0.089, "_%":     0.00}
         },
         "MIXER": { "_calls": 5, "_time":        0.008, "_%":     0.00}
       },
       "state_analysis": { "_calls": 1, "_time":        0.088, "_%":     0.00},
       "siesta_move": { "_calls": 1, "_time":        0.000, "_%":     0.00}
     },
     "Analysis": { "_calls": 1, "_time":        0.231, "_%":     0.01,
       "optical": { "_calls": 1, "_time":        0.001, "_%":     0.00}
     }
   }
 }}
