{
 "global_section": { "_calls": 1, "_time":     2882.952, "_%":   100.00,
   "siesta": { "_calls": 1, "_time":     2882.952, "_%":   100.00,
     "Setup": { "_calls": 1, "_time":        0.820, "_%":     0.03,
       "bands": { "_calls": 1, "_time":        0.002, "_%":     0.00},
       "KSV_init": { "_calls": 1, "_time":        0.000, "_%":     0.00}
     },
     "IterGeom": { "_calls": 1, "_time":     2881.667, "_%":    99.96,
       "geom_init": { "_calls": 1, "_time":       63.121, "_%":     2.19,
         "state_init": { "_calls": 1, "_time":        2.712, "_%":     0.09,
           "hsparse": { "_calls": 1, "_time":        0.174, "_%":     0.01},
           "overlap": { "_calls": 1, "_time":        2.186, "_%":     0.08}
         },
         "Setup_H0": { "_calls": 1, "_time":       60.408, "_%":     2.10,
           "naefs": { "_calls": 1, "_time":        0.017, "_%":     0.00},
           "dnaefs": { "_calls": 1, "_time":        0.009, "_%":     0.00},
           "MolMec": { "_calls": 1, "_time":        0.000, "_%":     0.00},
           "kinefsm": { "_calls": 1, "_time":        2.199, "_%":     0.08},
           "nlefsm": { "_calls": 1, "_time":        5.263, "_%":     0.18},
           "DHSCF_Init": { "_calls": 1, "_time":       52.919, "_%":     1.84,
             "DHSCF1": { "_calls": 1, "_time":        0.164, "_%":     0.01,
               "InitMesh": { "_calls": 1, "_time":        0.155, "_%":     0.01,
                 "INITMESH": { "_calls": 1, "_time":        0.000, "_%":     0.00}
               }
             },
             "DHSCF2": { "_calls": 1, "_time":       52.743, "_%":     1.83,
               "REMESH": { "_calls": 1, "_time":        2.184, "_%":     0.08,
                 "INITMESH": { "_calls": 2, "_time":        0.790, "_%":     0.03,
                   "BuildDISTR": { "_calls": 2, "_time":        0.789, "_%":     0.03,
                     "meshCom-Ca": { "_calls": 3, "_time":        0.000, "_%":     0.00}
                   }
                 }
               },
               "REORD": { "_calls": 2, "_time":        0.350, "_%":     0.01},
               "PHION": { "_calls": 1, "_time":       10.287, "_%":     0.36},
               "dscfComm": { "_calls": 1, "_time":        1.148, "_%":     0.04},
               "COMM_BSC": { "_calls": 1, "_time":        0.677, "_%":     0.02},
               "POISON": { "_calls": 1, "_time":       34.089, "_%":     1.18,
                 "fft": { "_calls": 2, "_time":       32.901, "_%":     1.14}
               }
             }
           }
         }
       },
       "IterSCF": { "_calls": 5, "_time":     2817.663, "_%":    97.74,
         "setup_H": { "_calls": 5, "_time":      352.682, "_%":    12.23,
           "DHSCF": { "_calls": 5, "_time":      351.663, "_%":    12.20,
             "DHSCF3": { "_calls": 5, "_time":      351.663, "_%":    12.20,
               "rhoofd": { "_calls": 5, "_time":        3.042, "_%":     0.11,
                 "OtoM": { "_calls": 5, "_time":        1.034, "_%":     0.04}
               },
               "COMM_BSC": { "_calls": 10, "_time":        4.672, "_%":     0.16},
               "POISON": { "_calls": 5, "_time":      166.687, "_%":     5.78,
                 "fft": { "_calls": 10, "_time":      160.644, "_%":     5.57}
               },
               "XC": { "_calls": 5, "_time":      161.810, "_%":     5.61,
                 "COMM_BSC": { "_calls": 10, "_time":        4.528, "_%":     0.16},
                 "GXC-CellXC": { "_calls": 5, "_time":      154.718, "_%":     5.37,
                   "gridxc@cellXC": { "_calls": 5, "_time":      154.718, "_%":     5.37}
                 }
               },
               "vmat": { "_calls": 5, "_time":        3.972, "_%":     0.14,
                 "MtoO": { "_calls": 5, "_time":        2.466, "_%":     0.09}
               }
             }
           }
         },
         "compute_dm": { "_calls": 5, "_time":     2464.933, "_%":    85.50,
           "elsi": { "_calls": 5, "_time":     2464.928, "_%":    85.50,
             "find nnz_g": { "_calls": 5, "_time":        0.000, "_%":     0.00},
             "elsi-solver": { "_calls": 5, "_time":     2464.914, "_%":    85.50}
           }
         },
         "MIXER": { "_calls": 5, "_time":        0.022, "_%":     0.00}
       },
       "state_analysis": { "_calls": 1, "_time":        0.034, "_%":     0.00},
       "siesta_move": { "_calls": 1, "_time":        0.000, "_%":     0.00}
     },
     "Analysis": { "_calls": 1, "_time":        0.127, "_%":     0.00,
       "optical": { "_calls": 1, "_time":        0.000, "_%":     0.00}
     }
   }
 }}
