[2024-12-29 22:21:25.206 Control 958502] Starting control daemon using socket ./pipe0/control
[2024-12-29 22:21:25.206 Control 958502] To connect CUDA applications to this daemon, set env CUDA_MPS_PIPE_DIRECTORY=./pipe0
[2024-12-29 22:21:26.592 Control 958502] Accepting connection...
[2024-12-29 22:21:26.592 Control 958502] User did not send valid credentials
[2024-12-29 22:21:26.592 Control 958502] Accepting connection...
[2024-12-29 22:21:26.592 Control 958502] User did not send valid credentials
[2024-12-29 22:21:26.592 Control 958502] Accepting connection...
[2024-12-29 22:21:26.592 Control 958502] NEW CLIENT 958523 from user 33678: Server is not ready, push client to pending list
[2024-12-29 22:21:26.592 Control 958502] Starting new server 958574 for user 33678
[2024-12-29 22:21:26.592 Control 958502] Accepting connection...
[2024-12-29 22:21:26.592 Control 958502] NEW CLIENT 958525 from user 33678: Server is not ready, push client to pending list
[2024-12-29 22:21:26.592 Control 958502] Accepting connection...
[2024-12-29 22:21:26.592 Control 958502] User did not send valid credentials
[2024-12-29 22:21:26.592 Control 958502] Accepting connection...
[2024-12-29 22:21:26.592 Control 958502] NEW CLIENT 958513 from user 33678: Server is not ready, push client to pending list
[2024-12-29 22:21:26.592 Control 958502] Accepting connection...
[2024-12-29 22:21:26.592 Control 958502] User did not send valid credentials
[2024-12-29 22:21:26.592 Control 958502] Accepting connection...
[2024-12-29 22:21:26.592 Control 958502] NEW CLIENT 958520 from user 33678: Server is not ready, push client to pending list
[2024-12-29 22:21:26.592 Control 958502] Accepting connection...
[2024-12-29 22:21:26.592 Control 958502] User did not send valid credentials
[2024-12-29 22:21:26.592 Control 958502] Accepting connection...
[2024-12-29 22:21:26.592 Control 958502] NEW CLIENT 958512 from user 33678: Server is not ready, push client to pending list
[2024-12-29 22:21:26.592 Control 958502] Accepting connection...
[2024-12-29 22:21:26.592 Control 958502] User did not send valid credentials
[2024-12-29 22:21:26.592 Control 958502] Accepting connection...
[2024-12-29 22:21:26.592 Control 958502] NEW CLIENT 958515 from user 33678: Server is not ready, push client to pending list
[2024-12-29 22:21:26.592 Control 958502] Accepting connection...
[2024-12-29 22:21:26.592 Control 958502] User did not send valid credentials
[2024-12-29 22:21:26.592 Control 958502] Accepting connection...
[2024-12-29 22:21:26.592 Control 958502] NEW CLIENT 958526 from user 33678: Server is not ready, push client to pending list
[2024-12-29 22:21:26.592 Control 958502] Accepting connection...
[2024-12-29 22:21:26.593 Control 958502] User did not send valid credentials
[2024-12-29 22:21:26.593 Control 958502] Accepting connection...
[2024-12-29 22:21:26.593 Control 958502] NEW CLIENT 958519 from user 33678: Server is not ready, push client to pending list
[2024-12-29 22:21:26.593 Control 958502] Accepting connection...
[2024-12-29 22:21:26.593 Control 958502] User did not send valid credentials
[2024-12-29 22:21:26.593 Control 958502] Accepting connection...
[2024-12-29 22:21:26.593 Control 958502] NEW CLIENT 958531 from user 33678: Server is not ready, push client to pending list
[2024-12-29 22:21:26.593 Control 958502] Accepting connection...
[2024-12-29 22:21:26.593 Control 958502] User did not send valid credentials
[2024-12-29 22:21:26.593 Control 958502] Accepting connection...
[2024-12-29 22:21:26.593 Control 958502] NEW CLIENT 958521 from user 33678: Server is not ready, push client to pending list
[2024-12-29 22:21:26.593 Control 958502] Accepting connection...
[2024-12-29 22:21:26.593 Control 958502] User did not send valid credentials
[2024-12-29 22:21:26.593 Control 958502] Accepting connection...
[2024-12-29 22:21:26.593 Control 958502] NEW CLIENT 958518 from user 33678: Server is not ready, push client to pending list
[2024-12-29 22:21:26.593 Control 958502] Accepting connection...
[2024-12-29 22:21:26.593 Control 958502] User did not send valid credentials
[2024-12-29 22:21:26.593 Control 958502] Accepting connection...
[2024-12-29 22:21:26.593 Control 958502] NEW CLIENT 958527 from user 33678: Server is not ready, push client to pending list
[2024-12-29 22:21:26.593 Control 958502] Accepting connection...
[2024-12-29 22:21:26.593 Control 958502] User did not send valid credentials
[2024-12-29 22:21:26.593 Control 958502] Accepting connection...
[2024-12-29 22:21:26.593 Control 958502] NEW CLIENT 958529 from user 33678: Server is not ready, push client to pending list
[2024-12-29 22:21:26.593 Control 958502] Accepting connection...
[2024-12-29 22:21:26.593 Control 958502] User did not send valid credentials
[2024-12-29 22:21:26.593 Control 958502] Accepting connection...
[2024-12-29 22:21:26.593 Control 958502] NEW CLIENT 958517 from user 33678: Server is not ready, push client to pending list
[2024-12-29 22:21:26.593 Control 958502] Accepting connection...
[2024-12-29 22:21:26.593 Control 958502] User did not send valid credentials
[2024-12-29 22:21:26.593 Control 958502] Accepting connection...
[2024-12-29 22:21:26.593 Control 958502] User did not send valid credentials
[2024-12-29 22:21:26.593 Control 958502] Accepting connection...
[2024-12-29 22:21:26.593 Control 958502] NEW CLIENT 958530 from user 33678: Server is not ready, push client to pending list
[2024-12-29 22:21:26.593 Control 958502] Accepting connection...
[2024-12-29 22:21:26.593 Control 958502] NEW CLIENT 958522 from user 33678: Server is not ready, push client to pending list
[2024-12-29 22:21:26.593 Control 958502] Accepting connection...
[2024-12-29 22:21:26.594 Control 958502] User did not send valid credentials
[2024-12-29 22:21:26.594 Control 958502] Accepting connection...
[2024-12-29 22:21:26.594 Control 958502] NEW CLIENT 958528 from user 33678: Server is not ready, push client to pending list
[2024-12-29 22:21:26.594 Control 958502] Accepting connection...
[2024-12-29 22:21:26.594 Control 958502] User did not send valid credentials
[2024-12-29 22:21:26.594 Control 958502] Accepting connection...
[2024-12-29 22:21:26.594 Control 958502] NEW CLIENT 958514 from user 33678: Server is not ready, push client to pending list
[2024-12-29 22:21:26.594 Control 958502] Accepting connection...
[2024-12-29 22:21:26.594 Control 958502] User did not send valid credentials
[2024-12-29 22:21:26.594 Control 958502] Accepting connection...
[2024-12-29 22:21:26.594 Control 958502] NEW CLIENT 958524 from user 33678: Server is not ready, push client to pending list
[2024-12-29 22:21:26.594 Control 958502] Accepting connection...
[2024-12-29 22:21:26.594 Control 958502] User did not send valid credentials
[2024-12-29 22:21:26.594 Control 958502] Accepting connection...
[2024-12-29 22:21:26.594 Control 958502] NEW CLIENT 958516 from user 33678: Server is not ready, push client to pending list
[2024-12-29 22:21:26.611 Control 958502] Accepting connection...
[2024-12-29 22:21:26.666 Control 958502] NEW SERVER 958574: Ready
[2024-12-29 22:21:27.452 Control 958502] Accepting connection...
[2024-12-29 22:21:27.452 Control 958502] NEW CLIENT 958521 from user 33678: Server already exists
[2024-12-29 22:21:27.452 Control 958502] Accepting connection...
[2024-12-29 22:21:27.452 Control 958502] NEW CLIENT 958522 from user 33678: Server already exists
[2024-12-29 22:21:27.452 Control 958502] Accepting connection...
[2024-12-29 22:21:27.452 Control 958502] NEW CLIENT 958526 from user 33678: Server already exists
[2024-12-29 22:21:27.452 Control 958502] Accepting connection...
[2024-12-29 22:21:27.452 Control 958502] NEW CLIENT 958525 from user 33678: Server already exists
[2024-12-29 22:21:27.452 Control 958502] Accepting connection...
[2024-12-29 22:21:27.452 Control 958502] NEW CLIENT 958518 from user 33678: Server already exists
[2024-12-29 22:21:27.452 Control 958502] Accepting connection...
[2024-12-29 22:21:27.452 Control 958502] NEW CLIENT 958516 from user 33678: Server already exists
[2024-12-29 22:21:27.452 Control 958502] Accepting connection...
[2024-12-29 22:21:27.452 Control 958502] NEW CLIENT 958517 from user 33678: Server already exists
[2024-12-29 22:21:27.452 Control 958502] Accepting connection...
[2024-12-29 22:21:27.452 Control 958502] NEW CLIENT 958524 from user 33678: Server already exists
[2024-12-29 22:21:27.452 Control 958502] Accepting connection...
[2024-12-29 22:21:27.452 Control 958502] NEW CLIENT 958528 from user 33678: Server already exists
[2024-12-29 22:21:27.453 Control 958502] Accepting connection...
[2024-12-29 22:21:27.453 Control 958502] NEW CLIENT 958514 from user 33678: Server already exists
[2024-12-29 22:21:27.453 Control 958502] Accepting connection...
[2024-12-29 22:21:27.453 Control 958502] NEW CLIENT 958520 from user 33678: Server already exists
[2024-12-29 22:21:27.453 Control 958502] Accepting connection...
[2024-12-29 22:21:27.453 Control 958502] NEW CLIENT 958519 from user 33678: Server already exists
[2024-12-29 22:21:27.453 Control 958502] Accepting connection...
[2024-12-29 22:21:27.453 Control 958502] NEW CLIENT 958513 from user 33678: Server already exists
[2024-12-29 22:21:27.453 Control 958502] Accepting connection...
[2024-12-29 22:21:27.453 Control 958502] NEW CLIENT 958523 from user 33678: Server already exists
[2024-12-29 22:21:27.453 Control 958502] Accepting connection...
[2024-12-29 22:21:27.453 Control 958502] NEW CLIENT 958527 from user 33678: Server already exists
[2024-12-29 22:21:27.453 Control 958502] Accepting connection...
[2024-12-29 22:21:27.453 Control 958502] NEW CLIENT 958531 from user 33678: Server already exists
[2024-12-29 22:21:27.453 Control 958502] Accepting connection...
[2024-12-29 22:21:27.453 Control 958502] NEW CLIENT 958515 from user 33678: Server already exists
[2024-12-29 22:21:27.453 Control 958502] Accepting connection...
[2024-12-29 22:21:27.453 Control 958502] NEW CLIENT 958529 from user 33678: Server already exists
[2024-12-29 22:21:27.454 Control 958502] Accepting connection...
[2024-12-29 22:21:27.454 Control 958502] NEW CLIENT 958530 from user 33678: Server already exists
[2024-12-29 22:21:27.454 Control 958502] Accepting connection...
[2024-12-29 22:21:27.454 Control 958502] NEW CLIENT 958512 from user 33678: Server already exists
[2024-12-29 22:33:22.382 Control 958502] Accepting connection...
[2024-12-29 22:33:22.382 Control 958502] NEW UI
[2024-12-29 22:33:22.382 Control 958502] Cmd:quit
[2024-12-29 22:33:22.401 Control 958502] Server 958574 exited with status 0
[2024-12-29 22:33:22.401 Control 958502] Removed Shm file at /cuda.shm.838e.ea06e.1
[2024-12-29 22:33:22.401 Control 958502] Exit with status 0
