{
 "global_section": { "_calls": 1, "_time":     1232.403, "_%":   100.00,
   "siesta": { "_calls": 1, "_time":     1232.403, "_%":   100.00,
     "Setup": { "_calls": 1, "_time":        0.930, "_%":     0.08,
       "bands": { "_calls": 1, "_time":        0.002, "_%":     0.00},
       "KSV_init": { "_calls": 1, "_time":        0.001, "_%":     0.00}
     },
     "IterGeom": { "_calls": 1, "_time":     1225.602, "_%":    99.45,
       "geom_init": { "_calls": 1, "_time":       23.022, "_%":     1.87,
         "state_init": { "_calls": 1, "_time":        2.501, "_%":     0.20,
           "hsparse": { "_calls": 1, "_time":        0.118, "_%":     0.01},
           "overlap": { "_calls": 1, "_time":        1.949, "_%":     0.16}
         },
         "Setup_H0": { "_calls": 1, "_time":       20.519, "_%":     1.66,
           "naefs": { "_calls": 1, "_time":        0.018, "_%":     0.00},
           "dnaefs": { "_calls": 1, "_time":        0.010, "_%":     0.00},
           "MolMec": { "_calls": 1, "_time":        0.000, "_%":     0.00},
           "kinefsm": { "_calls": 1, "_time":        1.935, "_%":     0.16},
           "nlefsm": { "_calls": 1, "_time":        5.135, "_%":     0.42},
           "DHSCF_Init": { "_calls": 1, "_time":       13.422, "_%":     1.09,
             "DHSCF1": { "_calls": 1, "_time":        0.055, "_%":     0.00,
               "InitMesh": { "_calls": 1, "_time":        0.045, "_%":     0.00,
                 "INITMESH": { "_calls": 1, "_time":        0.000, "_%":     0.00}
               }
             },
             "DHSCF2": { "_calls": 1, "_time":       13.354, "_%":     1.08,
               "REMESH": { "_calls": 1, "_time":        0.710, "_%":     0.06,
                 "INITMESH": { "_calls": 2, "_time":        0.519, "_%":     0.04,
                   "BuildDISTR": { "_calls": 2, "_time":        0.517, "_%":     0.04,
                     "meshCom-Ca": { "_calls": 3, "_time":        0.000, "_%":     0.00}
                   }
                 }
               },
               "REORD": { "_calls": 2, "_time":        0.067, "_%":     0.01},
               "PHION": { "_calls": 1, "_time":        1.498, "_%":     0.12},
               "dscfComm": { "_calls": 1, "_time":        0.223, "_%":     0.02},
               "COMM_BSC": { "_calls": 1, "_time":        0.138, "_%":     0.01},
               "POISON": { "_calls": 1, "_time":        9.947, "_%":     0.81,
                 "fft": { "_calls": 2, "_time":        9.556, "_%":     0.78}
               }
             }
           }
         }
       },
       "IterSCF": { "_calls": 5, "_time":     1202.040, "_%":    97.54,
         "setup_H": { "_calls": 5, "_time":       80.737, "_%":     6.55,
           "DHSCF": { "_calls": 5, "_time":       80.180, "_%":     6.51,
             "DHSCF3": { "_calls": 5, "_time":       80.180, "_%":     6.51,
               "rhoofd": { "_calls": 5, "_time":        1.182, "_%":     0.10,
                 "OtoM": { "_calls": 5, "_time":        0.207, "_%":     0.02}
               },
               "COMM_BSC": { "_calls": 10, "_time":        1.195, "_%":     0.10},
               "POISON": { "_calls": 5, "_time":       46.703, "_%":     3.79,
                 "fft": { "_calls": 10, "_time":       44.711, "_%":     3.63}
               },
               "XC": { "_calls": 5, "_time":       25.504, "_%":     2.07,
                 "COMM_BSC": { "_calls": 10, "_time":        1.312, "_%":     0.11},
                 "GXC-CellXC": { "_calls": 5, "_time":       23.412, "_%":     1.90,
                   "gridxc@cellXC": { "_calls": 5, "_time":       23.412, "_%":     1.90}
                 }
               },
               "vmat": { "_calls": 5, "_time":        1.422, "_%":     0.12,
                 "MtoO": { "_calls": 5, "_time":        0.622, "_%":     0.05}
               }
             }
           }
         },
         "compute_dm": { "_calls": 5, "_time":     1121.260, "_%":    90.98,
           "elsi": { "_calls": 5, "_time":     1120.721, "_%":    90.94,
             "find nnz_g": { "_calls": 5, "_time":        0.000, "_%":     0.00},
             "elsi-solver": { "_calls": 5, "_time":     1120.705, "_%":    90.94}
           }
         },
         "MIXER": { "_calls": 5, "_time":        0.011, "_%":     0.00}
       },
       "state_analysis": { "_calls": 1, "_time":        0.036, "_%":     0.00},
       "siesta_move": { "_calls": 1, "_time":        0.000, "_%":     0.00}
     },
     "Analysis": { "_calls": 1, "_time":        5.774, "_%":     0.47,
       "optical": { "_calls": 1, "_time":        0.001, "_%":     0.00}
     }
   }
 }}
