{
 "global_section": { "_calls": 1, "_time":      442.019, "_%":   100.00,
   "siesta": { "_calls": 1, "_time":      442.019, "_%":   100.00,
     "Setup": { "_calls": 1, "_time":        1.425, "_%":     0.32,
       "bands": { "_calls": 1, "_time":        0.002, "_%":     0.00},
       "KSV_init": { "_calls": 1, "_time":        0.001, "_%":     0.00}
     },
     "IterGeom": { "_calls": 1, "_time":      440.374, "_%":    99.63,
       "geom_init": { "_calls": 1, "_time":        6.518, "_%":     1.47,
         "state_init": { "_calls": 1, "_time":        1.008, "_%":     0.23,
           "hsparse": { "_calls": 1, "_time":        0.639, "_%":     0.14},
           "overlap": { "_calls": 1, "_time":        0.113, "_%":     0.03}
         },
         "Setup_H0": { "_calls": 1, "_time":        5.508, "_%":     1.25,
           "naefs": { "_calls": 1, "_time":        0.052, "_%":     0.01},
           "MolMec": { "_calls": 1, "_time":        0.000, "_%":     0.00},
           "kinefsm": { "_calls": 1, "_time":        0.110, "_%":     0.02},
           "nlefsm": { "_calls": 1, "_time":        0.815, "_%":     0.18},
           "DHSCF_Init": { "_calls": 1, "_time":        4.503, "_%":     1.02,
             "DHSCF1": { "_calls": 1, "_time":        0.024, "_%":     0.01,
               "INITMESH": { "_calls": 1, "_time":        0.000, "_%":     0.00}
             },
             "DHSCF2": { "_calls": 1, "_time":        4.470, "_%":     1.01,
               "REMESH": { "_calls": 1, "_time":        0.209, "_%":     0.05,
                 "INITMESH": { "_calls": 2, "_time":        0.116, "_%":     0.03,
                   "SPLOAD": { "_calls": 2, "_time":        0.112, "_%":     0.03}
                 }
               },
               "REORD": { "_calls": 2, "_time":        0.013, "_%":     0.00},
               "PHION": { "_calls": 1, "_time":        0.975, "_%":     0.22},
               "COMM_BSC": { "_calls": 1, "_time":        0.094, "_%":     0.02},
               "POISON": { "_calls": 1, "_time":        2.367, "_%":     0.54,
                 "fft": { "_calls": 2, "_time":        2.242, "_%":     0.51}
               }
             }
           }
         }
       },
       "IterSCF": { "_calls": 5, "_time":      433.649, "_%":    98.11,
         "setup_H": { "_calls": 5, "_time":       38.222, "_%":     8.65,
           "DHSCF": { "_calls": 5, "_time":       38.023, "_%":     8.60,
             "DHSCF3": { "_calls": 5, "_time":       38.023, "_%":     8.60,
               "rhoofd": { "_calls": 5, "_time":        0.671, "_%":     0.15},
               "COMM_BSC": { "_calls": 10, "_time":        1.591, "_%":     0.36},
               "POISON": { "_calls": 5, "_time":       11.612, "_%":     2.63,
                 "fft": { "_calls": 10, "_time":       11.002, "_%":     2.49}
               },
               "XC": { "_calls": 5, "_time":       22.766, "_%":     5.15,
                 "COMM_BSC": { "_calls": 10, "_time":        1.301, "_%":     0.29},
                 "GXC-CellXC": { "_calls": 5, "_time":       21.291, "_%":     4.82,
                   "gridxc@cellXC": { "_calls": 5, "_time":       21.291, "_%":     4.82}
                 }
               },
               "vmat": { "_calls": 5, "_time":        0.685, "_%":     0.15}
             }
           }
         },
         "compute_dm": { "_calls": 5, "_time":      395.353, "_%":    89.44,
           "elsi": { "_calls": 5, "_time":      394.258, "_%":    89.19,
             "find nnz_g": { "_calls": 5, "_time":        0.000, "_%":     0.00},
             "elsi-solver": { "_calls": 5, "_time":      394.235, "_%":    89.19}
           }
         },
         "MIXER": { "_calls": 5, "_time":        0.044, "_%":     0.01}
       },
       "state_analysis": { "_calls": 1, "_time":        0.041, "_%":     0.01},
       "siesta_move": { "_calls": 1, "_time":        0.000, "_%":     0.00}
     },
     "Analysis": { "_calls": 1, "_time":        0.214, "_%":     0.05,
       "optical": { "_calls": 1, "_time":        0.001, "_%":     0.00}
     }
   }
 }}
