       JobID     JobIDRaw    JobName  Partition  MaxVMSize  MaxVMSizeNode  MaxVMSizeTask  AveVMSize     MaxRSS MaxRSSNode MaxRSSTask     AveRSS MaxPages MaxPagesNode   MaxPagesTask   AvePages     MinCPU MinCPUNode MinCPUTask     AveCPU   NTasks  AllocCPUS    Elapsed      State ExitCode AveCPUFreq ReqCPUFreqMin ReqCPUFreqMax ReqCPUFreqGov     ReqMem ConsumedEnergy  MaxDiskRead MaxDiskReadNode MaxDiskReadTask    AveDiskRead MaxDiskWrite MaxDiskWriteNode MaxDiskWriteTask   AveDiskWrite    AllocGRES      ReqGRES    ReqTRES  AllocTRES TRESUsageInAve TRESUsageInMax TRESUsageInMaxNode TRESUsageInMaxTask TRESUsageInMin TRESUsageInMinNode TRESUsageInMinTask TRESUsageInTot TRESUsageOutMax TRESUsageOutMaxNode TRESUsageOutMaxTask TRESUsageOutAve TRESUsageOutTot 
------------ ------------ ---------- ---------- ---------- -------------- -------------- ---------- ---------- ---------- ---------- ---------- -------- ------------ -------------- ---------- ---------- ---------- ---------- ---------- -------- ---------- ---------- ---------- -------- ---------- ------------- ------------- ------------- ---------- -------------- ------------ --------------- --------------- -------------- ------------ ---------------- ---------------- -------------- ------------ ------------ ---------- ---------- -------------- -------------- ------------------ ------------------ -------------- ------------------ ------------------ -------------- --------------- ------------------- ------------------- --------------- --------------- 
248108       248108        CovidWeak         cn                                                                                                                                                                                                            2048   00:39:46    RUNNING      0:0                  Unknown       Unknown       Unknown        1Gc                                                                                                                                                                    billing=2+ billing=2+                                                                                                                                                                                                                                 
248108.batch 248108.batch      batch                                                                                                                                                                                                               1        128   00:39:46    RUNNING      0:0          0             0             0             0        1Gc              0                                                                                                                                                                cpu=128,m+                                                                                                                                                                                                                                 
248108.0     248108.0         siesta              1625648K         cn0545              0 1324969914    461116K     cn0545          0  311020838      107       cn0545              0         23   00:39:01     cn0562       1412   00:39:19     2048       2048   00:39:44  COMPLETED      0:0       896K       Unknown       Unknown       Unknown        1Gc              0       11.11M          cn0545               0          8.52M       27.40M           cn0545                0          5.14M                                      cpu=2048,+ cpu=00:39:19,+ cpu=00:39:23,+ cpu=cn0553,energy+ cpu=1064,fs/disk=+ cpu=00:39:01,+ cpu=cn0562,energy+ cpu=1412,fs/disk=+ cpu=55-22:01:+ energy=0,fs/di+ energy=cn0574,fs/d+           fs/disk=0 energy=0,fs/di+ energy=0,fs/di+ 
