{
 "global_section": { "_calls": 1, "_time":      491.851, "_%":   100.00,
   "siesta": { "_calls": 1, "_time":      491.851, "_%":   100.00,
     "Setup": { "_calls": 1, "_time":        0.739, "_%":     0.15,
       "bands": { "_calls": 1, "_time":        0.001, "_%":     0.00},
       "KSV_init": { "_calls": 1, "_time":        0.000, "_%":     0.00}
     },
     "IterGeom": { "_calls": 1, "_time":      490.995, "_%":    99.83,
       "geom_init": { "_calls": 1, "_time":        1.926, "_%":     0.39,
         "state_init": { "_calls": 1, "_time":        0.266, "_%":     0.05,
           "hsparse": { "_calls": 1, "_time":        0.089, "_%":     0.02},
           "overlap": { "_calls": 1, "_time":        0.030, "_%":     0.01}
         },
         "Setup_H0": { "_calls": 1, "_time":        1.659, "_%":     0.34,
           "naefs": { "_calls": 1, "_time":        0.018, "_%":     0.00},
           "MolMec": { "_calls": 1, "_time":        0.000, "_%":     0.00},
           "kinefsm": { "_calls": 1, "_time":        0.027, "_%":     0.01},
           "nlefsm": { "_calls": 1, "_time":        0.067, "_%":     0.01},
           "DHSCF_Init": { "_calls": 1, "_time":        1.536, "_%":     0.31,
             "DHSCF1": { "_calls": 1, "_time":        0.022, "_%":     0.00,
               "INITMESH": { "_calls": 1, "_time":        0.000, "_%":     0.00}
             },
             "DHSCF2": { "_calls": 1, "_time":        1.501, "_%":     0.31,
               "REMESH": { "_calls": 1, "_time":        0.295, "_%":     0.06,
                 "INITMESH": { "_calls": 2, "_time":        0.276, "_%":     0.06,
                   "SPLOAD": { "_calls": 2, "_time":        0.129, "_%":     0.03}
                 }
               },
               "REORD": { "_calls": 2, "_time":        0.005, "_%":     0.00},
               "PHION": { "_calls": 1, "_time":        0.064, "_%":     0.01},
               "COMM_BSC": { "_calls": 1, "_time":        0.035, "_%":     0.01},
               "POISON": { "_calls": 1, "_time":        0.876, "_%":     0.18,
                 "fft": { "_calls": 2, "_time":        0.829, "_%":     0.17}
               }
             }
           }
         }
       },
       "IterSCF": { "_calls": 5, "_time":      489.038, "_%":    99.43,
         "setup_H": { "_calls": 5, "_time":        8.883, "_%":     1.81,
           "DHSCF": { "_calls": 5, "_time":        8.863, "_%":     1.80,
             "DHSCF3": { "_calls": 5, "_time":        8.863, "_%":     1.80,
               "rhoofd": { "_calls": 5, "_time":        0.064, "_%":     0.01},
               "COMM_BSC": { "_calls": 10, "_time":        0.307, "_%":     0.06},
               "POISON": { "_calls": 5, "_time":        4.096, "_%":     0.83,
                 "fft": { "_calls": 10, "_time":        3.848, "_%":     0.78}
               },
               "XC": { "_calls": 5, "_time":        3.885, "_%":     0.79,
                 "COMM_BSC": { "_calls": 10, "_time":        0.232, "_%":     0.05},
                 "GXC-CellXC": { "_calls": 5, "_time":        3.606, "_%":     0.73,
                   "gridxc@cellXC": { "_calls": 5, "_time":        3.606, "_%":     0.73}
                 }
               },
               "vmat": { "_calls": 5, "_time":        0.093, "_%":     0.02}
             }
           }
         },
         "compute_dm": { "_calls": 5, "_time":      480.061, "_%":    97.60,
           "redist_orbs_fwd": { "_calls": 80, "_time":        0.222, "_%":     0.05},
           "elsi-complex-solver": { "_calls": 5, "_time":      479.810, "_%":    97.55,
             "elsi-solver": { "_calls": 5, "_time":      478.420, "_%":    97.27}
           },
           "redist_dm-edm_bck": { "_calls": 5, "_time":        0.006, "_%":     0.00}
         },
         "MIXER": { "_calls": 5, "_time":        0.091, "_%":     0.02}
       },
       "state_analysis": { "_calls": 1, "_time":        0.024, "_%":     0.00},
       "siesta_move": { "_calls": 1, "_time":        0.000, "_%":     0.00}
     },
     "Analysis": { "_calls": 1, "_time":        0.076, "_%":     0.02,
       "optical": { "_calls": 1, "_time":        0.001, "_%":     0.00}
     }
   }
 }}
