JobID        JobIDRaw        JobName  Partition  MaxVMSize  MaxVMSizeNode  MaxVMSizeTask  AveVMSize     MaxRSS MaxRSSNode MaxRSSTask     AveRSS MaxPages MaxPagesNode   MaxPagesTask   AvePages     MinCPU MinCPUNode MinCPUTask     AveCPU   NTasks  AllocCPUS    Elapsed      State ExitCode AveCPUFreq ReqCPUFreqMin ReqCPUFreqMax ReqCPUFreqGov     ReqMem ConsumedEnergy  MaxDiskRead MaxDiskReadNode MaxDiskReadTask    AveDiskRead MaxDiskWrite MaxDiskWriteNode MaxDiskWriteTask   AveDiskWrite    ReqTRES  AllocTRES TRESUsageInAve TRESUsageInMax TRESUsageInMaxNode TRESUsageInMaxTask TRESUsageInMin TRESUsageInMinNode TRESUsageInMinTask TRESUsageInTot TRESUsageOutMax TRESUsageOutMaxNode TRESUsageOutMaxTask TRESUsageOutAve TRESUsageOutTot 
------------ ------------ ---------- ---------- ---------- -------------- -------------- ---------- ---------- ---------- ---------- ---------- -------- ------------ -------------- ---------- ---------- ---------- ---------- ---------- -------- ---------- ---------- ---------- -------- ---------- ------------- ------------- ------------- ---------- -------------- ------------ --------------- --------------- -------------- ------------ ---------------- ---------------- -------------- ---------- ---------- -------------- -------------- ------------------ ------------------ -------------- ------------------ ------------------ -------------- --------------- ------------------- ------------------- --------------- --------------- 
8120486      8120486      submit.job boost_usr+                                                                                                                                                                                                             256   00:06:44    RUNNING      0:0                  Unknown       Unknown       Unknown      3850G                                                                                                                                          billing=2+ billing=2+                                                                                                                                                                                                                                 
8120486.bat+ 8120486.bat+      batch                                                                                                                                                                                                               1         32   00:06:44    RUNNING      0:0          0             0             0             0                         0                                                                                                                                      cpu=32,gr+                                                                                                                                                                                                                                 
8120486.ext+ 8120486.ext+     extern                                                                                                                                                                                                               8        256   00:06:44    RUNNING      0:0          0             0             0             0                         0                                                                                                                                      billing=2+                                                                                                                                                                                                                                 
8120486.0    8120486.0       bind.sh             11514996K       lrdn1572              0 1449209216   2059880K   lrdn1572          0    247778K     3145     lrdn1572              0        294   00:06:39   lrdn1594          8   00:06:43       32        256   00:06:38  COMPLETED      0:0    183.12M       Unknown       Unknown       Unknown                         0        0.07M        lrdn1989              29          0.07M        0.00M         lrdn1989               29          0.00M            cpu=256,g+ cpu=00:06:43,+ cpu=00:06:46,+ cpu=lrdn1572,ener+ cpu=3,fs/disk=29,+ cpu=00:06:39,+ cpu=lrdn1594,ener+ cpu=8,fs/disk=2,m+ cpu=03:35:13,+ energy=0,fs/di+ energy=lrdn1989,fs+          fs/disk=29 energy=0,fs/di+ energy=0,fs/di+ 
