{
 "global_section": { "_calls": 1, "_time":      667.603, "_%":   100.00,
   "siesta": { "_calls": 1, "_time":      667.603, "_%":   100.00,
     "Setup": { "_calls": 1, "_time":        1.261, "_%":     0.19,
       "bands": { "_calls": 1, "_time":        0.002, "_%":     0.00},
       "KSV_init": { "_calls": 1, "_time":        0.001, "_%":     0.00}
     },
     "IterGeom": { "_calls": 1, "_time":      527.508, "_%":    79.02,
       "geom_init": { "_calls": 1, "_time":        5.742, "_%":     0.86,
         "state_init": { "_calls": 1, "_time":        1.599, "_%":     0.24,
           "hsparse": { "_calls": 1, "_time":        0.740, "_%":     0.11},
           "overlap": { "_calls": 1, "_time":        0.103, "_%":     0.02}
         },
         "Setup_H0": { "_calls": 1, "_time":        4.141, "_%":     0.62,
           "naefs": { "_calls": 1, "_time":        0.063, "_%":     0.01},
           "MolMec": { "_calls": 1, "_time":        0.000, "_%":     0.00},
           "kinefsm": { "_calls": 1, "_time":        0.100, "_%":     0.02},
           "nlefsm": { "_calls": 1, "_time":        0.495, "_%":     0.07},
           "DHSCF_Init": { "_calls": 1, "_time":        3.451, "_%":     0.52,
             "DHSCF1": { "_calls": 1, "_time":        0.020, "_%":     0.00,
               "INITMESH": { "_calls": 1, "_time":        0.000, "_%":     0.00}
             },
             "DHSCF2": { "_calls": 1, "_time":        3.423, "_%":     0.51,
               "REMESH": { "_calls": 1, "_time":        2.397, "_%":     0.36,
                 "INITMESH": { "_calls": 2, "_time":        2.356, "_%":     0.35,
                   "SPLOAD": { "_calls": 2, "_time":        2.121, "_%":     0.32}
                 }
               },
               "REORD": { "_calls": 2, "_time":        0.001, "_%":     0.00},
               "PHION": { "_calls": 1, "_time":        0.200, "_%":     0.03},
               "COMM_BSC": { "_calls": 1, "_time":        0.008, "_%":     0.00},
               "POISON": { "_calls": 1, "_time":        0.213, "_%":     0.03,
                 "fft": { "_calls": 2, "_time":        0.205, "_%":     0.03}
               }
             }
           }
         }
       },
       "IterSCF": { "_calls": 5, "_time":      521.696, "_%":    78.14,
         "setup_H": { "_calls": 5, "_time":        3.386, "_%":     0.51,
           "DHSCF": { "_calls": 5, "_time":        3.371, "_%":     0.50,
             "DHSCF3": { "_calls": 5, "_time":        3.371, "_%":     0.50,
               "rhoofd": { "_calls": 5, "_time":        0.189, "_%":     0.03},
               "COMM_BSC": { "_calls": 10, "_time":        0.068, "_%":     0.01},
               "POISON": { "_calls": 5, "_time":        1.003, "_%":     0.15,
                 "fft": { "_calls": 10, "_time":        0.958, "_%":     0.14}
               },
               "XC": { "_calls": 5, "_time":        1.861, "_%":     0.28,
                 "COMM_BSC": { "_calls": 10, "_time":        0.062, "_%":     0.01},
                 "GXC-CellXC": { "_calls": 5, "_time":        1.788, "_%":     0.27,
                   "gridxc@cellXC": { "_calls": 5, "_time":        1.788, "_%":     0.27}
                 }
               },
               "vmat": { "_calls": 5, "_time":        0.153, "_%":     0.02}
             }
           }
         },
         "compute_dm": { "_calls": 5, "_time":      518.279, "_%":    77.63,
           "elsi": { "_calls": 5, "_time":      516.234, "_%":    77.33,
             "find nnz_g": { "_calls": 5, "_time":        0.000, "_%":     0.00},
             "elsi-solver": { "_calls": 5, "_time":      516.216, "_%":    77.32}
           }
         },
         "MIXER": { "_calls": 5, "_time":        0.015, "_%":     0.00}
       },
       "state_analysis": { "_calls": 1, "_time":        0.049, "_%":     0.01},
       "siesta_move": { "_calls": 1, "_time":        0.000, "_%":     0.00}
     },
     "Analysis": { "_calls": 1, "_time":      138.048, "_%":    20.68,
       "optical": { "_calls": 1, "_time":        0.001, "_%":     0.00}
     }
   }
 }}
