{
 "global_section": { "_calls": 1, "_time":     3311.000, "_%":   100.00,
   "siesta": { "_calls": 1, "_time":     3311.000, "_%":   100.00,
     "Setup": { "_calls": 1, "_time":        1.856, "_%":     0.06,
       "bands": { "_calls": 1, "_time":        0.003, "_%":     0.00},
       "KSV_init": { "_calls": 1, "_time":        0.001, "_%":     0.00}
     },
     "IterGeom": { "_calls": 1, "_time":     3308.877, "_%":    99.94,
       "geom_init": { "_calls": 1, "_time":       10.070, "_%":     0.30,
         "state_init": { "_calls": 1, "_time":        1.354, "_%":     0.04,
           "hsparse": { "_calls": 1, "_time":        0.132, "_%":     0.00},
           "overlap": { "_calls": 1, "_time":        0.630, "_%":     0.02}
         },
         "Setup_H0": { "_calls": 1, "_time":        8.714, "_%":     0.26,
           "naefs": { "_calls": 1, "_time":        0.023, "_%":     0.00},
           "MolMec": { "_calls": 1, "_time":        0.000, "_%":     0.00},
           "kinefsm": { "_calls": 1, "_time":        0.627, "_%":     0.02},
           "nlefsm": { "_calls": 1, "_time":        1.430, "_%":     0.04},
           "DHSCF_Init": { "_calls": 1, "_time":        6.619, "_%":     0.20,
             "DHSCF1": { "_calls": 1, "_time":        0.042, "_%":     0.00,
               "INITMESH": { "_calls": 1, "_time":        0.000, "_%":     0.00}
             },
             "DHSCF2": { "_calls": 1, "_time":        6.559, "_%":     0.20,
               "REMESH": { "_calls": 1, "_time":        4.755, "_%":     0.14,
                 "INITMESH": { "_calls": 2, "_time":        4.267, "_%":     0.13,
                   "SPLOAD": { "_calls": 2, "_time":        1.078, "_%":     0.03}
                 }
               },
               "REORD": { "_calls": 2, "_time":        0.001, "_%":     0.00},
               "PHION": { "_calls": 1, "_time":        0.068, "_%":     0.00},
               "COMM_BSC": { "_calls": 1, "_time":        0.137, "_%":     0.00},
               "POISON": { "_calls": 1, "_time":        0.759, "_%":     0.02,
                 "fft": { "_calls": 2, "_time":        0.745, "_%":     0.02}
               }
             }
           }
         }
       },
       "IterSCF": { "_calls": 5, "_time":     3298.731, "_%":    99.63,
         "setup_H": { "_calls": 5, "_time":        5.621, "_%":     0.17,
           "DHSCF": { "_calls": 5, "_time":        5.607, "_%":     0.17,
             "DHSCF3": { "_calls": 5, "_time":        5.607, "_%":     0.17,
               "rhoofd": { "_calls": 5, "_time":        0.063, "_%":     0.00},
               "COMM_BSC": { "_calls": 10, "_time":        0.526, "_%":     0.02},
               "POISON": { "_calls": 5, "_time":        3.031, "_%":     0.09,
                 "fft": { "_calls": 10, "_time":        2.902, "_%":     0.09}
               },
               "XC": { "_calls": 5, "_time":        1.551, "_%":     0.05,
                 "COMM_BSC": { "_calls": 10, "_time":        0.361, "_%":     0.01},
                 "GXC-CellXC": { "_calls": 5, "_time":        1.168, "_%":     0.04,
                   "gridxc@cellXC": { "_calls": 5, "_time":        1.168, "_%":     0.04}
                 }
               },
               "vmat": { "_calls": 5, "_time":        0.122, "_%":     0.00}
             }
           }
         },
         "compute_dm": { "_calls": 5, "_time":     3293.057, "_%":    99.46,
           "diagon": { "_calls": 5, "_time":     3292.757, "_%":    99.45,
             "r-eigvec": { "_calls": 5, "_time":     1119.685, "_%":    33.82,
               "r-buildHS": { "_calls": 5, "_time":        0.174, "_%":     0.01},
               "rdiag": { "_calls": 5, "_time":     1119.510, "_%":    33.81,
                 "rdiag1": { "_calls": 5, "_time":       34.488, "_%":     1.04},
                 "rdiag2": { "_calls": 5, "_time":      269.705, "_%":     8.15},
                 "rdiag3": { "_calls": 5, "_time":      747.916, "_%":    22.59},
                 "rdiag4": { "_calls": 5, "_time":       64.832, "_%":     1.96}
               }
             },
             "r-buildD": { "_calls": 5, "_time":     2172.592, "_%":    65.62}
           }
         },
         "MIXER": { "_calls": 5, "_time":        0.030, "_%":     0.00}
       },
       "state_analysis": { "_calls": 1, "_time":        0.067, "_%":     0.00},
       "siesta_move": { "_calls": 1, "_time":        0.000, "_%":     0.00}
     },
     "Analysis": { "_calls": 1, "_time":        0.242, "_%":     0.01,
       "optical": { "_calls": 1, "_time":        0.001, "_%":     0.00}
     }
   }
 }}
