{
 "global_section": { "_calls": 1, "_time":      467.053, "_%":   100.00,
   "siesta": { "_calls": 1, "_time":      467.053, "_%":   100.00,
     "Setup": { "_calls": 1, "_time":        1.571, "_%":     0.34,
       "bands": { "_calls": 1, "_time":        0.002, "_%":     0.00},
       "KSV_init": { "_calls": 1, "_time":        0.001, "_%":     0.00}
     },
     "IterGeom": { "_calls": 1, "_time":      465.323, "_%":    99.63,
       "geom_init": { "_calls": 1, "_time":        7.756, "_%":     1.66,
         "state_init": { "_calls": 1, "_time":        1.453, "_%":     0.31,
           "hsparse": { "_calls": 1, "_time":        0.102, "_%":     0.02},
           "overlap": { "_calls": 1, "_time":        0.485, "_%":     0.10}
         },
         "Setup_H0": { "_calls": 1, "_time":        6.301, "_%":     1.35,
           "naefs": { "_calls": 1, "_time":        0.014, "_%":     0.00},
           "MolMec": { "_calls": 1, "_time":        0.000, "_%":     0.00},
           "kinefsm": { "_calls": 1, "_time":        0.491, "_%":     0.11},
           "nlefsm": { "_calls": 1, "_time":        1.020, "_%":     0.22},
           "DHSCF_Init": { "_calls": 1, "_time":        4.767, "_%":     1.02,
             "DHSCF1": { "_calls": 1, "_time":        0.028, "_%":     0.01,
               "INITMESH": { "_calls": 1, "_time":        0.000, "_%":     0.00}
             },
             "DHSCF2": { "_calls": 1, "_time":        4.725, "_%":     1.01,
               "REMESH": { "_calls": 1, "_time":        3.423, "_%":     0.73,
                 "INITMESH": { "_calls": 2, "_time":        3.335, "_%":     0.71,
                   "SPLOAD": { "_calls": 2, "_time":        2.121, "_%":     0.45}
                 }
               },
               "REORD": { "_calls": 2, "_time":        0.001, "_%":     0.00},
               "PHION": { "_calls": 1, "_time":        0.061, "_%":     0.01},
               "COMM_BSC": { "_calls": 1, "_time":        0.053, "_%":     0.01},
               "POISON": { "_calls": 1, "_time":        0.540, "_%":     0.12,
                 "fft": { "_calls": 2, "_time":        0.524, "_%":     0.11}
               }
             }
           }
         }
       },
       "IterSCF": { "_calls": 5, "_time":      457.503, "_%":    97.96,
         "setup_H": { "_calls": 5, "_time":        4.223, "_%":     0.90,
           "DHSCF": { "_calls": 5, "_time":        4.210, "_%":     0.90,
             "DHSCF3": { "_calls": 5, "_time":        4.210, "_%":     0.90,
               "rhoofd": { "_calls": 5, "_time":        0.066, "_%":     0.01},
               "COMM_BSC": { "_calls": 10, "_time":        0.179, "_%":     0.04},
               "POISON": { "_calls": 5, "_time":        2.386, "_%":     0.51,
                 "fft": { "_calls": 10, "_time":        2.288, "_%":     0.49}
               },
               "XC": { "_calls": 5, "_time":        1.290, "_%":     0.28,
                 "COMM_BSC": { "_calls": 10, "_time":        0.163, "_%":     0.03},
                 "GXC-CellXC": { "_calls": 5, "_time":        1.101, "_%":     0.24,
                   "gridxc@cellXC": { "_calls": 5, "_time":        1.101, "_%":     0.24}
                 }
               },
               "vmat": { "_calls": 5, "_time":        0.061, "_%":     0.01}
             }
           }
         },
         "compute_dm": { "_calls": 5, "_time":      453.240, "_%":    97.04,
           "elsi": { "_calls": 5, "_time":      452.841, "_%":    96.96,
             "find nnz_g": { "_calls": 5, "_time":        0.000, "_%":     0.00},
             "elsi-solver": { "_calls": 5, "_time":      452.820, "_%":    96.95}
           }
         },
         "MIXER": { "_calls": 5, "_time":        0.009, "_%":     0.00}
       },
       "state_analysis": { "_calls": 1, "_time":        0.053, "_%":     0.01},
       "siesta_move": { "_calls": 1, "_time":        0.000, "_%":     0.00}
     },
     "Analysis": { "_calls": 1, "_time":        0.153, "_%":     0.03,
       "optical": { "_calls": 1, "_time":        0.001, "_%":     0.00}
     }
   }
 }}
