JobID        JobIDRaw        JobName  Partition  MaxVMSize  MaxVMSizeNode  MaxVMSizeTask  AveVMSize     MaxRSS MaxRSSNode MaxRSSTask     AveRSS MaxPages MaxPagesNode   MaxPagesTask   AvePages     MinCPU MinCPUNode MinCPUTask     AveCPU   NTasks  AllocCPUS    Elapsed      State ExitCode AveCPUFreq ReqCPUFreqMin ReqCPUFreqMax ReqCPUFreqGov     ReqMem ConsumedEnergy  MaxDiskRead MaxDiskReadNode MaxDiskReadTask    AveDiskRead MaxDiskWrite MaxDiskWriteNode MaxDiskWriteTask   AveDiskWrite    ReqTRES  AllocTRES TRESUsageInAve TRESUsageInMax TRESUsageInMaxNode TRESUsageInMaxTask TRESUsageInMin TRESUsageInMinNode TRESUsageInMinTask TRESUsageInTot TRESUsageOutMax TRESUsageOutMaxNode TRESUsageOutMaxTask TRESUsageOutAve TRESUsageOutTot 
------------ ------------ ---------- ---------- ---------- -------------- -------------- ---------- ---------- ---------- ---------- ---------- -------- ------------ -------------- ---------- ---------- ---------- ---------- ---------- -------- ---------- ---------- ---------- -------- ---------- ------------- ------------- ------------- ---------- -------------- ------------ --------------- --------------- -------------- ------------ ---------------- ---------------- -------------- ---------- ---------- -------------- -------------- ------------------ ------------------ -------------- ------------------ ------------------ -------------- --------------- ------------------- ------------------- --------------- --------------- 
151891       151891       CovidStro+ normal-x86                                                                                                                                                                                                             512   00:00:58    RUNNING      0:0                  Unknown       Unknown       Unknown       968G                                                                                                                                          billing=5+ billing=5+                                                                                                                                                                                                                                 
151891.batch 151891.batch      batch                                                                                                                                                                                                               1        128   00:00:58    RUNNING      0:0          0             0             0             0                         0                                                                                                                                      cpu=128,m+                                                                                                                                                                                                                                 
151891.exte+ 151891.exte+     extern                                                                                                                                                                                                               4        512   00:00:58    RUNNING      0:0          0             0             0             0                         0                                                                                                                                      billing=5+                                                                                                                                                                                                                                 
151891.0     151891.0          orted             35909748K         cnx180              0 358432781+  34931496K     cnx180          0 348415931+      594       cnx212              2        517   01:33:33     cnx180          0   01:34:50        3        512   00:00:58  COMPLETED      0:0      1.36M             0             0             0                               2612.03M          cnx199               1       2611.95M      528.06M           cnx180                0        528.05M            billing=5+ cpu=01:34:50,+ cpu=01:36:04,+ cpu=cnx199,energy+ cpu=1,fs/disk=1,m+ cpu=01:33:33,+ cpu=cnx180,energy+ cpu=0,fs/disk=0,m+ cpu=04:44:32,+ energy=0,fs/di+ energy=cnx180,fs/d+           fs/disk=0 energy=0,fs/di+ energy=0,fs/di+ 
