{
 "global_section": { "_calls": 1, "_time":     1916.286, "_%":   100.00,
   "siesta": { "_calls": 1, "_time":     1916.286, "_%":   100.00,
     "Setup": { "_calls": 1, "_time":        1.314, "_%":     0.07,
       "bands": { "_calls": 1, "_time":        0.002, "_%":     0.00},
       "KSV_init": { "_calls": 1, "_time":        0.001, "_%":     0.00}
     },
     "IterGeom": { "_calls": 1, "_time":     1914.735, "_%":    99.92,
       "geom_init": { "_calls": 1, "_time":        9.793, "_%":     0.51,
         "state_init": { "_calls": 1, "_time":        1.907, "_%":     0.10,
           "hsparse": { "_calls": 1, "_time":        0.134, "_%":     0.01},
           "overlap": { "_calls": 1, "_time":        0.764, "_%":     0.04}
         },
         "Setup_H0": { "_calls": 1, "_time":        7.884, "_%":     0.41,
           "naefs": { "_calls": 1, "_time":        0.023, "_%":     0.00},
           "MolMec": { "_calls": 1, "_time":        0.000, "_%":     0.00},
           "kinefsm": { "_calls": 1, "_time":        0.761, "_%":     0.04},
           "nlefsm": { "_calls": 1, "_time":        1.698, "_%":     0.09},
           "DHSCF_Init": { "_calls": 1, "_time":        5.387, "_%":     0.28,
             "DHSCF1": { "_calls": 1, "_time":        0.051, "_%":     0.00,
               "INITMESH": { "_calls": 1, "_time":        0.000, "_%":     0.00}
             },
             "DHSCF2": { "_calls": 1, "_time":        5.317, "_%":     0.28,
               "REMESH": { "_calls": 1, "_time":        2.351, "_%":     0.12,
                 "INITMESH": { "_calls": 2, "_time":        2.310, "_%":     0.12,
                   "SPLOAD": { "_calls": 2, "_time":        2.115, "_%":     0.11}
                 }
               },
               "REORD": { "_calls": 2, "_time":        0.013, "_%":     0.00},
               "PHION": { "_calls": 1, "_time":        0.262, "_%":     0.01},
               "COMM_BSC": { "_calls": 1, "_time":        0.066, "_%":     0.00},
               "POISON": { "_calls": 1, "_time":        2.190, "_%":     0.11,
                 "fft": { "_calls": 2, "_time":        2.096, "_%":     0.11}
               }
             }
           }
         }
       },
       "IterSCF": { "_calls": 5, "_time":     1904.688, "_%":    99.39,
         "setup_H": { "_calls": 5, "_time":       17.812, "_%":     0.93,
           "DHSCF": { "_calls": 5, "_time":       17.697, "_%":     0.92,
             "DHSCF3": { "_calls": 5, "_time":       17.697, "_%":     0.92,
               "rhoofd": { "_calls": 5, "_time":        0.207, "_%":     0.01},
               "COMM_BSC": { "_calls": 10, "_time":        0.665, "_%":     0.03},
               "POISON": { "_calls": 5, "_time":       10.678, "_%":     0.56,
                 "fft": { "_calls": 10, "_time":       10.202, "_%":     0.53}
               },
               "XC": { "_calls": 5, "_time":        5.067, "_%":     0.26,
                 "COMM_BSC": { "_calls": 10, "_time":        0.557, "_%":     0.03},
                 "GXC-CellXC": { "_calls": 5, "_time":        4.356, "_%":     0.23,
                   "gridxc@cellXC": { "_calls": 5, "_time":        4.355, "_%":     0.23}
                 }
               },
               "vmat": { "_calls": 5, "_time":        0.211, "_%":     0.01}
             }
           }
         },
         "compute_dm": { "_calls": 5, "_time":     1886.311, "_%":    98.44,
           "elsi": { "_calls": 5, "_time":     1885.826, "_%":    98.41,
             "find nnz_g": { "_calls": 5, "_time":        0.000, "_%":     0.00},
             "elsi-solver": { "_calls": 5, "_time":     1885.777, "_%":    98.41}
           }
         },
         "MIXER": { "_calls": 5, "_time":        0.265, "_%":     0.01}
       },
       "state_analysis": { "_calls": 1, "_time":        0.057, "_%":     0.00},
       "siesta_move": { "_calls": 1, "_time":        0.000, "_%":     0.00}
     },
     "Analysis": { "_calls": 1, "_time":        0.218, "_%":     0.01,
       "optical": { "_calls": 1, "_time":        0.001, "_%":     0.00}
     }
   }
 }}
