JobId=244987 JobName=CovidStrong
   UserId=fpedron(5340) GroupId=fpedron(5340) MCS_label=N/A
   Priority=1 Nice=0 Account=ehpc-ben-2024b06-053 QOS=ehpc-ben-2024b06-053
   JobState=RUNNING Reason=None Dependency=(null)
   Requeue=1 Restarts=0 BatchFlag=1 Reboot=0 ExitCode=0:0
   DerivedExitCode=0:0
   RunTime=00:00:02 TimeLimit=12:00:00 TimeMin=N/A
   SubmitTime=2024-09-12T12:16:49 EligibleTime=2024-09-12T12:16:49
   AccrueTime=2024-09-12T12:16:49
   StartTime=2024-09-12T21:04:37 EndTime=2024-09-13T09:04:37 Deadline=N/A
   SuspendTime=None SecsPreSuspend=0 LastSchedEval=2024-09-12T21:04:37
   Partition=cn AllocNode:Sid=login1:4193870
   ReqNodeList=(null) ExcNodeList=(null)
   NodeList=cn[0062-0063,0066-0073,0079,0085-0088,0092-0093,0397-0408,0415-0422,0425-0426,0429-0430,0577-0588,0601-0606,0615-0616,0619,0623-0624]
   BatchHost=cn0062
   NumNodes=64 NumCPUs=8192 NumTasks=8192 CPUs/Task=1 ReqB:S:C:T=0:0:*:*
   TRES=cpu=8192,mem=8T,node=64,billing=8192
   Socks/Node=* NtasksPerN:B:S:C=128:0:*:* CoreSpec=*
   JOB_GRES=(null)
     Nodes=cn[0062-0063,0066-0073,0079,0085-0088,0092-0093,0397-0408,0415-0422,0425] CPU_IDs=0-127 Mem=131072 GRES=
     Nodes=cn0426 CPU_IDs=2-129 Mem=131072 GRES=
     Nodes=cn[0429-0430,0577-0588,0601-0606,0615-0616,0619,0623-0624] CPU_IDs=0-127 Mem=131072 GRES=
   MinCPUsNode=128 MinMemoryCPU=1G MinTmpDiskNode=0
   Features=(null) DelayBoot=00:00:00
   OverSubscribe=OK Contiguous=0 Licenses=(null) Network=(null)
   Command=/home/fpedron/JUBE4MaX/max-inputs/interface/siesta/_CovidStrong/000001/000005_submit/work/submit.job
   WorkDir=/home/fpedron/JUBE4MaX/max-inputs/interface/siesta/_CovidStrong/000001/000005_submit/work
   StdErr=/home/fpedron/JUBE4MaX/max-inputs/interface/siesta/_CovidStrong/000001/000005_submit/work/slurm-244987.out
   StdIn=/dev/null
   StdOut=/home/fpedron/JUBE4MaX/max-inputs/interface/siesta/_CovidStrong/000001/000005_submit/work/slurm-244987.out
   Power=
   MailUser=fpedron MailType=NONE

