{
 "global_section": { "_calls": 1, "_time":      664.697, "_%":   100.00,
   "siesta": { "_calls": 1, "_time":      664.697, "_%":   100.00,
     "Setup": { "_calls": 1, "_time":        2.141, "_%":     0.32,
       "bands": { "_calls": 1, "_time":        0.004, "_%":     0.00},
       "KSV_init": { "_calls": 1, "_time":        0.001, "_%":     0.00}
     },
     "IterGeom": { "_calls": 1, "_time":      660.598, "_%":    99.38,
       "geom_init": { "_calls": 1, "_time":      237.587, "_%":    35.74,
         "state_init": { "_calls": 1, "_time":        0.992, "_%":     0.15,
           "hsparse": { "_calls": 1, "_time":        0.174, "_%":     0.03},
           "overlap": { "_calls": 1, "_time":        0.304, "_%":     0.05}
         },
         "Setup_H0": { "_calls": 1, "_time":      236.594, "_%":    35.59,
           "naefs": { "_calls": 1, "_time":        0.030, "_%":     0.00},
           "MolMec": { "_calls": 1, "_time":        0.000, "_%":     0.00},
           "kinefsm": { "_calls": 1, "_time":        0.297, "_%":     0.04},
           "nlefsm": { "_calls": 1, "_time":        1.282, "_%":     0.19},
           "DHSCF_Init": { "_calls": 1, "_time":      234.966, "_%":    35.35,
             "DHSCF1": { "_calls": 1, "_time":        0.052, "_%":     0.01,
               "INITMESH": { "_calls": 1, "_time":        0.000, "_%":     0.00}
             },
             "DHSCF2": { "_calls": 1, "_time":      234.878, "_%":    35.34,
               "REMESH": { "_calls": 1, "_time":      213.425, "_%":    32.11,
                 "INITMESH": { "_calls": 2, "_time":      199.777, "_%":    30.06,
                   "SPLOAD": { "_calls": 2, "_time":        5.450, "_%":     0.82}
                 }
               },
               "REORD": { "_calls": 2, "_time":        0.000, "_%":     0.00},
               "PHION": { "_calls": 1, "_time":        0.027, "_%":     0.00},
               "COMM_BSC": { "_calls": 1, "_time":        0.007, "_%":     0.00},
               "POISON": { "_calls": 1, "_time":        0.201, "_%":     0.03,
                 "fft": { "_calls": 2, "_time":        0.193, "_%":     0.03}
               }
             }
           }
         }
       },
       "IterSCF": { "_calls": 5, "_time":      422.912, "_%":    63.62,
         "setup_H": { "_calls": 5, "_time":        2.251, "_%":     0.34,
           "DHSCF": { "_calls": 5, "_time":        2.247, "_%":     0.34,
             "DHSCF3": { "_calls": 5, "_time":        2.247, "_%":     0.34,
               "rhoofd": { "_calls": 5, "_time":        0.062, "_%":     0.01},
               "COMM_BSC": { "_calls": 10, "_time":        0.079, "_%":     0.01},
               "POISON": { "_calls": 5, "_time":        0.965, "_%":     0.15,
                 "fft": { "_calls": 10, "_time":        0.911, "_%":     0.14}
               },
               "XC": { "_calls": 5, "_time":        0.952, "_%":     0.14,
                 "COMM_BSC": { "_calls": 10, "_time":        0.076, "_%":     0.01},
                 "GXC-CellXC": { "_calls": 5, "_time":        0.854, "_%":     0.13,
                   "gridxc@cellXC": { "_calls": 5, "_time":        0.854, "_%":     0.13}
                 }
               },
               "vmat": { "_calls": 5, "_time":        0.056, "_%":     0.01}
             }
           }
         },
         "compute_dm": { "_calls": 5, "_time":      420.626, "_%":    63.28,
           "elsi": { "_calls": 5, "_time":      420.448, "_%":    63.25,
             "find nnz_g": { "_calls": 5, "_time":        0.000, "_%":     0.00},
             "elsi-solver": { "_calls": 5, "_time":      420.320, "_%":    63.23}
           }
         },
         "MIXER": { "_calls": 5, "_time":        0.013, "_%":     0.00}
       },
       "state_analysis": { "_calls": 1, "_time":        0.082, "_%":     0.01},
       "siesta_move": { "_calls": 1, "_time":        0.000, "_%":     0.00}
     },
     "Analysis": { "_calls": 1, "_time":        1.647, "_%":     0.25,
       "optical": { "_calls": 1, "_time":        0.001, "_%":     0.00}
     }
   }
 }}
