JobID        JobIDRaw        JobName  Partition  MaxVMSize  MaxVMSizeNode  MaxVMSizeTask  AveVMSize     MaxRSS MaxRSSNode MaxRSSTask     AveRSS MaxPages MaxPagesNode   MaxPagesTask   AvePages     MinCPU MinCPUNode MinCPUTask     AveCPU   NTasks  AllocCPUS    Elapsed      State ExitCode AveCPUFreq ReqCPUFreqMin ReqCPUFreqMax ReqCPUFreqGov     ReqMem ConsumedEnergy  MaxDiskRead MaxDiskReadNode MaxDiskReadTask    AveDiskRead MaxDiskWrite MaxDiskWriteNode MaxDiskWriteTask   AveDiskWrite    ReqTRES  AllocTRES TRESUsageInAve TRESUsageInMax TRESUsageInMaxNode TRESUsageInMaxTask TRESUsageInMin TRESUsageInMinNode TRESUsageInMinTask TRESUsageInTot TRESUsageOutMax TRESUsageOutMaxNode TRESUsageOutMaxTask TRESUsageOutAve TRESUsageOutTot 
------------ ------------ ---------- ---------- ---------- -------------- -------------- ---------- ---------- ---------- ---------- ---------- -------- ------------ -------------- ---------- ---------- ---------- ---------- ---------- -------- ---------- ---------- ---------- -------- ---------- ------------- ------------- ------------- ---------- -------------- ------------ --------------- --------------- -------------- ------------ ---------------- ---------------- -------------- ---------- ---------- -------------- -------------- ------------------ ------------------ -------------- ------------------ ------------------ -------------- --------------- ------------------- ------------------- --------------- --------------- 
13549125     13549125     submit.job boost_usr+                                                                                                                                                                                                             128   00:10:18    RUNNING      0:0                  Unknown       Unknown       Unknown      1925G                                                                                                                                          billing=1+ billing=1+                                                                                                                                                                                                                                 
13549125.ba+ 13549125.ba+      batch                                                                                                                                                                                                               1         32   00:10:18    RUNNING      0:0          0             0             0             0                         0                                                                                                                                      cpu=32,gr+                                                                                                                                                                                                                                 
13549125.ex+ 13549125.ex+     extern                                                                                                                                                                                                               4        128   00:10:18    RUNNING      0:0          0             0             0             0                         0                                                                                                                                      billing=1+                                                                                                                                                                                                                                 
13549125.0   13549125.0   wrapper-s+              1887388K       lrdn1878              0  450080224   1734088K   lrdn1878          0  423064096      715     lrdn1878             11         77   00:09:57   lrdn1878          0   00:10:01      128        128   00:10:12  COMPLETED      0:0    134.87M       Unknown       Unknown       Unknown                         0        0.08M        lrdn1891              32          0.07M        0.00M         lrdn1891               41          0.00M            cpu=128,g+ cpu=00:10:01,+ cpu=00:10:02,+ cpu=lrdn1990,ener+ cpu=124,fs/disk=3+ cpu=00:09:57,+ cpu=lrdn1878,ener+ cpu=0,fs/disk=1,m+ cpu=21:24:05,+ energy=0,fs/di+ energy=lrdn1891,fs+          fs/disk=41 energy=0,fs/di+ energy=0,fs/di+ 
13549125.1   13549125.1   wrapper-s+                                                                                                                                                                                                             128        128   00:00:01    RUNNING      0:0          0       Unknown       Unknown       Unknown                         0                                                                                                                                      cpu=128,g+                                                                                                                                                                                                                                 
