{
 "global_section": { "_calls": 1, "_time":       61.431, "_%":   100.00,
   "siesta": { "_calls": 1, "_time":       61.431, "_%":   100.00,
     "Setup": { "_calls": 1, "_time":        1.647, "_%":     2.68,
       "bands": { "_calls": 1, "_time":        0.003, "_%":     0.00},
       "KSV_init": { "_calls": 1, "_time":        0.001, "_%":     0.00}
     },
     "IterGeom": { "_calls": 1, "_time":       59.586, "_%":    97.00,
       "geom_init": { "_calls": 1, "_time":        6.362, "_%":    10.36,
         "state_init": { "_calls": 1, "_time":        0.566, "_%":     0.92,
           "hsparse": { "_calls": 1, "_time":        0.126, "_%":     0.20},
           "overlap": { "_calls": 1, "_time":        0.047, "_%":     0.08}
         },
         "Setup_H0": { "_calls": 1, "_time":        5.795, "_%":     9.43,
           "naefs": { "_calls": 1, "_time":        0.023, "_%":     0.04},
           "MolMec": { "_calls": 1, "_time":        0.000, "_%":     0.00},
           "kinefsm": { "_calls": 1, "_time":        0.036, "_%":     0.06},
           "nlefsm": { "_calls": 1, "_time":        0.130, "_%":     0.21},
           "DHSCF_Init": { "_calls": 1, "_time":        5.590, "_%":     9.10,
             "DHSCF1": { "_calls": 1, "_time":        0.043, "_%":     0.07,
               "INITMESH": { "_calls": 1, "_time":        0.000, "_%":     0.00}
             },
             "DHSCF2": { "_calls": 1, "_time":        5.527, "_%":     9.00,
               "REMESH": { "_calls": 1, "_time":        3.705, "_%":     6.03,
                 "INITMESH": { "_calls": 2, "_time":        3.248, "_%":     5.29,
                   "SPLOAD": { "_calls": 2, "_time":        0.527, "_%":     0.86}
                 }
               },
               "REORD": { "_calls": 2, "_time":        0.001, "_%":     0.00},
               "PHION": { "_calls": 1, "_time":        0.018, "_%":     0.03},
               "COMM_BSC": { "_calls": 1, "_time":        0.036, "_%":     0.06},
               "POISON": { "_calls": 1, "_time":        0.867, "_%":     1.41,
                 "fft": { "_calls": 2, "_time":        0.845, "_%":     1.38}
               }
             }
           }
         }
       },
       "IterSCF": { "_calls": 5, "_time":       53.119, "_%":    86.47,
         "setup_H": { "_calls": 5, "_time":        6.793, "_%":    11.06,
           "DHSCF": { "_calls": 5, "_time":        6.704, "_%":    10.91,
             "DHSCF3": { "_calls": 5, "_time":        6.704, "_%":    10.91,
               "rhoofd": { "_calls": 5, "_time":        0.091, "_%":     0.15},
               "COMM_BSC": { "_calls": 10, "_time":        0.835, "_%":     1.36},
               "POISON": { "_calls": 5, "_time":        2.723, "_%":     4.43,
                 "fft": { "_calls": 10, "_time":        2.595, "_%":     4.22}
               },
               "XC": { "_calls": 5, "_time":        2.419, "_%":     3.94,
                 "COMM_BSC": { "_calls": 10, "_time":        0.665, "_%":     1.08},
                 "GXC-CellXC": { "_calls": 5, "_time":        1.731, "_%":     2.82,
                   "gridxc@cellXC": { "_calls": 5, "_time":        1.731, "_%":     2.82}
                 }
               },
               "vmat": { "_calls": 5, "_time":        0.064, "_%":     0.10}
             }
           }
         },
         "compute_dm": { "_calls": 5, "_time":       46.011, "_%":    74.90,
           "redist_orbs_fwd": { "_calls": 80, "_time":       33.858, "_%":    55.12},
           "elsi-complex-solver": { "_calls": 5, "_time":       10.706, "_%":    17.43,
             "elsi-solver": { "_calls": 5, "_time":        7.849, "_%":    12.78}
           },
           "redist_dm-edm_bck": { "_calls": 5, "_time":        0.973, "_%":     1.58}
         },
         "MIXER": { "_calls": 5, "_time":        0.178, "_%":     0.29}
       },
       "state_analysis": { "_calls": 1, "_time":        0.052, "_%":     0.09},
       "siesta_move": { "_calls": 1, "_time":        0.000, "_%":     0.00}
     },
     "Analysis": { "_calls": 1, "_time":        0.155, "_%":     0.25,
       "optical": { "_calls": 1, "_time":        0.001, "_%":     0.00}
     }
   }
 }}
