JobId=2227035 JobName=submit.job
   UserId=nspallan(25378) GroupId=interactive(25200) MCS_label=N/A
   Priority=222875 Nice=0 Account=euhpc_e01_022 QOS=boost_qos_bprod
   JobState=RUNNING Reason=None Dependency=(null)
   Requeue=0 Restarts=0 BatchFlag=1 Reboot=0 ExitCode=0:0
   DerivedExitCode=0:0
   RunTime=00:00:02 TimeLimit=03:00:00 TimeMin=N/A
   SubmitTime=2023-11-30T20:15:20 EligibleTime=2023-11-30T20:15:20
   AccrueTime=2023-11-30T20:15:20
   StartTime=2023-11-30T20:56:24 EndTime=2023-11-30T23:56:24 Deadline=N/A
   SuspendTime=None SecsPreSuspend=0 LastSchedEval=2023-11-30T20:56:24 Scheduler=Main
   Partition=boost_usr_prod AllocNode:Sid=10-99-0-7:3163073
   ReqNodeList=(null) ExcNodeList=(null)
   NodeList=lrdn[0314,0408,0412,0426,0440,0444,0455,0479,0556,0559,0589,0608,0623,0674,0716,0734,0740,0746,0758,0769,0778,0793,0808,0853,0865,0869,0889,0927,0929,1008,1023,1043,1056,1072,1097,1190,1244,1258,1266,1272,1287,1304,1317,1348-1349,1355,1410,1430,1438,1467,1470,1484,1493,1519,1539,1543,1557,1573,1580,1587,1597,1618-1619,1626,1644,1650,1692,1694,1714,1738-1739,1767,1782,1807,1820,1825,1842,1854,1867,1888,1890,1903,1906,1919,1928,1940-1941,1962,1964,1973,2005,2048,2052,2067,2083,2089,2096,2108,2123,2129,2134,2142,2152,2178,2195,2214,2219,2233,2240,2248,2258,2277,2279,2293,2303,2309,2314,2330,2336,2366,2369,2383,2398-2399,2413,2427,2429,2436,2457,2460,2468,2485,2489,2498,2515,2519,2528,2546,2549,2558,2569,2571,2588,2605,2610,2624,2627,2637,2653,2660,2666,2674,2695,2700,2713,2720,2726,2744,2758,2760,2768,2787,2789,2804,2818-2819,2833,2846,2849,2864,2937,2939,2961,2978,2990,2994,3008,3027,3043,3049,3053,3065,3079,3086,3097,3107,3117,3127,3132,3136,3153,3173,3188,3207,3209,3216,3228,3233,3246,3261]
   BatchHost=lrdn0314
   NumNodes=200 NumCPUs=6400 NumTasks=800 CPUs/Task=8 ReqB:S:C:T=0:0:*:*
   TRES=cpu=6400,mem=96250G,node=200,billing=6400,gres/gpu=800
   Socks/Node=* NtasksPerN:B:S:C=4:0:*:* CoreSpec=*
   JOB_GRES=gpu:a100:800
     Nodes=lrdn[0314,0408,0412,0426,0440,0444,0455,0479,0556,0559,0589,0608,0623,0674,0716,0734,0740,0746,0758,0769,0778,0793,0808,0853,0865,0869,0889,0927,0929,1008,1023,1043,1056,1072,1097,1190,1244,1258,1266,1272,1287,1304,1317,1348-1349,1355,1410,1430,1438,1467,1470,1484,1493,1519,1539,1543,1557,1573,1580,1587,1597,1618-1619,1626,1644,1650,1692,1694,1714,1738-1739,1767,1782,1807,1820,1825,1842,1854,1867,1888,1890,1903,1906,1919,1928,1940-1941,1962,1964,1973,2005,2048,2052,2067,2083,2089,2096,2108,2123,2129,2134,2142,2152,2178,2195,2214,2219,2233,2240,2248,2258,2277,2279,2293,2303,2309,2314,2330,2336,2366,2369,2383,2398-2399,2413,2427,2429,2436,2457,2460,2468,2485,2489,2498,2515,2519,2528,2546,2549,2558,2569,2571,2588,2605,2610,2624,2627,2637,2653,2660,2666,2674,2695,2700,2713,2720,2726,2744,2758,2760,2768,2787,2789,2804,2818-2819,2833,2846,2849,2864,2937,2939,2961,2978,2990,2994,3008,3027,3043,3049,3053,3065,3079,3086,3097,3107,3117,3127,3132,3136,3153,3173,3188,3207,3209,3216,3228,3233,3246,3261] CPU_IDs=0-31 Mem=492800 GRES=gpu:a100:4(IDX:0-3)
   MinCPUsNode=32 MinMemoryCPU=15400M MinTmpDiskNode=0
   Features=(null) DelayBoot=00:00:00
   OverSubscribe=NO Contiguous=0 Licenses=(null) Network=(null)
   Command=/leonardo_work/Max3_devel_2/nspallan/jube-benchmarks/run_yambo_61k/000001/000003_submit/work/submit.job
   WorkDir=/leonardo_work/Max3_devel_2/nspallan/jube-benchmarks/run_yambo_61k/000001/000003_submit/work
   StdErr=/leonardo_work/Max3_devel_2/nspallan/jube-benchmarks/run_yambo_61k/000001/000003_submit/work/slurm-2227035.out
   StdIn=/dev/null
   StdOut=/leonardo_work/Max3_devel_2/nspallan/jube-benchmarks/run_yambo_61k/000001/000003_submit/work/slurm-2227035.out
   Power=
   TresPerNode=gres:gpu:4
   

