{
 "global_section": { "_calls": 1, "_time":      726.495, "_%":   100.00,
   "siesta": { "_calls": 1, "_time":      726.495, "_%":   100.00,
     "Setup": { "_calls": 1, "_time":        1.302, "_%":     0.18,
       "bands": { "_calls": 1, "_time":        0.002, "_%":     0.00},
       "KSV_init": { "_calls": 1, "_time":        0.001, "_%":     0.00}
     },
     "IterGeom": { "_calls": 1, "_time":      724.937, "_%":    99.79,
       "geom_init": { "_calls": 1, "_time":        6.586, "_%":     0.91,
         "state_init": { "_calls": 1, "_time":        0.474, "_%":     0.07,
           "hsparse": { "_calls": 1, "_time":        0.129, "_%":     0.02},
           "overlap": { "_calls": 1, "_time":        0.082, "_%":     0.01}
         },
         "Setup_H0": { "_calls": 1, "_time":        6.110, "_%":     0.84,
           "naefs": { "_calls": 1, "_time":        0.024, "_%":     0.00},
           "MolMec": { "_calls": 1, "_time":        0.000, "_%":     0.00},
           "kinefsm": { "_calls": 1, "_time":        0.079, "_%":     0.01},
           "nlefsm": { "_calls": 1, "_time":        0.284, "_%":     0.04},
           "DHSCF_Init": { "_calls": 1, "_time":        5.708, "_%":     0.79,
             "DHSCF1": { "_calls": 1, "_time":        0.061, "_%":     0.01,
               "INITMESH": { "_calls": 1, "_time":        0.000, "_%":     0.00}
             },
             "DHSCF2": { "_calls": 1, "_time":        5.629, "_%":     0.77,
               "REMESH": { "_calls": 1, "_time":        0.270, "_%":     0.04,
                 "INITMESH": { "_calls": 2, "_time":        0.253, "_%":     0.03,
                   "SPLOAD": { "_calls": 2, "_time":        0.225, "_%":     0.03}
                 }
               },
               "REORD": { "_calls": 2, "_time":        0.023, "_%":     0.00},
               "PHION": { "_calls": 1, "_time":        0.210, "_%":     0.03},
               "COMM_BSC": { "_calls": 1, "_time":        0.099, "_%":     0.01},
               "POISON": { "_calls": 1, "_time":        4.503, "_%":     0.62,
                 "fft": { "_calls": 2, "_time":        4.334, "_%":     0.60}
               }
             }
           }
         }
       },
       "IterSCF": { "_calls": 5, "_time":      718.284, "_%":    98.87,
         "setup_H": { "_calls": 5, "_time":       35.181, "_%":     4.84,
           "DHSCF": { "_calls": 5, "_time":       35.010, "_%":     4.82,
             "DHSCF3": { "_calls": 5, "_time":       35.010, "_%":     4.82,
               "rhoofd": { "_calls": 5, "_time":        0.385, "_%":     0.05},
               "COMM_BSC": { "_calls": 10, "_time":        1.154, "_%":     0.16},
               "POISON": { "_calls": 5, "_time":       21.460, "_%":     2.95,
                 "fft": { "_calls": 10, "_time":       20.474, "_%":     2.82}
               },
               "XC": { "_calls": 5, "_time":        9.286, "_%":     1.28,
                 "COMM_BSC": { "_calls": 10, "_time":        1.012, "_%":     0.14},
                 "GXC-CellXC": { "_calls": 5, "_time":        8.004, "_%":     1.10,
                   "gridxc@cellXC": { "_calls": 5, "_time":        8.003, "_%":     1.10}
                 }
               },
               "vmat": { "_calls": 5, "_time":        0.333, "_%":     0.05}
             }
           }
         },
         "compute_dm": { "_calls": 5, "_time":      682.721, "_%":    93.97,
           "diagon": { "_calls": 5, "_time":      681.213, "_%":    93.77,
             "r-eigvec": { "_calls": 5, "_time":      623.746, "_%":    85.86,
               "r-buildHS": { "_calls": 5, "_time":        0.216, "_%":     0.03},
               "rdiag": { "_calls": 5, "_time":      623.530, "_%":    85.83,
                 "rdiag1": { "_calls": 5, "_time":       19.916, "_%":     2.74},
                 "rdiag2": { "_calls": 5, "_time":       53.714, "_%":     7.39},
                 "rdiag3": { "_calls": 5, "_time":      497.925, "_%":    68.54},
                 "rdiag4": { "_calls": 5, "_time":       50.111, "_%":     6.90}
               }
             },
             "r-buildD": { "_calls": 5, "_time":       56.866, "_%":     7.83}
           }
         },
         "MIXER": { "_calls": 5, "_time":        0.186, "_%":     0.03}
       },
       "state_analysis": { "_calls": 1, "_time":        0.051, "_%":     0.01},
       "siesta_move": { "_calls": 1, "_time":        0.000, "_%":     0.00}
     },
     "Analysis": { "_calls": 1, "_time":        0.178, "_%":     0.02,
       "optical": { "_calls": 1, "_time":        0.001, "_%":     0.00}
     }
   }
 }}
