JobId=248122 JobName=CovidWeak
   UserId=fpedron(5340) GroupId=fpedron(5340) MCS_label=N/A
   Priority=1 Nice=0 Account=ehpc-ben-2024b06-053 QOS=ehpc-ben-2024b06-053
   JobState=RUNNING Reason=None Dependency=(null)
   Requeue=1 Restarts=0 BatchFlag=1 Reboot=0 ExitCode=0:0
   DerivedExitCode=0:0
   RunTime=00:00:02 TimeLimit=12:00:00 TimeMin=N/A
   SubmitTime=2024-09-25T11:23:38 EligibleTime=2024-09-25T11:23:38
   AccrueTime=2024-09-25T11:23:38
   StartTime=2024-09-25T17:45:47 EndTime=2024-09-26T05:45:47 Deadline=N/A
   SuspendTime=None SecsPreSuspend=0 LastSchedEval=2024-09-25T17:45:47
   Partition=cn AllocNode:Sid=login1:517187
   ReqNodeList=(null) ExcNodeList=(null)
   NodeList=cn[0157-0169,0172,0175,0178,0181-0184,0187-0190,0545-0553,0556,0559,0562,0565-0566,0573-0574,0781-0792,0799-0806,0809-0810,0813-0814]
   BatchHost=cn0157
   NumNodes=64 NumCPUs=8192 NumTasks=8192 CPUs/Task=1 ReqB:S:C:T=0:0:*:*
   TRES=cpu=8192,mem=8T,node=64,billing=8192
   Socks/Node=* NtasksPerN:B:S:C=128:0:*:* CoreSpec=*
   JOB_GRES=(null)
     Nodes=cn[0157-0169,0172,0175,0178,0181-0184,0187-0188] CPU_IDs=0-127 Mem=131072 GRES=
     Nodes=cn0189 CPU_IDs=2-129 Mem=131072 GRES=
     Nodes=cn[0190,0545-0553,0556,0559,0562,0565-0566,0573-0574,0781-0792,0799-0806,0809-0810,0813-0814] CPU_IDs=0-127 Mem=131072 GRES=
   MinCPUsNode=128 MinMemoryCPU=1G MinTmpDiskNode=0
   Features=(null) DelayBoot=00:00:00
   OverSubscribe=OK Contiguous=0 Licenses=(null) Network=(null)
   Command=/home/fpedron/JUBE4MaX/max-inputs/interface/siesta/_CovidWeak/000001/000005_submit/work/submit.job
   WorkDir=/home/fpedron/JUBE4MaX/max-inputs/interface/siesta/_CovidWeak/000001/000005_submit/work
   StdErr=/home/fpedron/JUBE4MaX/max-inputs/interface/siesta/_CovidWeak/000001/000005_submit/work/slurm-248122.out
   StdIn=/dev/null
   StdOut=/home/fpedron/JUBE4MaX/max-inputs/interface/siesta/_CovidWeak/000001/000005_submit/work/slurm-248122.out
   Power=
   MailUser=fpedron MailType=NONE

