JobId=8210843 JobName=CovidWeakKPoints
   UserId=pedronfe(327000671) GroupId=pepr_pedronfe(327000671) MCS_label=N/A
   Priority=474 Nice=0 Account=project_465001212 QOS=normal
   JobState=RUNNING Reason=None Dependency=(null)
   Requeue=1 Restarts=0 BatchFlag=1 Reboot=0 ExitCode=0:0
   DerivedExitCode=0:0
   RunTime=00:00:04 TimeLimit=00:59:00 TimeMin=N/A
   SubmitTime=2024-10-18T11:35:19 EligibleTime=2024-10-18T11:35:19
   AccrueTime=2024-10-18T11:35:19
   StartTime=2024-10-18T11:39:28 EndTime=2024-10-18T12:38:28 Deadline=N/A
   SuspendTime=None SecsPreSuspend=0 LastSchedEval=2024-10-18T11:39:28 Scheduler=Backfill
   Partition=standard-g AllocNode:Sid=ln02:25815
   ReqNodeList=(null) ExcNodeList=(null)
   NodeList=nid[005414-005415]
   BatchHost=nid005414
   NumNodes=2 NumCPUs=224 NumTasks=64 CPUs/Task=1 ReqB:S:C:T=0:0:*:1
   ReqTRES=cpu=64,mem=960G,node=2,billing=64,gres/gpu:a100=16
   AllocTRES=cpu=224,node=2,billing=224,gres/gpu:mi250=16
   Socks/Node=* NtasksPerN:B:S:C=32:0:*:1 CoreSpec=*
   JOB_GRES=gpu:mi250:16
     Nodes=nid[005414-005415] CPU_IDs=2-15,18-31,34-47,50-63,66-79,82-95,98-111,114-127 Mem=0 GRES=gpu:mi250:8(IDX:0-7)
   MinCPUsNode=32 MinMemoryCPU=0 MinTmpDiskNode=0
   Features=(null) DelayBoot=00:00:00
   OverSubscribe=NO Contiguous=0 Licenses=(null) Network=(null)
   Command=/pfs/lustrep1/projappl/project_465001212/fede/JUBE4MaX-GPU/max-inputs/interface/siesta/_CovidWeakKPoints/000000/000001_submit/work/submit.job
   WorkDir=/pfs/lustrep1/projappl/project_465001212/fede/JUBE4MaX-GPU/max-inputs/interface/siesta/_CovidWeakKPoints/000000/000001_submit/work
   StdErr=/pfs/lustrep1/projappl/project_465001212/fede/JUBE4MaX-GPU/max-inputs/interface/siesta/_CovidWeakKPoints/000000/000001_submit/work/slurm-8210843.out
   StdIn=/dev/null
   StdOut=/pfs/lustrep1/projappl/project_465001212/fede/JUBE4MaX-GPU/max-inputs/interface/siesta/_CovidWeakKPoints/000000/000001_submit/work/slurm-8210843.out
   Power=
   TresPerNode=gres:gpu:8
   

