{
 "global_section": { "_calls": 1, "_time":      563.194, "_%":   100.00,
   "siesta": { "_calls": 1, "_time":      563.194, "_%":   100.00,
     "Setup": { "_calls": 1, "_time":        0.706, "_%":     0.13,
       "bands": { "_calls": 1, "_time":        0.001, "_%":     0.00},
       "KSV_init": { "_calls": 1, "_time":        0.000, "_%":     0.00}
     },
     "IterGeom": { "_calls": 1, "_time":      562.396, "_%":    99.86,
       "geom_init": { "_calls": 1, "_time":       11.017, "_%":     1.96,
         "state_init": { "_calls": 1, "_time":        0.264, "_%":     0.05,
           "hsparse": { "_calls": 1, "_time":        0.090, "_%":     0.02},
           "overlap": { "_calls": 1, "_time":        0.040, "_%":     0.01}
         },
         "Setup_H0": { "_calls": 1, "_time":       10.753, "_%":     1.91,
           "naefs": { "_calls": 1, "_time":        0.018, "_%":     0.00},
           "MolMec": { "_calls": 1, "_time":        0.000, "_%":     0.00},
           "kinefsm": { "_calls": 1, "_time":        0.037, "_%":     0.01},
           "nlefsm": { "_calls": 1, "_time":        0.105, "_%":     0.02},
           "DHSCF_Init": { "_calls": 1, "_time":       10.581, "_%":     1.88,
             "DHSCF1": { "_calls": 1, "_time":        0.032, "_%":     0.01,
               "INITMESH": { "_calls": 1, "_time":        0.000, "_%":     0.00}
             },
             "DHSCF2": { "_calls": 1, "_time":       10.527, "_%":     1.87,
               "REMESH": { "_calls": 1, "_time":        0.078, "_%":     0.01,
                 "INITMESH": { "_calls": 2, "_time":        0.056, "_%":     0.01,
                   "SPLOAD": { "_calls": 2, "_time":        0.053, "_%":     0.01}
                 }
               },
               "REORD": { "_calls": 2, "_time":        0.046, "_%":     0.01},
               "PHION": { "_calls": 1, "_time":        0.549, "_%":     0.10},
               "COMM_BSC": { "_calls": 1, "_time":        0.404, "_%":     0.07},
               "POISON": { "_calls": 1, "_time":        8.477, "_%":     1.51,
                 "fft": { "_calls": 2, "_time":        8.035, "_%":     1.43}
               }
             }
           }
         }
       },
       "IterSCF": { "_calls": 5, "_time":      551.347, "_%":    97.90,
         "setup_H": { "_calls": 5, "_time":       74.517, "_%":    13.23,
           "DHSCF": { "_calls": 5, "_time":       74.487, "_%":    13.23,
             "DHSCF3": { "_calls": 5, "_time":       74.487, "_%":    13.23,
               "rhoofd": { "_calls": 5, "_time":        0.404, "_%":     0.07},
               "COMM_BSC": { "_calls": 10, "_time":        3.721, "_%":     0.66},
               "POISON": { "_calls": 5, "_time":       40.136, "_%":     7.13,
                 "fft": { "_calls": 10, "_time":       38.150, "_%":     6.77}
               },
               "XC": { "_calls": 5, "_time":       27.157, "_%":     4.82,
                 "COMM_BSC": { "_calls": 10, "_time":        3.518, "_%":     0.62},
                 "GXC-CellXC": { "_calls": 5, "_time":       23.373, "_%":     4.15,
                   "gridxc@cellXC": { "_calls": 5, "_time":       23.373, "_%":     4.15}
                 }
               },
               "vmat": { "_calls": 5, "_time":        0.500, "_%":     0.09}
             }
           }
         },
         "compute_dm": { "_calls": 5, "_time":      476.640, "_%":    84.63,
           "redist_orbs_fwd": { "_calls": 10, "_time":        0.025, "_%":     0.00},
           "elsi-complex-solver": { "_calls": 5, "_time":      476.594, "_%":    84.62,
             "elsi-solver": { "_calls": 5, "_time":      476.396, "_%":    84.59}
           },
           "redist_dm-edm_bck": { "_calls": 5, "_time":        0.005, "_%":     0.00}
         },
         "MIXER": { "_calls": 5, "_time":        0.086, "_%":     0.02}
       },
       "state_analysis": { "_calls": 1, "_time":        0.023, "_%":     0.00},
       "siesta_move": { "_calls": 1, "_time":        0.000, "_%":     0.00}
     },
     "Analysis": { "_calls": 1, "_time":        0.076, "_%":     0.01,
       "optical": { "_calls": 1, "_time":        0.001, "_%":     0.00}
     }
   }
 }}
