JobId=34389385 JobName=CovidWeakKPoints
   UserId=eufedericop(1977552410) GroupId=eufedericop(1977552410) MCS_label=N/A
   Priority=66395493 Nice=0 Account=b2024b06-053-users QOS=normal
   JobState=RUNNING Reason=None Dependency=(null)
   Requeue=1 Restarts=0 BatchFlag=1 Reboot=0 ExitCode=0:0
   DerivedExitCode=0:0
   RunTime=00:00:04 TimeLimit=1-00:00:00 TimeMin=N/A
   SubmitTime=2024-09-09T16:01:25 EligibleTime=2024-09-09T16:01:25
   AccrueTime=2024-09-09T16:01:25
   StartTime=2024-09-10T00:32:33 EndTime=2024-09-11T00:32:33 Deadline=N/A
   SuspendTime=None SecsPreSuspend=0 LastSchedEval=2024-09-10T00:32:33 Scheduler=Main
   Partition=gpu AllocNode:Sid=login0002-dmz:2816680
   ReqNodeList=(null) ExcNodeList=(null)
   NodeList=gn[11-26]
   BatchHost=gn11
   NumNodes=16 NumCPUs=4096 NumTasks=1024 CPUs/Task=2 ReqB:S:C:T=0:0:*:1
   ReqTRES=cpu=2048,mem=2000G,node=16,billing=4096,gres/gpu=64
   AllocTRES=cpu=4096,mem=2000G,node=16,billing=4096,gres/gpu=64
   Socks/Node=* NtasksPerN:B:S:C=64:0:*:* CoreSpec=*
   JOB_GRES=gpu:64
     Nodes=gn[11-26] CPU_IDs=0-255 Mem=128000 GRES=gpu:4(IDX:0-3)
   MinCPUsNode=128 MinMemoryCPU=1000M MinTmpDiskNode=0
   Features=(null) DelayBoot=00:00:00
   OverSubscribe=NO Contiguous=0 Licenses=(null) Network=(null)
   Command=/ceph/hpc/home/eufedericop/JUBE4MaX-GPU/max-inputs/interface/siesta/_CovidWeakKPoints/000000/000004_submit/work/submit.job
   WorkDir=/ceph/hpc/home/eufedericop/JUBE4MaX-GPU/max-inputs/interface/siesta/_CovidWeakKPoints/000000/000004_submit/work
   StdErr=/ceph/hpc/home/eufedericop/JUBE4MaX-GPU/max-inputs/interface/siesta/_CovidWeakKPoints/000000/000004_submit/work/slurm-34389385.out
   StdIn=/dev/null
   StdOut=/ceph/hpc/home/eufedericop/JUBE4MaX-GPU/max-inputs/interface/siesta/_CovidWeakKPoints/000000/000004_submit/work/slurm-34389385.out
   Power=
   TresPerNode=gres/gpu:4
   TresPerTask=cpu:2
   

