JobId=1618207 JobName=CovidWeakSize
   UserId=it4i-fpedron(9897) GroupId=it4i-fpedron(11979) MCS_label=N/A
   Priority=302290305 Nice=0 Account=dd-24-70 QOS=2820_4664
   JobState=RUNNING Reason=None Dependency=(null)
   Requeue=1 Restarts=0 BatchFlag=1 Reboot=0 ExitCode=0:0
   DerivedExitCode=0:0
   RunTime=00:00:04 TimeLimit=00:59:00 TimeMin=N/A
   SubmitTime=2024-09-12T09:48:34 EligibleTime=2024-09-12T09:48:34
   AccrueTime=2024-09-12T09:48:34
   StartTime=2024-09-12T09:49:00 EndTime=2024-09-12T10:48:00 Deadline=N/A
   PreemptEligibleTime=2024-09-12T09:49:00 PreemptTime=None
   SuspendTime=None SecsPreSuspend=0 LastSchedEval=2024-09-12T09:49:00 Scheduler=Backfill
   Partition=qgpu AllocNode:Sid=login1.karolina.it4i.cz:1828684
   ReqNodeList=(null) ExcNodeList=(null)
   NodeList=acn30
   BatchHost=acn30
   NumNodes=1 NumCPUs=128 NumTasks=64 CPUs/Task=1 ReqB:S:C:T=0:0:*:*
   ReqTRES=cpu=64,mem=485G,node=1,billing=8,gres/gpu=8
   AllocTRES=cpu=128,mem=970G,node=1,billing=8,gres/gpu=8
   Socks/Node=* NtasksPerN:B:S:C=64:0:*:* CoreSpec=*
   JOB_GRES=gpu:a100:8
     Nodes=acn30 CPU_IDs=0-127 Mem=993280 GRES=gpu:a100:8(IDX:0-7)
   MinCPUsNode=64 MinMemoryCPU=7760M MinTmpDiskNode=0
   Features=(null) DelayBoot=00:00:00
   OverSubscribe=NO Contiguous=0 Licenses=(null) Network=(null)
   Command=/home/it4i-fpedron/JUBE4MaX-GPU/max-inputs/interface/siesta/_CovidWeakSize/000000/000000_submit/work/submit.job
   WorkDir=/home/it4i-fpedron/JUBE4MaX-GPU/max-inputs/interface/siesta/_CovidWeakSize/000000/000000_submit/work
   StdErr=/home/it4i-fpedron/JUBE4MaX-GPU/max-inputs/interface/siesta/_CovidWeakSize/000000/000000_submit/work/slurm-1618207.out
   StdIn=/dev/null
   StdOut=/home/it4i-fpedron/JUBE4MaX-GPU/max-inputs/interface/siesta/_CovidWeakSize/000000/000000_submit/work/slurm-1618207.out
   Power=
   CpusPerTres=gres/gpu:16
   TresPerNode=gres/gpu:8
   

