JobID        JobIDRaw        JobName  Partition  MaxVMSize  MaxVMSizeNode  MaxVMSizeTask  AveVMSize     MaxRSS MaxRSSNode MaxRSSTask     AveRSS MaxPages MaxPagesNode   MaxPagesTask   AvePages     MinCPU MinCPUNode MinCPUTask     AveCPU   NTasks  AllocCPUS    Elapsed      State ExitCode AveCPUFreq ReqCPUFreqMin ReqCPUFreqMax ReqCPUFreqGov     ReqMem ConsumedEnergy  MaxDiskRead MaxDiskReadNode MaxDiskReadTask    AveDiskRead MaxDiskWrite MaxDiskWriteNode MaxDiskWriteTask   AveDiskWrite    ReqTRES  AllocTRES TRESUsageInAve TRESUsageInMax TRESUsageInMaxNode TRESUsageInMaxTask TRESUsageInMin TRESUsageInMinNode TRESUsageInMinTask TRESUsageInTot TRESUsageOutMax TRESUsageOutMaxNode TRESUsageOutMaxTask TRESUsageOutAve TRESUsageOutTot 
------------ ------------ ---------- ---------- ---------- -------------- -------------- ---------- ---------- ---------- ---------- ---------- -------- ------------ -------------- ---------- ---------- ---------- ---------- ---------- -------- ---------- ---------- ---------- -------- ---------- ------------- ------------- ------------- ---------- -------------- ------------ --------------- --------------- -------------- ------------ ---------------- ---------------- -------------- ---------- ---------- -------------- -------------- ------------------ ------------------ -------------- ------------------ ------------------ -------------- --------------- ------------------- ------------------- --------------- --------------- 
6873274      6873274      submit.job ju-standa+                                                                                                                                                                                                             224   00:19:17    RUNNING      0:0                  Unknown       Unknown       Unknown       960G                                                                                                                                          billing=1+ billing=2+                                                                                                                                                                                                                                 
6873274.bat+ 6873274.bat+      batch                                                                                                                                                                                                               1        112   00:19:17    RUNNING      0:0          0             0             0             0                         0                                                                                                                                      cpu=112,g+                                                                                                                                                                                                                                 
6873274.0    6873274.0    select_gpu             85154836K      nid005308              7 78940768.+  35391788K  nid005308          1  34644069K     4840    nid005308              3       4164   00:19:46  nid005308          0   00:19:57       16        224   00:19:07  COMPLETED      0:0     11.21M       Unknown       Unknown       Unknown                       267      131.96M       nid005308               0        129.43M        3.35M        nid005308                0          3.25M            cpu=224,g+ cpu=00:19:57,+ cpu=00:20:05,+ cpu=nid005309,ene+ cpu=9,fs/disk=0,m+ cpu=00:19:46,+ cpu=nid005308,ene+ cpu=0,fs/disk=12,+ cpu=05:19:12,+ energy=2.50K,f+ energy=nid005308,f+           fs/disk=0 energy=97,fs/d+ energy=1561,fs+ 
