JobID        JobIDRaw        JobName  Partition  MaxVMSize  MaxVMSizeNode  MaxVMSizeTask  AveVMSize     MaxRSS MaxRSSNode MaxRSSTask     AveRSS MaxPages MaxPagesNode   MaxPagesTask   AvePages     MinCPU MinCPUNode MinCPUTask     AveCPU   NTasks  AllocCPUS    Elapsed      State ExitCode AveCPUFreq ReqCPUFreqMin ReqCPUFreqMax ReqCPUFreqGov     ReqMem ConsumedEnergy  MaxDiskRead MaxDiskReadNode MaxDiskReadTask    AveDiskRead MaxDiskWrite MaxDiskWriteNode MaxDiskWriteTask   AveDiskWrite    ReqTRES  AllocTRES TRESUsageInAve TRESUsageInMax TRESUsageInMaxNode TRESUsageInMaxTask TRESUsageInMin TRESUsageInMinNode TRESUsageInMinTask TRESUsageInTot TRESUsageOutMax TRESUsageOutMaxNode TRESUsageOutMaxTask TRESUsageOutAve TRESUsageOutTot 
------------ ------------ ---------- ---------- ---------- -------------- -------------- ---------- ---------- ---------- ---------- ---------- -------- ------------ -------------- ---------- ---------- ---------- ---------- ---------- -------- ---------- ---------- ---------- -------- ---------- ------------- ------------- ------------- ---------- -------------- ------------ --------------- --------------- -------------- ------------ ---------------- ---------------- -------------- ---------- ---------- -------------- -------------- ------------------ ------------------ -------------- ------------------ ------------------ -------------- --------------- ------------------- ------------------- --------------- --------------- 
9592901      9592901      CovidWeak+        gpp                                                                                                                                                                                                             448   00:02:09    RUNNING      0:0                  Unknown       Unknown       Unknown    437.50G                                                                                                                                          billing=2+ billing=4+                                                                                                                                                                                                                                 
9592901.bat+ 9592901.bat+      batch                                                                                                                                                                                                               1        224   00:02:09    RUNNING      0:0          0             0             0             0                         0                                                                                                                                      cpu=224,m+                                                                                                                                                                                                                                 
9592901.ext+ 9592901.ext+     extern                                                                                                                                                                                                               2        448   00:02:09    RUNNING      0:0          0             0             0             0                         0                                                                                                                                      billing=4+                                                                                                                                                                                                                                 
9592901.0    9592901.0        siesta              6291136K      gs17r2b66            116 6169432246   1201529K  gs17r2b66        141  967290779       33    gs17r2b66            152          2   00:00:49  gs17r2b66        190   00:01:20      224        448   00:01:35  COMPLETED      0:0    426.55M       Unknown       Unknown       Unknown                   132.75K       11.60M       gs17r2b65               0         10.24M       26.80M        gs17r2b65                0          4.24M            cpu=448,m+ cpu=00:01:20,+ cpu=00:01:21,+ cpu=gs17r2b65,ene+ cpu=37,fs/disk=0,+ cpu=00:00:49,+ cpu=gs17r2b66,ene+ cpu=190,fs/disk=1+ cpu=04:59:18,+ energy=1027,fs+ energy=gs17r2b65,f+           fs/disk=0 energy=3,fs/di+ energy=696,fs/+ 
