JobID        JobIDRaw        JobName  Partition  MaxVMSize  MaxVMSizeNode  MaxVMSizeTask  AveVMSize     MaxRSS MaxRSSNode MaxRSSTask     AveRSS MaxPages MaxPagesNode   MaxPagesTask   AvePages     MinCPU MinCPUNode MinCPUTask     AveCPU   NTasks  AllocCPUS    Elapsed      State ExitCode AveCPUFreq ReqCPUFreqMin ReqCPUFreqMax ReqCPUFreqGov     ReqMem ConsumedEnergy  MaxDiskRead MaxDiskReadNode MaxDiskReadTask    AveDiskRead MaxDiskWrite MaxDiskWriteNode MaxDiskWriteTask   AveDiskWrite    ReqTRES  AllocTRES TRESUsageInAve TRESUsageInMax TRESUsageInMaxNode TRESUsageInMaxTask TRESUsageInMin TRESUsageInMinNode TRESUsageInMinTask TRESUsageInTot TRESUsageOutMax TRESUsageOutMaxNode TRESUsageOutMaxTask TRESUsageOutAve TRESUsageOutTot 
------------ ------------ ---------- ---------- ---------- -------------- -------------- ---------- ---------- ---------- ---------- ---------- -------- ------------ -------------- ---------- ---------- ---------- ---------- ---------- -------- ---------- ---------- ---------- -------- ---------- ------------- ------------- ------------- ---------- -------------- ------------ --------------- --------------- -------------- ------------ ---------------- ---------------- -------------- ---------- ---------- -------------- -------------- ------------------ ------------------ -------------- ------------------ ------------------ -------------- --------------- ------------------- ------------------- --------------- --------------- 
7682155      7682155      submit.job dcgp_usr_+                                                                                                                                                                                                             896   00:14:11    RUNNING      0:0                  Unknown       Unknown       Unknown      3850G                                                                                                                                          billing=8+ billing=8+                                                                                                                                                                                                                                 
7682155.bat+ 7682155.bat+      batch                                                                                                                                                                                                               1        112   00:14:11    RUNNING      0:0          0             0             0             0                         0                                                                                                                                      cpu=112,g+                                                                                                                                                                                                                                 
7682155.ext+ 7682155.ext+     extern                                                                                                                                                                                                               8        896   00:14:11    RUNNING      0:0          0             0             0             0                         0                                                                                                                                      billing=8+                                                                                                                                                                                                                                 
7682155.0    7682155.0        siesta               969076K       lrdn4355              0  108810953    898704K   lrdn4355          0  104219323      442     lrdn4355              0          3   00:12:07   lrdn4364        686   00:12:30      896        896   00:14:06  COMPLETED      0:0      2.52G       Unknown       Unknown       Unknown                         0        2.35M        lrdn4355               0          1.39M       15.88M         lrdn4355                0          1.07M            cpu=896,g+ cpu=00:12:30,+ cpu=00:13:38,+ cpu=lrdn4361,ener+ cpu=392,fs/disk=0+ cpu=00:12:07,+ cpu=lrdn4364,ener+ cpu=686,fs/disk=4+ cpu=7-18:45:5+ energy=0,fs/di+ energy=lrdn4365,fs+           fs/disk=0 energy=0,fs/di+ energy=0,fs/di+ 
