JobId=34389367 JobName=CovidStrong
   UserId=eufedericop(1977552410) GroupId=eufedericop(1977552410) MCS_label=N/A
   Priority=66263836 Nice=0 Account=b2024b06-053-users QOS=normal
   JobState=RUNNING Reason=None Dependency=(null)
   Requeue=1 Restarts=0 BatchFlag=1 Reboot=0 ExitCode=0:0
   DerivedExitCode=0:0
   RunTime=00:00:07 TimeLimit=1-00:00:00 TimeMin=N/A
   SubmitTime=2024-09-09T16:01:21 EligibleTime=2024-09-09T16:01:21
   AccrueTime=2024-09-09T16:01:21
   StartTime=2024-09-10T11:36:40 EndTime=2024-09-11T11:36:40 Deadline=N/A
   SuspendTime=None SecsPreSuspend=0 LastSchedEval=2024-09-10T11:36:40 Scheduler=Main
   Partition=gpu AllocNode:Sid=login0002-dmz:2816680
   ReqNodeList=(null) ExcNodeList=(null)
   NodeList=gn[15-18]
   BatchHost=gn15
   NumNodes=4 NumCPUs=1024 NumTasks=256 CPUs/Task=2 ReqB:S:C:T=0:0:*:1
   ReqTRES=cpu=512,mem=500G,node=4,billing=1024,gres/gpu=16
   AllocTRES=cpu=1024,mem=500G,node=4,billing=1024,gres/gpu=16
   Socks/Node=* NtasksPerN:B:S:C=64:0:*:* CoreSpec=*
   JOB_GRES=gpu:16
     Nodes=gn[15-18] CPU_IDs=0-255 Mem=128000 GRES=gpu:4(IDX:0-3)
   MinCPUsNode=128 MinMemoryCPU=1000M MinTmpDiskNode=0
   Features=(null) DelayBoot=00:00:00
   OverSubscribe=NO Contiguous=0 Licenses=(null) Network=(null)
   Command=/ceph/hpc/home/eufedericop/JUBE4MaX-GPU/max-inputs/interface/siesta/_CovidStrong/000000/000002_submit/work/submit.job
   WorkDir=/ceph/hpc/home/eufedericop/JUBE4MaX-GPU/max-inputs/interface/siesta/_CovidStrong/000000/000002_submit/work
   StdErr=/ceph/hpc/home/eufedericop/JUBE4MaX-GPU/max-inputs/interface/siesta/_CovidStrong/000000/000002_submit/work/slurm-34389367.out
   StdIn=/dev/null
   StdOut=/ceph/hpc/home/eufedericop/JUBE4MaX-GPU/max-inputs/interface/siesta/_CovidStrong/000000/000002_submit/work/slurm-34389367.out
   Power=
   TresPerNode=gres/gpu:4
   TresPerTask=cpu:2
   

