JobID        JobIDRaw        JobName  Partition  MaxVMSize  MaxVMSizeNode  MaxVMSizeTask  AveVMSize     MaxRSS MaxRSSNode MaxRSSTask     AveRSS MaxPages MaxPagesNode   MaxPagesTask   AvePages     MinCPU MinCPUNode MinCPUTask     AveCPU   NTasks  AllocCPUS    Elapsed      State ExitCode AveCPUFreq ReqCPUFreqMin ReqCPUFreqMax ReqCPUFreqGov     ReqMem ConsumedEnergy  MaxDiskRead MaxDiskReadNode MaxDiskReadTask    AveDiskRead MaxDiskWrite MaxDiskWriteNode MaxDiskWriteTask   AveDiskWrite    ReqTRES  AllocTRES TRESUsageInAve TRESUsageInMax TRESUsageInMaxNode TRESUsageInMaxTask TRESUsageInMin TRESUsageInMinNode TRESUsageInMinTask TRESUsageInTot TRESUsageOutMax TRESUsageOutMaxNode TRESUsageOutMaxTask TRESUsageOutAve TRESUsageOutTot 
------------ ------------ ---------- ---------- ---------- -------------- -------------- ---------- ---------- ---------- ---------- ---------- -------- ------------ -------------- ---------- ---------- ---------- ---------- ---------- -------- ---------- ---------- ---------- -------- ---------- ------------- ------------- ------------- ---------- -------------- ------------ --------------- --------------- -------------- ------------ ---------------- ---------------- -------------- ---------- ---------- -------------- -------------- ------------------ ------------------ -------------- ------------------ ------------------ -------------- --------------- ------------------- ------------------- --------------- --------------- 
34389353     34389353     CovidWeak+        cpu                                                                                                                                                                                                            2048   01:18:36    RUNNING      0:0                  Unknown       Unknown       Unknown      1000G                                                                                                                                          billing=1+ billing=2+                                                                                                                                                                                                                                 
34389353.ba+ 34389353.ba+      batch                                                                                                                                                                                                               1        256   01:18:36    RUNNING      0:0          0             0             0             0                         0                                                                                                                                      cpu=256,m+                                                                                                                                                                                                                                 
34389353.ex+ 34389353.ex+     extern                                                                                                                                                                                                               8       2048   01:18:36    RUNNING      0:0          0             0             0             0                         0                                                                                                                                      billing=2+                                                                                                                                                                                                                                 
34389353.0   34389353.0       siesta               215204K         cn0852            732  178833100    193684K     cn0856        956  171287940       14       cn0847              0          6   00:59:52     cn0856        907   01:00:32     1024       2048   01:18:33  COMPLETED      0:0    629.15M       Unknown       Unknown       Unknown                         0       28.41M          cn0847               0         27.27M       19.34M           cn0847                0          7.38M            cpu=2048,+ cpu=01:00:32,+ cpu=01:01:32,+ cpu=cn0853,energy+ cpu=851,fs/disk=0+ cpu=00:59:52,+ cpu=cn0856,energy+ cpu=907,fs/disk=9+ cpu=43-01:22:+ energy=0,fs/di+ energy=cn0850,fs/d+           fs/disk=0 energy=0,fs/di+ energy=0,fs/di+ 
