JobId=1424460 JobName=CovidStrong
   UserId=u102010(102010) GroupId=hpcusers(555) MCS_label=N/A
   Priority=275955 Nice=0 Account=p200585 QOS=default
   JobState=RUNNING Reason=None Dependency=(null)
   Requeue=0 Restarts=0 BatchFlag=1 Reboot=0 ExitCode=0:0
   DerivedExitCode=0:0
   RunTime=00:00:10 TimeLimit=00:59:00 TimeMin=N/A
   SubmitTime=2024-10-01T20:39:07 EligibleTime=2024-10-01T20:39:07
   AccrueTime=2024-10-01T20:39:07
   StartTime=2024-10-01T20:51:40 EndTime=2024-10-01T21:50:48 Deadline=N/A
   PreemptEligibleTime=2024-10-01T20:51:40 PreemptTime=None
   SuspendTime=None SecsPreSuspend=0 LastSchedEval=2024-10-01T20:51:40 Scheduler=Backfill
   Partition=gpu AllocNode:Sid=login02.meluxina.lxp.lu:1082248
   ReqNodeList=(null) ExcNodeList=(null)
   NodeList=mel[2038,2040]
   BatchHost=mel2038
   NumNodes=2 NumCPUs=256 NumTasks=64 CPUs/Task=4 ReqB:S:C:T=0:0:*:*
   ReqTRES=cpu=64,mem=960G,node=2,billing=64,gres/gpu=8
   AllocTRES=cpu=256,mem=960G,node=2,billing=256,gres/gpu=8,gres/gpun=2
   Socks/Node=* NtasksPerN:B:S:C=32:0:*:* CoreSpec=*
   JOB_GRES=gpuN:2,gpu:8
     Nodes=mel[2038,2040] CPU_IDs=0-127 Mem=491520 GRES=gpuN(CNT:1),gpu:4(IDX:0-3)
   MinCPUsNode=128 MinMemoryNode=0 MinTmpDiskNode=0
   Features=(null) DelayBoot=00:00:00
   OverSubscribe=NO Contiguous=0 Licenses=(null) Network=(null)
   Command=/mnt/tier2/users/u102010/JUBE4MaX-GPU/max-inputs/interface/siesta/_CovidStrong/000000/000001_submit/work/submit.job
   WorkDir=/mnt/tier2/users/u102010/JUBE4MaX-GPU/max-inputs/interface/siesta/_CovidStrong/000000/000001_submit/work
   StdErr=/mnt/tier2/users/u102010/JUBE4MaX-GPU/max-inputs/interface/siesta/_CovidStrong/000000/000001_submit/work/slurm-1424460.out
   StdIn=/dev/null
   StdOut=/mnt/tier2/users/u102010/JUBE4MaX-GPU/max-inputs/interface/siesta/_CovidStrong/000000/000001_submit/work/slurm-1424460.out
   Power=
   TresPerNode=gres/gpu:4
   

