JobID        JobIDRaw        JobName  Partition  MaxVMSize  MaxVMSizeNode  MaxVMSizeTask  AveVMSize     MaxRSS MaxRSSNode MaxRSSTask     AveRSS MaxPages MaxPagesNode   MaxPagesTask   AvePages     MinCPU MinCPUNode MinCPUTask     AveCPU   NTasks  AllocCPUS    Elapsed      State ExitCode AveCPUFreq ReqCPUFreqMin ReqCPUFreqMax ReqCPUFreqGov     ReqMem ConsumedEnergy  MaxDiskRead MaxDiskReadNode MaxDiskReadTask    AveDiskRead MaxDiskWrite MaxDiskWriteNode MaxDiskWriteTask   AveDiskWrite    ReqTRES  AllocTRES TRESUsageInAve TRESUsageInMax TRESUsageInMaxNode TRESUsageInMaxTask TRESUsageInMin TRESUsageInMinNode TRESUsageInMinTask TRESUsageInTot TRESUsageOutMax TRESUsageOutMaxNode TRESUsageOutMaxTask TRESUsageOutAve TRESUsageOutTot 
------------ ------------ ---------- ---------- ---------- -------------- -------------- ---------- ---------- ---------- ---------- ---------- -------- ------------ -------------- ---------- ---------- ---------- ---------- ---------- -------- ---------- ---------- ---------- -------- ---------- ------------- ------------- ------------- ---------- -------------- ------------ --------------- --------------- -------------- ------------ ---------------- ---------------- -------------- ---------- ---------- -------------- -------------- ------------------ ------------------ -------------- ------------------ ------------------ -------------- --------------- ------------------- ------------------- --------------- --------------- 
35112856     35112856      CovidWeak        gpu                                                                                                                                                                                                             256   00:07:19    RUNNING      0:0                  Unknown       Unknown       Unknown       125G                                                                                                                                          billing=2+ billing=2+                                                                                                                                                                                                                                 
35112856.ba+ 35112856.ba+      batch                                                                                                                                                                                                               1        256   00:07:19    RUNNING      0:0          0             0             0             0                         0                                                                                                                                      cpu=256,g+                                                                                                                                                                                                                                 
35112856.ex+ 35112856.ex+     extern                                                                                                                                                                                                               1        256   00:07:19    RUNNING      0:0          0             0             0             0                         0                                                                                                                                      billing=2+                                                                                                                                                                                                                                 
35112856.0   35112856.0   vega-gpu-+               800304K           gn29             28  747023104    749148K       gn29         28  687378880        2         gn29              0          0   00:07:35       gn29          0   00:07:37       64        256   00:07:17  COMPLETED      0:0    291.62M       Unknown       Unknown       Unknown                    17.25?       37.19M            gn29               0         36.06M       22.57M             gn29                0          4.80M            cpu=256,g+ cpu=00:07:37,+ cpu=00:07:39,+ cpu=gn29,energy=g+ cpu=31,fs/disk=0,+ cpu=00:07:35,+ cpu=gn29,energy=g+ cpu=0,fs/disk=6,g+ cpu=08:08:16,+ energy=4294967+ energy=gn29,fs/dis+           fs/disk=0 energy=0,fs/di+ energy=0,fs/di+ 
