Nodes;Tasks;Threads/Task;k-points;nbands;X-cutoff;Time-Profile;Dipoles;Xo;X;Self Energy;Other
1;8;14;7;2000;20;13500.00;26.09;9780.00;0.03;3665.20;27.40
2;16;14;7;2000;20;7320.00;15.06;5340.00;0.05;1884.71;78.90
4;32;14;7;2000;20;3840.00;9.21;2875.00;0.06;970.36;-15.76
8;64;14;7;2000;20;2448.00;6.96;1505.00;0.05;920.19;15.23
16;128;14;7;2000;20;1236.00;7.20;792.00;0.07;424.70;11.47
24;192;14;7;2000;20;857.00;6.08;550.33;2.33;280.50;19.46
32;256;14;7;2000;20;678.00;6.69;424.85;1.04;223.92;21.89
40;320;14;7;2000;20;578.00;21.95;348.75;0.09;191.86;14.79
56;448;14;7;2000;20;413.00;20.46;247.91;0.09;120.98;22.96
64;512;14;7;2000;20;362.00;7.94;221.10;0.15;118.38;13.84
