{
 "global_section": { "_calls": 1, "_time":     1842.555, "_%":   100.00,
   "siesta": { "_calls": 1, "_time":     1842.555, "_%":   100.00,
     "Setup": { "_calls": 1, "_time":        1.946, "_%":     0.11,
       "bands": { "_calls": 1, "_time":        0.002, "_%":     0.00},
       "KSV_init": { "_calls": 1, "_time":        0.001, "_%":     0.00}
     },
     "IterGeom": { "_calls": 1, "_time":     1840.220, "_%":    99.87,
       "geom_init": { "_calls": 1, "_time":       12.472, "_%":     0.68,
         "state_init": { "_calls": 1, "_time":        0.719, "_%":     0.04,
           "hsparse": { "_calls": 1, "_time":        0.266, "_%":     0.01},
           "overlap": { "_calls": 1, "_time":        0.063, "_%":     0.00}
         },
         "Setup_H0": { "_calls": 1, "_time":       11.752, "_%":     0.64,
           "naefs": { "_calls": 1, "_time":        0.042, "_%":     0.00},
           "MolMec": { "_calls": 1, "_time":        0.000, "_%":     0.00},
           "kinefsm": { "_calls": 1, "_time":        0.062, "_%":     0.00},
           "nlefsm": { "_calls": 1, "_time":        0.158, "_%":     0.01},
           "DHSCF_Init": { "_calls": 1, "_time":       11.460, "_%":     0.62,
             "DHSCF1": { "_calls": 1, "_time":        0.109, "_%":     0.01,
               "INITMESH": { "_calls": 1, "_time":        0.000, "_%":     0.00}
             },
             "DHSCF2": { "_calls": 1, "_time":       11.315, "_%":     0.61,
               "REMESH": { "_calls": 1, "_time":        0.253, "_%":     0.01,
                 "INITMESH": { "_calls": 2, "_time":        0.224, "_%":     0.01,
                   "SPLOAD": { "_calls": 2, "_time":        0.166, "_%":     0.01}
                 }
               },
               "REORD": { "_calls": 2, "_time":        0.047, "_%":     0.00},
               "PHION": { "_calls": 1, "_time":        0.317, "_%":     0.02},
               "COMM_BSC": { "_calls": 1, "_time":        0.166, "_%":     0.01},
               "POISON": { "_calls": 1, "_time":        9.651, "_%":     0.52,
                 "fft": { "_calls": 2, "_time":        9.292, "_%":     0.50}
               }
             }
           }
         }
       },
       "IterSCF": { "_calls": 5, "_time":     1827.611, "_%":    99.19,
         "setup_H": { "_calls": 5, "_time":       72.052, "_%":     3.91,
           "DHSCF": { "_calls": 5, "_time":       72.007, "_%":     3.91,
             "DHSCF3": { "_calls": 5, "_time":       72.007, "_%":     3.91,
               "rhoofd": { "_calls": 5, "_time":        0.364, "_%":     0.02},
               "COMM_BSC": { "_calls": 10, "_time":        1.921, "_%":     0.10},
               "POISON": { "_calls": 5, "_time":       47.873, "_%":     2.60,
                 "fft": { "_calls": 10, "_time":       46.009, "_%":     2.50}
               },
               "XC": { "_calls": 5, "_time":       17.639, "_%":     0.96,
                 "COMM_BSC": { "_calls": 10, "_time":        1.948, "_%":     0.11},
                 "GXC-CellXC": { "_calls": 5, "_time":       15.193, "_%":     0.82,
                   "gridxc@cellXC": { "_calls": 5, "_time":       15.193, "_%":     0.82}
                 }
               },
               "vmat": { "_calls": 5, "_time":        0.506, "_%":     0.03}
             }
           }
         },
         "compute_dm": { "_calls": 5, "_time":     1755.511, "_%":    95.28,
           "elsi": { "_calls": 5, "_time":     1755.412, "_%":    95.27,
             "find nnz_g": { "_calls": 5, "_time":        0.000, "_%":     0.00},
             "elsi-solver": { "_calls": 5, "_time":     1755.391, "_%":    95.27}
           }
         },
         "MIXER": { "_calls": 5, "_time":        0.018, "_%":     0.00}
       },
       "state_analysis": { "_calls": 1, "_time":        0.120, "_%":     0.01},
       "siesta_move": { "_calls": 1, "_time":        0.000, "_%":     0.00}
     },
     "Analysis": { "_calls": 1, "_time":        0.368, "_%":     0.02,
       "optical": { "_calls": 1, "_time":        0.001, "_%":     0.00}
     }
   }
 }}
