
Lmod is automatically replacing "craype-x86-rome" with "craype-x86-trento".

slurmstepd: error: *** STEP 8026416.0 ON nid005287 CANCELLED AT 2024-09-19T16:57:50 DUE TO TIME LIMIT ***
slurmstepd: error: *** JOB 8026416 ON nid005287 CANCELLED AT 2024-09-19T16:57:50 DUE TO TIME LIMIT ***
