{
 "global_section": { "_calls": 1, "_time":     4335.993, "_%":   100.00,
   "siesta": { "_calls": 1, "_time":     4335.993, "_%":   100.00,
     "Setup": { "_calls": 1, "_time":        1.332, "_%":     0.03,
       "bands": { "_calls": 1, "_time":        0.002, "_%":     0.00},
       "KSV_init": { "_calls": 1, "_time":        0.001, "_%":     0.00}
     },
     "IterGeom": { "_calls": 1, "_time":     4334.422, "_%":    99.96,
       "geom_init": { "_calls": 1, "_time":       34.470, "_%":     0.79,
         "state_init": { "_calls": 1, "_time":        1.987, "_%":     0.05,
           "hsparse": { "_calls": 1, "_time":        0.142, "_%":     0.00},
           "overlap": { "_calls": 1, "_time":        1.503, "_%":     0.03}
         },
         "Setup_H0": { "_calls": 1, "_time":       32.482, "_%":     0.75,
           "naefs": { "_calls": 1, "_time":        0.021, "_%":     0.00},
           "MolMec": { "_calls": 1, "_time":        0.000, "_%":     0.00},
           "kinefsm": { "_calls": 1, "_time":        1.496, "_%":     0.03},
           "nlefsm": { "_calls": 1, "_time":        3.258, "_%":     0.08},
           "DHSCF_Init": { "_calls": 1, "_time":       27.694, "_%":     0.64,
             "DHSCF1": { "_calls": 1, "_time":        0.130, "_%":     0.00,
               "INITMESH": { "_calls": 1, "_time":        0.000, "_%":     0.00}
             },
             "DHSCF2": { "_calls": 1, "_time":       27.547, "_%":     0.64,
               "REMESH": { "_calls": 1, "_time":        0.410, "_%":     0.01,
                 "INITMESH": { "_calls": 2, "_time":        0.115, "_%":     0.00,
                   "SPLOAD": { "_calls": 2, "_time":        0.111, "_%":     0.00}
                 }
               },
               "REORD": { "_calls": 2, "_time":        0.116, "_%":     0.00},
               "PHION": { "_calls": 1, "_time":        3.538, "_%":     0.08},
               "COMM_BSC": { "_calls": 1, "_time":        0.299, "_%":     0.01},
               "POISON": { "_calls": 1, "_time":       21.253, "_%":     0.49,
                 "fft": { "_calls": 2, "_time":       20.336, "_%":     0.47}
               }
             }
           }
         }
       },
       "IterSCF": { "_calls": 5, "_time":     4298.801, "_%":    99.14,
         "setup_H": { "_calls": 5, "_time":      176.831, "_%":     4.08,
           "DHSCF": { "_calls": 5, "_time":      176.191, "_%":     4.06,
             "DHSCF3": { "_calls": 5, "_time":      176.191, "_%":     4.06,
               "rhoofd": { "_calls": 5, "_time":        1.936, "_%":     0.04},
               "COMM_BSC": { "_calls": 10, "_time":        2.895, "_%":     0.07},
               "POISON": { "_calls": 5, "_time":      104.454, "_%":     2.41,
                 "fft": { "_calls": 10, "_time":       99.316, "_%":     2.29}
               },
               "XC": { "_calls": 5, "_time":       56.739, "_%":     1.31,
                 "COMM_BSC": { "_calls": 10, "_time":        6.979, "_%":     0.16},
                 "GXC-CellXC": { "_calls": 5, "_time":       48.658, "_%":     1.12,
                   "gridxc@cellXC": { "_calls": 5, "_time":       48.653, "_%":     1.12}
                 }
               },
               "vmat": { "_calls": 5, "_time":        2.233, "_%":     0.05}
             }
           }
         },
         "compute_dm": { "_calls": 5, "_time":     4121.225, "_%":    95.05,
           "elsi": { "_calls": 5, "_time":     4120.770, "_%":    95.04,
             "find nnz_g": { "_calls": 5, "_time":        0.000, "_%":     0.00},
             "elsi-solver": { "_calls": 5, "_time":     4120.587, "_%":    95.03}
           }
         },
         "MIXER": { "_calls": 5, "_time":        0.462, "_%":     0.01}
       },
       "state_analysis": { "_calls": 1, "_time":        0.049, "_%":     0.00},
       "siesta_move": { "_calls": 1, "_time":        0.000, "_%":     0.00}
     },
     "Analysis": { "_calls": 1, "_time":        0.213, "_%":     0.00,
       "optical": { "_calls": 1, "_time":        0.001, "_%":     0.00}
     }
   }
 }}
