JobId=2261459 JobName=submit.job
   UserId=nspallan(25378) GroupId=interactive(25200) MCS_label=N/A
   Priority=155752 Nice=0 Account=euhpc_e01_022 QOS=normal
   JobState=RUNNING Reason=None Dependency=(null)
   Requeue=0 Restarts=0 BatchFlag=1 Reboot=0 ExitCode=0:0
   DerivedExitCode=0:0
   RunTime=00:00:03 TimeLimit=03:00:00 TimeMin=N/A
   SubmitTime=2023-12-04T12:21:36 EligibleTime=2023-12-04T12:21:36
   AccrueTime=2023-12-04T12:21:36
   StartTime=2023-12-04T12:21:37 EndTime=2023-12-04T15:21:38 Deadline=N/A
   SuspendTime=None SecsPreSuspend=0 LastSchedEval=2023-12-04T12:21:37 Scheduler=Main
   Partition=boost_usr_prod AllocNode:Sid=10-99-0-7:2872168
   ReqNodeList=(null) ExcNodeList=(null)
   NodeList=lrdn[1015,1169,1258-1259,1280,1287,1303,1317,1319,1347,1349,1358,1410,1467,1470,1484,1497,1499,1508,1520,1527,1543,1555,1559,1568,1580,1587,1603,1610,1617]
   BatchHost=lrdn1015
   NumNodes=30 NumCPUs=960 NumTasks=120 CPUs/Task=8 ReqB:S:C:T=0:0:*:*
   TRES=cpu=960,mem=14437.50G,node=30,billing=960,gres/gpu=120
   Socks/Node=* NtasksPerN:B:S:C=4:0:*:* CoreSpec=*
   JOB_GRES=gpu:a100:120
     Nodes=lrdn[1015,1169,1258-1259,1280,1287,1303,1317,1319,1347,1349,1358,1410,1467,1470,1484,1497,1499,1508,1520,1527,1543,1555,1559,1568,1580,1587,1603,1610,1617] CPU_IDs=0-31 Mem=492800 GRES=gpu:a100:4(IDX:0-3)
   MinCPUsNode=32 MinMemoryCPU=15400M MinTmpDiskNode=0
   Features=(null) DelayBoot=00:00:00
   OverSubscribe=NO Contiguous=0 Licenses=(null) Network=(null)
   Command=/leonardo_work/Max3_devel_2/nspallan/jube-benchmarks/run_yambo_7k/000000/000006_submit/work/submit.job
   WorkDir=/leonardo_work/Max3_devel_2/nspallan/jube-benchmarks/run_yambo_7k/000000/000006_submit/work
   StdErr=/leonardo_work/Max3_devel_2/nspallan/jube-benchmarks/run_yambo_7k/000000/000006_submit/work/slurm-2261459.out
   StdIn=/dev/null
   StdOut=/leonardo_work/Max3_devel_2/nspallan/jube-benchmarks/run_yambo_7k/000000/000006_submit/work/slurm-2261459.out
   Power=
   TresPerNode=gres:gpu:4
   

