The following modules were not unloaded:
  (Use "module --force purge" to unload all):

  1) XALT/3.0.2

The following have been reloaded with a version change:
  1) GCCcore/13.3.0 => GCCcore/13.2.0

Current loaded modules
----------------------

Currently Loaded Modules:
  1) XALT/3.0.2                       (S)
  2) OpenBLAS/0.3.24-GCC-13.2.0
  3) LAPACK/3.10.0-GCC-12.2.0
  4) FlexiBLAS/3.3.1-GCC-13.2.0
  5) ScaLAPACK/2.2.0-gompi-2023b-fb
  6) ncurses/6.5-GCCcore-13.3.0
  7) libreadline/8.2-GCCcore-13.3.0
  8) PnetCDF/1.12.3-gompi-2022a
  9) GCCcore/13.2.0
 10) zlib/1.2.13-GCCcore-13.2.0
 11) binutils/2.40-GCCcore-13.2.0
 12) GCC/13.2.0
 13) numactl/2.0.16-GCCcore-13.2.0
 14) XZ/5.4.4-GCCcore-13.2.0
 15) libxml2/2.11.5-GCCcore-13.2.0
 16) libpciaccess/0.17-GCCcore-13.2.0
 17) hwloc/2.9.2-GCCcore-13.2.0
 18) libevent/2.1.12-GCCcore-13.2.0
 19) UCX/1.15.0-GCCcore-13.2.0
 20) libfabric/1.19.0-GCCcore-13.2.0
 21) PMIx/4.2.6-GCCcore-13.2.0
 22) UCC/1.2.0-GCCcore-13.2.0
 23) OpenMPI/4.1.6-GCC-13.2.0
 24) gompi/2023b
 25) Szip/2.1.1-GCCcore-13.2.0
 26) HDF5/1.14.3-gompi-2023b
 27) cURL/8.3.0-GCCcore-13.2.0
 28) gzip/1.13-GCCcore-13.2.0
 29) lz4/1.9.4-GCCcore-13.2.0
 30) zstd/1.5.5-GCCcore-13.2.0
 31) bzip2/1.0.8-GCCcore-13.2.0
 32) netCDF/4.9.2-gompi-2023b
 33) netCDF-Fortran/4.6.1-gompi-2023b
 34) FFTW/3.3.10-GCC-13.2.0
 35) FFTW.MPI/3.3.10-gompi-2023b

  Where:
   S:  Module is Sticky, requires --force to unload or purge

 


Current environment variables
-----------------------------
HYDRA_LAUNCHER_EXTRA_ARGS=--external-launcher
SLURM_MPI_TYPE=pmix_v4
XALT_DIR=/apps/all/XALT/3.0.2
OPTFLAGS=-O3 -fPIC -march=znver2
LD_LIBRARY_PATH=/apps/all/FFTW.MPI/3.3.10-gompi-2023b/lib:/apps/all/FFTW/3.3.10-GCC-13.2.0/lib:/apps/all/netCDF-Fortran/4.6.1-gompi-2023b/lib:/apps/all/netCDF/4.9.2-gompi-2023b/lib:/apps/all/bzip2/1.0.8-GCCcore-13.2.0/lib:/apps/all/zstd/1.5.5-GCCcore-13.2.0/lib:/apps/all/lz4/1.9.4-GCCcore-13.2.0/lib:/apps/all/cURL/8.3.0-GCCcore-13.2.0/lib:/apps/all/HDF5/1.14.3-gompi-2023b/lib:/apps/all/Szip/2.1.1-GCCcore-13.2.0/lib:/apps/all/OpenMPI/4.1.6-GCC-13.2.0/lib:/apps/all/UCC/1.2.0-GCCcore-13.2.0/lib:/apps/all/PMIx/4.2.6-GCCcore-13.2.0/lib:/apps/all/libfabric/1.19.0-GCCcore-13.2.0/lib:/apps/all/UCX/1.15.0-GCCcore-13.2.0/lib:/apps/all/libevent/2.1.12-GCCcore-13.2.0/lib:/apps/all/hwloc/2.9.2-GCCcore-13.2.0/lib:/apps/all/libpciaccess/0.17-GCCcore-13.2.0/lib:/apps/all/libxml2/2.11.5-GCCcore-13.2.0/lib:/apps/all/XZ/5.4.4-GCCcore-13.2.0/lib:/apps/all/numactl/2.0.16-GCCcore-13.2.0/lib:/apps/all/binutils/2.40-GCCcore-13.2.0/lib:/apps/all/zlib/1.2.13-GCCcore-13.2.0/lib:/apps/all/GCCcore/13.2.0/lib64:/apps/all/PnetCDF/1.12.3-gompi-2022a/lib:/apps/all/libreadline/8.2-GCCcore-13.3.0/lib:/apps/all/ncurses/6.5-GCCcore-13.3.0/lib:/apps/all/ScaLAPACK/2.2.0-gompi-2023b-fb/lib:/apps/all/FlexiBLAS/3.3.1-GCC-13.2.0/lib:/apps/all/LAPACK/3.10.0-GCC-12.2.0/lib:/apps/all/OpenBLAS/0.3.24-GCC-13.2.0/lib:/home/it4i-fpedron/Siesta/elpa-gpu/lib/
LS_COLORS=rs=0:di=38;5;33:ln=38;5;51:mh=00:pi=40;38;5;11:so=38;5;13:do=38;5;5:bd=48;5;232;38;5;11:cd=48;5;232;38;5;3:or=48;5;232;38;5;9:mi=01;05;37;41:su=48;5;196;38;5;15:sg=48;5;11;38;5;16:ca=48;5;196;38;5;226:tw=48;5;10;38;5;16:ow=48;5;10;38;5;21:st=48;5;21;38;5;15:ex=38;5;40:*.tar=38;5;9:*.tgz=38;5;9:*.arc=38;5;9:*.arj=38;5;9:*.taz=38;5;9:*.lha=38;5;9:*.lz4=38;5;9:*.lzh=38;5;9:*.lzma=38;5;9:*.tlz=38;5;9:*.txz=38;5;9:*.tzo=38;5;9:*.t7z=38;5;9:*.zip=38;5;9:*.z=38;5;9:*.dz=38;5;9:*.gz=38;5;9:*.lrz=38;5;9:*.lz=38;5;9:*.lzo=38;5;9:*.xz=38;5;9:*.zst=38;5;9:*.tzst=38;5;9:*.bz2=38;5;9:*.bz=38;5;9:*.tbz=38;5;9:*.tbz2=38;5;9:*.tz=38;5;9:*.deb=38;5;9:*.rpm=38;5;9:*.jar=38;5;9:*.war=38;5;9:*.ear=38;5;9:*.sar=38;5;9:*.rar=38;5;9:*.alz=38;5;9:*.ace=38;5;9:*.zoo=38;5;9:*.cpio=38;5;9:*.7z=38;5;9:*.rz=38;5;9:*.cab=38;5;9:*.wim=38;5;9:*.swm=38;5;9:*.dwm=38;5;9:*.esd=38;5;9:*.jpg=38;5;13:*.jpeg=38;5;13:*.mjpg=38;5;13:*.mjpeg=38;5;13:*.gif=38;5;13:*.bmp=38;5;13:*.pbm=38;5;13:*.pgm=38;5;13:*.ppm=38;5;13:*.tga=38;5;13:*.xbm=38;5;13:*.xpm=38;5;13:*.tif=38;5;13:*.tiff=38;5;13:*.png=38;5;13:*.svg=38;5;13:*.svgz=38;5;13:*.mng=38;5;13:*.pcx=38;5;13:*.mov=38;5;13:*.mpg=38;5;13:*.mpeg=38;5;13:*.m2v=38;5;13:*.mkv=38;5;13:*.webm=38;5;13:*.ogm=38;5;13:*.mp4=38;5;13:*.m4v=38;5;13:*.mp4v=38;5;13:*.vob=38;5;13:*.qt=38;5;13:*.nuv=38;5;13:*.wmv=38;5;13:*.asf=38;5;13:*.rm=38;5;13:*.rmvb=38;5;13:*.flc=38;5;13:*.avi=38;5;13:*.fli=38;5;13:*.flv=38;5;13:*.gl=38;5;13:*.dl=38;5;13:*.xcf=38;5;13:*.xwd=38;5;13:*.yuv=38;5;13:*.cgm=38;5;13:*.emf=38;5;13:*.ogv=38;5;13:*.ogx=38;5;13:*.aac=38;5;45:*.au=38;5;45:*.flac=38;5;45:*.m4a=38;5;45:*.mid=38;5;45:*.midi=38;5;45:*.mka=38;5;45:*.mp3=38;5;45:*.mpc=38;5;45:*.ogg=38;5;45:*.ra=38;5;45:*.wav=38;5;45:*.oga=38;5;45:*.opus=38;5;45:*.spx=38;5;45:*.xspf=38;5;45:
EBVERSIONXZ=5.4.4
J4M_ACCOUNT=dd-24-70
_ModuleTable017_=ZS4qemZpbmFsLS4wMDAwMDAwMTMuMDAwMDAwMDAyLip6ZmluYWwiLAp9LApod2xvYyA9IHsKZm4gPSAiL2FwcHMvbW9kdWxlcy9zeXN0ZW0vaHdsb2MvMi45LjItR0NDY29yZS0xMy4yLjAubHVhIiwKZnVsbE5hbWUgPSAiaHdsb2MvMi45LjItR0NDY29yZS0xMy4yLjAiLApsb2FkT3JkZXIgPSAxNywKcHJvcFQgPSB7fSwKc3RhY2tEZXB0aCA9IDMsCnN0YXR1cyA9ICJhY3RpdmUiLAp1c2VyTmFtZSA9ICJod2xvYy8yLjkuMi1HQ0Njb3JlLTEzLjIuMCIsCndWID0gIjAwMDAwMDAwMi4wMDAwMDAwMDkuMDAwMDAwMDAyLipnY2Njb3JlLip6ZmluYWwtLjAwMDAwMDAxMy4wMDAwMDAwMDIuKnpmaW5hbCIsCn0sCmxpYmV2ZW50ID0gewpmbiA9ICIvYXBwcy9tb2R1bGVzL2xpYi9s
EBROOTBINUTILS=/apps/all/binutils/2.40-GCCcore-13.2.0
SLURM_NODEID=0
EBDEVELSZIP=/apps/all/Szip/2.1.1-GCCcore-13.2.0/easybuild/Szip-2.1.1-GCCcore-13.2.0-easybuild-devel
EBVERSIONPMIX=4.2.6
SLURM_TASK_PID=2932025
__LMOD_REF_COUNT_PATH=/apps/all/FFTW/3.3.10-GCC-13.2.0/bin:1;/apps/all/netCDF-Fortran/4.6.1-gompi-2023b/bin:1;/apps/all/netCDF/4.9.2-gompi-2023b/bin:1;/apps/all/bzip2/1.0.8-GCCcore-13.2.0/bin:1;/apps/all/zstd/1.5.5-GCCcore-13.2.0/bin:1;/apps/all/lz4/1.9.4-GCCcore-13.2.0/bin:1;/apps/all/gzip/1.13-GCCcore-13.2.0/bin:1;/apps/all/cURL/8.3.0-GCCcore-13.2.0/bin:1;/apps/all/HDF5/1.14.3-gompi-2023b/bin:1;/apps/all/OpenMPI/4.1.6-GCC-13.2.0/bin:1;/apps/all/UCC/1.2.0-GCCcore-13.2.0/bin:1;/apps/all/PMIx/4.2.6-GCCcore-13.2.0/bin:1;/apps/all/libfabric/1.19.0-GCCcore-13.2.0/bin:1;/apps/all/UCX/1.15.0-GCCcore-13.2.0/bin:1;/apps/all/libevent/2.1.12-GCCcore-13.2.0/bin:1;/apps/all/hwloc/2.9.2-GCCcore-13.2.0/sbin:1;/apps/all/hwloc/2.9.2-GCCcore-13.2.0/bin:1;/apps/all/libxml2/2.11.5-GCCcore-13.2.0/bin:1;/apps/all/XZ/5.4.4-GCCcore-13.2.0/bin:1;/apps/all/numactl/2.0.16-GCCcore-13.2.0/bin:1;/apps/all/binutils/2.40-GCCcore-13.2.0/bin:1;/apps/all/GCCcore/13.2.0/bin:1;/apps/all/PnetCDF/1.12.3-gompi-2022a/bin:1;/apps/all/ncurses/6.5-GCCcore-13.3.0/bin:1;/apps/all/FlexiBLAS/3.3.1-GCC-13.2.0/bin:1;/apps/all/XALT/3.0.2/bin:1;/opt/clmgr/sbin:1;/opt/clmgr/bin:1;/opt/sgi/sbin:1;/opt/sgi/bin:1;/usr/share/Modules/bin:1;/usr/local/bin:1;/usr/bin:1;/usr/local/sbin:1;/usr/sbin:1;/opt/c3/bin:1;/sbin:1;/bin:1;/opt/slurm/bin:1;/opt/icommands:1;/home/it4i-fpedron/.local/bin:1;/home/it4i-fpedron/bin:1
_ModuleTable002_=ZmluYWwiLAp9LApbIkZGVFcuTVBJIl0gPSB7CmZuID0gIi9hcHBzL21vZHVsZXMvbnVtbGliL0ZGVFcuTVBJLzMuMy4xMC1nb21waS0yMDIzYi5sdWEiLApmdWxsTmFtZSA9ICJGRlRXLk1QSS8zLjMuMTAtZ29tcGktMjAyM2IiLApsb2FkT3JkZXIgPSAzNSwKcHJvcFQgPSB7fSwKc3RhY2tEZXB0aCA9IDAsCnN0YXR1cyA9ICJhY3RpdmUiLAp1c2VyTmFtZSA9ICJGRlRXLk1QSS8zLjMuMTAtZ29tcGktMjAyM2IiLAp3ViA9ICIwMDAwMDAwMDMuMDAwMDAwMDAzLjAwMDAwMDAxMC4qZ29tcGkuKnpmaW5hbC0uMDAwMDAyMDIzLipiLip6ZmluYWwiLAp9LApGbGV4aUJMQVMgPSB7CmZuID0gIi9hcHBzL21vZHVsZXMvbGliL0ZsZXhpQkxBUy8zLjMuMS1HQ0MtMTMuMi4wLmx1YSIs
CRAY_ENABLE_PE=/etc/cray-pe.d/enable-pe.sh
SSH_CONNECTION=83.46.85.124 59216 195.113.175.71 22
EBVERSIONLAPACK=3.10.0
EBVERSIONCURL=8.3.0
GOTO_NUM_THREADS=1
EBVERSIONNUMACTL=2.0.16
EBROOTOPENBLAS=/apps/all/OpenBLAS/0.3.24-GCC-13.2.0
MODULES_RUN_QUARANTINE=LD_LIBRARY_PATH LD_PRELOAD
I_MPI_HYDRA_BOOTSTRAP_EXEC_EXTRA_ARGS=--external-launcher
EBVERSIONSCALAPACK=2.2.0
LANG=en_US.UTF-8
EBDEVELFFTWMPI=/apps/all/FFTW.MPI/3.3.10-gompi-2023b/easybuild/FFTW.MPI-3.3.10-gompi-2023b-easybuild-devel
EBROOTGCC=/apps/all/GCCcore/13.2.0
_ModuleTable019_=Y29yZS0xMy4yLjAiLApsb2FkT3JkZXIgPSAyMCwKcHJvcFQgPSB7fSwKc3RhY2tEZXB0aCA9IDMsCnN0YXR1cyA9ICJhY3RpdmUiLAp1c2VyTmFtZSA9ICJsaWJmYWJyaWMvMS4xOS4wLUdDQ2NvcmUtMTMuMi4wIiwKd1YgPSAiMDAwMDAwMDAxLjAwMDAwMDAxOS4qZ2NjY29yZS4qemZpbmFsLS4wMDAwMDAwMTMuMDAwMDAwMDAyLip6ZmluYWwiLAp9LApsaWJwY2lhY2Nlc3MgPSB7CmZuID0gIi9hcHBzL21vZHVsZXMvc3lzdGVtL2xpYnBjaWFjY2Vzcy8wLjE3LUdDQ2NvcmUtMTMuMi4wLmx1YSIsCmZ1bGxOYW1lID0gImxpYnBjaWFjY2Vzcy8wLjE3LUdDQ2NvcmUtMTMuMi4wIiwKbG9hZE9yZGVyID0gMTYsCnByb3BUID0ge30sCnN0YWNrRGVwdGggPSA0LApzdGF0dXMgPSAi
SLURM_SUBMIT_DIR=/home/it4i-fpedron/JUBE4MaX/max-inputs/interface/siesta/_CovidWeakSize/000000/000006_submit/work
HISTCONTROL=ignoredups
_ModuleTable008_=LApzdGF0dXMgPSAiYWN0aXZlIiwKdXNlck5hbWUgPSAiUE1JeC80LjIuNi1HQ0Njb3JlLTEzLjIuMCIsCndWID0gIjAwMDAwMDAwNC4wMDAwMDAwMDIuMDAwMDAwMDA2LipnY2Njb3JlLip6ZmluYWwtLjAwMDAwMDAxMy4wMDAwMDAwMDIuKnpmaW5hbCIsCn0sClBuZXRDREYgPSB7CmZuID0gIi9hcHBzL21vZHVsZXMvZGF0YS9QbmV0Q0RGLzEuMTIuMy1nb21waS0yMDIyYS5sdWEiLApmdWxsTmFtZSA9ICJQbmV0Q0RGLzEuMTIuMy1nb21waS0yMDIyYSIsCmxvYWRPcmRlciA9IDgsCnByb3BUID0ge30sCnN0YWNrRGVwdGggPSAwLApzdGF0dXMgPSAiYWN0aXZlIiwKdXNlck5hbWUgPSAiUG5ldENERi8xLjEyLjMtZ29tcGktMjAyMmEiLAp3ViA9ICIwMDAwMDAwMDEuMDAwMDAw
EBROOTFLEXIBLAS=/apps/all/FlexiBLAS/3.3.1-GCC-13.2.0
OMPI_MCA_plm_slurm_args=--external-launcher
EBVERSIONGOMPI=2023b
HOSTNAME=cn667
LMOD_SYSTEM_DEFAULT_MODULES=XALT
OPENBLAS_NUM_THREADS=1
OLDPWD=/home/it4i-fpedron
EBDEVELNUMACTL=/apps/all/numactl/2.0.16-GCCcore-13.2.0/easybuild/numactl-2.0.16-GCCcore-13.2.0-easybuild-devel
EBDEVELLAPACK=/apps/all/LAPACK/3.10.0-GCC-12.2.0/easybuild/LAPACK-3.10.0-GCC-12.2.0-easybuild-devel
J4M_BIN_PATH=/home/it4i-fpedron/Siesta/siesta-gnu/bin/
SLURM_CPUS_PER_TASK=1
OMPI_MCA_orte_base_help_aggregate=0
EBVERSIONZSTD=1.5.5
OMP_PROC_BIND=true
ENVIRONMENT=BATCH
EBDEVELBZIP2=/apps/all/bzip2/1.0.8-GCCcore-13.2.0/easybuild/bzip2-1.0.8-GCCcore-13.2.0-easybuild-devel
EBDEVELNETCDF=/apps/all/netCDF/4.9.2-gompi-2023b/easybuild/netCDF-4.9.2-gompi-2023b-easybuild-devel
__LMOD_REF_COUNT_XDG_DATA_DIRS=/apps/all/FFTW/3.3.10-GCC-13.2.0/share:1;/apps/all/netCDF-Fortran/4.6.1-gompi-2023b/share:1;/apps/all/netCDF/4.9.2-gompi-2023b/share:1;/apps/all/zstd/1.5.5-GCCcore-13.2.0/share:1;/apps/all/lz4/1.9.4-GCCcore-13.2.0/share:1;/apps/all/gzip/1.13-GCCcore-13.2.0/share:1;/apps/all/cURL/8.3.0-GCCcore-13.2.0/share:1;/apps/all/HDF5/1.14.3-gompi-2023b/share:1;/apps/all/OpenMPI/4.1.6-GCC-13.2.0/share:1;/apps/all/PMIx/4.2.6-GCCcore-13.2.0/share:1;/apps/all/libfabric/1.19.0-GCCcore-13.2.0/share:1;/apps/all/UCX/1.15.0-GCCcore-13.2.0/share:1;/apps/all/hwloc/2.9.2-GCCcore-13.2.0/share:1;/apps/all/libxml2/2.11.5-GCCcore-13.2.0/share:1;/apps/all/XZ/5.4.4-GCCcore-13.2.0/share:1;/apps/all/numactl/2.0.16-GCCcore-13.2.0/share:1;/apps/all/binutils/2.40-GCCcore-13.2.0/share:1;/apps/all/zlib/1.2.13-GCCcore-13.2.0/share:1;/apps/all/GCCcore/13.2.0/share:1;/apps/all/PnetCDF/1.12.3-gompi-2022a/share:1;/apps/all/libreadline/8.2-GCCcore-13.3.0/share:1;/apps/all/ncurses/6.5-GCCcore-13.3.0/share:1;/apps/all/FlexiBLAS/3.3.1-GCC-13.2.0/share:1;/home/it4i-fpedron/.local/share/flatpak/exports/share:1;/var/lib/flatpak/exports/share:1;/usr/local/share:1;/usr/share:1
EBVERSIONOPENMPI=4.1.6
EBROOTNCURSES=/apps/all/ncurses/6.5-GCCcore-13.3.0
_ModuleTable007_=MTMuMi4wLmx1YSIsCmZ1bGxOYW1lID0gIk9wZW5NUEkvNC4xLjYtR0NDLTEzLjIuMCIsCmxvYWRPcmRlciA9IDIzLApwcm9wVCA9IHt9LApzdGFja0RlcHRoID0gMiwKc3RhdHVzID0gImFjdGl2ZSIsCnVzZXJOYW1lID0gIk9wZW5NUEkvNC4xLjYtR0NDLTEzLjIuMCIsCndWID0gIjAwMDAwMDAwNC4wMDAwMDAwMDEuMDAwMDAwMDA2LipnY2MuKnpmaW5hbC0uMDAwMDAwMDEzLjAwMDAwMDAwMi4qemZpbmFsIiwKfSwKUE1JeCA9IHsKZm4gPSAiL2FwcHMvbW9kdWxlcy9saWIvUE1JeC80LjIuNi1HQ0Njb3JlLTEzLjIuMC5sdWEiLApmdWxsTmFtZSA9ICJQTUl4LzQuMi42LUdDQ2NvcmUtMTMuMi4wIiwKbG9hZE9yZGVyID0gMjEsCnByb3BUID0ge30sCnN0YWNrRGVwdGggPSAz
EBDEVELLIBEVENT=/apps/all/libevent/2.1.12-GCCcore-13.2.0/easybuild/libevent-2.1.12-GCCcore-13.2.0-easybuild-devel
EBVERSIONOPENBLAS=0.3.24
_ModuleTable026_=YW1lID0gInpsaWIvMS4yLjEzLUdDQ2NvcmUtMTMuMi4wIiwKbG9hZE9yZGVyID0gMTAsCnByb3BUID0ge30sCnN0YWNrRGVwdGggPSA0LApzdGF0dXMgPSAiYWN0aXZlIiwKdXNlck5hbWUgPSAiemxpYi8xLjIuMTMtR0NDY29yZS0xMy4yLjAiLAp3ViA9ICIwMDAwMDAwMDEuMDAwMDAwMDAyLjAwMDAwMDAxMy4qZ2NjY29yZS4qemZpbmFsLS4wMDAwMDAwMTMuMDAwMDAwMDAyLip6ZmluYWwiLAp9LAp6c3RkID0gewpmbiA9ICIvYXBwcy9tb2R1bGVzL2xpYi96c3RkLzEuNS41LUdDQ2NvcmUtMTMuMi4wLmx1YSIsCmZ1bGxOYW1lID0gInpzdGQvMS41LjUtR0NDY29yZS0xMy4yLjAiLApsb2FkT3JkZXIgPSAzMCwKcHJvcFQgPSB7fSwKc3RhY2tEZXB0aCA9IDIsCnN0YXR1cyA9
EBROOTGOMPI=/apps/all/gompi/2023b
KDEDIRS=/usr
SLURM_PROCID=0
CFLAGS=-O3 -fPIC -march=znver2
SLURM_JOB_GID=11979
EBROOTOPENMPI=/apps/all/OpenMPI/4.1.6-GCC-13.2.0
I_MPI_HYDRA_BOOTSTRAP=slurm
__LMOD_REF_COUNT_LD_LIBRARY_PATH=/apps/all/FFTW.MPI/3.3.10-gompi-2023b/lib:1;/apps/all/FFTW/3.3.10-GCC-13.2.0/lib:1;/apps/all/netCDF-Fortran/4.6.1-gompi-2023b/lib:1;/apps/all/netCDF/4.9.2-gompi-2023b/lib:1;/apps/all/bzip2/1.0.8-GCCcore-13.2.0/lib:1;/apps/all/zstd/1.5.5-GCCcore-13.2.0/lib:1;/apps/all/lz4/1.9.4-GCCcore-13.2.0/lib:1;/apps/all/cURL/8.3.0-GCCcore-13.2.0/lib:1;/apps/all/HDF5/1.14.3-gompi-2023b/lib:1;/apps/all/Szip/2.1.1-GCCcore-13.2.0/lib:1;/apps/all/OpenMPI/4.1.6-GCC-13.2.0/lib:1;/apps/all/UCC/1.2.0-GCCcore-13.2.0/lib:1;/apps/all/PMIx/4.2.6-GCCcore-13.2.0/lib:1;/apps/all/libfabric/1.19.0-GCCcore-13.2.0/lib:1;/apps/all/UCX/1.15.0-GCCcore-13.2.0/lib:1;/apps/all/libevent/2.1.12-GCCcore-13.2.0/lib:1;/apps/all/hwloc/2.9.2-GCCcore-13.2.0/lib:1;/apps/all/libpciaccess/0.17-GCCcore-13.2.0/lib:1;/apps/all/libxml2/2.11.5-GCCcore-13.2.0/lib:1;/apps/all/XZ/5.4.4-GCCcore-13.2.0/lib:1;/apps/all/numactl/2.0.16-GCCcore-13.2.0/lib:1;/apps/all/binutils/2.40-GCCcore-13.2.0/lib:1;/apps/all/zlib/1.2.13-GCCcore-13.2.0/lib:1;/apps/all/GCCcore/13.2.0/lib64:1;/apps/all/PnetCDF/1.12.3-gompi-2022a/lib:1;/apps/all/libreadline/8.2-GCCcore-13.3.0/lib:1;/apps/all/ncurses/6.5-GCCcore-13.3.0/lib:1;/apps/all/ScaLAPACK/2.2.0-gompi-2023b-fb/lib:1;/apps/all/FlexiBLAS/3.3.1-GCC-13.2.0/lib:1;/apps/all/LAPACK/3.10.0-GCC-12.2.0/lib:1;/apps/all/OpenBLAS/0.3.24-GCC-13.2.0/lib:1
__LMOD_REF_COUNT_PKG_CONFIG_PATH=/apps/all/FFTW/3.3.10-GCC-13.2.0/lib/pkgconfig:1;/apps/all/netCDF-Fortran/4.6.1-gompi-2023b/lib/pkgconfig:1;/apps/all/netCDF/4.9.2-gompi-2023b/lib/pkgconfig:1;/apps/all/bzip2/1.0.8-GCCcore-13.2.0/lib/pkgconfig:1;/apps/all/zstd/1.5.5-GCCcore-13.2.0/lib/pkgconfig:1;/apps/all/lz4/1.9.4-GCCcore-13.2.0/lib/pkgconfig:1;/apps/all/cURL/8.3.0-GCCcore-13.2.0/lib/pkgconfig:1;/apps/all/HDF5/1.14.3-gompi-2023b/lib/pkgconfig:1;/apps/all/OpenMPI/4.1.6-GCC-13.2.0/lib/pkgconfig:1;/apps/all/PMIx/4.2.6-GCCcore-13.2.0/lib/pkgconfig:1;/apps/all/libfabric/1.19.0-GCCcore-13.2.0/lib/pkgconfig:1;/apps/all/UCX/1.15.0-GCCcore-13.2.0/lib/pkgconfig:1;/apps/all/libevent/2.1.12-GCCcore-13.2.0/lib/pkgconfig:1;/apps/all/hwloc/2.9.2-GCCcore-13.2.0/lib/pkgconfig:1;/apps/all/libpciaccess/0.17-GCCcore-13.2.0/lib/pkgconfig:1;/apps/all/libxml2/2.11.5-GCCcore-13.2.0/lib/pkgconfig:1;/apps/all/XZ/5.4.4-GCCcore-13.2.0/lib/pkgconfig:1;/apps/all/numactl/2.0.16-GCCcore-13.2.0/lib/pkgconfig:1;/apps/all/zlib/1.2.13-GCCcore-13.2.0/lib/pkgconfig:1;/apps/all/PnetCDF/1.12.3-gompi-2022a/lib/pkgconfig:1;/apps/all/libreadline/8.2-GCCcore-13.3.0/lib/pkgconfig:1;/apps/all/ncurses/6.5-GCCcore-13.3.0/lib/pkgconfig:1;/apps/all/ScaLAPACK/2.2.0-gompi-2023b-fb/lib/pkgconfig:1;/apps/all/FlexiBLAS/3.3.1-GCC-13.2.0/lib/pkgconfig:1;/apps/all/OpenBLAS/0.3.24-GCC-13.2.0/lib/pkgconfig:1
EBVERSIONHDF5=1.14.3
SLURMD_NODENAME=cn667
_ModuleTable024_=LjAwMDAwMDAwOS4wMDAwMDAwMDIuKmdvbXBpLip6ZmluYWwtLjAwMDAwMjAyMy4qYi4qemZpbmFsIiwKfSwKWyJuZXRDREYtRm9ydHJhbiJdID0gewpmbiA9ICIvYXBwcy9tb2R1bGVzL2RhdGEvbmV0Q0RGLUZvcnRyYW4vNC42LjEtZ29tcGktMjAyM2IubHVhIiwKZnVsbE5hbWUgPSAibmV0Q0RGLUZvcnRyYW4vNC42LjEtZ29tcGktMjAyM2IiLApsb2FkT3JkZXIgPSAzMywKcHJvcFQgPSB7fSwKc3RhY2tEZXB0aCA9IDAsCnN0YXR1cyA9ICJhY3RpdmUiLAp1c2VyTmFtZSA9ICJuZXRDREYtRm9ydHJhbi80LjYuMS1nb21waS0yMDIzYiIsCndWID0gIjAwMDAwMDAwNC4wMDAwMDAwMDYuMDAwMDAwMDAxLipnb21waS4qemZpbmFsLS4wMDAwMDIwMjMuKmIuKnpmaW5hbCIsCn0s
EBROOTGCCCORE=/apps/all/GCCcore/13.2.0
XALT_EXECUTABLE_TRACKING=yes
_ModuleTable015_=bC0uMDAwMDAwMDEzLjAwMDAwMDAwMi4qemZpbmFsIiwKfSwKY1VSTCA9IHsKZm4gPSAiL2FwcHMvbW9kdWxlcy90b29scy9jVVJMLzguMy4wLUdDQ2NvcmUtMTMuMi4wLmx1YSIsCmZ1bGxOYW1lID0gImNVUkwvOC4zLjAtR0NDY29yZS0xMy4yLjAiLApsb2FkT3JkZXIgPSAyNywKcHJvcFQgPSB7fSwKc3RhY2tEZXB0aCA9IDIsCnN0YXR1cyA9ICJhY3RpdmUiLAp1c2VyTmFtZSA9ICJjVVJMLzguMy4wLUdDQ2NvcmUtMTMuMi4wIiwKd1YgPSAiMDAwMDAwMDA4LjAwMDAwMDAwMy4qZ2NjY29yZS4qemZpbmFsLS4wMDAwMDAwMTMuMDAwMDAwMDAyLip6ZmluYWwiLAp9LApnb21waSA9IHsKZm4gPSAiL2FwcHMvbW9kdWxlcy90b29sY2hhaW4vZ29tcGkvMjAyM2IubHVhIiwKZnVs
SLURM_JOB_END_TIME=1726131032
EBROOTSCALAPACK=/apps/all/ScaLAPACK/2.2.0-gompi-2023b-fb
EBVERSIONFFTWMPI=3.3.10
_ModuleTable004_=Qy8xMy4yLjAiLAp3ViA9ICIwMDAwMDAwMTMuMDAwMDAwMDAyLip6ZmluYWwiLAp9LApHQ0Njb3JlID0gewpmbiA9ICIvYXBwcy9tb2R1bGVzL2NvbXBpbGVyL0dDQ2NvcmUvMTMuMi4wLmx1YSIsCmZ1bGxOYW1lID0gIkdDQ2NvcmUvMTMuMi4wIiwKbG9hZE9yZGVyID0gOSwKcHJvcFQgPSB7fSwKc3RhY2tEZXB0aCA9IDMsCnN0YXR1cyA9ICJhY3RpdmUiLAp1c2VyTmFtZSA9ICJHQ0Njb3JlLzEzLjIuMCIsCndWID0gIjAwMDAwMDAxMy4wMDAwMDAwMDIuKnpmaW5hbCIsCn0sCkhERjUgPSB7CmZuID0gIi9hcHBzL21vZHVsZXMvZGF0YS9IREY1LzEuMTQuMy1nb21waS0yMDIzYi5sdWEiLApmdWxsTmFtZSA9ICJIREY1LzEuMTQuMy1nb21waS0yMDIzYiIsCmxvYWRPcmRlciA9
EBVERSIONLIBEVENT=2.1.12
SLURM_TASKS_PER_NODE=128
_ModuleTable029_=bGVmaWxlcy9Db3JlIiwgIi9hcHBzL2FsbC9MbW9kLzguNy4zNy9sbW9kL2xtb2QvbW9kdWxlZmlsZXMvQ29yZSIsCn0sCnN5c3RlbUJhc2VNUEFUSCA9ICIvYXBwcy9tb2R1bGVzL2JpbzovYXBwcy9tb2R1bGVzL2NhZTovYXBwcy9tb2R1bGVzL2NoZW06L2FwcHMvbW9kdWxlcy9jb21waWxlcjovYXBwcy9tb2R1bGVzL2RhdGE6L2FwcHMvbW9kdWxlcy9kZWJ1Z2dlcjovYXBwcy9tb2R1bGVzL2RldmVsOi9hcHBzL21vZHVsZXMvbGFuZzovYXBwcy9tb2R1bGVzL2xpYjovYXBwcy9tb2R1bGVzL21hdGg6L2FwcHMvbW9kdWxlcy9tcGk6L2FwcHMvbW9kdWxlcy9udW1saWI6L2FwcHMvbW9kdWxlcy9wZXJmOi9hcHBzL21vZHVsZXMvcGh5czovYXBwcy9tb2R1bGVzL3N5c3RlbTov
S_COLORS=auto
XALT_GPU_TRACKING=no
EBVERSIONGCC=13.2.0
C3_RSH=ssh -oConnectTimeout=10 -oForwardX11=no
PRTE_MCA_plm_slurm_args=--external-launcher
which_declare=declare -f
EBVERSIONUCX=1.15.0
EBDEVELXZ=/apps/all/XZ/5.4.4-GCCcore-13.2.0/easybuild/XZ-5.4.4-GCCcore-13.2.0-easybuild-devel
EBDEVELHWLOC=/apps/all/hwloc/2.9.2-GCCcore-13.2.0/easybuild/hwloc-2.9.2-GCCcore-13.2.0-easybuild-devel
EBVERSIONLIBFABRIC=1.19.0
EBVERSIONUCC=1.2.0
CC=gcc
EBROOTZLIB=/apps/all/zlib/1.2.13-GCCcore-13.2.0
MODULES_CMD=/usr/share/Modules/libexec/modulecmd.tcl
SLURM_NNODES=1
USER=it4i-fpedron
CXXFLAGS=-O3 -fPIC -march=znver2
EBDEVELLIBXML2=/apps/all/libxml2/2.11.5-GCCcore-13.2.0/easybuild/libxml2-2.11.5-GCCcore-13.2.0-easybuild-devel
EBVERSIONHWLOC=2.9.2
__LMOD_REF_COUNT_CMAKE_LIBRARY_PATH=/apps/all/GCCcore/13.2.0/lib64:1
_ModuleTable023_=VCA9IHt9LApzdGFja0RlcHRoID0gMSwKc3RhdHVzID0gImFjdGl2ZSIsCnVzZXJOYW1lID0gIm5jdXJzZXMvNi41LUdDQ2NvcmUtMTMuMy4wIiwKd1YgPSAiMDAwMDAwMDA2LjAwMDAwMDAwNS4qZ2NjY29yZS4qemZpbmFsLS4wMDAwMDAwMTMuMDAwMDAwMDAzLip6ZmluYWwiLAp9LApuZXRDREYgPSB7CmZuID0gIi9hcHBzL21vZHVsZXMvZGF0YS9uZXRDREYvNC45LjItZ29tcGktMjAyM2IubHVhIiwKZnVsbE5hbWUgPSAibmV0Q0RGLzQuOS4yLWdvbXBpLTIwMjNiIiwKbG9hZE9yZGVyID0gMzIsCnByb3BUID0ge30sCnN0YWNrRGVwdGggPSAxLApzdGF0dXMgPSAiYWN0aXZlIiwKdXNlck5hbWUgPSAibmV0Q0RGLzQuOS4yLWdvbXBpLTIwMjNiIiwKd1YgPSAiMDAwMDAwMDA0
EBDEVELGZIP=/apps/all/gzip/1.13-GCCcore-13.2.0/easybuild/gzip-1.13-GCCcore-13.2.0-easybuild-devel
_ModuleTable012_=MDAwMDAxLjAwMDAwMDAxNS4qZ2NjY29yZS4qemZpbmFsLS4wMDAwMDAwMTMuMDAwMDAwMDAyLip6ZmluYWwiLAp9LApYQUxUID0gewpmbiA9ICIvYXBwcy9tb2R1bGVzL2xpYi9YQUxULzMuMC4yLmx1YSIsCmZ1bGxOYW1lID0gIlhBTFQvMy4wLjIiLApsb2FkT3JkZXIgPSAxLApwcm9wVCA9IHsKbG1vZCA9IHsKc3RpY2t5ID0gMSwKfSwKfSwKc3RhY2tEZXB0aCA9IDAsCnN0YXR1cyA9ICJhY3RpdmUiLAp1c2VyTmFtZSA9ICJYQUxUIiwKd1YgPSAiMDAwMDAwMDAzLjAwMDAwMDAwMC4wMDAwMDAwMDIuKnpmaW5hbCIsCn0sClhaID0gewpmbiA9ICIvYXBwcy9tb2R1bGVzL3Rvb2xzL1haLzUuNC40LUdDQ2NvcmUtMTMuMi4wLmx1YSIsCmZ1bGxOYW1lID0gIlhaLzUuNC40LUdD
EBVERSIONGCCCORE=13.2.0
EBROOTXZ=/apps/all/XZ/5.4.4-GCCcore-13.2.0
__LMOD_REF_COUNT_LD_PRELOAD=/apps/all/XALT/3.0.2/lib64/libxalt_init.so:1
CRAY_CPU_TARGET=x86-rome
SLURM_JOB_START_TIME=1726127492
SLURM_NTASKS_PER_NODE=128
EBROOTNETCDFMINFORTRAN=/apps/all/netCDF-Fortran/4.6.1-gompi-2023b
__LMOD_REF_COUNT_MODULEPATH=/apps/modules/bio:1;/apps/modules/cae:1;/apps/modules/chem:1;/apps/modules/compiler:1;/apps/modules/data:1;/apps/modules/debugger:1;/apps/modules/devel:1;/apps/modules/lang:1;/apps/modules/lib:1;/apps/modules/math:1;/apps/modules/mpi:1;/apps/modules/numlib:1;/apps/modules/perf:1;/apps/modules/phys:1;/apps/modules/system:1;/apps/modules/toolchain:1;/apps/modules/tools:1;/apps/modules/vis:1;/opt/cray/pe/craype-targets/1.4.0/modulefiles:1;/apps/all/intel-compilers/2023.2.1/modulefiles:1;/opt/cray/pe/modulefiles:1;/apps/all/Lmod/8.7.37/modulefiles/Linux:1;/apps/all/Lmod/8.7.37/modulefiles/Core:1;/apps/all/Lmod/8.7.37/lmod/lmod/modulefiles/Core:1
__LMOD_REF_COUNT_PNETCDF=/apps/all/PnetCDF/1.12.3-gompi-2022a:1
PWD=/home/it4i-fpedron/JUBE4MaX/max-inputs/interface/siesta/_CovidWeakSize/000000/000006_submit/work
EBROOTPNETCDF=/apps/all/PnetCDF/1.12.3-gompi-2022a
EBDEVELOPENBLAS=/apps/all/OpenBLAS/0.3.24-GCC-13.2.0/easybuild/OpenBLAS-0.3.24-GCC-13.2.0-easybuild-devel
EBDEVELFLEXIBLAS=/apps/all/FlexiBLAS/3.3.1-GCC-13.2.0/easybuild/FlexiBLAS-3.3.1-GCC-13.2.0-easybuild-devel
EBROOTLIBREADLINE=/apps/all/libreadline/8.2-GCCcore-13.3.0
SSH_ASKPASS=/usr/libexec/openssh/gnome-ssh-askpass
SLURM_JOB_NODELIST=cn667
HOME=/home/it4i-fpedron
SLURM_CLUSTER_NAME=karolina
SINGULARITY_BINDPATH=/apps/all/XALT/3.0.2
EBROOTBZIP2=/apps/all/bzip2/1.0.8-GCCcore-13.2.0
EBROOTGZIP=/apps/all/gzip/1.13-GCCcore-13.2.0
CMAKE_PREFIX_PATH=/apps/all/FFTW.MPI/3.3.10-gompi-2023b:/apps/all/FFTW/3.3.10-GCC-13.2.0:/apps/all/netCDF-Fortran/4.6.1-gompi-2023b:/apps/all/netCDF/4.9.2-gompi-2023b:/apps/all/bzip2/1.0.8-GCCcore-13.2.0:/apps/all/zstd/1.5.5-GCCcore-13.2.0:/apps/all/lz4/1.9.4-GCCcore-13.2.0:/apps/all/gzip/1.13-GCCcore-13.2.0:/apps/all/cURL/8.3.0-GCCcore-13.2.0:/apps/all/HDF5/1.14.3-gompi-2023b:/apps/all/Szip/2.1.1-GCCcore-13.2.0:/apps/all/OpenMPI/4.1.6-GCC-13.2.0:/apps/all/UCC/1.2.0-GCCcore-13.2.0:/apps/all/PMIx/4.2.6-GCCcore-13.2.0:/apps/all/libfabric/1.19.0-GCCcore-13.2.0:/apps/all/UCX/1.15.0-GCCcore-13.2.0:/apps/all/libevent/2.1.12-GCCcore-13.2.0:/apps/all/hwloc/2.9.2-GCCcore-13.2.0:/apps/all/libpciaccess/0.17-GCCcore-13.2.0:/apps/all/libxml2/2.11.5-GCCcore-13.2.0:/apps/all/XZ/5.4.4-GCCcore-13.2.0:/apps/all/numactl/2.0.16-GCCcore-13.2.0:/apps/all/binutils/2.40-GCCcore-13.2.0:/apps/all/zlib/1.2.13-GCCcore-13.2.0:/apps/all/GCCcore/13.2.0:/apps/all/PnetCDF/1.12.3-gompi-2022a:/apps/all/libreadline/8.2-GCCcore-13.3.0:/apps/all/ncurses/6.5-GCCcore-13.3.0:/apps/all/ScaLAPACK/2.2.0-gompi-2023b-fb:/apps/all/FlexiBLAS/3.3.1-GCC-13.2.0:/apps/all/LAPACK/3.10.0-GCC-12.2.0:/apps/all/OpenBLAS/0.3.24-GCC-13.2.0
SLURM_NODELIST=cn667
SSH_CLIENT=83.46.85.124 59216 22
EBDEVELSCALAPACK=/apps/all/ScaLAPACK/2.2.0-gompi-2023b-fb/easybuild/ScaLAPACK-2.2.0-gompi-2023b-fb-easybuild-devel
__LMOD_REF_COUNT_COMPILER_PATH=/apps/all/XALT/3.0.2/bin:1
EBDEVELLIBFABRIC=/apps/all/libfabric/1.19.0-GCCcore-13.2.0/easybuild/libfabric-1.19.0-GCCcore-13.2.0-easybuild-devel
LMOD_VERSION=8.7.37
EBDEVELUCX=/apps/all/UCX/1.15.0-GCCcore-13.2.0/easybuild/UCX-1.15.0-GCCcore-13.2.0-easybuild-devel
EBDEVELUCC=/apps/all/UCC/1.2.0-GCCcore-13.2.0/easybuild/UCC-1.2.0-GCCcore-13.2.0-easybuild-devel
CPATH=/apps/all/FFTW.MPI/3.3.10-gompi-2023b/include:/apps/all/FFTW/3.3.10-GCC-13.2.0/include:/apps/all/netCDF-Fortran/4.6.1-gompi-2023b/include:/apps/all/netCDF/4.9.2-gompi-2023b/include:/apps/all/bzip2/1.0.8-GCCcore-13.2.0/include:/apps/all/zstd/1.5.5-GCCcore-13.2.0/include:/apps/all/lz4/1.9.4-GCCcore-13.2.0/include:/apps/all/cURL/8.3.0-GCCcore-13.2.0/include:/apps/all/HDF5/1.14.3-gompi-2023b/include:/apps/all/Szip/2.1.1-GCCcore-13.2.0/include:/apps/all/OpenMPI/4.1.6-GCC-13.2.0/include:/apps/all/UCC/1.2.0-GCCcore-13.2.0/include:/apps/all/PMIx/4.2.6-GCCcore-13.2.0/include:/apps/all/libfabric/1.19.0-GCCcore-13.2.0/include:/apps/all/UCX/1.15.0-GCCcore-13.2.0/include:/apps/all/libevent/2.1.12-GCCcore-13.2.0/include:/apps/all/hwloc/2.9.2-GCCcore-13.2.0/include:/apps/all/libpciaccess/0.17-GCCcore-13.2.0/include:/apps/all/libxml2/2.11.5-GCCcore-13.2.0/include/libxml2:/apps/all/libxml2/2.11.5-GCCcore-13.2.0/include:/apps/all/XZ/5.4.4-GCCcore-13.2.0/include:/apps/all/numactl/2.0.16-GCCcore-13.2.0/include:/apps/all/binutils/2.40-GCCcore-13.2.0/include:/apps/all/zlib/1.2.13-GCCcore-13.2.0/include:/apps/all/PnetCDF/1.12.3-gompi-2022a/include:/apps/all/libreadline/8.2-GCCcore-13.3.0/include:/apps/all/ncurses/6.5-GCCcore-13.3.0/include:/apps/all/FlexiBLAS/3.3.1-GCC-13.2.0/include:/apps/all/OpenBLAS/0.3.24-GCC-13.2.0/include
SLURM_NTASKS=128
EBROOTSZIP=/apps/all/Szip/2.1.1-GCCcore-13.2.0
EBVERSIONPNETCDF=1.12.3
PNETCDF=/apps/all/PnetCDF/1.12.3-gompi-2022a
EBROOTHDF5=/apps/all/HDF5/1.14.3-gompi-2023b
F77=gfortran
EBVERSIONGZIP=1.13
EBDEVELCURL=/apps/all/cURL/8.3.0-GCCcore-13.2.0/easybuild/cURL-8.3.0-GCCcore-13.2.0-easybuild-devel
SLURM_JOB_CPUS_PER_NODE=128
BASH_ENV=/apps/all/Lmod/8.7.37/lmod/lmod/init/bash
EBROOTCURL=/apps/all/cURL/8.3.0-GCCcore-13.2.0
EBDEVELPMIX=/apps/all/PMIx/4.2.6-GCCcore-13.2.0/easybuild/PMIx-4.2.6-GCCcore-13.2.0-easybuild-devel
XDG_DATA_DIRS=/apps/all/FFTW/3.3.10-GCC-13.2.0/share:/apps/all/netCDF-Fortran/4.6.1-gompi-2023b/share:/apps/all/netCDF/4.9.2-gompi-2023b/share:/apps/all/zstd/1.5.5-GCCcore-13.2.0/share:/apps/all/lz4/1.9.4-GCCcore-13.2.0/share:/apps/all/gzip/1.13-GCCcore-13.2.0/share:/apps/all/cURL/8.3.0-GCCcore-13.2.0/share:/apps/all/HDF5/1.14.3-gompi-2023b/share:/apps/all/OpenMPI/4.1.6-GCC-13.2.0/share:/apps/all/PMIx/4.2.6-GCCcore-13.2.0/share:/apps/all/libfabric/1.19.0-GCCcore-13.2.0/share:/apps/all/UCX/1.15.0-GCCcore-13.2.0/share:/apps/all/hwloc/2.9.2-GCCcore-13.2.0/share:/apps/all/libxml2/2.11.5-GCCcore-13.2.0/share:/apps/all/XZ/5.4.4-GCCcore-13.2.0/share:/apps/all/numactl/2.0.16-GCCcore-13.2.0/share:/apps/all/binutils/2.40-GCCcore-13.2.0/share:/apps/all/zlib/1.2.13-GCCcore-13.2.0/share:/apps/all/GCCcore/13.2.0/share:/apps/all/PnetCDF/1.12.3-gompi-2022a/share:/apps/all/libreadline/8.2-GCCcore-13.3.0/share:/apps/all/ncurses/6.5-GCCcore-13.3.0/share:/apps/all/FlexiBLAS/3.3.1-GCC-13.2.0/share:/home/it4i-fpedron/.local/share/flatpak/exports/share:/var/lib/flatpak/exports/share:/usr/local/share:/usr/share
SLURM_TOPOLOGY_ADDR=cn667
SLURM_REST_SERVICE=http://10.48.3.2:6820
FCFLAGS=-O3 -fPIC -march=znver2
EBDEVELPNETCDF=/apps/all/PnetCDF/1.12.3-gompi-2022a/easybuild/PnetCDF-1.12.3-gompi-2022a-easybuild-devel
EBVERSIONLIBPCIACCESS=0.17
EBROOTLIBXML2=/apps/all/libxml2/2.11.5-GCCcore-13.2.0
CURL_INCLUDES=/apps/all/cURL/8.3.0-GCCcore-13.2.0/include
__LMOD_REF_COUNT_LIBRARY_PATH=/apps/all/FFTW.MPI/3.3.10-gompi-2023b/lib:1;/apps/all/FFTW/3.3.10-GCC-13.2.0/lib:1;/apps/all/netCDF-Fortran/4.6.1-gompi-2023b/lib:1;/apps/all/netCDF/4.9.2-gompi-2023b/lib:1;/apps/all/bzip2/1.0.8-GCCcore-13.2.0/lib:1;/apps/all/zstd/1.5.5-GCCcore-13.2.0/lib:1;/apps/all/lz4/1.9.4-GCCcore-13.2.0/lib:1;/apps/all/cURL/8.3.0-GCCcore-13.2.0/lib:1;/apps/all/HDF5/1.14.3-gompi-2023b/lib:1;/apps/all/Szip/2.1.1-GCCcore-13.2.0/lib:1;/apps/all/OpenMPI/4.1.6-GCC-13.2.0/lib:1;/apps/all/UCC/1.2.0-GCCcore-13.2.0/lib:1;/apps/all/PMIx/4.2.6-GCCcore-13.2.0/lib:1;/apps/all/libfabric/1.19.0-GCCcore-13.2.0/lib:1;/apps/all/UCX/1.15.0-GCCcore-13.2.0/lib:1;/apps/all/libevent/2.1.12-GCCcore-13.2.0/lib:1;/apps/all/hwloc/2.9.2-GCCcore-13.2.0/lib:1;/apps/all/libpciaccess/0.17-GCCcore-13.2.0/lib:1;/apps/all/libxml2/2.11.5-GCCcore-13.2.0/lib:1;/apps/all/XZ/5.4.4-GCCcore-13.2.0/lib:1;/apps/all/numactl/2.0.16-GCCcore-13.2.0/lib:1;/apps/all/binutils/2.40-GCCcore-13.2.0/lib:1;/apps/all/zlib/1.2.13-GCCcore-13.2.0/lib:1;/apps/all/PnetCDF/1.12.3-gompi-2022a/lib:1;/apps/all/libreadline/8.2-GCCcore-13.3.0/lib:1;/apps/all/ncurses/6.5-GCCcore-13.3.0/lib:1;/apps/all/ScaLAPACK/2.2.0-gompi-2023b-fb/lib:1;/apps/all/FlexiBLAS/3.3.1-GCC-13.2.0/lib:1;/apps/all/LAPACK/3.10.0-GCC-12.2.0/lib:1;/apps/all/OpenBLAS/0.3.24-GCC-13.2.0/lib:1
COMPILER_PATH=/apps/all/XALT/3.0.2/bin
EBVERSIONLIBXML2=2.11.5
SLURM_JOB_NAME=CovidWeakSize
EBVERSIONNCURSES=6.5
TMPDIR=/tmp
EBROOTXALT=/apps/all/XALT/3.0.2
LIBRARY_PATH=/apps/all/FFTW.MPI/3.3.10-gompi-2023b/lib:/apps/all/FFTW/3.3.10-GCC-13.2.0/lib:/apps/all/netCDF-Fortran/4.6.1-gompi-2023b/lib:/apps/all/netCDF/4.9.2-gompi-2023b/lib:/apps/all/bzip2/1.0.8-GCCcore-13.2.0/lib:/apps/all/zstd/1.5.5-GCCcore-13.2.0/lib:/apps/all/lz4/1.9.4-GCCcore-13.2.0/lib:/apps/all/cURL/8.3.0-GCCcore-13.2.0/lib:/apps/all/HDF5/1.14.3-gompi-2023b/lib:/apps/all/Szip/2.1.1-GCCcore-13.2.0/lib:/apps/all/OpenMPI/4.1.6-GCC-13.2.0/lib:/apps/all/UCC/1.2.0-GCCcore-13.2.0/lib:/apps/all/PMIx/4.2.6-GCCcore-13.2.0/lib:/apps/all/libfabric/1.19.0-GCCcore-13.2.0/lib:/apps/all/UCX/1.15.0-GCCcore-13.2.0/lib:/apps/all/libevent/2.1.12-GCCcore-13.2.0/lib:/apps/all/hwloc/2.9.2-GCCcore-13.2.0/lib:/apps/all/libpciaccess/0.17-GCCcore-13.2.0/lib:/apps/all/libxml2/2.11.5-GCCcore-13.2.0/lib:/apps/all/XZ/5.4.4-GCCcore-13.2.0/lib:/apps/all/numactl/2.0.16-GCCcore-13.2.0/lib:/apps/all/binutils/2.40-GCCcore-13.2.0/lib:/apps/all/zlib/1.2.13-GCCcore-13.2.0/lib:/apps/all/PnetCDF/1.12.3-gompi-2022a/lib:/apps/all/libreadline/8.2-GCCcore-13.3.0/lib:/apps/all/ncurses/6.5-GCCcore-13.3.0/lib:/apps/all/ScaLAPACK/2.2.0-gompi-2023b-fb/lib:/apps/all/FlexiBLAS/3.3.1-GCC-13.2.0/lib:/apps/all/LAPACK/3.10.0-GCC-12.2.0/lib:/apps/all/OpenBLAS/0.3.24-GCC-13.2.0/lib:/home/it4i-fpedron/Siesta/elpa-gpu/lib/
_ModuleTable021_=bC0uMDAwMDAwMDEzLjAwMDAwMDAwMy4qemZpbmFsIiwKfSwKbGlieG1sMiA9IHsKZm4gPSAiL2FwcHMvbW9kdWxlcy9saWIvbGlieG1sMi8yLjExLjUtR0NDY29yZS0xMy4yLjAubHVhIiwKZnVsbE5hbWUgPSAibGlieG1sMi8yLjExLjUtR0NDY29yZS0xMy4yLjAiLApsb2FkT3JkZXIgPSAxNSwKcHJvcFQgPSB7fSwKc3RhY2tEZXB0aCA9IDQsCnN0YXR1cyA9ICJhY3RpdmUiLAp1c2VyTmFtZSA9ICJsaWJ4bWwyLzIuMTEuNS1HQ0Njb3JlLTEzLjIuMCIsCndWID0gIjAwMDAwMDAwMi4wMDAwMDAwMTEuMDAwMDAwMDA1LipnY2Njb3JlLip6ZmluYWwtLjAwMDAwMDAxMy4wMDAwMDAwMDIuKnpmaW5hbCIsCn0sCmx6NCA9IHsKZm4gPSAiL2FwcHMvbW9kdWxlcy9saWIvbHo0LzEu
__LMOD_REF_COUNT_CMAKE_PREFIX_PATH=/apps/all/FFTW.MPI/3.3.10-gompi-2023b:1;/apps/all/FFTW/3.3.10-GCC-13.2.0:1;/apps/all/netCDF-Fortran/4.6.1-gompi-2023b:1;/apps/all/netCDF/4.9.2-gompi-2023b:1;/apps/all/bzip2/1.0.8-GCCcore-13.2.0:1;/apps/all/zstd/1.5.5-GCCcore-13.2.0:1;/apps/all/lz4/1.9.4-GCCcore-13.2.0:1;/apps/all/gzip/1.13-GCCcore-13.2.0:1;/apps/all/cURL/8.3.0-GCCcore-13.2.0:1;/apps/all/HDF5/1.14.3-gompi-2023b:1;/apps/all/Szip/2.1.1-GCCcore-13.2.0:1;/apps/all/OpenMPI/4.1.6-GCC-13.2.0:1;/apps/all/UCC/1.2.0-GCCcore-13.2.0:1;/apps/all/PMIx/4.2.6-GCCcore-13.2.0:1;/apps/all/libfabric/1.19.0-GCCcore-13.2.0:1;/apps/all/UCX/1.15.0-GCCcore-13.2.0:1;/apps/all/libevent/2.1.12-GCCcore-13.2.0:1;/apps/all/hwloc/2.9.2-GCCcore-13.2.0:1;/apps/all/libpciaccess/0.17-GCCcore-13.2.0:1;/apps/all/libxml2/2.11.5-GCCcore-13.2.0:1;/apps/all/XZ/5.4.4-GCCcore-13.2.0:1;/apps/all/numactl/2.0.16-GCCcore-13.2.0:1;/apps/all/binutils/2.40-GCCcore-13.2.0:1;/apps/all/zlib/1.2.13-GCCcore-13.2.0:1;/apps/all/GCCcore/13.2.0:1;/apps/all/PnetCDF/1.12.3-gompi-2022a:1;/apps/all/libreadline/8.2-GCCcore-13.3.0:1;/apps/all/ncurses/6.5-GCCcore-13.3.0:1;/apps/all/ScaLAPACK/2.2.0-gompi-2023b-fb:1;/apps/all/FlexiBLAS/3.3.1-GCC-13.2.0:1;/apps/all/LAPACK/3.10.0-GCC-12.2.0:1;/apps/all/OpenBLAS/0.3.24-GCC-13.2.0:1
LMOD_sys=Linux
_ModuleTable010_=ZXMvdG9vbHMvU3ppcC8yLjEuMS1HQ0Njb3JlLTEzLjIuMC5sdWEiLApmdWxsTmFtZSA9ICJTemlwLzIuMS4xLUdDQ2NvcmUtMTMuMi4wIiwKbG9hZE9yZGVyID0gMjUsCnByb3BUID0ge30sCnN0YWNrRGVwdGggPSAzLApzdGF0dXMgPSAiYWN0aXZlIiwKdXNlck5hbWUgPSAiU3ppcC8yLjEuMS1HQ0Njb3JlLTEzLjIuMCIsCndWID0gIjAwMDAwMDAwMi4wMDAwMDAwMDEuMDAwMDAwMDAxLipnY2Njb3JlLip6ZmluYWwtLjAwMDAwMDAxMy4wMDAwMDAwMDIuKnpmaW5hbCIsCn0sClVDQyA9IHsKZm4gPSAiL2FwcHMvbW9kdWxlcy9saWIvVUNDLzEuMi4wLUdDQ2NvcmUtMTMuMi4wLmx1YSIsCmZ1bGxOYW1lID0gIlVDQy8xLjIuMC1HQ0Njb3JlLTEzLjIuMCIsCmxvYWRPcmRlciA9
SLURM_JOBID=1618183
_ModuleTable001_=X01vZHVsZVRhYmxlXyA9IHsKTVR2ZXJzaW9uID0gMywKY19yZWJ1aWxkVGltZSA9IGZhbHNlLApjX3Nob3J0VGltZSA9IGZhbHNlLApkZXB0aFQgPSB7fSwKZmFtaWx5ID0ge30sCm1UID0gewpGRlRXID0gewpmbiA9ICIvYXBwcy9tb2R1bGVzL251bWxpYi9GRlRXLzMuMy4xMC1HQ0MtMTMuMi4wLmx1YSIsCmZ1bGxOYW1lID0gIkZGVFcvMy4zLjEwLUdDQy0xMy4yLjAiLApsb2FkT3JkZXIgPSAzNCwKcHJvcFQgPSB7fSwKc3RhY2tEZXB0aCA9IDEsCnN0YXR1cyA9ICJhY3RpdmUiLAp1c2VyTmFtZSA9ICJGRlRXLzMuMy4xMC1HQ0MtMTMuMi4wIiwKd1YgPSAiMDAwMDAwMDAzLjAwMDAwMDAwMy4wMDAwMDAwMTAuKmdjYy4qemZpbmFsLS4wMDAwMDAwMTMuMDAwMDAwMDAyLip6
SLURM_CONF=/etc/slurm/slurm.conf
EBDEVELGOMPI=/apps/all/gompi/2023b/easybuild/gompi-2023b-easybuild-devel
LOADEDMODULES=XALT/3.0.2:OpenBLAS/0.3.24-GCC-13.2.0:LAPACK/3.10.0-GCC-12.2.0:FlexiBLAS/3.3.1-GCC-13.2.0:ScaLAPACK/2.2.0-gompi-2023b-fb:ncurses/6.5-GCCcore-13.3.0:libreadline/8.2-GCCcore-13.3.0:PnetCDF/1.12.3-gompi-2022a:GCCcore/13.2.0:zlib/1.2.13-GCCcore-13.2.0:binutils/2.40-GCCcore-13.2.0:GCC/13.2.0:numactl/2.0.16-GCCcore-13.2.0:XZ/5.4.4-GCCcore-13.2.0:libxml2/2.11.5-GCCcore-13.2.0:libpciaccess/0.17-GCCcore-13.2.0:hwloc/2.9.2-GCCcore-13.2.0:libevent/2.1.12-GCCcore-13.2.0:UCX/1.15.0-GCCcore-13.2.0:libfabric/1.19.0-GCCcore-13.2.0:PMIx/4.2.6-GCCcore-13.2.0:UCC/1.2.0-GCCcore-13.2.0:OpenMPI/4.1.6-GCC-13.2.0:gompi/2023b:Szip/2.1.1-GCCcore-13.2.0:HDF5/1.14.3-gompi-2023b:cURL/8.3.0-GCCcore-13.2.0:gzip/1.13-GCCcore-13.2.0:lz4/1.9.4-GCCcore-13.2.0:zstd/1.5.5-GCCcore-13.2.0:bzip2/1.0.8-GCCcore-13.2.0:netCDF/4.9.2-gompi-2023b:netCDF-Fortran/4.6.1-gompi-2023b:FFTW/3.3.10-GCC-13.2.0:FFTW.MPI/3.3.10-gompi-2023b
FC=gfortran
__LMOD_REF_COUNT_ACLOCAL_PATH=/apps/all/cURL/8.3.0-GCCcore-13.2.0/share/aclocal:1;/apps/all/libxml2/2.11.5-GCCcore-13.2.0/share/aclocal:1
EBDEVELOPENMPI=/apps/all/OpenMPI/4.1.6-GCC-13.2.0/easybuild/OpenMPI-4.1.6-GCC-13.2.0-easybuild-devel
EBROOTFFTWMPI=/apps/all/FFTW.MPI/3.3.10-gompi-2023b
EBDEVELHDF5=/apps/all/HDF5/1.14.3-gompi-2023b/easybuild/HDF5-1.14.3-gompi-2023b-easybuild-devel
EBROOTLIBEVENT=/apps/all/libevent/2.1.12-GCCcore-13.2.0
EBVERSIONNETCDFMINFORTRAN=4.6.1
_ModuleTable006_=LipnY2MuKnpmaW5hbC0uMDAwMDAwMDEyLjAwMDAwMDAwMi4qemZpbmFsIiwKfSwKT3BlbkJMQVMgPSB7CmZuID0gIi9hcHBzL21vZHVsZXMvbnVtbGliL09wZW5CTEFTLzAuMy4yNC1HQ0MtMTMuMi4wLmx1YSIsCmZ1bGxOYW1lID0gIk9wZW5CTEFTLzAuMy4yNC1HQ0MtMTMuMi4wIiwKbG9hZE9yZGVyID0gMiwKcHJvcFQgPSB7fSwKc3RhY2tEZXB0aCA9IDAsCnN0YXR1cyA9ICJhY3RpdmUiLAp1c2VyTmFtZSA9ICJPcGVuQkxBUyIsCndWID0gIjAwMDAwMDAwMC4wMDAwMDAwMDMuMDAwMDAwMDI0LipnY2MuKnpmaW5hbC0uMDAwMDAwMDEzLjAwMDAwMDAwMi4qemZpbmFsIiwKfSwKT3Blbk1QSSA9IHsKZm4gPSAiL2FwcHMvbW9kdWxlcy9tcGkvT3Blbk1QSS80LjEuNi1HQ0Mt
__LMOD_REF_COUNT_MANPATH=/apps/all/FFTW/3.3.10-GCC-13.2.0/share/man:1;/apps/all/netCDF-Fortran/4.6.1-gompi-2023b/share/man:1;/apps/all/netCDF/4.9.2-gompi-2023b/share/man:1;/apps/all/bzip2/1.0.8-GCCcore-13.2.0/man:1;/apps/all/zstd/1.5.5-GCCcore-13.2.0/share/man:1;/apps/all/lz4/1.9.4-GCCcore-13.2.0/share/man:1;/apps/all/gzip/1.13-GCCcore-13.2.0/share/man:1;/apps/all/cURL/8.3.0-GCCcore-13.2.0/share/man:1;/apps/all/OpenMPI/4.1.6-GCC-13.2.0/share/man:1;/apps/all/PMIx/4.2.6-GCCcore-13.2.0/share/man:1;/apps/all/libfabric/1.19.0-GCCcore-13.2.0/share/man:1;/apps/all/hwloc/2.9.2-GCCcore-13.2.0/share/man:1;/apps/all/libxml2/2.11.5-GCCcore-13.2.0/share/man:1;/apps/all/XZ/5.4.4-GCCcore-13.2.0/share/man:1;/apps/all/numactl/2.0.16-GCCcore-13.2.0/share/man:1;/apps/all/binutils/2.40-GCCcore-13.2.0/share/man:1;/apps/all/zlib/1.2.13-GCCcore-13.2.0/share/man:1;/apps/all/GCCcore/13.2.0/share/man:1;/apps/all/PnetCDF/1.12.3-gompi-2022a/share/man:1;/apps/all/libreadline/8.2-GCCcore-13.3.0/share/man:1;/apps/all/ncurses/6.5-GCCcore-13.3.0/share/man:1;/apps/all/FlexiBLAS/3.3.1-GCC-13.2.0/share/man:1;/apps/all/Lmod/8.7.37/lmod/lmod/share/man:1;/opt/c3/man:1;/opt/clmgr/man:1;/opt/sgi/share/man:1;/opt/clmgr/share/man:1;/opt/clmgr/lib/cm-cli/man:1
EBVERSIONZLIB=1.2.13
HDF5_DIR=/apps/all/HDF5/1.14.3-gompi-2023b
_ModuleTable003_=CmZ1bGxOYW1lID0gIkZsZXhpQkxBUy8zLjMuMS1HQ0MtMTMuMi4wIiwKbG9hZE9yZGVyID0gNCwKcHJvcFQgPSB7fSwKc3RhY2tEZXB0aCA9IDEsCnN0YXR1cyA9ICJhY3RpdmUiLAp1c2VyTmFtZSA9ICJGbGV4aUJMQVMvMy4zLjEtR0NDLTEzLjIuMCIsCndWID0gIjAwMDAwMDAwMy4wMDAwMDAwMDMuMDAwMDAwMDAxLipnY2MuKnpmaW5hbC0uMDAwMDAwMDEzLjAwMDAwMDAwMi4qemZpbmFsIiwKfSwKR0NDID0gewpmbiA9ICIvYXBwcy9tb2R1bGVzL2NvbXBpbGVyL0dDQy8xMy4yLjAubHVhIiwKZnVsbE5hbWUgPSAiR0NDLzEzLjIuMCIsCmxvYWRPcmRlciA9IDEyLApwcm9wVCA9IHt9LApzdGFja0RlcHRoID0gMiwKc3RhdHVzID0gImFjdGl2ZSIsCnVzZXJOYW1lID0gIkdD
EBDEVELZSTD=/apps/all/zstd/1.5.5-GCCcore-13.2.0/easybuild/zstd-1.5.5-GCCcore-13.2.0-easybuild-devel
SLURM_JOB_QOS=dd-24-70: Karolina CPU #4663
LMOD_ROOT=/apps/all/Lmod/8.7.37/lmod
SLURM_TOPOLOGY_ADDR_PATTERN=node
SSH_TTY=/dev/pts/185
_ModuleTable022_=OS40LUdDQ2NvcmUtMTMuMi4wLmx1YSIsCmZ1bGxOYW1lID0gImx6NC8xLjkuNC1HQ0Njb3JlLTEzLjIuMCIsCmxvYWRPcmRlciA9IDI5LApwcm9wVCA9IHt9LApzdGFja0RlcHRoID0gMywKc3RhdHVzID0gImFjdGl2ZSIsCnVzZXJOYW1lID0gImx6NC8xLjkuNC1HQ0Njb3JlLTEzLjIuMCIsCndWID0gIjAwMDAwMDAwMS4wMDAwMDAwMDkuMDAwMDAwMDA0LipnY2Njb3JlLip6ZmluYWwtLjAwMDAwMDAxMy4wMDAwMDAwMDIuKnpmaW5hbCIsCn0sCm5jdXJzZXMgPSB7CmZuID0gIi9hcHBzL21vZHVsZXMvZGV2ZWwvbmN1cnNlcy82LjUtR0NDY29yZS0xMy4zLjAubHVhIiwKZnVsbE5hbWUgPSAibmN1cnNlcy82LjUtR0NDY29yZS0xMy4zLjAiLApsb2FkT3JkZXIgPSA2LApwcm9w
_ModuleTable013_=Q2NvcmUtMTMuMi4wIiwKbG9hZE9yZGVyID0gMTQsCnByb3BUID0ge30sCnN0YWNrRGVwdGggPSA1LApzdGF0dXMgPSAiYWN0aXZlIiwKdXNlck5hbWUgPSAiWFovNS40LjQtR0NDY29yZS0xMy4yLjAiLAp3ViA9ICIwMDAwMDAwMDUuMDAwMDAwMDA0LjAwMDAwMDAwNC4qZ2NjY29yZS4qemZpbmFsLS4wMDAwMDAwMTMuMDAwMDAwMDAyLip6ZmluYWwiLAp9LApiaW51dGlscyA9IHsKZm4gPSAiL2FwcHMvbW9kdWxlcy90b29scy9iaW51dGlscy8yLjQwLUdDQ2NvcmUtMTMuMi4wLmx1YSIsCmZ1bGxOYW1lID0gImJpbnV0aWxzLzIuNDAtR0NDY29yZS0xMy4yLjAiLApsb2FkT3JkZXIgPSAxMSwKcHJvcFQgPSB7fSwKc3RhY2tEZXB0aCA9IDMsCnN0YXR1cyA9ICJhY3RpdmUiLAp1
MAIL=/var/spool/mail/it4i-fpedron
EBDEVELLIBPCIACCESS=/apps/all/libpciaccess/0.17-GCCcore-13.2.0/easybuild/libpciaccess-0.17-GCCcore-13.2.0-easybuild-devel
SLURM_CPUS_ON_NODE=128
CXX=g++
XALT_SCALAR_SAMPLING=yes
_ModuleTable027_=ICJhY3RpdmUiLAp1c2VyTmFtZSA9ICJ6c3RkLzEuNS41LUdDQ2NvcmUtMTMuMi4wIiwKd1YgPSAiMDAwMDAwMDAxLjAwMDAwMDAwNS4wMDAwMDAwMDUuKmdjY2NvcmUuKnpmaW5hbC0uMDAwMDAwMDEzLjAwMDAwMDAwMi4qemZpbmFsIiwKfSwKfSwKbXBhdGhBID0gewoiL2FwcHMvbW9kdWxlcy9iaW8iLCAiL2FwcHMvbW9kdWxlcy9jYWUiLCAiL2FwcHMvbW9kdWxlcy9jaGVtIgosICIvYXBwcy9tb2R1bGVzL2NvbXBpbGVyIiwgIi9hcHBzL21vZHVsZXMvZGF0YSIsICIvYXBwcy9tb2R1bGVzL2RlYnVnZ2VyIgosICIvYXBwcy9tb2R1bGVzL2RldmVsIiwgIi9hcHBzL21vZHVsZXMvbGFuZyIsICIvYXBwcy9tb2R1bGVzL2xpYiIKLCAiL2FwcHMvbW9kdWxlcy9tYXRoIiwgIi9h
SLURM_JOB_NUM_NODES=1
OMP_PLACES=cores
_ModuleTable016_=bE5hbWUgPSAiZ29tcGkvMjAyM2IiLApsb2FkT3JkZXIgPSAyNCwKcHJvcFQgPSB7fSwKc3RhY2tEZXB0aCA9IDEsCnN0YXR1cyA9ICJhY3RpdmUiLAp1c2VyTmFtZSA9ICJnb21waS8yMDIzYiIsCndWID0gIjAwMDAwMjAyMy4qYi4qemZpbmFsIiwKfSwKZ3ppcCA9IHsKZm4gPSAiL2FwcHMvbW9kdWxlcy90b29scy9nemlwLzEuMTMtR0NDY29yZS0xMy4yLjAubHVhIiwKZnVsbE5hbWUgPSAiZ3ppcC8xLjEzLUdDQ2NvcmUtMTMuMi4wIiwKbG9hZE9yZGVyID0gMjgsCnByb3BUID0ge30sCnN0YWNrRGVwdGggPSAzLApzdGF0dXMgPSAiYWN0aXZlIiwKdXNlck5hbWUgPSAiZ3ppcC8xLjEzLUdDQ2NvcmUtMTMuMi4wIiwKd1YgPSAiMDAwMDAwMDAxLjAwMDAwMDAxMy4qZ2NjY29y
SLURM_MEM_PER_NODE=235520
EBROOTFFTW=/apps/all/FFTW/3.3.10-GCC-13.2.0
_ModuleTable009_=MDEyLjAwMDAwMDAwMy4qZ29tcGkuKnpmaW5hbC0uMDAwMDAyMDIyLiphLip6ZmluYWwiLAp9LApTY2FMQVBBQ0sgPSB7CmZuID0gIi9hcHBzL21vZHVsZXMvbnVtbGliL1NjYUxBUEFDSy8yLjIuMC1nb21waS0yMDIzYi1mYi5sdWEiLApmdWxsTmFtZSA9ICJTY2FMQVBBQ0svMi4yLjAtZ29tcGktMjAyM2ItZmIiLApsb2FkT3JkZXIgPSA1LApwcm9wVCA9IHt9LApzdGFja0RlcHRoID0gMCwKc3RhdHVzID0gImFjdGl2ZSIsCnVzZXJOYW1lID0gIlNjYUxBUEFDSy8yLjIuMC1nb21waS0yMDIzYi1mYiIsCndWID0gIjAwMDAwMDAwMi4wMDAwMDAwMDIuKmdvbXBpLip6ZmluYWwtLjAwMDAwMjAyMy4qYi4qZmIuKnpmaW5hbCIsCn0sClN6aXAgPSB7CmZuID0gIi9hcHBzL21vZHVs
SHELL=/bin/bash
TERM=xterm-256color
DEBUGFLAGS=-O0 -g
J4M_LIB_PATH=/home/it4i-fpedron/Siesta/elpa-gpu/lib/
EBDEVELGCCCORE=/apps/all/GCCcore/13.2.0/easybuild/GCCcore-13.2.0-easybuild-devel
EBROOTHWLOC=/apps/all/hwloc/2.9.2-GCCcore-13.2.0
EBDEVELXALT=/apps/all/XALT/3.0.2/easybuild/XALT-3.0.2-easybuild-devel
SLURM_JOB_UID=9897
_ModuleTable_Sz_=30
EBVERSIONLZ4=1.9.4
__LMOD_REF_COUNT_CPATH=/apps/all/FFTW.MPI/3.3.10-gompi-2023b/include:1;/apps/all/FFTW/3.3.10-GCC-13.2.0/include:1;/apps/all/netCDF-Fortran/4.6.1-gompi-2023b/include:1;/apps/all/netCDF/4.9.2-gompi-2023b/include:1;/apps/all/bzip2/1.0.8-GCCcore-13.2.0/include:1;/apps/all/zstd/1.5.5-GCCcore-13.2.0/include:1;/apps/all/lz4/1.9.4-GCCcore-13.2.0/include:1;/apps/all/cURL/8.3.0-GCCcore-13.2.0/include:1;/apps/all/HDF5/1.14.3-gompi-2023b/include:1;/apps/all/Szip/2.1.1-GCCcore-13.2.0/include:1;/apps/all/OpenMPI/4.1.6-GCC-13.2.0/include:1;/apps/all/UCC/1.2.0-GCCcore-13.2.0/include:1;/apps/all/PMIx/4.2.6-GCCcore-13.2.0/include:1;/apps/all/libfabric/1.19.0-GCCcore-13.2.0/include:1;/apps/all/UCX/1.15.0-GCCcore-13.2.0/include:1;/apps/all/libevent/2.1.12-GCCcore-13.2.0/include:1;/apps/all/hwloc/2.9.2-GCCcore-13.2.0/include:1;/apps/all/libpciaccess/0.17-GCCcore-13.2.0/include:1;/apps/all/libxml2/2.11.5-GCCcore-13.2.0/include/libxml2:1;/apps/all/libxml2/2.11.5-GCCcore-13.2.0/include:1;/apps/all/XZ/5.4.4-GCCcore-13.2.0/include:1;/apps/all/numactl/2.0.16-GCCcore-13.2.0/include:1;/apps/all/binutils/2.40-GCCcore-13.2.0/include:1;/apps/all/zlib/1.2.13-GCCcore-13.2.0/include:1;/apps/all/PnetCDF/1.12.3-gompi-2022a/include:1;/apps/all/libreadline/8.2-GCCcore-13.3.0/include:1;/apps/all/ncurses/6.5-GCCcore-13.3.0/include:1;/apps/all/FlexiBLAS/3.3.1-GCC-13.2.0/include:1;/apps/all/OpenBLAS/0.3.24-GCC-13.2.0/include:1
SLURM_JOB_PARTITION=qcpu
EBDEVELNCURSES=/apps/all/ncurses/6.5-GCCcore-13.3.0/easybuild/ncurses-6.5-GCCcore-13.3.0-easybuild-devel
EBROOTLZ4=/apps/all/lz4/1.9.4-GCCcore-13.2.0
USE_PCM_DB=2
EBVERSIONBZIP2=1.0.8
_ModuleTable018_=aWJldmVudC8yLjEuMTItR0NDY29yZS0xMy4yLjAubHVhIiwKZnVsbE5hbWUgPSAibGliZXZlbnQvMi4xLjEyLUdDQ2NvcmUtMTMuMi4wIiwKbG9hZE9yZGVyID0gMTgsCnByb3BUID0ge30sCnN0YWNrRGVwdGggPSAzLApzdGF0dXMgPSAiYWN0aXZlIiwKdXNlck5hbWUgPSAibGliZXZlbnQvMi4xLjEyLUdDQ2NvcmUtMTMuMi4wIiwKd1YgPSAiMDAwMDAwMDAyLjAwMDAwMDAwMS4wMDAwMDAwMTIuKmdjY2NvcmUuKnpmaW5hbC0uMDAwMDAwMDEzLjAwMDAwMDAwMi4qemZpbmFsIiwKfSwKbGliZmFicmljID0gewpmbiA9ICIvYXBwcy9tb2R1bGVzL2xpYi9saWJmYWJyaWMvMS4xOS4wLUdDQ2NvcmUtMTMuMi4wLmx1YSIsCmZ1bGxOYW1lID0gImxpYmZhYnJpYy8xLjE5LjAtR0ND
__LMOD_REF_COUNT_SINGULARITY_BINDPATH=/apps/all/XALT/3.0.2:1
EBVERSIONNETCDF=4.9.2
EBDEVELBINUTILS=/apps/all/binutils/2.40-GCCcore-13.2.0/easybuild/binutils-2.40-GCCcore-13.2.0-easybuild-devel
SACCT_FORMAT=jobid,jobname,partition,user,account,state,exitcode,start,elapsed,reason,comment,nnodes,nodelist
SLURM_JOB_USER=it4i-fpedron
SLURM_NPROCS=128
SHLVL=4
LANGUAGE=en_US.UTF-8
EBROOTLAPACK=/apps/all/LAPACK/3.10.0-GCC-12.2.0
SLURM_SUBMIT_HOST=login1.karolina.it4i.cz
CLUSTERNAME=KAROLINA
SLURM_JOB_ACCOUNT=dd-24-70
EBDEVELNETCDFMINFORTRAN=/apps/all/netCDF-Fortran/4.6.1-gompi-2023b/easybuild/netCDF-Fortran-4.6.1-gompi-2023b-easybuild-devel
ACLOCAL_PATH=/apps/all/cURL/8.3.0-GCCcore-13.2.0/share/aclocal:/apps/all/libxml2/2.11.5-GCCcore-13.2.0/share/aclocal
FFLAGS=-O3 -fPIC -march=znver2
MANPATH=/apps/all/FFTW/3.3.10-GCC-13.2.0/share/man:/apps/all/netCDF-Fortran/4.6.1-gompi-2023b/share/man:/apps/all/netCDF/4.9.2-gompi-2023b/share/man:/apps/all/bzip2/1.0.8-GCCcore-13.2.0/man:/apps/all/zstd/1.5.5-GCCcore-13.2.0/share/man:/apps/all/lz4/1.9.4-GCCcore-13.2.0/share/man:/apps/all/gzip/1.13-GCCcore-13.2.0/share/man:/apps/all/cURL/8.3.0-GCCcore-13.2.0/share/man:/apps/all/OpenMPI/4.1.6-GCC-13.2.0/share/man:/apps/all/PMIx/4.2.6-GCCcore-13.2.0/share/man:/apps/all/libfabric/1.19.0-GCCcore-13.2.0/share/man:/apps/all/hwloc/2.9.2-GCCcore-13.2.0/share/man:/apps/all/libxml2/2.11.5-GCCcore-13.2.0/share/man:/apps/all/XZ/5.4.4-GCCcore-13.2.0/share/man:/apps/all/numactl/2.0.16-GCCcore-13.2.0/share/man:/apps/all/binutils/2.40-GCCcore-13.2.0/share/man:/apps/all/zlib/1.2.13-GCCcore-13.2.0/share/man:/apps/all/GCCcore/13.2.0/share/man:/apps/all/PnetCDF/1.12.3-gompi-2022a/share/man:/apps/all/libreadline/8.2-GCCcore-13.3.0/share/man:/apps/all/ncurses/6.5-GCCcore-13.3.0/share/man:/apps/all/FlexiBLAS/3.3.1-GCC-13.2.0/share/man:/apps/all/Lmod/8.7.37/lmod/lmod/share/man:/opt/c3/man:/opt/clmgr/man:/opt/sgi/share/man:/opt/clmgr/share/man:/opt/clmgr/lib/cm-cli/man
EBDEVELGCC=/apps/all/GCC/13.2.0/easybuild/GCC-13.2.0-easybuild-devel
SINGULARITYENV_LD_PRELOAD=/apps/all/XALT/3.0.2/lib64/libxalt_init.so
_ModuleTable028_=cHBzL21vZHVsZXMvbXBpIiwgIi9hcHBzL21vZHVsZXMvbnVtbGliIgosICIvYXBwcy9tb2R1bGVzL3BlcmYiLCAiL2FwcHMvbW9kdWxlcy9waHlzIiwgIi9hcHBzL21vZHVsZXMvc3lzdGVtIgosICIvYXBwcy9tb2R1bGVzL3Rvb2xjaGFpbiIsICIvYXBwcy9tb2R1bGVzL3Rvb2xzIiwgIi9hcHBzL21vZHVsZXMvdmlzIgosICIvb3B0L2NyYXkvcGUvY3JheXBlLXRhcmdldHMvMS40LjAvbW9kdWxlZmlsZXMiCiwgIi9hcHBzL2FsbC9pbnRlbC1jb21waWxlcnMvMjAyMy4yLjEvbW9kdWxlZmlsZXMiLCAiL29wdC9jcmF5L3BlL21vZHVsZWZpbGVzIgosICIvYXBwcy9hbGwvTG1vZC84LjcuMzcvbW9kdWxlZmlsZXMvTGludXgiCiwgIi9hcHBzL2FsbC9MbW9kLzguNy4zNy9tb2R1
SLURM_TRES_PER_TASK=cpu:1
INTEL_VERSION=/apps/all/intel-compilers/2023.2.1/compiler/2023.2.1/
OSCAR_HOME=/opt/oscar
HYDRA_BOOTSTRAP=slurm
EBVERSIONFFTW=3.3.10
F90=gfortran
MODULEPATH=/apps/modules/bio:/apps/modules/cae:/apps/modules/chem:/apps/modules/compiler:/apps/modules/data:/apps/modules/debugger:/apps/modules/devel:/apps/modules/lang:/apps/modules/lib:/apps/modules/math:/apps/modules/mpi:/apps/modules/numlib:/apps/modules/perf:/apps/modules/phys:/apps/modules/system:/apps/modules/toolchain:/apps/modules/tools:/apps/modules/vis:/opt/cray/pe/craype-targets/1.4.0/modulefiles:/apps/all/intel-compilers/2023.2.1/modulefiles:/opt/cray/pe/modulefiles:/apps/all/Lmod/8.7.37/modulefiles/Linux:/apps/all/Lmod/8.7.37/modulefiles/Core:/apps/all/Lmod/8.7.37/lmod/lmod/modulefiles/Core
EBROOTZSTD=/apps/all/zstd/1.5.5-GCCcore-13.2.0
EBDEVELLIBREADLINE=/apps/all/libreadline/8.2-GCCcore-13.3.0/easybuild/libreadline-8.2-GCCcore-13.3.0-easybuild-devel
EBDEVELFFTW=/apps/all/FFTW/3.3.10-GCC-13.2.0/easybuild/FFTW-3.3.10-GCC-13.2.0-easybuild-devel
OMPI_MCA_btl_openib_if_include=mlx5_0
SLURM_GTIDS=0
LOGNAME=it4i-fpedron
EBVERSIONBINUTILS=2.40
MODULEPATH_ROOT=/apps/all/Lmod/8.7.37/modulefiles
EBVERSIONXALT=3.0.2
EBROOTPMIX=/apps/all/PMIx/4.2.6-GCCcore-13.2.0
EBDEVELZLIB=/apps/all/zlib/1.2.13-GCCcore-13.2.0/easybuild/zlib-1.2.13-GCCcore-13.2.0-easybuild-devel
_ModuleTable025_=Cm51bWFjdGwgPSB7CmZuID0gIi9hcHBzL21vZHVsZXMvdG9vbHMvbnVtYWN0bC8yLjAuMTYtR0NDY29yZS0xMy4yLjAubHVhIiwKZnVsbE5hbWUgPSAibnVtYWN0bC8yLjAuMTYtR0NDY29yZS0xMy4yLjAiLApsb2FkT3JkZXIgPSAxMywKcHJvcFQgPSB7fSwKc3RhY2tEZXB0aCA9IDQsCnN0YXR1cyA9ICJhY3RpdmUiLAp1c2VyTmFtZSA9ICJudW1hY3RsLzIuMC4xNi1HQ0Njb3JlLTEzLjIuMCIsCndWID0gIjAwMDAwMDAwMi4wMDAwMDAwMDAuMDAwMDAwMDE2LipnY2Njb3JlLip6ZmluYWwtLjAwMDAwMDAxMy4wMDAwMDAwMDIuKnpmaW5hbCIsCn0sCnpsaWIgPSB7CmZuID0gIi9hcHBzL21vZHVsZXMvbGliL3psaWIvMS4yLjEzLUdDQ2NvcmUtMTMuMi4wLmx1YSIsCmZ1bGxO
EBROOTLIBFABRIC=/apps/all/libfabric/1.19.0-GCCcore-13.2.0
PATH=/apps/all/FFTW/3.3.10-GCC-13.2.0/bin:/apps/all/netCDF-Fortran/4.6.1-gompi-2023b/bin:/apps/all/netCDF/4.9.2-gompi-2023b/bin:/apps/all/bzip2/1.0.8-GCCcore-13.2.0/bin:/apps/all/zstd/1.5.5-GCCcore-13.2.0/bin:/apps/all/lz4/1.9.4-GCCcore-13.2.0/bin:/apps/all/gzip/1.13-GCCcore-13.2.0/bin:/apps/all/cURL/8.3.0-GCCcore-13.2.0/bin:/apps/all/HDF5/1.14.3-gompi-2023b/bin:/apps/all/OpenMPI/4.1.6-GCC-13.2.0/bin:/apps/all/UCC/1.2.0-GCCcore-13.2.0/bin:/apps/all/PMIx/4.2.6-GCCcore-13.2.0/bin:/apps/all/libfabric/1.19.0-GCCcore-13.2.0/bin:/apps/all/UCX/1.15.0-GCCcore-13.2.0/bin:/apps/all/libevent/2.1.12-GCCcore-13.2.0/bin:/apps/all/hwloc/2.9.2-GCCcore-13.2.0/sbin:/apps/all/hwloc/2.9.2-GCCcore-13.2.0/bin:/apps/all/libxml2/2.11.5-GCCcore-13.2.0/bin:/apps/all/XZ/5.4.4-GCCcore-13.2.0/bin:/apps/all/numactl/2.0.16-GCCcore-13.2.0/bin:/apps/all/binutils/2.40-GCCcore-13.2.0/bin:/apps/all/GCCcore/13.2.0/bin:/apps/all/PnetCDF/1.12.3-gompi-2022a/bin:/apps/all/ncurses/6.5-GCCcore-13.3.0/bin:/apps/all/FlexiBLAS/3.3.1-GCC-13.2.0/bin:/apps/all/XALT/3.0.2/bin:/opt/clmgr/sbin:/opt/clmgr/bin:/opt/sgi/sbin:/opt/sgi/bin:/usr/share/Modules/bin:/usr/local/bin:/usr/bin:/usr/local/sbin:/usr/sbin:/opt/c3/bin:/sbin:/bin:/opt/slurm/bin:/opt/icommands:/home/it4i-fpedron/.local/bin:/home/it4i-fpedron/bin:/home/it4i-fpedron/Siesta/siesta-gnu/bin/
_ModuleTable014_=c2VyTmFtZSA9ICJiaW51dGlscy8yLjQwLUdDQ2NvcmUtMTMuMi4wIiwKd1YgPSAiMDAwMDAwMDAyLjAwMDAwMDA0MC4qZ2NjY29yZS4qemZpbmFsLS4wMDAwMDAwMTMuMDAwMDAwMDAyLip6ZmluYWwiLAp9LApiemlwMiA9IHsKZm4gPSAiL2FwcHMvbW9kdWxlcy90b29scy9iemlwMi8xLjAuOC1HQ0Njb3JlLTEzLjIuMC5sdWEiLApmdWxsTmFtZSA9ICJiemlwMi8xLjAuOC1HQ0Njb3JlLTEzLjIuMCIsCmxvYWRPcmRlciA9IDMxLApwcm9wVCA9IHt9LApzdGFja0RlcHRoID0gMiwKc3RhdHVzID0gImFjdGl2ZSIsCnVzZXJOYW1lID0gImJ6aXAyLzEuMC44LUdDQ2NvcmUtMTMuMi4wIiwKd1YgPSAiMDAwMDAwMDAxLjAwMDAwMDAwMC4wMDAwMDAwMDguKmdjY2NvcmUuKnpmaW5h
SLURM_JOB_ID=1618183
EBVERSIONLIBREADLINE=8.2
_LMFILES_=/apps/modules/lib/XALT/3.0.2.lua:/apps/modules/numlib/OpenBLAS/0.3.24-GCC-13.2.0.lua:/apps/modules/numlib/LAPACK/3.10.0-GCC-12.2.0.lua:/apps/modules/lib/FlexiBLAS/3.3.1-GCC-13.2.0.lua:/apps/modules/numlib/ScaLAPACK/2.2.0-gompi-2023b-fb.lua:/apps/modules/devel/ncurses/6.5-GCCcore-13.3.0.lua:/apps/modules/lib/libreadline/8.2-GCCcore-13.3.0.lua:/apps/modules/data/PnetCDF/1.12.3-gompi-2022a.lua:/apps/modules/compiler/GCCcore/13.2.0.lua:/apps/modules/lib/zlib/1.2.13-GCCcore-13.2.0.lua:/apps/modules/tools/binutils/2.40-GCCcore-13.2.0.lua:/apps/modules/compiler/GCC/13.2.0.lua:/apps/modules/tools/numactl/2.0.16-GCCcore-13.2.0.lua:/apps/modules/tools/XZ/5.4.4-GCCcore-13.2.0.lua:/apps/modules/lib/libxml2/2.11.5-GCCcore-13.2.0.lua:/apps/modules/system/libpciaccess/0.17-GCCcore-13.2.0.lua:/apps/modules/system/hwloc/2.9.2-GCCcore-13.2.0.lua:/apps/modules/lib/libevent/2.1.12-GCCcore-13.2.0.lua:/apps/modules/lib/UCX/1.15.0-GCCcore-13.2.0.lua:/apps/modules/lib/libfabric/1.19.0-GCCcore-13.2.0.lua:/apps/modules/lib/PMIx/4.2.6-GCCcore-13.2.0.lua:/apps/modules/lib/UCC/1.2.0-GCCcore-13.2.0.lua:/apps/modules/mpi/OpenMPI/4.1.6-GCC-13.2.0.lua:/apps/modules/toolchain/gompi/2023b.lua:/apps/modules/tools/Szip/2.1.1-GCCcore-13.2.0.lua:/apps/modules/data/HDF5/1.14.3-gompi-2023b.lua:/apps/modules/tools/cURL/8.3.0-GCCcore-13.2.0.lua:/apps/modules/tools/gzip/1.13-GCCcore-13.2.0.lua:/apps/modules/lib/lz4/1.9.4-GCCcore-13.2.0.lua:/apps/modules/lib/zstd/1.5.5-GCCcore-13.2.0.lua:/apps/modules/tools/bzip2/1.0.8-GCCcore-13.2.0.lua:/apps/modules/data/netCDF/4.9.2-gompi-2023b.lua:/apps/modules/data/netCDF-Fortran/4.6.1-gompi-2023b.lua:/apps/modules/numlib/FFTW/3.3.10-GCC-13.2.0.lua:/apps/modules/numlib/FFTW.MPI/3.3.10-gompi-2023b.lua
EBROOTLIBPCIACCESS=/apps/all/libpciaccess/0.17-GCCcore-13.2.0
DEBUGINFOD_URLS=https://debuginfod.centos.org/ 
EBDEVELLZ4=/apps/all/lz4/1.9.4-GCCcore-13.2.0/easybuild/lz4-1.9.4-GCCcore-13.2.0-easybuild-devel
MODULESHOME=/apps/all/Lmod/8.7.37/lmod/lmod
PKG_CONFIG_PATH=/apps/all/FFTW/3.3.10-GCC-13.2.0/lib/pkgconfig:/apps/all/netCDF-Fortran/4.6.1-gompi-2023b/lib/pkgconfig:/apps/all/netCDF/4.9.2-gompi-2023b/lib/pkgconfig:/apps/all/bzip2/1.0.8-GCCcore-13.2.0/lib/pkgconfig:/apps/all/zstd/1.5.5-GCCcore-13.2.0/lib/pkgconfig:/apps/all/lz4/1.9.4-GCCcore-13.2.0/lib/pkgconfig:/apps/all/cURL/8.3.0-GCCcore-13.2.0/lib/pkgconfig:/apps/all/HDF5/1.14.3-gompi-2023b/lib/pkgconfig:/apps/all/OpenMPI/4.1.6-GCC-13.2.0/lib/pkgconfig:/apps/all/PMIx/4.2.6-GCCcore-13.2.0/lib/pkgconfig:/apps/all/libfabric/1.19.0-GCCcore-13.2.0/lib/pkgconfig:/apps/all/UCX/1.15.0-GCCcore-13.2.0/lib/pkgconfig:/apps/all/libevent/2.1.12-GCCcore-13.2.0/lib/pkgconfig:/apps/all/hwloc/2.9.2-GCCcore-13.2.0/lib/pkgconfig:/apps/all/libpciaccess/0.17-GCCcore-13.2.0/lib/pkgconfig:/apps/all/libxml2/2.11.5-GCCcore-13.2.0/lib/pkgconfig:/apps/all/XZ/5.4.4-GCCcore-13.2.0/lib/pkgconfig:/apps/all/numactl/2.0.16-GCCcore-13.2.0/lib/pkgconfig:/apps/all/zlib/1.2.13-GCCcore-13.2.0/lib/pkgconfig:/apps/all/PnetCDF/1.12.3-gompi-2022a/lib/pkgconfig:/apps/all/libreadline/8.2-GCCcore-13.3.0/lib/pkgconfig:/apps/all/ncurses/6.5-GCCcore-13.3.0/lib/pkgconfig:/apps/all/ScaLAPACK/2.2.0-gompi-2023b-fb/lib/pkgconfig:/apps/all/FlexiBLAS/3.3.1-GCC-13.2.0/lib/pkgconfig:/apps/all/OpenBLAS/0.3.24-GCC-13.2.0/lib/pkgconfig
LMOD_SETTARG_FULL_SUPPORT=no
EBVERSIONFLEXIBLAS=3.3.1
_ModuleTable011_=IDIyLApwcm9wVCA9IHt9LApzdGFja0RlcHRoID0gMywKc3RhdHVzID0gImFjdGl2ZSIsCnVzZXJOYW1lID0gIlVDQy8xLjIuMC1HQ0Njb3JlLTEzLjIuMCIsCndWID0gIjAwMDAwMDAwMS4wMDAwMDAwMDIuKmdjY2NvcmUuKnpmaW5hbC0uMDAwMDAwMDEzLjAwMDAwMDAwMi4qemZpbmFsIiwKfSwKVUNYID0gewpmbiA9ICIvYXBwcy9tb2R1bGVzL2xpYi9VQ1gvMS4xNS4wLUdDQ2NvcmUtMTMuMi4wLmx1YSIsCmZ1bGxOYW1lID0gIlVDWC8xLjE1LjAtR0NDY29yZS0xMy4yLjAiLApsb2FkT3JkZXIgPSAxOSwKcHJvcFQgPSB7fSwKc3RhY2tEZXB0aCA9IDMsCnN0YXR1cyA9ICJhY3RpdmUiLAp1c2VyTmFtZSA9ICJVQ1gvMS4xNS4wLUdDQ2NvcmUtMTMuMi4wIiwKd1YgPSAiMDAw
_ModuleTable030_=YXBwcy9tb2R1bGVzL3Rvb2xjaGFpbjovYXBwcy9tb2R1bGVzL3Rvb2xzOi9hcHBzL21vZHVsZXMvdmlzOi9vcHQvY3JheS9wZS9jcmF5cGUtdGFyZ2V0cy8xLjQuMC9tb2R1bGVmaWxlczovYXBwcy9hbGwvaW50ZWwtY29tcGlsZXJzLzIwMjMuMi4xL21vZHVsZWZpbGVzOi9vcHQvY3JheS9wZS9tb2R1bGVmaWxlczovYXBwcy9hbGwvTG1vZC84LjcuMzcvbW9kdWxlZmlsZXMvTGludXg6L2FwcHMvYWxsL0xtb2QvOC43LjM3L21vZHVsZWZpbGVzL0NvcmU6L2FwcHMvYWxsL0xtb2QvOC43LjM3L2xtb2QvbG1vZC9tb2R1bGVmaWxlcy9Db3JlIiwKfQo=
XALT_ETC_DIR=/apps/all/XALT/3.0.2/etc
EBROOTNUMACTL=/apps/all/numactl/2.0.16-GCCcore-13.2.0
HISTSIZE=1000
LD_PRELOAD=/apps/all/XALT/3.0.2/lib64/libxalt_init.so
LMOD_PKG=/apps/all/Lmod/8.7.37/lmod/lmod
CMAKE_LIBRARY_PATH=/apps/all/GCCcore/13.2.0/lib64
EBROOTNETCDF=/apps/all/netCDF/4.9.2-gompi-2023b
J4M_HOME=/home/it4i-fpedron/JUBE4MaX/max-inputs/
EBVERSIONSZIP=2.1.1
SQUEUE_STATES=all
__LMOD_REF_COUNT_SINGULARITYENV_LD_PRELOAD=/apps/all/XALT/3.0.2/lib64/libxalt_init.so:1
EBROOTUCX=/apps/all/UCX/1.15.0-GCCcore-13.2.0
LMOD_CMD=/apps/all/Lmod/8.7.37/lmod/lmod/libexec/lmod
_ModuleTable005_=IDI2LApwcm9wVCA9IHt9LApzdGFja0RlcHRoID0gMiwKc3RhdHVzID0gImFjdGl2ZSIsCnVzZXJOYW1lID0gIkhERjUvMS4xNC4zLWdvbXBpLTIwMjNiIiwKd1YgPSAiMDAwMDAwMDAxLjAwMDAwMDAxNC4wMDAwMDAwMDMuKmdvbXBpLip6ZmluYWwtLjAwMDAwMjAyMy4qYi4qemZpbmFsIiwKfSwKTEFQQUNLID0gewpmbiA9ICIvYXBwcy9tb2R1bGVzL251bWxpYi9MQVBBQ0svMy4xMC4wLUdDQy0xMi4yLjAubHVhIiwKZnVsbE5hbWUgPSAiTEFQQUNLLzMuMTAuMC1HQ0MtMTIuMi4wIiwKbG9hZE9yZGVyID0gMywKcHJvcFQgPSB7fSwKc3RhY2tEZXB0aCA9IDAsCnN0YXR1cyA9ICJhY3RpdmUiLAp1c2VyTmFtZSA9ICJMQVBBQ0siLAp3ViA9ICIwMDAwMDAwMDMuMDAwMDAwMDEw
SLURM_LOCALID=0
CVS_RSH=ssh
OMP_NUM_THREADS=1
LESSOPEN=||/usr/bin/lesspipe.sh %s
_ModuleTable020_=YWN0aXZlIiwKdXNlck5hbWUgPSAibGlicGNpYWNjZXNzLzAuMTctR0NDY29yZS0xMy4yLjAiLAp3ViA9ICIwMDAwMDAwMDAuMDAwMDAwMDE3LipnY2Njb3JlLip6ZmluYWwtLjAwMDAwMDAxMy4wMDAwMDAwMDIuKnpmaW5hbCIsCn0sCmxpYnJlYWRsaW5lID0gewpmbiA9ICIvYXBwcy9tb2R1bGVzL2xpYi9saWJyZWFkbGluZS84LjItR0NDY29yZS0xMy4zLjAubHVhIiwKZnVsbE5hbWUgPSAibGlicmVhZGxpbmUvOC4yLUdDQ2NvcmUtMTMuMy4wIiwKbG9hZE9yZGVyID0gNywKcHJvcFQgPSB7fSwKc3RhY2tEZXB0aCA9IDAsCnN0YXR1cyA9ICJhY3RpdmUiLAp1c2VyTmFtZSA9ICJsaWJyZWFkbGluZSIsCndWID0gIjAwMDAwMDAwOC4wMDAwMDAwMDIuKmdjY2NvcmUuKnpmaW5h
EBROOTUCC=/apps/all/UCC/1.2.0-GCCcore-13.2.0
LMOD_DIR=/apps/all/Lmod/8.7.37/lmod/lmod/libexec
BASH_FUNC_which%%=() {  ( alias;
 eval ${which_declare} ) | /usr/bin/which --tty-only --read-alias --read-functions --show-tilde --show-dot $@
}
BASH_FUNC_module%%=() {  if [ -z "${LMOD_SH_DBG_ON+x}" ]; then
 case "$-" in 
 *v*x*)
 __lmod_sh_dbg='vx'
 ;;
 *v*)
 __lmod_sh_dbg='v'
 ;;
 *x*)
 __lmod_sh_dbg='x'
 ;;
 esac;
 fi;
 if [ -n "${__lmod_sh_dbg:-}" ]; then
 set +$__lmod_sh_dbg;
 echo "Shell debugging temporarily silenced: export LMOD_SH_DBG_ON=1 for Lmod's output" 1>&2;
 fi;
 eval "$($LMOD_CMD shell "$@")" && eval "$(${LMOD_SETTARG_CMD:-:} -s sh)";
 __lmod_my_status=$?;
 if [ -n "${__lmod_sh_dbg:-}" ]; then
 echo "Shell debugging restarted" 1>&2;
 set -$__lmod_sh_dbg;
 fi;
 unset __lmod_sh_dbg;
 return $__lmod_my_status
}
BASH_FUNC__module_raw%%=() {  unset _mlshdbg;
 if [ "${MODULES_SILENT_SHELL_DEBUG:-0}" = '1' ]; then
 case "$-" in 
 *v*x*)
 set +vx;
 _mlshdbg='vx'
 ;;
 *v*)
 set +v;
 _mlshdbg='v'
 ;;
 *x*)
 set +x;
 _mlshdbg='x'
 ;;
 *)
 _mlshdbg=''
 ;;
 esac;
 fi;
 unset _mlre _mlIFS;
 if [ -n "${IFS+x}" ]; then
 _mlIFS=$IFS;
 fi;
 IFS=' ';
 for _mlv in ${MODULES_RUN_QUARANTINE:-};
 do
 if [ "${_mlv}" = "${_mlv##*[!A-Za-z0-9_]}" -a "${_mlv}" = "${_mlv#[0-9]}" ]; then
 if [ -n "`eval 'echo ${'$_mlv'+x}'`" ]; then
 _mlre="${_mlre:-}${_mlv}_modquar='`eval 'echo ${'$_mlv'}'`' ";
 fi;
 _mlrv="MODULES_RUNENV_${_mlv}";
 _mlre="${_mlre:-}${_mlv}='`eval 'echo ${'$_mlrv':-}'`' ";
 fi;
 done;
 if [ -n "${_mlre:-}" ]; then
 eval `eval ${_mlre} /usr/bin/tclsh /usr/share/Modules/libexec/modulecmd.tcl bash '"$@"'`;
 else
 eval `/usr/bin/tclsh /usr/share/Modules/libexec/modulecmd.tcl bash "$@"`;
 fi;
 _mlstatus=$?;
 if [ -n "${_mlIFS+x}" ]; then
 IFS=$_mlIFS;
 else
 unset IFS;
 fi;
 unset _mlre _mlv _mlrv _mlIFS;
 if [ -n "${_mlshdbg:-}" ]; then
 set -$_mlshdbg;
 fi;
 unset _mlshdbg;
 return $_mlstatus
}
BASH_FUNC_switchml%%=() {  typeset swfound=1;
 if [ "${MODULES_USE_COMPAT_VERSION:-0}" = '1' ]; then
 typeset swname='main';
 if [ -e /usr/share/Modules/libexec/modulecmd.tcl ]; then
 typeset swfound=0;
 unset MODULES_USE_COMPAT_VERSION;
 fi;
 else
 typeset swname='compatibility';
 if [ -e /usr/share/Modules/libexec/modulecmd-compat ]; then
 typeset swfound=0;
 MODULES_USE_COMPAT_VERSION=1;
 export MODULES_USE_COMPAT_VERSION;
 fi;
 fi;
 if [ $swfound -eq 0 ]; then
 echo "Switching to Modules $swname version";
 source /usr/share/Modules/init/bash;
 else
 echo "Cannot switch to Modules $swname version, command not found";
 return 1;
 fi
}
BASH_FUNC_ml%%=() {  eval "$($LMOD_DIR/ml_cmd "$@")"
}
_=/usr/bin/env

Current SIESTA linked libraries
-------------------------------
	linux-vdso.so.1 (0x00007ffd55dc3000)
	/apps/all/XALT/3.0.2/lib64/libxalt_init.so (0x0000150c17c04000)
	libnetcdff.so.7 => /apps/all/netCDF-Fortran/4.6.1-gompi-2023b/lib/libnetcdff.so.7 (0x0000150c17fa9000)
	libnetcdf.so.19 => /apps/all/netCDF/4.9.2-gompi-2023b/lib/libnetcdf.so.19 (0x0000150c179cb000)
	libdl.so.2 => /lib64/libdl.so.2 (0x0000150c177c7000)
	libgfortran.so.5 => /apps/all/GCCcore/13.2.0/lib64/libgfortran.so.5 (0x0000150c174f0000)
	libm.so.6 => /lib64/libm.so.6 (0x0000150c1716e000)
	libmvec.so.1 => /lib64/libmvec.so.1 (0x0000150c16f43000)
	libpthread.so.0 => /lib64/libpthread.so.0 (0x0000150c16d23000)
	libreadline.so.8 => /apps/all/libreadline/8.2-GCCcore-13.3.0/lib/libreadline.so.8 (0x0000150c17f42000)
	libmpi_usempif08.so.40 => /apps/all/OpenMPI/4.1.6-GCC-13.2.0/lib/libmpi_usempif08.so.40 (0x0000150c17f08000)
	libmpi_usempi_ignore_tkr.so.40 => /apps/all/OpenMPI/4.1.6-GCC-13.2.0/lib/libmpi_usempi_ignore_tkr.so.40 (0x0000150c17efb000)
	libmpi_mpifh.so.40 => /apps/all/OpenMPI/4.1.6-GCC-13.2.0/lib/libmpi_mpifh.so.40 (0x0000150c17e8f000)
	libmpi.so.40 => /apps/all/OpenMPI/4.1.6-GCC-13.2.0/lib/libmpi.so.40 (0x0000150c16bf6000)
	libscalapack.so => /apps/all/ScaLAPACK/2.2.0-gompi-2023b-fb/lib/libscalapack.so (0x0000150c165fa000)
	libopenblas.so.0 => /apps/all/OpenBLAS/0.3.24-GCC-13.2.0/lib/libopenblas.so.0 (0x0000150c15845000)
	libgomp.so.1 => /apps/all/GCCcore/13.2.0/lib64/libgomp.so.1 (0x0000150c157f2000)
	libmpi_cxx.so.40 => /apps/all/OpenMPI/4.1.6-GCC-13.2.0/lib/libmpi_cxx.so.40 (0x0000150c157d6000)
	libstdc++.so.6 => /apps/all/GCCcore/13.2.0/lib64/libstdc++.so.6 (0x0000150c15572000)
	libgcc_s.so.1 => /apps/all/GCCcore/13.2.0/lib64/libgcc_s.so.1 (0x0000150c1554c000)
	libc.so.6 => /lib64/libc.so.6 (0x0000150c15176000)
	libhdf5_hl.so.310 => /apps/all/HDF5/1.14.3-gompi-2023b/lib/libhdf5_hl.so.310 (0x0000150c15151000)
	libhdf5.so.310 => /apps/all/HDF5/1.14.3-gompi-2023b/lib/libhdf5.so.310 (0x0000150c14cf9000)
	libz.so.1 => /apps/all/zlib/1.2.13-GCCcore-13.2.0/lib/libz.so.1 (0x0000150c14cde000)
	libzstd.so.1 => /apps/all/zstd/1.5.5-GCCcore-13.2.0/lib/libzstd.so.1 (0x0000150c14c23000)
	libbz2.so.1.0 => /apps/all/bzip2/1.0.8-GCCcore-13.2.0/lib/libbz2.so.1.0 (0x0000150c17e75000)
	libsz.so.2 => /apps/all/Szip/2.1.1-GCCcore-13.2.0/lib/libsz.so.2 (0x0000150c14c08000)
	libcurl.so.4 => /apps/all/cURL/8.3.0-GCCcore-13.2.0/lib/libcurl.so.4 (0x0000150c14b6a000)
	libxml2.so.2 => /apps/all/libxml2/2.11.5-GCCcore-13.2.0/lib/libxml2.so.2 (0x0000150c14a05000)
	/lib64/ld-linux-x86-64.so.2 (0x0000150c17e43000)
	libncurses.so.6 => /apps/all/ncurses/6.5-GCCcore-13.3.0/lib/libncurses.so.6 (0x0000150c1499d000)
	libopen-rte.so.40 => /apps/all/OpenMPI/4.1.6-GCC-13.2.0/lib/libopen-rte.so.40 (0x0000150c148e3000)
	libopen-pal.so.40 => /apps/all/OpenMPI/4.1.6-GCC-13.2.0/lib/libopen-pal.so.40 (0x0000150c14830000)
	librt.so.1 => /lib64/librt.so.1 (0x0000150c14628000)
	libutil.so.1 => /lib64/libutil.so.1 (0x0000150c14424000)
	libhwloc.so.15 => /apps/all/hwloc/2.9.2-GCCcore-13.2.0/lib/libhwloc.so.15 (0x0000150c143c4000)
	libpciaccess.so.0 => /apps/all/libpciaccess/0.17-GCCcore-13.2.0/lib/libpciaccess.so.0 (0x0000150c143b8000)
	liblzma.so.5 => /apps/all/XZ/5.4.4-GCCcore-13.2.0/lib/liblzma.so.5 (0x0000150c14389000)
	libevent_core-2.1.so.7 => /apps/all/libevent/2.1.12-GCCcore-13.2.0/lib/libevent_core-2.1.so.7 (0x0000150c14350000)
	libevent_pthreads-2.1.so.7 => /apps/all/libevent/2.1.12-GCCcore-13.2.0/lib/libevent_pthreads-2.1.so.7 (0x0000150c1434b000)
	libquadmath.so.0 => /apps/all/GCCcore/13.2.0/lib/../lib64/libquadmath.so.0 (0x0000150c14304000)
	libflexiblas.so.3 => /apps/all/FlexiBLAS/3.3.1-GCC-13.2.0/lib/libflexiblas.so.3 (0x0000150c13f21000)
	libssl.so.1.1 => /lib64/libssl.so.1.1 (0x0000150c13c8b000)
	libcrypto.so.1.1 => /lib64/libcrypto.so.1.1 (0x0000150c137a0000)

--------------------------------------------------------------------------
WARNING: There was an error initializing an OpenFabrics device.

  Local host:   cn667
  Local device: mlx5_0
--------------------------------------------------------------------------
--------------------------------------------------------------------------
WARNING: There was an error initializing an OpenFabrics device.

  Local host:   cn667
  Local device: mlx5_0
--------------------------------------------------------------------------
--------------------------------------------------------------------------
WARNING: There was an error initializing an OpenFabrics device.

  Local host:   cn667
  Local device: mlx5_0
--------------------------------------------------------------------------
--------------------------------------------------------------------------
WARNING: There was an error initializing an OpenFabrics device.

  Local host:   cn667
  Local device: mlx5_0
--------------------------------------------------------------------------
--------------------------------------------------------------------------
WARNING: There was an error initializing an OpenFabrics device.

  Local host:   cn667
  Local device: mlx5_0
--------------------------------------------------------------------------
--------------------------------------------------------------------------
WARNING: There was an error initializing an OpenFabrics device.

  Local host:   cn667
  Local device: mlx5_0
--------------------------------------------------------------------------
--------------------------------------------------------------------------
WARNING: There was an error initializing an OpenFabrics device.

  Local host:   cn667
  Local device: mlx5_0
--------------------------------------------------------------------------
--------------------------------------------------------------------------
WARNING: There was an error initializing an OpenFabrics device.

  Local host:   cn667
  Local device: mlx5_0
--------------------------------------------------------------------------
--------------------------------------------------------------------------
WARNING: There was an error initializing an OpenFabrics device.

  Local host:   cn667
  Local device: mlx5_0
--------------------------------------------------------------------------
--------------------------------------------------------------------------
WARNING: There was an error initializing an OpenFabrics device.

  Local host:   cn667
  Local device: mlx5_0
--------------------------------------------------------------------------
--------------------------------------------------------------------------
WARNING: There was an error initializing an OpenFabrics device.

  Local host:   cn667
  Local device: mlx5_0
--------------------------------------------------------------------------
--------------------------------------------------------------------------
WARNING: There was an error initializing an OpenFabrics device.

  Local host:   cn667
  Local device: mlx5_0
--------------------------------------------------------------------------
--------------------------------------------------------------------------
WARNING: There was an error initializing an OpenFabrics device.

  Local host:   cn667
  Local device: mlx5_0
--------------------------------------------------------------------------
--------------------------------------------------------------------------
WARNING: There was an error initializing an OpenFabrics device.

  Local host:   cn667
  Local device: mlx5_0
--------------------------------------------------------------------------
--------------------------------------------------------------------------
WARNING: There was an error initializing an OpenFabrics device.

  Local host:   cn667
  Local device: mlx5_0
--------------------------------------------------------------------------
--------------------------------------------------------------------------
WARNING: There was an error initializing an OpenFabrics device.

  Local host:   cn667
  Local device: mlx5_0
--------------------------------------------------------------------------
--------------------------------------------------------------------------
WARNING: There was an error initializing an OpenFabrics device.

  Local host:   cn667
  Local device: mlx5_0
--------------------------------------------------------------------------
--------------------------------------------------------------------------
WARNING: There was an error initializing an OpenFabrics device.

  Local host:   cn667
  Local device: mlx5_0
--------------------------------------------------------------------------
--------------------------------------------------------------------------
WARNING: There was an error initializing an OpenFabrics device.

  Local host:   cn667
  Local device: mlx5_0
--------------------------------------------------------------------------
--------------------------------------------------------------------------
WARNING: There was an error initializing an OpenFabrics device.

  Local host:   cn667
  Local device: mlx5_0
--------------------------------------------------------------------------
--------------------------------------------------------------------------
WARNING: There was an error initializing an OpenFabrics device.

  Local host:   cn667
  Local device: mlx5_0
--------------------------------------------------------------------------
--------------------------------------------------------------------------
WARNING: There was an error initializing an OpenFabrics device.

  Local host:   cn667
  Local device: mlx5_0
--------------------------------------------------------------------------
--------------------------------------------------------------------------
WARNING: There was an error initializing an OpenFabrics device.

  Local host:   cn667
  Local device: mlx5_0
--------------------------------------------------------------------------
--------------------------------------------------------------------------
WARNING: There was an error initializing an OpenFabrics device.

  Local host:   cn667
  Local device: mlx5_0
--------------------------------------------------------------------------
--------------------------------------------------------------------------
WARNING: There was an error initializing an OpenFabrics device.

  Local host:   cn667
  Local device: mlx5_0
--------------------------------------------------------------------------
--------------------------------------------------------------------------
WARNING: There was an error initializing an OpenFabrics device.

  Local host:   cn667
  Local device: mlx5_0
--------------------------------------------------------------------------
--------------------------------------------------------------------------
WARNING: There was an error initializing an OpenFabrics device.

  Local host:   cn667
  Local device: mlx5_0
--------------------------------------------------------------------------
--------------------------------------------------------------------------
WARNING: There was an error initializing an OpenFabrics device.

  Local host:   cn667
  Local device: mlx5_0
--------------------------------------------------------------------------
--------------------------------------------------------------------------
WARNING: There was an error initializing an OpenFabrics device.

  Local host:   cn667
  Local device: mlx5_0
--------------------------------------------------------------------------
--------------------------------------------------------------------------
WARNING: There was an error initializing an OpenFabrics device.

  Local host:   cn667
  Local device: mlx5_0
--------------------------------------------------------------------------
--------------------------------------------------------------------------
WARNING: There was an error initializing an OpenFabrics device.

  Local host:   cn667
  Local device: mlx5_0
--------------------------------------------------------------------------
--------------------------------------------------------------------------
WARNING: There was an error initializing an OpenFabrics device.

  Local host:   cn667
  Local device: mlx5_0
--------------------------------------------------------------------------
--------------------------------------------------------------------------
WARNING: There was an error initializing an OpenFabrics device.

  Local host:   cn667
  Local device: mlx5_0
--------------------------------------------------------------------------
--------------------------------------------------------------------------
WARNING: There was an error initializing an OpenFabrics device.

  Local host:   cn667
  Local device: mlx5_0
--------------------------------------------------------------------------
--------------------------------------------------------------------------
WARNING: There was an error initializing an OpenFabrics device.

  Local host:   cn667
  Local device: mlx5_0
--------------------------------------------------------------------------
--------------------------------------------------------------------------
WARNING: There was an error initializing an OpenFabrics device.

  Local host:   cn667
  Local device: mlx5_0
--------------------------------------------------------------------------
--------------------------------------------------------------------------
WARNING: There was an error initializing an OpenFabrics device.

  Local host:   cn667
  Local device: mlx5_0
--------------------------------------------------------------------------
--------------------------------------------------------------------------
WARNING: There was an error initializing an OpenFabrics device.

  Local host:   cn667
  Local device: mlx5_0
--------------------------------------------------------------------------
--------------------------------------------------------------------------
WARNING: There was an error initializing an OpenFabrics device.

  Local host:   cn667
  Local device: mlx5_0
--------------------------------------------------------------------------
--------------------------------------------------------------------------
WARNING: There was an error initializing an OpenFabrics device.

  Local host:   cn667
  Local device: mlx5_0
--------------------------------------------------------------------------
--------------------------------------------------------------------------
WARNING: There was an error initializing an OpenFabrics device.

  Local host:   cn667
  Local device: mlx5_0
--------------------------------------------------------------------------
--------------------------------------------------------------------------
WARNING: There was an error initializing an OpenFabrics device.

  Local host:   cn667
  Local device: mlx5_0
--------------------------------------------------------------------------
--------------------------------------------------------------------------
WARNING: There was an error initializing an OpenFabrics device.

  Local host:   cn667
  Local device: mlx5_0
--------------------------------------------------------------------------
--------------------------------------------------------------------------
WARNING: There was an error initializing an OpenFabrics device.

  Local host:   cn667
  Local device: mlx5_0
--------------------------------------------------------------------------
--------------------------------------------------------------------------
WARNING: There was an error initializing an OpenFabrics device.

  Local host:   cn667
  Local device: mlx5_0
--------------------------------------------------------------------------
--------------------------------------------------------------------------
WARNING: There was an error initializing an OpenFabrics device.

  Local host:   cn667
  Local device: mlx5_0
--------------------------------------------------------------------------
--------------------------------------------------------------------------
WARNING: There was an error initializing an OpenFabrics device.

  Local host:   cn667
  Local device: mlx5_0
--------------------------------------------------------------------------
--------------------------------------------------------------------------
WARNING: There was an error initializing an OpenFabrics device.

  Local host:   cn667
  Local device: mlx5_0
--------------------------------------------------------------------------
--------------------------------------------------------------------------
WARNING: There was an error initializing an OpenFabrics device.

  Local host:   cn667
  Local device: mlx5_0
--------------------------------------------------------------------------
--------------------------------------------------------------------------
WARNING: There was an error initializing an OpenFabrics device.

  Local host:   cn667
  Local device: mlx5_0
--------------------------------------------------------------------------
--------------------------------------------------------------------------
WARNING: There was an error initializing an OpenFabrics device.

  Local host:   cn667
  Local device: mlx5_0
--------------------------------------------------------------------------
--------------------------------------------------------------------------
WARNING: There was an error initializing an OpenFabrics device.

  Local host:   cn667
  Local device: mlx5_0
--------------------------------------------------------------------------
--------------------------------------------------------------------------
WARNING: There was an error initializing an OpenFabrics device.

  Local host:   cn667
  Local device: mlx5_0
--------------------------------------------------------------------------
--------------------------------------------------------------------------
WARNING: There was an error initializing an OpenFabrics device.

  Local host:   cn667
  Local device: mlx5_0
--------------------------------------------------------------------------
--------------------------------------------------------------------------
WARNING: There was an error initializing an OpenFabrics device.

  Local host:   cn667
  Local device: mlx5_0
--------------------------------------------------------------------------
--------------------------------------------------------------------------
WARNING: There was an error initializing an OpenFabrics device.

  Local host:   cn667
  Local device: mlx5_0
--------------------------------------------------------------------------
--------------------------------------------------------------------------
WARNING: There was an error initializing an OpenFabrics device.

  Local host:   cn667
  Local device: mlx5_0
--------------------------------------------------------------------------
--------------------------------------------------------------------------
WARNING: There was an error initializing an OpenFabrics device.

  Local host:   cn667
  Local device: mlx5_0
--------------------------------------------------------------------------
--------------------------------------------------------------------------
WARNING: There was an error initializing an OpenFabrics device.

  Local host:   cn667
  Local device: mlx5_0
--------------------------------------------------------------------------
--------------------------------------------------------------------------
WARNING: There was an error initializing an OpenFabrics device.

  Local host:   cn667
  Local device: mlx5_0
--------------------------------------------------------------------------
--------------------------------------------------------------------------
WARNING: There was an error initializing an OpenFabrics device.

  Local host:   cn667
  Local device: mlx5_0
--------------------------------------------------------------------------
--------------------------------------------------------------------------
WARNING: There was an error initializing an OpenFabrics device.

  Local host:   cn667
  Local device: mlx5_0
--------------------------------------------------------------------------
--------------------------------------------------------------------------
WARNING: There was an error initializing an OpenFabrics device.

  Local host:   cn667
  Local device: mlx5_0
--------------------------------------------------------------------------
--------------------------------------------------------------------------
WARNING: There was an error initializing an OpenFabrics device.

  Local host:   cn667
  Local device: mlx5_0
--------------------------------------------------------------------------
--------------------------------------------------------------------------
WARNING: There was an error initializing an OpenFabrics device.

  Local host:   cn667
  Local device: mlx5_0
--------------------------------------------------------------------------
--------------------------------------------------------------------------
WARNING: There was an error initializing an OpenFabrics device.

  Local host:   cn667
  Local device: mlx5_0
--------------------------------------------------------------------------
--------------------------------------------------------------------------
WARNING: There was an error initializing an OpenFabrics device.

  Local host:   cn667
  Local device: mlx5_0
--------------------------------------------------------------------------
--------------------------------------------------------------------------
WARNING: There was an error initializing an OpenFabrics device.

  Local host:   cn667
  Local device: mlx5_0
--------------------------------------------------------------------------
--------------------------------------------------------------------------
WARNING: There was an error initializing an OpenFabrics device.

  Local host:   cn667
  Local device: mlx5_0
--------------------------------------------------------------------------
--------------------------------------------------------------------------
WARNING: There was an error initializing an OpenFabrics device.

  Local host:   cn667
  Local device: mlx5_0
--------------------------------------------------------------------------
--------------------------------------------------------------------------
WARNING: There was an error initializing an OpenFabrics device.

  Local host:   cn667
  Local device: mlx5_0
--------------------------------------------------------------------------
--------------------------------------------------------------------------
WARNING: There was an error initializing an OpenFabrics device.

  Local host:   cn667
  Local device: mlx5_0
--------------------------------------------------------------------------
--------------------------------------------------------------------------
WARNING: There was an error initializing an OpenFabrics device.

  Local host:   cn667
  Local device: mlx5_0
--------------------------------------------------------------------------
--------------------------------------------------------------------------
WARNING: There was an error initializing an OpenFabrics device.

  Local host:   cn667
  Local device: mlx5_0
--------------------------------------------------------------------------
--------------------------------------------------------------------------
WARNING: There was an error initializing an OpenFabrics device.

  Local host:   cn667
  Local device: mlx5_0
--------------------------------------------------------------------------
--------------------------------------------------------------------------
WARNING: There was an error initializing an OpenFabrics device.

  Local host:   cn667
  Local device: mlx5_0
--------------------------------------------------------------------------
--------------------------------------------------------------------------
WARNING: There was an error initializing an OpenFabrics device.

  Local host:   cn667
  Local device: mlx5_0
--------------------------------------------------------------------------
--------------------------------------------------------------------------
WARNING: There was an error initializing an OpenFabrics device.

  Local host:   cn667
  Local device: mlx5_0
--------------------------------------------------------------------------
--------------------------------------------------------------------------
WARNING: There was an error initializing an OpenFabrics device.

  Local host:   cn667
  Local device: mlx5_0
--------------------------------------------------------------------------
--------------------------------------------------------------------------
WARNING: There was an error initializing an OpenFabrics device.

  Local host:   cn667
  Local device: mlx5_0
--------------------------------------------------------------------------
--------------------------------------------------------------------------
WARNING: There was an error initializing an OpenFabrics device.

  Local host:   cn667
  Local device: mlx5_0
--------------------------------------------------------------------------
--------------------------------------------------------------------------
WARNING: There was an error initializing an OpenFabrics device.

  Local host:   cn667
  Local device: mlx5_0
--------------------------------------------------------------------------
--------------------------------------------------------------------------
WARNING: There was an error initializing an OpenFabrics device.

  Local host:   cn667
  Local device: mlx5_0
--------------------------------------------------------------------------
--------------------------------------------------------------------------
WARNING: There was an error initializing an OpenFabrics device.

  Local host:   cn667
  Local device: mlx5_0
--------------------------------------------------------------------------
--------------------------------------------------------------------------
WARNING: There was an error initializing an OpenFabrics device.

  Local host:   cn667
  Local device: mlx5_0
--------------------------------------------------------------------------
--------------------------------------------------------------------------
WARNING: There was an error initializing an OpenFabrics device.

  Local host:   cn667
  Local device: mlx5_0
--------------------------------------------------------------------------
--------------------------------------------------------------------------
WARNING: There was an error initializing an OpenFabrics device.

  Local host:   cn667
  Local device: mlx5_0
--------------------------------------------------------------------------
--------------------------------------------------------------------------
WARNING: There was an error initializing an OpenFabrics device.

  Local host:   cn667
  Local device: mlx5_0
--------------------------------------------------------------------------
--------------------------------------------------------------------------
WARNING: There was an error initializing an OpenFabrics device.

  Local host:   cn667
  Local device: mlx5_0
--------------------------------------------------------------------------
--------------------------------------------------------------------------
WARNING: There was an error initializing an OpenFabrics device.

  Local host:   cn667
  Local device: mlx5_0
--------------------------------------------------------------------------
--------------------------------------------------------------------------
WARNING: There was an error initializing an OpenFabrics device.

  Local host:   cn667
  Local device: mlx5_0
--------------------------------------------------------------------------
--------------------------------------------------------------------------
WARNING: There was an error initializing an OpenFabrics device.

  Local host:   cn667
  Local device: mlx5_0
--------------------------------------------------------------------------
--------------------------------------------------------------------------
WARNING: There was an error initializing an OpenFabrics device.

  Local host:   cn667
  Local device: mlx5_0
--------------------------------------------------------------------------
--------------------------------------------------------------------------
WARNING: There was an error initializing an OpenFabrics device.

  Local host:   cn667
  Local device: mlx5_0
--------------------------------------------------------------------------
--------------------------------------------------------------------------
WARNING: There was an error initializing an OpenFabrics device.

  Local host:   cn667
  Local device: mlx5_0
--------------------------------------------------------------------------
--------------------------------------------------------------------------
WARNING: There was an error initializing an OpenFabrics device.

  Local host:   cn667
  Local device: mlx5_0
--------------------------------------------------------------------------
--------------------------------------------------------------------------
WARNING: There was an error initializing an OpenFabrics device.

  Local host:   cn667
  Local device: mlx5_0
--------------------------------------------------------------------------
--------------------------------------------------------------------------
WARNING: There was an error initializing an OpenFabrics device.

  Local host:   cn667
  Local device: mlx5_0
--------------------------------------------------------------------------
--------------------------------------------------------------------------
WARNING: There was an error initializing an OpenFabrics device.

  Local host:   cn667
  Local device: mlx5_0
--------------------------------------------------------------------------
--------------------------------------------------------------------------
WARNING: There was an error initializing an OpenFabrics device.

  Local host:   cn667
  Local device: mlx5_0
--------------------------------------------------------------------------
--------------------------------------------------------------------------
WARNING: There was an error initializing an OpenFabrics device.

  Local host:   cn667
  Local device: mlx5_0
--------------------------------------------------------------------------
--------------------------------------------------------------------------
WARNING: There was an error initializing an OpenFabrics device.

  Local host:   cn667
  Local device: mlx5_0
--------------------------------------------------------------------------
--------------------------------------------------------------------------
WARNING: There was an error initializing an OpenFabrics device.

  Local host:   cn667
  Local device: mlx5_0
--------------------------------------------------------------------------
--------------------------------------------------------------------------
WARNING: There was an error initializing an OpenFabrics device.

  Local host:   cn667
  Local device: mlx5_0
--------------------------------------------------------------------------
--------------------------------------------------------------------------
WARNING: There was an error initializing an OpenFabrics device.

  Local host:   cn667
  Local device: mlx5_0
--------------------------------------------------------------------------
--------------------------------------------------------------------------
WARNING: There was an error initializing an OpenFabrics device.

  Local host:   cn667
  Local device: mlx5_0
--------------------------------------------------------------------------
--------------------------------------------------------------------------
WARNING: There was an error initializing an OpenFabrics device.

  Local host:   cn667
  Local device: mlx5_0
--------------------------------------------------------------------------
--------------------------------------------------------------------------
WARNING: There was an error initializing an OpenFabrics device.

  Local host:   cn667
  Local device: mlx5_0
--------------------------------------------------------------------------
--------------------------------------------------------------------------
WARNING: There was an error initializing an OpenFabrics device.

  Local host:   cn667
  Local device: mlx5_0
--------------------------------------------------------------------------
--------------------------------------------------------------------------
WARNING: There was an error initializing an OpenFabrics device.

  Local host:   cn667
  Local device: mlx5_0
--------------------------------------------------------------------------
--------------------------------------------------------------------------
WARNING: There was an error initializing an OpenFabrics device.

  Local host:   cn667
  Local device: mlx5_0
--------------------------------------------------------------------------
--------------------------------------------------------------------------
WARNING: There was an error initializing an OpenFabrics device.

  Local host:   cn667
  Local device: mlx5_0
--------------------------------------------------------------------------
--------------------------------------------------------------------------
WARNING: There was an error initializing an OpenFabrics device.

  Local host:   cn667
  Local device: mlx5_0
--------------------------------------------------------------------------
--------------------------------------------------------------------------
WARNING: There was an error initializing an OpenFabrics device.

  Local host:   cn667
  Local device: mlx5_0
--------------------------------------------------------------------------
--------------------------------------------------------------------------
WARNING: There was an error initializing an OpenFabrics device.

  Local host:   cn667
  Local device: mlx5_0
--------------------------------------------------------------------------
--------------------------------------------------------------------------
WARNING: There was an error initializing an OpenFabrics device.

  Local host:   cn667
  Local device: mlx5_0
--------------------------------------------------------------------------
--------------------------------------------------------------------------
WARNING: There was an error initializing an OpenFabrics device.

  Local host:   cn667
  Local device: mlx5_0
--------------------------------------------------------------------------
--------------------------------------------------------------------------
WARNING: There was an error initializing an OpenFabrics device.

  Local host:   cn667
  Local device: mlx5_0
--------------------------------------------------------------------------
--------------------------------------------------------------------------
WARNING: There was an error initializing an OpenFabrics device.

  Local host:   cn667
  Local device: mlx5_0
--------------------------------------------------------------------------
--------------------------------------------------------------------------
WARNING: There was an error initializing an OpenFabrics device.

  Local host:   cn667
  Local device: mlx5_0
--------------------------------------------------------------------------
--------------------------------------------------------------------------
WARNING: There was an error initializing an OpenFabrics device.

  Local host:   cn667
  Local device: mlx5_0
--------------------------------------------------------------------------
--------------------------------------------------------------------------
WARNING: There was an error initializing an OpenFabrics device.

  Local host:   cn667
  Local device: mlx5_0
--------------------------------------------------------------------------
--------------------------------------------------------------------------
WARNING: There was an error initializing an OpenFabrics device.

  Local host:   cn667
  Local device: mlx5_0
--------------------------------------------------------------------------
--------------------------------------------------------------------------
WARNING: There was an error initializing an OpenFabrics device.

  Local host:   cn667
  Local device: mlx5_0
--------------------------------------------------------------------------
--------------------------------------------------------------------------
WARNING: There was an error initializing an OpenFabrics device.

  Local host:   cn667
  Local device: mlx5_0
--------------------------------------------------------------------------
--------------------------------------------------------------------------
WARNING: There was an error initializing an OpenFabrics device.

  Local host:   cn667
  Local device: mlx5_0
--------------------------------------------------------------------------
--------------------------------------------------------------------------
WARNING: There was an error initializing an OpenFabrics device.

  Local host:   cn667
  Local device: mlx5_0
--------------------------------------------------------------------------
--------------------------------------------------------------------------
WARNING: There was an error initializing an OpenFabrics device.

  Local host:   cn667
  Local device: mlx5_0
--------------------------------------------------------------------------
SCF_NOT_CONV: SCF did not converge  in maximum number of steps.
Geom step, scf iteration, dDmax, dHmax:    0     5   1234.657410     0.006850
Job completed
