{
 "global_section": { "_calls": 1, "_time":     1309.260, "_%":   100.00,
   "siesta": { "_calls": 1, "_time":     1309.260, "_%":   100.00,
     "Setup": { "_calls": 1, "_time":        0.845, "_%":     0.06,
       "bands": { "_calls": 1, "_time":        0.002, "_%":     0.00},
       "KSV_init": { "_calls": 1, "_time":        0.000, "_%":     0.00}
     },
     "IterGeom": { "_calls": 1, "_time":     1308.128, "_%":    99.91,
       "geom_init": { "_calls": 1, "_time":       27.560, "_%":     2.11,
         "state_init": { "_calls": 1, "_time":        2.478, "_%":     0.19,
           "hsparse": { "_calls": 1, "_time":        0.124, "_%":     0.01},
           "overlap": { "_calls": 1, "_time":        2.071, "_%":     0.16}
         },
         "Setup_H0": { "_calls": 1, "_time":       25.081, "_%":     1.92,
           "naefs": { "_calls": 1, "_time":        0.017, "_%":     0.00},
           "dnaefs": { "_calls": 1, "_time":        0.009, "_%":     0.00},
           "MolMec": { "_calls": 1, "_time":        0.000, "_%":     0.00},
           "kinefsm": { "_calls": 1, "_time":        2.082, "_%":     0.16},
           "nlefsm": { "_calls": 1, "_time":        5.160, "_%":     0.39},
           "DHSCF_Init": { "_calls": 1, "_time":       17.813, "_%":     1.36,
             "DHSCF1": { "_calls": 1, "_time":        0.068, "_%":     0.01,
               "InitMesh": { "_calls": 1, "_time":        0.059, "_%":     0.00,
                 "INITMESH": { "_calls": 1, "_time":        0.000, "_%":     0.00}
               }
             },
             "DHSCF2": { "_calls": 1, "_time":       17.733, "_%":     1.35,
               "REMESH": { "_calls": 1, "_time":        0.834, "_%":     0.06,
                 "INITMESH": { "_calls": 2, "_time":        0.490, "_%":     0.04,
                   "BuildDISTR": { "_calls": 2, "_time":        0.489, "_%":     0.04,
                     "meshCom-Ca": { "_calls": 3, "_time":        0.000, "_%":     0.00}
                   }
                 }
               },
               "REORD": { "_calls": 2, "_time":        0.092, "_%":     0.01},
               "PHION": { "_calls": 1, "_time":        2.747, "_%":     0.21},
               "dscfComm": { "_calls": 1, "_time":        0.791, "_%":     0.06},
               "COMM_BSC": { "_calls": 1, "_time":        0.196, "_%":     0.01},
               "POISON": { "_calls": 1, "_time":       11.801, "_%":     0.90,
                 "fft": { "_calls": 2, "_time":       11.357, "_%":     0.87}
               }
             }
           }
         }
       },
       "IterSCF": { "_calls": 5, "_time":     1280.067, "_%":    97.77,
         "setup_H": { "_calls": 5, "_time":      111.118, "_%":     8.49,
           "DHSCF": { "_calls": 5, "_time":      110.605, "_%":     8.45,
             "DHSCF3": { "_calls": 5, "_time":      110.605, "_%":     8.45,
               "rhoofd": { "_calls": 5, "_time":        1.353, "_%":     0.10,
                 "OtoM": { "_calls": 5, "_time":        0.384, "_%":     0.03}
               },
               "COMM_BSC": { "_calls": 10, "_time":        1.476, "_%":     0.11},
               "POISON": { "_calls": 5, "_time":       57.433, "_%":     4.39,
                 "fft": { "_calls": 10, "_time":       55.105, "_%":     4.21}
               },
               "XC": { "_calls": 5, "_time":       44.206, "_%":     3.38,
                 "COMM_BSC": { "_calls": 10, "_time":        1.448, "_%":     0.11},
                 "GXC-CellXC": { "_calls": 5, "_time":       41.742, "_%":     3.19,
                   "gridxc@cellXC": { "_calls": 5, "_time":       41.742, "_%":     3.19}
                 }
               },
               "vmat": { "_calls": 5, "_time":        1.485, "_%":     0.11,
                 "MtoO": { "_calls": 5, "_time":        0.700, "_%":     0.05}
               }
             }
           }
         },
         "compute_dm": { "_calls": 5, "_time":     1168.899, "_%":    89.28,
           "elsi": { "_calls": 5, "_time":     1168.367, "_%":    89.24,
             "find nnz_g": { "_calls": 5, "_time":        0.000, "_%":     0.00},
             "elsi-solver": { "_calls": 5, "_time":     1168.354, "_%":    89.24}
           }
         },
         "MIXER": { "_calls": 5, "_time":        0.009, "_%":     0.00}
       },
       "state_analysis": { "_calls": 1, "_time":        0.033, "_%":     0.00},
       "siesta_move": { "_calls": 1, "_time":        0.000, "_%":     0.00}
     },
     "Analysis": { "_calls": 1, "_time":        0.200, "_%":     0.02,
       "optical": { "_calls": 1, "_time":        0.001, "_%":     0.00}
     }
   }
 }}
