JobID        JobIDRaw        JobName  Partition  MaxVMSize  MaxVMSizeNode  MaxVMSizeTask  AveVMSize     MaxRSS MaxRSSNode MaxRSSTask     AveRSS MaxPages MaxPagesNode   MaxPagesTask   AvePages     MinCPU MinCPUNode MinCPUTask     AveCPU   NTasks  AllocCPUS    Elapsed      State ExitCode AveCPUFreq ReqCPUFreqMin ReqCPUFreqMax ReqCPUFreqGov     ReqMem ConsumedEnergy  MaxDiskRead MaxDiskReadNode MaxDiskReadTask    AveDiskRead MaxDiskWrite MaxDiskWriteNode MaxDiskWriteTask   AveDiskWrite    ReqTRES  AllocTRES TRESUsageInAve TRESUsageInMax TRESUsageInMaxNode TRESUsageInMaxTask TRESUsageInMin TRESUsageInMinNode TRESUsageInMinTask TRESUsageInTot TRESUsageOutMax TRESUsageOutMaxNode TRESUsageOutMaxTask TRESUsageOutAve TRESUsageOutTot 
------------ ------------ ---------- ---------- ---------- -------------- -------------- ---------- ---------- ---------- ---------- ---------- -------- ------------ -------------- ---------- ---------- ---------- ---------- ---------- -------- ---------- ---------- ---------- -------- ---------- ------------- ------------- ------------- ---------- -------------- ------------ --------------- --------------- -------------- ------------ ---------------- ---------------- -------------- ---------- ---------- -------------- -------------- ------------------ ------------------ -------------- ------------------ ------------------ -------------- --------------- ------------------- ------------------- --------------- --------------- 
7249796      7249796      submit.job dcgp_usr_+                                                                                                                                                                                                            6272   00:07:04    RUNNING      0:0                  Unknown       Unknown       Unknown     26950G                                                                                                                                          billing=6+ billing=6+                                                                                                                                                                                                                                 
7249796.bat+ 7249796.bat+      batch                                                                                                                                                                                                               1        112   00:07:04    RUNNING      0:0          0             0             0             0                         0                                                                                                                                      cpu=112,g+                                                                                                                                                                                                                                 
7249796.ext+ 7249796.ext+     extern                                                                                                                                                                                                              56       6272   00:07:04    RUNNING      0:0          0             0             0             0                         0                                                                                                                                      billing=6+                                                                                                                                                                                                                                 
7249796.0    7249796.0    hydra_bst+              8646576K       lrdn3501              0    540411K   8350496K   lrdn3501          0    521906K     3948     lrdn3501              0        246   06:36:08   lrdn4890         15   08:38:32       16       1792   00:06:57  COMPLETED      0:0       956K       Unknown       Unknown       Unknown                         0        0.52M        lrdn4002               6          0.52M        0.60M         lrdn4070                7          0.52M            cpu=1792,+ cpu=08:38:32,+ cpu=10:31:27,+ cpu=lrdn4442,ener+ cpu=11,fs/disk=6,+ cpu=06:36:08,+ cpu=lrdn4890,ener+ cpu=15,fs/disk=11+ cpu=5-18:16:3+ energy=0,fs/di+ energy=lrdn4070,fs+           fs/disk=7 energy=0,fs/di+ energy=0,fs/di+ 
7249796.1    7249796.1    hydra_bst+              8690308K       lrdn3529              0 2966291797   8387264K   lrdn3529          0 2862852778     3775     lrdn3529              0       1258   08:13:38   lrdn3573          2   08:21:46        3        336   00:06:56  COMPLETED      0:0        30K       Unknown       Unknown       Unknown                         0        0.50M        lrdn3529               0          0.50M        0.12M         lrdn3532                1          0.12M            cpu=336,g+ cpu=08:21:46,+ cpu=08:31:36,+ cpu=lrdn3529,ener+ cpu=0,fs/disk=0,m+ cpu=08:13:38,+ cpu=lrdn3573,ener+ cpu=2,fs/disk=2,m+ cpu=1-01:05:1+ energy=0,fs/di+ energy=lrdn3532,fs+           fs/disk=1 energy=0,fs/di+ energy=0,fs/di+ 
7249796.2    7249796.2    hydra_bst+              8645416K       lrdn4699              0   4322708K   8351536K   lrdn4699          0   4175768K     3872     lrdn4699              0       1936   06:45:48   lrdn4720          1   06:46:06        2        224   00:06:56  COMPLETED      0:0       169K       Unknown       Unknown       Unknown                         0        0.50M        lrdn4720               1          0.50M        0.12M         lrdn4699                0          0.12M            cpu=224,g+ cpu=06:46:06,+ cpu=06:46:24,+ cpu=lrdn4699,ener+ cpu=0,fs/disk=1,m+ cpu=06:45:48,+ cpu=lrdn4720,ener+ cpu=1,fs/disk=0,m+ cpu=13:32:13,+ energy=0,fs/di+ energy=lrdn4699,fs+           fs/disk=0 energy=0,fs/di+ energy=0,fs/di+ 
7249796.3    7249796.3    hydra_bst+              8689656K       lrdn3612              0   2896552K   8386024K   lrdn3612          0 2862429525     3680     lrdn3612              0       1226   08:15:46   lrdn3665          2   08:24:40        3        336   00:06:56  COMPLETED      0:0        36K       Unknown       Unknown       Unknown                         0        0.50M        lrdn3665               2          0.50M        0.12M         lrdn3665                2          0.12M            cpu=336,g+ cpu=08:24:40,+ cpu=08:30:21,+ cpu=lrdn3612,ener+ cpu=0,fs/disk=2,m+ cpu=08:15:46,+ cpu=lrdn3665,ener+ cpu=2,fs/disk=1,m+ cpu=1-01:14:0+ energy=0,fs/di+ energy=lrdn3665,fs+           fs/disk=2 energy=0,fs/di+ energy=0,fs/di+ 
7249796.4    7249796.4    hydra_bst+             13669900K       lrdn4349              0   6834950K  11161596K   lrdn4349          0   5580798K     3747     lrdn4349              0       1873   10:29:46   lrdn4349          0   10:30:55        2        224   00:06:56  COMPLETED      0:0        11K       Unknown       Unknown       Unknown                         0        0.50M        lrdn4349               0          0.50M        0.12M         lrdn4349                0          0.12M            cpu=224,g+ cpu=10:30:55,+ cpu=10:32:05,+ cpu=lrdn4375,ener+ cpu=1,fs/disk=0,m+ cpu=10:29:46,+ cpu=lrdn4349,ener+ cpu=0,fs/disk=1,m+ cpu=21:01:51,+ energy=0,fs/di+ energy=lrdn4349,fs+           fs/disk=0 energy=0,fs/di+ energy=0,fs/di+ 
7249796.5    7249796.5    hydra_bst+              9950856K       lrdn4246              0   4975428K   8386928K   lrdn4246          0   4193464K     3818     lrdn4246              0       1909   10:27:52   lrdn4246          0   10:27:53        2        224   00:06:56  COMPLETED      0:0       113K       Unknown       Unknown       Unknown                         0        0.50M        lrdn4266               1          0.50M        0.12M         lrdn4246                0          0.12M            cpu=224,g+ cpu=10:27:53,+ cpu=10:27:53,+ cpu=lrdn4266,ener+ cpu=1,fs/disk=1,m+ cpu=10:27:52,+ cpu=lrdn4246,ener+ cpu=0,fs/disk=0,m+ cpu=20:55:46,+ energy=0,fs/di+ energy=lrdn4246,fs+           fs/disk=0 energy=0,fs/di+ energy=0,fs/di+ 
7249796.6    7249796.6    hydra_bst+              8689132K       lrdn3784              0 2965890389   8386680K   lrdn3784          0   2795560K     3925     lrdn3784              0       1308   08:30:38   lrdn3784          0   08:39:44        3        336   00:06:56  COMPLETED      0:0        10K       Unknown       Unknown       Unknown                         0        0.50M        lrdn3784               0          0.50M        0.12M         lrdn3787                1          0.12M            cpu=336,g+ cpu=08:39:44,+ cpu=08:46:30,+ cpu=lrdn3787,ener+ cpu=1,fs/disk=0,m+ cpu=08:30:38,+ cpu=lrdn3784,ener+ cpu=0,fs/disk=2,m+ cpu=1-01:59:1+ energy=0,fs/di+ energy=lrdn3787,fs+           fs/disk=1 energy=0,fs/di+ energy=0,fs/di+ 
7249796.7    7249796.7    hydra_bst+              8689348K       lrdn3704              0 2965964117   8386852K   lrdn3704          0 2862712149     3815     lrdn3704              0       1271   08:22:29   lrdn3704          0   08:26:12        3        336   00:06:56  COMPLETED      0:0        49K       Unknown       Unknown       Unknown                         0        0.50M        lrdn3704               0          0.50M        0.12M         lrdn3762                2          0.12M            cpu=336,g+ cpu=08:26:12,+ cpu=08:29:05,+ cpu=lrdn3762,ener+ cpu=2,fs/disk=0,m+ cpu=08:22:29,+ cpu=lrdn3704,ener+ cpu=0,fs/disk=2,m+ cpu=1-01:18:3+ energy=0,fs/di+ energy=lrdn3762,fs+           fs/disk=2 energy=0,fs/di+ energy=0,fs/di+ 
7249796.8    7249796.8    hydra_bst+              9869692K       lrdn3956              0 3368854869   8386108K   lrdn3956          0 2862458197     3805     lrdn3956              0       1268   08:53:59   lrdn3957          1   08:55:27        3        336   00:06:56  COMPLETED      0:0        15K       Unknown       Unknown       Unknown                         0        0.50M        lrdn3957               1          0.50M        0.12M         lrdn3992                2          0.12M            cpu=336,g+ cpu=08:55:27,+ cpu=08:56:49,+ cpu=lrdn3992,ener+ cpu=2,fs/disk=1,m+ cpu=08:53:59,+ cpu=lrdn3957,ener+ cpu=1,fs/disk=0,m+ cpu=1-02:46:2+ energy=0,fs/di+ energy=lrdn3992,fs+           fs/disk=2 energy=0,fs/di+ energy=0,fs/di+ 
7249796.9    7249796.9    hydra_bst+             13641696K       lrdn4187              0   6820848K  11133788K   lrdn4187          0   5566894K     3786     lrdn4187              0       1893   10:23:18   lrdn4187          0   10:25:51        2        224   00:06:56  COMPLETED      0:0        18K       Unknown       Unknown       Unknown                         0        0.51M        lrdn4195               1          0.50M        0.12M         lrdn4195                1          0.12M            cpu=224,g+ cpu=10:25:51,+ cpu=10:28:24,+ cpu=lrdn4195,ener+ cpu=1,fs/disk=1,m+ cpu=10:23:18,+ cpu=lrdn4187,ener+ cpu=0,fs/disk=0,m+ cpu=20:51:42,+ energy=0,fs/di+ energy=lrdn4187,fs+           fs/disk=1 energy=0,fs/di+ energy=0,fs/di+ 
7249796.10   7249796.10   hydra_bst+              9870904K       lrdn3894              0 3369268565   8386616K   lrdn3894          0 2862631594     3823     lrdn3894              0       1274   08:34:37   lrdn3894          0   08:40:26        3        336   00:06:56  COMPLETED      0:0        70K       Unknown       Unknown       Unknown                         0        0.50M        lrdn3894               0          0.50M        0.12M         lrdn3941                2          0.12M            cpu=336,g+ cpu=08:40:26,+ cpu=08:45:37,+ cpu=lrdn3941,ener+ cpu=2,fs/disk=0,m+ cpu=08:34:37,+ cpu=lrdn3894,ener+ cpu=0,fs/disk=1,m+ cpu=1-02:01:2+ energy=0,fs/di+ energy=lrdn3941,fs+           fs/disk=2 energy=0,fs/di+ energy=0,fs/di+ 
7249796.11   7249796.11   hydra_bst+              8690456K       lrdn4452              0   4345228K   8387224K   lrdn4452          0   4193612K     3826     lrdn4452              0       1913   07:20:05   lrdn4499          1   07:25:25        2        224   00:06:56  COMPLETED      0:0        28K       Unknown       Unknown       Unknown                         0        0.50M        lrdn4499               1          0.50M        0.12M         lrdn4452                0          0.12M            cpu=224,g+ cpu=07:25:25,+ cpu=07:30:45,+ cpu=lrdn4452,ener+ cpu=0,fs/disk=1,m+ cpu=07:20:05,+ cpu=lrdn4499,ener+ cpu=1,fs/disk=0,m+ cpu=14:50:51,+ energy=0,fs/di+ energy=lrdn4452,fs+           fs/disk=0 energy=0,fs/di+ energy=0,fs/di+ 
7249796.12   7249796.12   hydra_bst+              8645220K       lrdn4948              0   4322610K   8351080K   lrdn4948          0   4175540K     3846     lrdn4948              0       1923   06:34:42   lrdn4948          0   06:37:38        2        224   00:06:56  COMPLETED      0:0        56K       Unknown       Unknown       Unknown                         0        0.50M        lrdn4948               0          0.50M        0.12M         lrdn4974                1          0.12M            cpu=224,g+ cpu=06:37:38,+ cpu=06:40:34,+ cpu=lrdn4974,ener+ cpu=1,fs/disk=0,m+ cpu=06:34:42,+ cpu=lrdn4948,ener+ cpu=0,fs/disk=1,m+ cpu=13:15:16,+ energy=0,fs/di+ energy=lrdn4974,fs+           fs/disk=1 energy=0,fs/di+ energy=0,fs/di+ 
7249796.13   7249796.13   hydra_bst+              9876876K       lrdn4053              0   3292292K   8386884K   lrdn4053          0   2795628K     3848     lrdn4053              0       1282   08:46:46   lrdn4067          2   08:49:13        3        336   00:06:56  COMPLETED      0:0        51K       Unknown       Unknown       Unknown                         0        0.50M        lrdn4053               0          0.50M        0.12M         lrdn4053                0          0.12M            cpu=336,g+ cpu=08:49:13,+ cpu=08:51:41,+ cpu=lrdn4053,ener+ cpu=0,fs/disk=0,m+ cpu=08:46:46,+ cpu=lrdn4067,ener+ cpu=2,fs/disk=1,m+ cpu=1-02:27:3+ energy=0,fs/di+ energy=lrdn4053,fs+           fs/disk=0 energy=0,fs/di+ energy=0,fs/di+ 
7249796.14   7249796.14   hydra_bst+              8648448K       lrdn4570              0   4324224K   8350796K   lrdn4570          0   4175398K     3764     lrdn4570              0       1882   06:49:40   lrdn4623          1   06:50:47        2        224   00:06:56  COMPLETED      0:0        84K       Unknown       Unknown       Unknown                         0        0.50M        lrdn4623               1          0.50M        0.12M         lrdn4623                1          0.12M            cpu=224,g+ cpu=06:50:47,+ cpu=06:51:54,+ cpu=lrdn4570,ener+ cpu=0,fs/disk=1,m+ cpu=06:49:40,+ cpu=lrdn4623,ener+ cpu=1,fs/disk=0,m+ cpu=13:41:35,+ energy=0,fs/di+ energy=lrdn4623,fs+           fs/disk=1 energy=0,fs/di+ energy=0,fs/di+ 
7249796.15   7249796.15   hydra_bst+              8646416K       lrdn4828              0   4323208K   8351624K   lrdn4828          0   4175812K     3830     lrdn4828              0       1915   06:42:11   lrdn4855          1   06:42:23        2        224   00:06:56  COMPLETED      0:0       105K       Unknown       Unknown       Unknown                         0        0.50M        lrdn4855               1          0.50M        0.12M         lrdn4828                0          0.12M            cpu=224,g+ cpu=06:42:23,+ cpu=06:42:35,+ cpu=lrdn4828,ener+ cpu=0,fs/disk=1,m+ cpu=06:42:11,+ cpu=lrdn4855,ener+ cpu=1,fs/disk=0,m+ cpu=13:24:46,+ energy=0,fs/di+ energy=lrdn4828,fs+           fs/disk=0 energy=0,fs/di+ energy=0,fs/di+ 
7249796.16   7249796.16   hydra_bst+             10962688K       lrdn4129              0 3741930837   8993892K   lrdn4129          0   2997964K     3755     lrdn4129              0       1251   10:15:13   lrdn4157          2   10:18:16        3        336   00:06:56  COMPLETED      0:0        95K       Unknown       Unknown       Unknown                         0        0.50M        lrdn4129               0          0.50M        0.12M         lrdn4129                0          0.12M            cpu=336,g+ cpu=10:18:16,+ cpu=10:20:56,+ cpu=lrdn4129,ener+ cpu=0,fs/disk=0,m+ cpu=10:15:13,+ cpu=lrdn4157,ener+ cpu=2,fs/disk=1,m+ cpu=1-06:54:4+ energy=0,fs/di+ energy=lrdn4129,fs+           fs/disk=0 energy=0,fs/di+ energy=0,fs/di+ 
