JobId=7249796 JobName=submit.job
   UserId=nspallan(25378) GroupId=interactive(25200) MCS_label=N/A
   Priority=1031 Nice=0 Account=leap_107 QOS=qos_slowprio
   JobState=RUNNING Reason=None Dependency=(null)
   Requeue=0 Restarts=0 BatchFlag=1 Reboot=0 ExitCode=0:0
   DerivedExitCode=0:0
   RunTime=00:00:07 TimeLimit=06:00:00 TimeMin=N/A
   SubmitTime=2024-08-26T17:18:50 EligibleTime=2024-08-26T17:18:50
   AccrueTime=2024-08-26T17:18:50
   StartTime=2024-08-26T20:56:38 EndTime=2024-08-27T02:56:38 Deadline=N/A
   SuspendTime=None SecsPreSuspend=0 LastSchedEval=2024-08-26T20:56:38 Scheduler=Backfill
   Partition=dcgp_usr_prod AllocNode:Sid=slurm-controller:3757639
   ReqNodeList=(null) ExcNodeList=(null)
   NodeList=lrdn[3501,3529,3532,3573,3577,3612,3614,3665-3666,3704,3706,3762-3763,3784,3787,3857,3860,3894,3898,3941-3942,3956-3957,3992,4002,4053-4054,4067,4070,4129-4130,4157-4158,4187,4195,4244,4246,4266,4324,4349,4375,4442,4452,4499,4558,4570,4623,4639,4699,4720,4766,4828,4855,4890,4948,4974]
   BatchHost=lrdn3501
   NumNodes=56 NumCPUs=6272 NumTasks=448 CPUs/Task=14 ReqB:S:C:T=0:0:*:*
   TRES=cpu=6272,mem=26950G,node=56,billing=6272,gres/tmpfs=184717953466368
   Socks/Node=* NtasksPerN:B:S:C=8:0:4:* CoreSpec=*
   JOB_GRES=tmpfs:184717953466368
     Nodes=lrdn[3501,3529,3532,3573,3577,3612,3614,3665-3666,3704,3706,3762-3763,3784,3787,3857,3860,3894,3898,3941-3942,3956-3957,3992,4002,4053-4054,4067,4070,4129-4130,4157-4158,4187,4195,4244,4246,4266,4324,4349,4375,4442,4452,4499,4558,4570,4623,4639,4699,4720,4766,4828,4855,4890,4948,4974] CPU_IDs=0-111 Mem=492800 GRES=tmpfs(CNT:3298534883328)
   MinCPUsNode=112 MinMemoryCPU=4400M MinTmpDiskNode=0
   Features=(null) DelayBoot=00:00:00
   OverSubscribe=NO Contiguous=0 Licenses=(null) Network=(null)
   Command=/leonardo_work/EUHPC_E01_022/nspallan/benchmarks/strongscaling_dcgp_7k_8tpn/000000/000001_submit/work/submit.job
   WorkDir=/leonardo_work/EUHPC_E01_022/nspallan/benchmarks/strongscaling_dcgp_7k_8tpn/000000/000001_submit/work
   StdErr=/leonardo_work/EUHPC_E01_022/nspallan/benchmarks/strongscaling_dcgp_7k_8tpn/000000/000001_submit/work/slurm-7249796.out
   StdIn=/dev/null
   StdOut=/leonardo_work/EUHPC_E01_022/nspallan/benchmarks/strongscaling_dcgp_7k_8tpn/000000/000001_submit/work/slurm-7249796.out
   Power=
   TresPerNode=gres:tmpfs:10g
   

