{
 "global_section": { "_calls": 1, "_time":       88.480, "_%":   100.00,
   "siesta": { "_calls": 1, "_time":       88.480, "_%":   100.00,
     "Setup": { "_calls": 1, "_time":        2.064, "_%":     2.33,
       "bands": { "_calls": 1, "_time":        0.002, "_%":     0.00},
       "KSV_init": { "_calls": 1, "_time":        0.001, "_%":     0.00}
     },
     "IterGeom": { "_calls": 1, "_time":       86.233, "_%":    97.46,
       "geom_init": { "_calls": 1, "_time":       11.304, "_%":    12.78,
         "state_init": { "_calls": 1, "_time":        0.409, "_%":     0.46,
           "hsparse": { "_calls": 1, "_time":        0.124, "_%":     0.14},
           "overlap": { "_calls": 1, "_time":        0.063, "_%":     0.07}
         },
         "Setup_H0": { "_calls": 1, "_time":       10.893, "_%":    12.31,
           "naefs": { "_calls": 1, "_time":        0.022, "_%":     0.03},
           "MolMec": { "_calls": 1, "_time":        0.000, "_%":     0.00},
           "kinefsm": { "_calls": 1, "_time":        0.060, "_%":     0.07},
           "nlefsm": { "_calls": 1, "_time":        0.253, "_%":     0.29},
           "DHSCF_Init": { "_calls": 1, "_time":       10.543, "_%":    11.92,
             "DHSCF1": { "_calls": 1, "_time":        0.077, "_%":     0.09,
               "INITMESH": { "_calls": 1, "_time":        0.000, "_%":     0.00}
             },
             "DHSCF2": { "_calls": 1, "_time":       10.447, "_%":    11.81,
               "REMESH": { "_calls": 1, "_time":        0.076, "_%":     0.09,
                 "INITMESH": { "_calls": 2, "_time":        0.055, "_%":     0.06,
                   "SPLOAD": { "_calls": 2, "_time":        0.044, "_%":     0.05}
                 }
               },
               "REORD": { "_calls": 2, "_time":        0.047, "_%":     0.05},
               "PHION": { "_calls": 1, "_time":        0.316, "_%":     0.36},
               "COMM_BSC": { "_calls": 1, "_time":        0.221, "_%":     0.25},
               "POISON": { "_calls": 1, "_time":        9.082, "_%":    10.26,
                 "fft": { "_calls": 2, "_time":        8.697, "_%":     9.83}
               }
             }
           }
         }
       },
       "IterSCF": { "_calls": 5, "_time":       74.844, "_%":    84.59,
         "setup_H": { "_calls": 5, "_time":       68.176, "_%":    77.05,
           "DHSCF": { "_calls": 5, "_time":       67.908, "_%":    76.75,
             "DHSCF3": { "_calls": 5, "_time":       67.908, "_%":    76.75,
               "rhoofd": { "_calls": 5, "_time":        0.394, "_%":     0.45},
               "COMM_BSC": { "_calls": 10, "_time":        2.112, "_%":     2.39},
               "POISON": { "_calls": 5, "_time":       44.331, "_%":    50.10,
                 "fft": { "_calls": 10, "_time":       42.452, "_%":    47.98}
               },
               "XC": { "_calls": 5, "_time":       16.739, "_%":    18.92,
                 "COMM_BSC": { "_calls": 10, "_time":        2.369, "_%":     2.68},
                 "GXC-CellXC": { "_calls": 5, "_time":       13.846, "_%":    15.65,
                   "gridxc@cellXC": { "_calls": 5, "_time":       13.846, "_%":    15.65}
                 }
               },
               "vmat": { "_calls": 5, "_time":        0.288, "_%":     0.33}
             }
           }
         },
         "compute_dm": { "_calls": 5, "_time":        6.621, "_%":     7.48,
           "redist_orbs_fwd": { "_calls": 5, "_time":        0.012, "_%":     0.01},
           "elsi-complex-solver": { "_calls": 5, "_time":        6.577, "_%":     7.43,
             "elsi-solver": { "_calls": 5, "_time":        6.548, "_%":     7.40}
           },
           "redist_dm-edm_bck": { "_calls": 5, "_time":        0.010, "_%":     0.01}
         },
         "MIXER": { "_calls": 5, "_time":        0.027, "_%":     0.03}
       },
       "state_analysis": { "_calls": 1, "_time":        0.065, "_%":     0.07},
       "siesta_move": { "_calls": 1, "_time":        0.000, "_%":     0.00}
     },
     "Analysis": { "_calls": 1, "_time":        0.164, "_%":     0.19,
       "optical": { "_calls": 1, "_time":        0.001, "_%":     0.00}
     }
   }
 }}
