
     Program PWSCF v.7.3.1 starts on 13Sep2024 at 11:20:13 

     This program is part of the open-source Quantum ESPRESSO suite
     for quantum simulation of materials; please cite
         "P. Giannozzi et al., J. Phys.:Condens. Matter 21 395502 (2009);
         "P. Giannozzi et al., J. Phys.:Condens. Matter 29 465901 (2017);
         "P. Giannozzi et al., J. Chem. Phys. 152 154105 (2020);
          URL http://www.quantum-espresso.org", 
     in publications or presentations arising from this work. More details at
     http://www.quantum-espresso.org/quote

     Parallel version (MPI & OpenMP), running on     112 processor cores
     Number of MPI processes:               112
     Threads/MPI process:                     1

     MPI processes distributed on     1 nodes
     491584 MiB available memory on the printing compute node when the environment starts
 
     Reading input from cri3-480.in

     Current dimensions of program PWSCF are:
     Max number of different atomic species (ntypx) = 10
     Max number of k-points (npk) =  40000
     Max angular momentum in pseudopotentials (lmaxx) =  4
     Found identity + (  0.0000  0.0000  0.1000) symmetry
     This is a supercell, fractional translations are disabled
 
     R & G space division:  proc/nbgrp/npool/nimage =     112
     Subspace diagonalization in iterative solution of the eigenvalue problem:
     one sub-group per band group will be used
     scalapack distributed-memory algorithm (size of sub-group: 10* 10 procs)

 
     Parallelization info
     --------------------
     sticks:   dense  smooth     PW     G-vecs:    dense   smooth      PW
     Min         143     143     37                61191    61191    8063
     Max         144     144     38                61218    61218    8080
     Sum       16079   16079   4161              6854961  6854961  904069
 
     Using Slab Decomposition
 


     bravais-lattice index     =            8
     lattice parameter (alat)  =      22.4764  a.u.
     unit-cell volume          =  109172.3628 (a.u.)^3
     number of atoms/cell      =          480
     number of atomic types    =            2
     number of electrons       =      3240.00
     number of Kohn-Sham states=         1944
     kinetic-energy cutoff     =      60.0000  Ry
     charge density cutoff     =     240.0000  Ry
     scf convergence threshold =      1.0E-13
     mixing beta               =       0.3000
     number of iterations used =            8  plain     mixing
     Exchange-correlation= LDA
                           (   1   1   0   0   0   0   0)

     celldm(1)=  22.476439  celldm(2)=   1.665294  celldm(3)=   5.773500
     celldm(4)=   0.000000  celldm(5)=   0.000000  celldm(6)=   0.000000

     crystal axes: (cart. coord. in units of alat)
               a(1) = (   1.000000   0.000000   0.000000 )  
               a(2) = (   0.000000   1.665294   0.000000 )  
               a(3) = (   0.000000   0.000000   5.773500 )  

     reciprocal axes: (cart. coord. in units 2 pi/alat)
               b(1) = (  1.000000  0.000000  0.000000 )  
               b(2) = (  0.000000  0.600494  0.000000 )  
               b(3) = (  0.000000  0.000000  0.173205 )  


     PseudoPot. # 1 for Cr read from file:
     ./Cr_fr_lda.upf
     MD5 check sum: bc26a2efaced939fd2f5c24b9d100146
     Pseudo is Norm-conserving + core correction, Zval =  6.0
     Generated using "atomic" code by A. Dal Corso  v.5.0.99 svn rev. 10869
     Using radial grid of 1183 points,  2 beta functions with: 
                l(1) =   1
                l(2) =   2

     PseudoPot. # 2 for I  read from file:
     ./I_fr_lda.upf
     MD5 check sum: 3f9f7ad756f431920cbd00d77921ad7f
     Pseudo is Norm-conserving + core correction, Zval =  7.0
     Generated using "atomic" code by A. Dal Corso  v.5.0.99 svn rev. 10869
     Using radial grid of 1247 points,  2 beta functions with: 
                l(1) =   1
                l(2) =   2

     atomic species   valence    mass     pseudopotential
     Cr                6.00    51.99600     Cr( 1.00)
     I                 7.00   126.90450     I ( 1.00)

     Starting magnetic structure 
     atomic species   magnetization
     Cr              0.500
     I               0.000

      2 Sym. Ops., with inversion, found


                                    s                        frac. trans.

      isym =  1     identity                                     

 cryst.   s( 1) = (     1          0          0      )
                  (     0          1          0      )
                  (     0          0          1      )

 cart.    s( 1) = (  1.0000000  0.0000000  0.0000000 )
                  (  0.0000000  1.0000000  0.0000000 )
                  (  0.0000000  0.0000000  1.0000000 )


      isym =  2     inversion                                    

 cryst.   s( 2) = (    -1          0          0      )
                  (     0         -1          0      )
                  (     0          0         -1      )

 cart.    s( 2) = ( -1.0000000  0.0000000  0.0000000 )
                  (  0.0000000 -1.0000000  0.0000000 )
                  (  0.0000000  0.0000000 -1.0000000 )


     point group C_i (-1)   
     there are  2 classes
     the character table:

       E     i    
A_g    1.00  1.00
A_u    1.00 -1.00

     the symmetry operations in each class and the name of the first element:

     E        1
          identity                                               
     i        2
          inversion                                              

   Cartesian axes

     site n.     atom                  positions (alat units)
         1        Cr     tau(   1) = (   0.8333333   2.7754907   0.2886751  )
         2        Cr     tau(   2) = (   0.8333333   2.7754907   0.8660254  )
         3        Cr     tau(   3) = (   1.3333333   2.7754907   0.5773503  )
         4        Cr     tau(   4) = (   0.8333333   2.7754907   1.4433757  )
         5        Cr     tau(   5) = (   1.3333333   2.7754907   1.1547005  )
         6        Cr     tau(   6) = (   0.8333333   2.7754907   2.0207259  )
         7        Cr     tau(   7) = (   1.3333333   2.7754907   1.7320508  )
         8        Cr     tau(   8) = (   0.8333333   2.7754907   2.5980762  )
         9        Cr     tau(   9) = (   1.3333333   2.7754907   2.3094011  )
        10        Cr     tau(  10) = (   0.8333333   2.7754907   3.1754265  )
        11        Cr     tau(  11) = (   1.3333333   2.7754907   2.8867514  )
        12        Cr     tau(  12) = (   0.8333333   2.7754907   3.7527768  )
        13        Cr     tau(  13) = (   1.3333333   2.7754907   3.4641016  )
        14        Cr     tau(  14) = (   0.8333333   2.7754907   4.3301270  )
        15        Cr     tau(  15) = (   1.3333333   2.7754907   4.0414519  )
        16        Cr     tau(  16) = (   0.8333333   2.7754907   4.9074773  )
        17        Cr     tau(  17) = (   1.3333333   2.7754907   4.6188022  )
        18        Cr     tau(  18) = (   0.8333333   2.7754907   5.4848276  )
        19        Cr     tau(  19) = (   1.3333333   2.7754907   5.1961524  )
        20        Cr     tau(  20) = (   1.3333333   2.7754907   5.7735027  )
        21        Cr     tau(  21) = (   0.6666667   3.3305888   0.5773503  )
        22        Cr     tau(  22) = (   0.6666667   3.3305888   1.1547005  )
        23        Cr     tau(  23) = (   1.1666667   3.3305888   0.8660254  )
        24        Cr     tau(  24) = (   0.6666667   3.3305888   1.7320508  )
        25        Cr     tau(  25) = (   1.1666667   3.3305888   1.4433757  )
        26        Cr     tau(  26) = (   0.6666667   3.3305888   2.3094011  )
        27        Cr     tau(  27) = (   1.1666667   3.3305888   2.0207259  )
        28        Cr     tau(  28) = (   0.6666667   3.3305888   2.8867514  )
        29        Cr     tau(  29) = (   1.1666667   3.3305888   2.5980762  )
        30        Cr     tau(  30) = (   0.6666667   3.3305888   3.4641016  )
        31        Cr     tau(  31) = (   1.1666667   3.3305888   3.1754265  )
        32        Cr     tau(  32) = (   0.6666667   3.3305888   4.0414519  )
        33        Cr     tau(  33) = (   1.1666667   3.3305888   3.7527768  )
        34        Cr     tau(  34) = (   0.6666667   3.3305888   4.6188022  )
        35        Cr     tau(  35) = (   1.1666667   3.3305888   4.3301270  )
        36        Cr     tau(  36) = (   0.6666667   3.3305888   5.1961524  )
        37        Cr     tau(  37) = (   1.1666667   3.3305888   4.9074773  )
        38        Cr     tau(  38) = (   0.6666667   3.3305888   5.7735027  )
        39        Cr     tau(  39) = (   1.1666667   3.3305888   5.4848276  )
        40        Cr     tau(  40) = (   1.1666667   3.3305888   6.0621778  )
        41        Cr     tau(  41) = (   1.0000000   3.8856870   0.5773503  )
        42        Cr     tau(  42) = (   1.0000000   3.8856870   1.1547005  )
        43        Cr     tau(  43) = (   1.5000000   3.8856870   0.8660254  )
        44        Cr     tau(  44) = (   1.0000000   3.8856870   1.7320508  )
        45        Cr     tau(  45) = (   1.5000000   3.8856870   1.4433757  )
        46        Cr     tau(  46) = (   1.0000000   3.8856870   2.3094011  )
        47        Cr     tau(  47) = (   1.5000000   3.8856870   2.0207259  )
        48        Cr     tau(  48) = (   1.0000000   3.8856870   2.8867514  )
        49        Cr     tau(  49) = (   1.5000000   3.8856870   2.5980762  )
        50        Cr     tau(  50) = (   1.0000000   3.8856870   3.4641016  )
        51        Cr     tau(  51) = (   1.5000000   3.8856870   3.1754265  )
        52        Cr     tau(  52) = (   1.0000000   3.8856870   4.0414519  )
        53        Cr     tau(  53) = (   1.5000000   3.8856870   3.7527768  )
        54        Cr     tau(  54) = (   1.0000000   3.8856870   4.6188022  )
        55        Cr     tau(  55) = (   1.5000000   3.8856870   4.3301270  )
        56        Cr     tau(  56) = (   1.0000000   3.8856870   5.1961524  )
        57        Cr     tau(  57) = (   1.5000000   3.8856870   4.9074773  )
        58        Cr     tau(  58) = (   1.0000000   3.8856870   5.7735027  )
        59        Cr     tau(  59) = (   1.5000000   3.8856870   5.4848276  )
        60        Cr     tau(  60) = (   1.5000000   3.8856870   6.0621778  )
        61        Cr     tau(  61) = (   0.8333333   3.3305888   0.2886751  )
        62        Cr     tau(  62) = (   0.8333333   3.3305888   0.8660254  )
        63        Cr     tau(  63) = (   1.3333333   3.3305888   0.5773503  )
        64        Cr     tau(  64) = (   0.8333333   3.3305888   1.4433757  )
        65        Cr     tau(  65) = (   1.3333333   3.3305888   1.1547005  )
        66        Cr     tau(  66) = (   0.8333333   3.3305888   2.0207259  )
        67        Cr     tau(  67) = (   1.3333333   3.3305888   1.7320508  )
        68        Cr     tau(  68) = (   0.8333333   3.3305888   2.5980762  )
        69        Cr     tau(  69) = (   1.3333333   3.3305888   2.3094011  )
        70        Cr     tau(  70) = (   0.8333333   3.3305888   3.1754265  )
        71        Cr     tau(  71) = (   1.3333333   3.3305888   2.8867514  )
        72        Cr     tau(  72) = (   0.8333333   3.3305888   3.7527768  )
        73        Cr     tau(  73) = (   1.3333333   3.3305888   3.4641016  )
        74        Cr     tau(  74) = (   0.8333333   3.3305888   4.3301270  )
        75        Cr     tau(  75) = (   1.3333333   3.3305888   4.0414519  )
        76        Cr     tau(  76) = (   0.8333333   3.3305888   4.9074773  )
        77        Cr     tau(  77) = (   1.3333333   3.3305888   4.6188022  )
        78        Cr     tau(  78) = (   0.8333333   3.3305888   5.4848276  )
        79        Cr     tau(  79) = (   1.3333333   3.3305888   5.1961524  )
        80        Cr     tau(  80) = (   1.3333333   3.3305888   5.7735027  )
        81        Cr     tau(  81) = (   0.6666667   3.8856870   0.5773503  )
        82        Cr     tau(  82) = (   0.6666667   3.8856870   1.1547005  )
        83        Cr     tau(  83) = (   1.1666667   3.8856870   0.8660254  )
        84        Cr     tau(  84) = (   0.6666667   3.8856870   1.7320508  )
        85        Cr     tau(  85) = (   1.1666667   3.8856870   1.4433757  )
        86        Cr     tau(  86) = (   0.6666667   3.8856870   2.3094011  )
        87        Cr     tau(  87) = (   1.1666667   3.8856870   2.0207259  )
        88        Cr     tau(  88) = (   0.6666667   3.8856870   2.8867514  )
        89        Cr     tau(  89) = (   1.1666667   3.8856870   2.5980762  )
        90        Cr     tau(  90) = (   0.6666667   3.8856870   3.4641016  )
        91        Cr     tau(  91) = (   1.1666667   3.8856870   3.1754265  )
        92        Cr     tau(  92) = (   0.6666667   3.8856870   4.0414519  )
        93        Cr     tau(  93) = (   1.1666667   3.8856870   3.7527768  )
        94        Cr     tau(  94) = (   0.6666667   3.8856870   4.6188022  )
        95        Cr     tau(  95) = (   1.1666667   3.8856870   4.3301270  )
        96        Cr     tau(  96) = (   0.6666667   3.8856870   5.1961524  )
        97        Cr     tau(  97) = (   1.1666667   3.8856870   4.9074773  )
        98        Cr     tau(  98) = (   0.6666667   3.8856870   5.7735027  )
        99        Cr     tau(  99) = (   1.1666667   3.8856870   5.4848276  )
       100        Cr     tau( 100) = (   1.1666667   3.8856870   6.0621778  )
       101        Cr     tau( 101) = (   1.0000000   4.4407851   0.5773503  )
       102        Cr     tau( 102) = (   1.0000000   4.4407851   1.1547005  )
       103        Cr     tau( 103) = (   1.5000000   4.4407851   0.8660254  )
       104        Cr     tau( 104) = (   1.0000000   4.4407851   1.7320508  )
       105        Cr     tau( 105) = (   1.5000000   4.4407851   1.4433757  )
       106        Cr     tau( 106) = (   1.0000000   4.4407851   2.3094011  )
       107        Cr     tau( 107) = (   1.5000000   4.4407851   2.0207259  )
       108        Cr     tau( 108) = (   1.0000000   4.4407851   2.8867514  )
       109        Cr     tau( 109) = (   1.5000000   4.4407851   2.5980762  )
       110        Cr     tau( 110) = (   1.0000000   4.4407851   3.4641016  )
       111        Cr     tau( 111) = (   1.5000000   4.4407851   3.1754265  )
       112        Cr     tau( 112) = (   1.0000000   4.4407851   4.0414519  )
       113        Cr     tau( 113) = (   1.5000000   4.4407851   3.7527768  )
       114        Cr     tau( 114) = (   1.0000000   4.4407851   4.6188022  )
       115        Cr     tau( 115) = (   1.5000000   4.4407851   4.3301270  )
       116        Cr     tau( 116) = (   1.0000000   4.4407851   5.1961524  )
       117        Cr     tau( 117) = (   1.5000000   4.4407851   4.9074773  )
       118        Cr     tau( 118) = (   1.0000000   4.4407851   5.7735027  )
       119        Cr     tau( 119) = (   1.5000000   4.4407851   5.4848276  )
       120        Cr     tau( 120) = (   1.5000000   4.4407851   6.0621778  )
       121        I      tau( 121) = (   0.6666667   2.9115869   0.1924501  )
       122        I      tau( 122) = (   0.6666667   2.9115869   0.7698004  )
       123        I      tau( 123) = (   1.1666667   2.9115869   0.4811252  )
       124        I      tau( 124) = (   0.6666667   2.9115869   1.3471506  )
       125        I      tau( 125) = (   1.1666667   2.9115869   1.0584755  )
       126        I      tau( 126) = (   0.6666667   2.9115869   1.9245009  )
       127        I      tau( 127) = (   1.1666667   2.9115869   1.6358258  )
       128        I      tau( 128) = (   0.6666667   2.9115869   2.5018512  )
       129        I      tau( 129) = (   1.1666667   2.9115869   2.2131760  )
       130        I      tau( 130) = (   0.6666667   2.9115869   3.0792014  )
       131        I      tau( 131) = (   1.1666667   2.9115869   2.7905263  )
       132        I      tau( 132) = (   0.6666667   2.9115869   3.6565517  )
       133        I      tau( 133) = (   1.1666667   2.9115869   3.3678766  )
       134        I      tau( 134) = (   0.6666667   2.9115869   4.2339020  )
       135        I      tau( 135) = (   1.1666667   2.9115869   3.9452268  )
       136        I      tau( 136) = (   0.6666667   2.9115869   4.8112523  )
       137        I      tau( 137) = (   1.1666667   2.9115869   4.5225771  )
       138        I      tau( 138) = (   0.6666667   2.9115869   5.3886025  )
       139        I      tau( 139) = (   1.1666667   2.9115869   5.0999274  )
       140        I      tau( 140) = (   1.1666667   2.9115869   5.6772777  )
       141        I      tau( 141) = (   0.5000000   3.4666850   0.4811252  )
       142        I      tau( 142) = (   0.5000000   3.4666850   1.0584755  )
       143        I      tau( 143) = (   1.0000000   3.4666850   0.7698004  )
       144        I      tau( 144) = (   0.5000000   3.4666850   1.6358258  )
       145        I      tau( 145) = (   1.0000000   3.4666850   1.3471506  )
       146        I      tau( 146) = (   0.5000000   3.4666850   2.2131760  )
       147        I      tau( 147) = (   1.0000000   3.4666850   1.9245009  )
       148        I      tau( 148) = (   0.5000000   3.4666850   2.7905263  )
       149        I      tau( 149) = (   1.0000000   3.4666850   2.5018512  )
       150        I      tau( 150) = (   0.5000000   3.4666850   3.3678766  )
       151        I      tau( 151) = (   1.0000000   3.4666850   3.0792014  )
       152        I      tau( 152) = (   0.5000000   3.4666850   3.9452268  )
       153        I      tau( 153) = (   1.0000000   3.4666850   3.6565517  )
       154        I      tau( 154) = (   0.5000000   3.4666850   4.5225771  )
       155        I      tau( 155) = (   1.0000000   3.4666850   4.2339020  )
       156        I      tau( 156) = (   0.5000000   3.4666850   5.0999274  )
       157        I      tau( 157) = (   1.0000000   3.4666850   4.8112523  )
       158        I      tau( 158) = (   0.5000000   3.4666850   5.6772777  )
       159        I      tau( 159) = (   1.0000000   3.4666850   5.3886025  )
       160        I      tau( 160) = (   1.0000000   3.4666850   5.9659528  )
       161        I      tau( 161) = (   0.8333333   4.0217832   0.4811252  )
       162        I      tau( 162) = (   0.8333333   4.0217832   1.0584755  )
       163        I      tau( 163) = (   1.3333333   4.0217832   0.7698004  )
       164        I      tau( 164) = (   0.8333333   4.0217832   1.6358258  )
       165        I      tau( 165) = (   1.3333333   4.0217832   1.3471506  )
       166        I      tau( 166) = (   0.8333333   4.0217832   2.2131760  )
       167        I      tau( 167) = (   1.3333333   4.0217832   1.9245009  )
       168        I      tau( 168) = (   0.8333333   4.0217832   2.7905263  )
       169        I      tau( 169) = (   1.3333333   4.0217832   2.5018512  )
       170        I      tau( 170) = (   0.8333333   4.0217832   3.3678766  )
       171        I      tau( 171) = (   1.3333333   4.0217832   3.0792014  )
       172        I      tau( 172) = (   0.8333333   4.0217832   3.9452268  )
       173        I      tau( 173) = (   1.3333333   4.0217832   3.6565517  )
       174        I      tau( 174) = (   0.8333333   4.0217832   4.5225771  )
       175        I      tau( 175) = (   1.3333333   4.0217832   4.2339020  )
       176        I      tau( 176) = (   0.8333333   4.0217832   5.0999274  )
       177        I      tau( 177) = (   1.3333333   4.0217832   4.8112523  )
       178        I      tau( 178) = (   0.8333333   4.0217832   5.6772777  )
       179        I      tau( 179) = (   1.3333333   4.0217832   5.3886025  )
       180        I      tau( 180) = (   1.3333333   4.0217832   5.9659528  )
       181        I      tau( 181) = (   1.0000000   2.9115869   0.1924501  )
       182        I      tau( 182) = (   1.0000000   2.9115869   0.7698004  )
       183        I      tau( 183) = (   1.5000000   2.9115869   0.4811252  )
       184        I      tau( 184) = (   1.0000000   2.9115869   1.3471506  )
       185        I      tau( 185) = (   1.5000000   2.9115869   1.0584755  )
       186        I      tau( 186) = (   1.0000000   2.9115869   1.9245009  )
       187        I      tau( 187) = (   1.5000000   2.9115869   1.6358258  )
       188        I      tau( 188) = (   1.0000000   2.9115869   2.5018512  )
       189        I      tau( 189) = (   1.5000000   2.9115869   2.2131760  )
       190        I      tau( 190) = (   1.0000000   2.9115869   3.0792014  )
       191        I      tau( 191) = (   1.5000000   2.9115869   2.7905263  )
       192        I      tau( 192) = (   1.0000000   2.9115869   3.6565517  )
       193        I      tau( 193) = (   1.5000000   2.9115869   3.3678766  )
       194        I      tau( 194) = (   1.0000000   2.9115869   4.2339020  )
       195        I      tau( 195) = (   1.5000000   2.9115869   3.9452268  )
       196        I      tau( 196) = (   1.0000000   2.9115869   4.8112523  )
       197        I      tau( 197) = (   1.5000000   2.9115869   4.5225771  )
       198        I      tau( 198) = (   1.0000000   2.9115869   5.3886025  )
       199        I      tau( 199) = (   1.5000000   2.9115869   5.0999274  )
       200        I      tau( 200) = (   1.5000000   2.9115869   5.6772777  )
       201        I      tau( 201) = (   0.8333333   3.4666850   0.4811252  )
       202        I      tau( 202) = (   0.8333333   3.4666850   1.0584755  )
       203        I      tau( 203) = (   1.3333333   3.4666850   0.7698004  )
       204        I      tau( 204) = (   0.8333333   3.4666850   1.6358258  )
       205        I      tau( 205) = (   1.3333333   3.4666850   1.3471506  )
       206        I      tau( 206) = (   0.8333333   3.4666850   2.2131760  )
       207        I      tau( 207) = (   1.3333333   3.4666850   1.9245009  )
       208        I      tau( 208) = (   0.8333333   3.4666850   2.7905263  )
       209        I      tau( 209) = (   1.3333333   3.4666850   2.5018512  )
       210        I      tau( 210) = (   0.8333333   3.4666850   3.3678766  )
       211        I      tau( 211) = (   1.3333333   3.4666850   3.0792014  )
       212        I      tau( 212) = (   0.8333333   3.4666850   3.9452268  )
       213        I      tau( 213) = (   1.3333333   3.4666850   3.6565517  )
       214        I      tau( 214) = (   0.8333333   3.4666850   4.5225771  )
       215        I      tau( 215) = (   1.3333333   3.4666850   4.2339020  )
       216        I      tau( 216) = (   0.8333333   3.4666850   5.0999274  )
       217        I      tau( 217) = (   1.3333333   3.4666850   4.8112523  )
       218        I      tau( 218) = (   0.8333333   3.4666850   5.6772777  )
       219        I      tau( 219) = (   1.3333333   3.4666850   5.3886025  )
       220        I      tau( 220) = (   1.3333333   3.4666850   5.9659528  )
       221        I      tau( 221) = (   1.1666667   4.0217832   0.4811252  )
       222        I      tau( 222) = (   1.1666667   4.0217832   1.0584755  )
       223        I      tau( 223) = (   1.6666667   4.0217832   0.7698004  )
       224        I      tau( 224) = (   1.1666667   4.0217832   1.6358258  )
       225        I      tau( 225) = (   1.6666667   4.0217832   1.3471506  )
       226        I      tau( 226) = (   1.1666667   4.0217832   2.2131760  )
       227        I      tau( 227) = (   1.6666667   4.0217832   1.9245009  )
       228        I      tau( 228) = (   1.1666667   4.0217832   2.7905263  )
       229        I      tau( 229) = (   1.6666667   4.0217832   2.5018512  )
       230        I      tau( 230) = (   1.1666667   4.0217832   3.3678766  )
       231        I      tau( 231) = (   1.6666667   4.0217832   3.0792014  )
       232        I      tau( 232) = (   1.1666667   4.0217832   3.9452268  )
       233        I      tau( 233) = (   1.6666667   4.0217832   3.6565517  )
       234        I      tau( 234) = (   1.1666667   4.0217832   4.5225771  )
       235        I      tau( 235) = (   1.6666667   4.0217832   4.2339020  )
       236        I      tau( 236) = (   1.1666667   4.0217832   5.0999274  )
       237        I      tau( 237) = (   1.6666667   4.0217832   4.8112523  )
       238        I      tau( 238) = (   1.1666667   4.0217832   5.6772777  )
       239        I      tau( 239) = (   1.6666667   4.0217832   5.3886025  )
       240        I      tau( 240) = (   1.6666667   4.0217832   5.9659528  )
       241        I      tau( 241) = (   0.8333333   2.9115869   0.4811252  )
       242        I      tau( 242) = (   0.8333333   2.9115869   1.0584755  )
       243        I      tau( 243) = (   1.3333333   2.9115869   0.7698004  )
       244        I      tau( 244) = (   0.8333333   2.9115869   1.6358258  )
       245        I      tau( 245) = (   1.3333333   2.9115869   1.3471506  )
       246        I      tau( 246) = (   0.8333333   2.9115869   2.2131760  )
       247        I      tau( 247) = (   1.3333333   2.9115869   1.9245009  )
       248        I      tau( 248) = (   0.8333333   2.9115869   2.7905263  )
       249        I      tau( 249) = (   1.3333333   2.9115869   2.5018512  )
       250        I      tau( 250) = (   0.8333333   2.9115869   3.3678766  )
       251        I      tau( 251) = (   1.3333333   2.9115869   3.0792014  )
       252        I      tau( 252) = (   0.8333333   2.9115869   3.9452268  )
       253        I      tau( 253) = (   1.3333333   2.9115869   3.6565517  )
       254        I      tau( 254) = (   0.8333333   2.9115869   4.5225771  )
       255        I      tau( 255) = (   1.3333333   2.9115869   4.2339020  )
       256        I      tau( 256) = (   0.8333333   2.9115869   5.0999274  )
       257        I      tau( 257) = (   1.3333333   2.9115869   4.8112523  )
       258        I      tau( 258) = (   0.8333333   2.9115869   5.6772777  )
       259        I      tau( 259) = (   1.3333333   2.9115869   5.3886025  )
       260        I      tau( 260) = (   1.3333333   2.9115869   5.9659528  )
       261        I      tau( 261) = (   0.6666667   3.4666850   0.7698004  )
       262        I      tau( 262) = (   0.6666667   3.4666850   1.3471506  )
       263        I      tau( 263) = (   1.1666667   3.4666850   1.0584755  )
       264        I      tau( 264) = (   0.6666667   3.4666850   1.9245009  )
       265        I      tau( 265) = (   1.1666667   3.4666850   1.6358258  )
       266        I      tau( 266) = (   0.6666667   3.4666850   2.5018512  )
       267        I      tau( 267) = (   1.1666667   3.4666850   2.2131760  )
       268        I      tau( 268) = (   0.6666667   3.4666850   3.0792014  )
       269        I      tau( 269) = (   1.1666667   3.4666850   2.7905263  )
       270        I      tau( 270) = (   0.6666667   3.4666850   3.6565517  )
       271        I      tau( 271) = (   1.1666667   3.4666850   3.3678766  )
       272        I      tau( 272) = (   0.6666667   3.4666850   4.2339020  )
       273        I      tau( 273) = (   1.1666667   3.4666850   3.9452268  )
       274        I      tau( 274) = (   0.6666667   3.4666850   4.8112523  )
       275        I      tau( 275) = (   1.1666667   3.4666850   4.5225771  )
       276        I      tau( 276) = (   0.6666667   3.4666850   5.3886025  )
       277        I      tau( 277) = (   1.1666667   3.4666850   5.0999274  )
       278        I      tau( 278) = (   0.6666667   3.4666850   5.9659528  )
       279        I      tau( 279) = (   1.1666667   3.4666850   5.6772777  )
       280        I      tau( 280) = (   1.1666667   3.4666850   6.2546279  )
       281        I      tau( 281) = (   1.0000000   4.0217832   0.7698004  )
       282        I      tau( 282) = (   1.0000000   4.0217832   1.3471506  )
       283        I      tau( 283) = (   1.5000000   4.0217832   1.0584755  )
       284        I      tau( 284) = (   1.0000000   4.0217832   1.9245009  )
       285        I      tau( 285) = (   1.5000000   4.0217832   1.6358258  )
       286        I      tau( 286) = (   1.0000000   4.0217832   2.5018512  )
       287        I      tau( 287) = (   1.5000000   4.0217832   2.2131760  )
       288        I      tau( 288) = (   1.0000000   4.0217832   3.0792014  )
       289        I      tau( 289) = (   1.5000000   4.0217832   2.7905263  )
       290        I      tau( 290) = (   1.0000000   4.0217832   3.6565517  )
       291        I      tau( 291) = (   1.5000000   4.0217832   3.3678766  )
       292        I      tau( 292) = (   1.0000000   4.0217832   4.2339020  )
       293        I      tau( 293) = (   1.5000000   4.0217832   3.9452268  )
       294        I      tau( 294) = (   1.0000000   4.0217832   4.8112523  )
       295        I      tau( 295) = (   1.5000000   4.0217832   4.5225771  )
       296        I      tau( 296) = (   1.0000000   4.0217832   5.3886025  )
       297        I      tau( 297) = (   1.5000000   4.0217832   5.0999274  )
       298        I      tau( 298) = (   1.0000000   4.0217832   5.9659528  )
       299        I      tau( 299) = (   1.5000000   4.0217832   5.6772777  )
       300        I      tau( 300) = (   1.5000000   4.0217832   6.2546279  )
       301        I      tau( 301) = (   1.0000000   3.1944927   0.3849002  )
       302        I      tau( 302) = (   1.0000000   3.1944927   0.9622505  )
       303        I      tau( 303) = (   1.5000000   3.1944927   0.6735753  )
       304        I      tau( 304) = (   1.0000000   3.1944927   1.5396007  )
       305        I      tau( 305) = (   1.5000000   3.1944927   1.2509256  )
       306        I      tau( 306) = (   1.0000000   3.1944927   2.1169510  )
       307        I      tau( 307) = (   1.5000000   3.1944927   1.8282759  )
       308        I      tau( 308) = (   1.0000000   3.1944927   2.6943013  )
       309        I      tau( 309) = (   1.5000000   3.1944927   2.4056261  )
       310        I      tau( 310) = (   1.0000000   3.1944927   3.2716515  )
       311        I      tau( 311) = (   1.5000000   3.1944927   2.9829764  )
       312        I      tau( 312) = (   1.0000000   3.1944927   3.8490018  )
       313        I      tau( 313) = (   1.5000000   3.1944927   3.5603267  )
       314        I      tau( 314) = (   1.0000000   3.1944927   4.4263521  )
       315        I      tau( 315) = (   1.5000000   3.1944927   4.1376769  )
       316        I      tau( 316) = (   1.0000000   3.1944927   5.0037023  )
       317        I      tau( 317) = (   1.5000000   3.1944927   4.7150272  )
       318        I      tau( 318) = (   1.0000000   3.1944927   5.5810526  )
       319        I      tau( 319) = (   1.5000000   3.1944927   5.2923775  )
       320        I      tau( 320) = (   1.5000000   3.1944927   5.8697278  )
       321        I      tau( 321) = (   0.8333333   3.7495908   0.6735753  )
       322        I      tau( 322) = (   0.8333333   3.7495908   1.2509256  )
       323        I      tau( 323) = (   1.3333333   3.7495908   0.9622505  )
       324        I      tau( 324) = (   0.8333333   3.7495908   1.8282759  )
       325        I      tau( 325) = (   1.3333333   3.7495908   1.5396007  )
       326        I      tau( 326) = (   0.8333333   3.7495908   2.4056261  )
       327        I      tau( 327) = (   1.3333333   3.7495908   2.1169510  )
       328        I      tau( 328) = (   0.8333333   3.7495908   2.9829764  )
       329        I      tau( 329) = (   1.3333333   3.7495908   2.6943013  )
       330        I      tau( 330) = (   0.8333333   3.7495908   3.5603267  )
       331        I      tau( 331) = (   1.3333333   3.7495908   3.2716515  )
       332        I      tau( 332) = (   0.8333333   3.7495908   4.1376769  )
       333        I      tau( 333) = (   1.3333333   3.7495908   3.8490018  )
       334        I      tau( 334) = (   0.8333333   3.7495908   4.7150272  )
       335        I      tau( 335) = (   1.3333333   3.7495908   4.4263521  )
       336        I      tau( 336) = (   0.8333333   3.7495908   5.2923775  )
       337        I      tau( 337) = (   1.3333333   3.7495908   5.0037023  )
       338        I      tau( 338) = (   0.8333333   3.7495908   5.8697278  )
       339        I      tau( 339) = (   1.3333333   3.7495908   5.5810526  )
       340        I      tau( 340) = (   1.3333333   3.7495908   6.1584029  )
       341        I      tau( 341) = (   1.1666667   4.3046889   0.6735753  )
       342        I      tau( 342) = (   1.1666667   4.3046889   1.2509256  )
       343        I      tau( 343) = (   1.6666667   4.3046889   0.9622505  )
       344        I      tau( 344) = (   1.1666667   4.3046889   1.8282759  )
       345        I      tau( 345) = (   1.6666667   4.3046889   1.5396007  )
       346        I      tau( 346) = (   1.1666667   4.3046889   2.4056261  )
       347        I      tau( 347) = (   1.6666667   4.3046889   2.1169510  )
       348        I      tau( 348) = (   1.1666667   4.3046889   2.9829764  )
       349        I      tau( 349) = (   1.6666667   4.3046889   2.6943013  )
       350        I      tau( 350) = (   1.1666667   4.3046889   3.5603267  )
       351        I      tau( 351) = (   1.6666667   4.3046889   3.2716515  )
       352        I      tau( 352) = (   1.1666667   4.3046889   4.1376769  )
       353        I      tau( 353) = (   1.6666667   4.3046889   3.8490018  )
       354        I      tau( 354) = (   1.1666667   4.3046889   4.7150272  )
       355        I      tau( 355) = (   1.6666667   4.3046889   4.4263521  )
       356        I      tau( 356) = (   1.1666667   4.3046889   5.2923775  )
       357        I      tau( 357) = (   1.6666667   4.3046889   5.0037023  )
       358        I      tau( 358) = (   1.1666667   4.3046889   5.8697278  )
       359        I      tau( 359) = (   1.6666667   4.3046889   5.5810526  )
       360        I      tau( 360) = (   1.6666667   4.3046889   6.1584029  )
       361        I      tau( 361) = (   0.6666667   3.1944927   0.3849002  )
       362        I      tau( 362) = (   0.6666667   3.1944927   0.9622505  )
       363        I      tau( 363) = (   1.1666667   3.1944927   0.6735753  )
       364        I      tau( 364) = (   0.6666667   3.1944927   1.5396007  )
       365        I      tau( 365) = (   1.1666667   3.1944927   1.2509256  )
       366        I      tau( 366) = (   0.6666667   3.1944927   2.1169510  )
       367        I      tau( 367) = (   1.1666667   3.1944927   1.8282759  )
       368        I      tau( 368) = (   0.6666667   3.1944927   2.6943013  )
       369        I      tau( 369) = (   1.1666667   3.1944927   2.4056261  )
       370        I      tau( 370) = (   0.6666667   3.1944927   3.2716515  )
       371        I      tau( 371) = (   1.1666667   3.1944927   2.9829764  )
       372        I      tau( 372) = (   0.6666667   3.1944927   3.8490018  )
       373        I      tau( 373) = (   1.1666667   3.1944927   3.5603267  )
       374        I      tau( 374) = (   0.6666667   3.1944927   4.4263521  )
       375        I      tau( 375) = (   1.1666667   3.1944927   4.1376769  )
       376        I      tau( 376) = (   0.6666667   3.1944927   5.0037023  )
       377        I      tau( 377) = (   1.1666667   3.1944927   4.7150272  )
       378        I      tau( 378) = (   0.6666667   3.1944927   5.5810526  )
       379        I      tau( 379) = (   1.1666667   3.1944927   5.2923775  )
       380        I      tau( 380) = (   1.1666667   3.1944927   5.8697278  )
       381        I      tau( 381) = (   0.5000000   3.7495908   0.6735753  )
       382        I      tau( 382) = (   0.5000000   3.7495908   1.2509256  )
       383        I      tau( 383) = (   1.0000000   3.7495908   0.9622505  )
       384        I      tau( 384) = (   0.5000000   3.7495908   1.8282759  )
       385        I      tau( 385) = (   1.0000000   3.7495908   1.5396007  )
       386        I      tau( 386) = (   0.5000000   3.7495908   2.4056261  )
       387        I      tau( 387) = (   1.0000000   3.7495908   2.1169510  )
       388        I      tau( 388) = (   0.5000000   3.7495908   2.9829764  )
       389        I      tau( 389) = (   1.0000000   3.7495908   2.6943013  )
       390        I      tau( 390) = (   0.5000000   3.7495908   3.5603267  )
       391        I      tau( 391) = (   1.0000000   3.7495908   3.2716515  )
       392        I      tau( 392) = (   0.5000000   3.7495908   4.1376769  )
       393        I      tau( 393) = (   1.0000000   3.7495908   3.8490018  )
       394        I      tau( 394) = (   0.5000000   3.7495908   4.7150272  )
       395        I      tau( 395) = (   1.0000000   3.7495908   4.4263521  )
       396        I      tau( 396) = (   0.5000000   3.7495908   5.2923775  )
       397        I      tau( 397) = (   1.0000000   3.7495908   5.0037023  )
       398        I      tau( 398) = (   0.5000000   3.7495908   5.8697278  )
       399        I      tau( 399) = (   1.0000000   3.7495908   5.5810526  )
       400        I      tau( 400) = (   1.0000000   3.7495908   6.1584029  )
       401        I      tau( 401) = (   0.8333333   4.3046889   0.6735753  )
       402        I      tau( 402) = (   0.8333333   4.3046889   1.2509256  )
       403        I      tau( 403) = (   1.3333333   4.3046889   0.9622505  )
       404        I      tau( 404) = (   0.8333333   4.3046889   1.8282759  )
       405        I      tau( 405) = (   1.3333333   4.3046889   1.5396007  )
       406        I      tau( 406) = (   0.8333333   4.3046889   2.4056261  )
       407        I      tau( 407) = (   1.3333333   4.3046889   2.1169510  )
       408        I      tau( 408) = (   0.8333333   4.3046889   2.9829764  )
       409        I      tau( 409) = (   1.3333333   4.3046889   2.6943013  )
       410        I      tau( 410) = (   0.8333333   4.3046889   3.5603267  )
       411        I      tau( 411) = (   1.3333333   4.3046889   3.2716515  )
       412        I      tau( 412) = (   0.8333333   4.3046889   4.1376769  )
       413        I      tau( 413) = (   1.3333333   4.3046889   3.8490018  )
       414        I      tau( 414) = (   0.8333333   4.3046889   4.7150272  )
       415        I      tau( 415) = (   1.3333333   4.3046889   4.4263521  )
       416        I      tau( 416) = (   0.8333333   4.3046889   5.2923775  )
       417        I      tau( 417) = (   1.3333333   4.3046889   5.0037023  )
       418        I      tau( 418) = (   0.8333333   4.3046889   5.8697278  )
       419        I      tau( 419) = (   1.3333333   4.3046889   5.5810526  )
       420        I      tau( 420) = (   1.3333333   4.3046889   6.1584029  )
       421        I      tau( 421) = (   0.8333333   3.1944927   0.0962250  )
       422        I      tau( 422) = (   0.8333333   3.1944927   0.6735753  )
       423        I      tau( 423) = (   1.3333333   3.1944927   0.3849002  )
       424        I      tau( 424) = (   0.8333333   3.1944927   1.2509256  )
       425        I      tau( 425) = (   1.3333333   3.1944927   0.9622505  )
       426        I      tau( 426) = (   0.8333333   3.1944927   1.8282759  )
       427        I      tau( 427) = (   1.3333333   3.1944927   1.5396007  )
       428        I      tau( 428) = (   0.8333333   3.1944927   2.4056261  )
       429        I      tau( 429) = (   1.3333333   3.1944927   2.1169510  )
       430        I      tau( 430) = (   0.8333333   3.1944927   2.9829764  )
       431        I      tau( 431) = (   1.3333333   3.1944927   2.6943013  )
       432        I      tau( 432) = (   0.8333333   3.1944927   3.5603267  )
       433        I      tau( 433) = (   1.3333333   3.1944927   3.2716515  )
       434        I      tau( 434) = (   0.8333333   3.1944927   4.1376769  )
       435        I      tau( 435) = (   1.3333333   3.1944927   3.8490018  )
       436        I      tau( 436) = (   0.8333333   3.1944927   4.7150272  )
       437        I      tau( 437) = (   1.3333333   3.1944927   4.4263521  )
       438        I      tau( 438) = (   0.8333333   3.1944927   5.2923775  )
       439        I      tau( 439) = (   1.3333333   3.1944927   5.0037023  )
       440        I      tau( 440) = (   1.3333333   3.1944927   5.5810526  )
       441        I      tau( 441) = (   0.6666667   3.7495908   0.3849002  )
       442        I      tau( 442) = (   0.6666667   3.7495908   0.9622505  )
       443        I      tau( 443) = (   1.1666667   3.7495908   0.6735753  )
       444        I      tau( 444) = (   0.6666667   3.7495908   1.5396007  )
       445        I      tau( 445) = (   1.1666667   3.7495908   1.2509256  )
       446        I      tau( 446) = (   0.6666667   3.7495908   2.1169510  )
       447        I      tau( 447) = (   1.1666667   3.7495908   1.8282759  )
       448        I      tau( 448) = (   0.6666667   3.7495908   2.6943013  )
       449        I      tau( 449) = (   1.1666667   3.7495908   2.4056261  )
       450        I      tau( 450) = (   0.6666667   3.7495908   3.2716515  )
       451        I      tau( 451) = (   1.1666667   3.7495908   2.9829764  )
       452        I      tau( 452) = (   0.6666667   3.7495908   3.8490018  )
       453        I      tau( 453) = (   1.1666667   3.7495908   3.5603267  )
       454        I      tau( 454) = (   0.6666667   3.7495908   4.4263521  )
       455        I      tau( 455) = (   1.1666667   3.7495908   4.1376769  )
       456        I      tau( 456) = (   0.6666667   3.7495908   5.0037023  )
       457        I      tau( 457) = (   1.1666667   3.7495908   4.7150272  )
       458        I      tau( 458) = (   0.6666667   3.7495908   5.5810526  )
       459        I      tau( 459) = (   1.1666667   3.7495908   5.2923775  )
       460        I      tau( 460) = (   1.1666667   3.7495908   5.8697278  )
       461        I      tau( 461) = (   1.0000000   4.3046889   0.3849002  )
       462        I      tau( 462) = (   1.0000000   4.3046889   0.9622505  )
       463        I      tau( 463) = (   1.5000000   4.3046889   0.6735753  )
       464        I      tau( 464) = (   1.0000000   4.3046889   1.5396007  )
       465        I      tau( 465) = (   1.5000000   4.3046889   1.2509256  )
       466        I      tau( 466) = (   1.0000000   4.3046889   2.1169510  )
       467        I      tau( 467) = (   1.5000000   4.3046889   1.8282759  )
       468        I      tau( 468) = (   1.0000000   4.3046889   2.6943013  )
       469        I      tau( 469) = (   1.5000000   4.3046889   2.4056261  )
       470        I      tau( 470) = (   1.0000000   4.3046889   3.2716515  )
       471        I      tau( 471) = (   1.5000000   4.3046889   2.9829764  )
       472        I      tau( 472) = (   1.0000000   4.3046889   3.8490018  )
       473        I      tau( 473) = (   1.5000000   4.3046889   3.5603267  )
       474        I      tau( 474) = (   1.0000000   4.3046889   4.4263521  )
       475        I      tau( 475) = (   1.5000000   4.3046889   4.1376769  )
       476        I      tau( 476) = (   1.0000000   4.3046889   5.0037023  )
       477        I      tau( 477) = (   1.5000000   4.3046889   4.7150272  )
       478        I      tau( 478) = (   1.0000000   4.3046889   5.5810526  )
       479        I      tau( 479) = (   1.5000000   4.3046889   5.2923775  )
       480        I      tau( 480) = (   1.5000000   4.3046889   5.8697278  )

   Crystallographic axes

     site n.     atom                  positions (cryst. coord.)
         1        Cr     tau(   1) = (  0.8333333  1.6666667  0.0500000  )
         2        Cr     tau(   2) = (  0.8333333  1.6666667  0.1500001  )
         3        Cr     tau(   3) = (  1.3333333  1.6666667  0.1000000  )
         4        Cr     tau(   4) = (  0.8333333  1.6666667  0.2500001  )
         5        Cr     tau(   5) = (  1.3333333  1.6666667  0.2000001  )
         6        Cr     tau(   6) = (  0.8333333  1.6666667  0.3500002  )
         7        Cr     tau(   7) = (  1.3333333  1.6666667  0.3000001  )
         8        Cr     tau(   8) = (  0.8333333  1.6666667  0.4500002  )
         9        Cr     tau(   9) = (  1.3333333  1.6666667  0.4000002  )
        10        Cr     tau(  10) = (  0.8333333  1.6666667  0.5500003  )
        11        Cr     tau(  11) = (  1.3333333  1.6666667  0.5000002  )
        12        Cr     tau(  12) = (  0.8333333  1.6666667  0.6500003  )
        13        Cr     tau(  13) = (  1.3333333  1.6666667  0.6000003  )
        14        Cr     tau(  14) = (  0.8333333  1.6666667  0.7500004  )
        15        Cr     tau(  15) = (  1.3333333  1.6666667  0.7000003  )
        16        Cr     tau(  16) = (  0.8333333  1.6666667  0.8500004  )
        17        Cr     tau(  17) = (  1.3333333  1.6666667  0.8000004  )
        18        Cr     tau(  18) = (  0.8333333  1.6666667  0.9500004  )
        19        Cr     tau(  19) = (  1.3333333  1.6666667  0.9000004  )
        20        Cr     tau(  20) = (  1.3333333  1.6666667  1.0000005  )
        21        Cr     tau(  21) = (  0.6666667  2.0000000  0.1000000  )
        22        Cr     tau(  22) = (  0.6666667  2.0000000  0.2000001  )
        23        Cr     tau(  23) = (  1.1666667  2.0000000  0.1500001  )
        24        Cr     tau(  24) = (  0.6666667  2.0000000  0.3000001  )
        25        Cr     tau(  25) = (  1.1666667  2.0000000  0.2500001  )
        26        Cr     tau(  26) = (  0.6666667  2.0000000  0.4000002  )
        27        Cr     tau(  27) = (  1.1666667  2.0000000  0.3500002  )
        28        Cr     tau(  28) = (  0.6666667  2.0000000  0.5000002  )
        29        Cr     tau(  29) = (  1.1666667  2.0000000  0.4500002  )
        30        Cr     tau(  30) = (  0.6666667  2.0000000  0.6000003  )
        31        Cr     tau(  31) = (  1.1666667  2.0000000  0.5500003  )
        32        Cr     tau(  32) = (  0.6666667  2.0000000  0.7000003  )
        33        Cr     tau(  33) = (  1.1666667  2.0000000  0.6500003  )
        34        Cr     tau(  34) = (  0.6666667  2.0000000  0.8000004  )
        35        Cr     tau(  35) = (  1.1666667  2.0000000  0.7500004  )
        36        Cr     tau(  36) = (  0.6666667  2.0000000  0.9000004  )
        37        Cr     tau(  37) = (  1.1666667  2.0000000  0.8500004  )
        38        Cr     tau(  38) = (  0.6666667  2.0000000  1.0000005  )
        39        Cr     tau(  39) = (  1.1666667  2.0000000  0.9500004  )
        40        Cr     tau(  40) = (  1.1666667  2.0000000  1.0500005  )
        41        Cr     tau(  41) = (  1.0000000  2.3333334  0.1000000  )
        42        Cr     tau(  42) = (  1.0000000  2.3333334  0.2000001  )
        43        Cr     tau(  43) = (  1.5000000  2.3333334  0.1500001  )
        44        Cr     tau(  44) = (  1.0000000  2.3333334  0.3000001  )
        45        Cr     tau(  45) = (  1.5000000  2.3333334  0.2500001  )
        46        Cr     tau(  46) = (  1.0000000  2.3333334  0.4000002  )
        47        Cr     tau(  47) = (  1.5000000  2.3333334  0.3500002  )
        48        Cr     tau(  48) = (  1.0000000  2.3333334  0.5000002  )
        49        Cr     tau(  49) = (  1.5000000  2.3333334  0.4500002  )
        50        Cr     tau(  50) = (  1.0000000  2.3333334  0.6000003  )
        51        Cr     tau(  51) = (  1.5000000  2.3333334  0.5500003  )
        52        Cr     tau(  52) = (  1.0000000  2.3333334  0.7000003  )
        53        Cr     tau(  53) = (  1.5000000  2.3333334  0.6500003  )
        54        Cr     tau(  54) = (  1.0000000  2.3333334  0.8000004  )
        55        Cr     tau(  55) = (  1.5000000  2.3333334  0.7500004  )
        56        Cr     tau(  56) = (  1.0000000  2.3333334  0.9000004  )
        57        Cr     tau(  57) = (  1.5000000  2.3333334  0.8500004  )
        58        Cr     tau(  58) = (  1.0000000  2.3333334  1.0000005  )
        59        Cr     tau(  59) = (  1.5000000  2.3333334  0.9500004  )
        60        Cr     tau(  60) = (  1.5000000  2.3333334  1.0500005  )
        61        Cr     tau(  61) = (  0.8333333  2.0000000  0.0500000  )
        62        Cr     tau(  62) = (  0.8333333  2.0000000  0.1500001  )
        63        Cr     tau(  63) = (  1.3333333  2.0000000  0.1000000  )
        64        Cr     tau(  64) = (  0.8333333  2.0000000  0.2500001  )
        65        Cr     tau(  65) = (  1.3333333  2.0000000  0.2000001  )
        66        Cr     tau(  66) = (  0.8333333  2.0000000  0.3500002  )
        67        Cr     tau(  67) = (  1.3333333  2.0000000  0.3000001  )
        68        Cr     tau(  68) = (  0.8333333  2.0000000  0.4500002  )
        69        Cr     tau(  69) = (  1.3333333  2.0000000  0.4000002  )
        70        Cr     tau(  70) = (  0.8333333  2.0000000  0.5500003  )
        71        Cr     tau(  71) = (  1.3333333  2.0000000  0.5000002  )
        72        Cr     tau(  72) = (  0.8333333  2.0000000  0.6500003  )
        73        Cr     tau(  73) = (  1.3333333  2.0000000  0.6000003  )
        74        Cr     tau(  74) = (  0.8333333  2.0000000  0.7500004  )
        75        Cr     tau(  75) = (  1.3333333  2.0000000  0.7000003  )
        76        Cr     tau(  76) = (  0.8333333  2.0000000  0.8500004  )
        77        Cr     tau(  77) = (  1.3333333  2.0000000  0.8000004  )
        78        Cr     tau(  78) = (  0.8333333  2.0000000  0.9500004  )
        79        Cr     tau(  79) = (  1.3333333  2.0000000  0.9000004  )
        80        Cr     tau(  80) = (  1.3333333  2.0000000  1.0000005  )
        81        Cr     tau(  81) = (  0.6666667  2.3333334  0.1000000  )
        82        Cr     tau(  82) = (  0.6666667  2.3333334  0.2000001  )
        83        Cr     tau(  83) = (  1.1666667  2.3333334  0.1500001  )
        84        Cr     tau(  84) = (  0.6666667  2.3333334  0.3000001  )
        85        Cr     tau(  85) = (  1.1666667  2.3333334  0.2500001  )
        86        Cr     tau(  86) = (  0.6666667  2.3333334  0.4000002  )
        87        Cr     tau(  87) = (  1.1666667  2.3333334  0.3500002  )
        88        Cr     tau(  88) = (  0.6666667  2.3333334  0.5000002  )
        89        Cr     tau(  89) = (  1.1666667  2.3333334  0.4500002  )
        90        Cr     tau(  90) = (  0.6666667  2.3333334  0.6000003  )
        91        Cr     tau(  91) = (  1.1666667  2.3333334  0.5500003  )
        92        Cr     tau(  92) = (  0.6666667  2.3333334  0.7000003  )
        93        Cr     tau(  93) = (  1.1666667  2.3333334  0.6500003  )
        94        Cr     tau(  94) = (  0.6666667  2.3333334  0.8000004  )
        95        Cr     tau(  95) = (  1.1666667  2.3333334  0.7500004  )
        96        Cr     tau(  96) = (  0.6666667  2.3333334  0.9000004  )
        97        Cr     tau(  97) = (  1.1666667  2.3333334  0.8500004  )
        98        Cr     tau(  98) = (  0.6666667  2.3333334  1.0000005  )
        99        Cr     tau(  99) = (  1.1666667  2.3333334  0.9500004  )
       100        Cr     tau( 100) = (  1.1666667  2.3333334  1.0500005  )
       101        Cr     tau( 101) = (  1.0000000  2.6666667  0.1000000  )
       102        Cr     tau( 102) = (  1.0000000  2.6666667  0.2000001  )
       103        Cr     tau( 103) = (  1.5000000  2.6666667  0.1500001  )
       104        Cr     tau( 104) = (  1.0000000  2.6666667  0.3000001  )
       105        Cr     tau( 105) = (  1.5000000  2.6666667  0.2500001  )
       106        Cr     tau( 106) = (  1.0000000  2.6666667  0.4000002  )
       107        Cr     tau( 107) = (  1.5000000  2.6666667  0.3500002  )
       108        Cr     tau( 108) = (  1.0000000  2.6666667  0.5000002  )
       109        Cr     tau( 109) = (  1.5000000  2.6666667  0.4500002  )
       110        Cr     tau( 110) = (  1.0000000  2.6666667  0.6000003  )
       111        Cr     tau( 111) = (  1.5000000  2.6666667  0.5500003  )
       112        Cr     tau( 112) = (  1.0000000  2.6666667  0.7000003  )
       113        Cr     tau( 113) = (  1.5000000  2.6666667  0.6500003  )
       114        Cr     tau( 114) = (  1.0000000  2.6666667  0.8000004  )
       115        Cr     tau( 115) = (  1.5000000  2.6666667  0.7500004  )
       116        Cr     tau( 116) = (  1.0000000  2.6666667  0.9000004  )
       117        Cr     tau( 117) = (  1.5000000  2.6666667  0.8500004  )
       118        Cr     tau( 118) = (  1.0000000  2.6666667  1.0000005  )
       119        Cr     tau( 119) = (  1.5000000  2.6666667  0.9500004  )
       120        Cr     tau( 120) = (  1.5000000  2.6666667  1.0500005  )
       121        I      tau( 121) = (  0.6666667  1.7483917  0.0333333  )
       122        I      tau( 122) = (  0.6666667  1.7483917  0.1333334  )
       123        I      tau( 123) = (  1.1666667  1.7483917  0.0833334  )
       124        I      tau( 124) = (  0.6666667  1.7483917  0.2333334  )
       125        I      tau( 125) = (  1.1666667  1.7483917  0.1833334  )
       126        I      tau( 126) = (  0.6666667  1.7483917  0.3333335  )
       127        I      tau( 127) = (  1.1666667  1.7483917  0.2833335  )
       128        I      tau( 128) = (  0.6666667  1.7483917  0.4333335  )
       129        I      tau( 129) = (  1.1666667  1.7483917  0.3833335  )
       130        I      tau( 130) = (  0.6666667  1.7483917  0.5333336  )
       131        I      tau( 131) = (  1.1666667  1.7483917  0.4833336  )
       132        I      tau( 132) = (  0.6666667  1.7483917  0.6333336  )
       133        I      tau( 133) = (  1.1666667  1.7483917  0.5833336  )
       134        I      tau( 134) = (  0.6666667  1.7483917  0.7333337  )
       135        I      tau( 135) = (  1.1666667  1.7483917  0.6833337  )
       136        I      tau( 136) = (  0.6666667  1.7483917  0.8333337  )
       137        I      tau( 137) = (  1.1666667  1.7483917  0.7833337  )
       138        I      tau( 138) = (  0.6666667  1.7483917  0.9333338  )
       139        I      tau( 139) = (  1.1666667  1.7483917  0.8833337  )
       140        I      tau( 140) = (  1.1666667  1.7483917  0.9833338  )
       141        I      tau( 141) = (  0.5000000  2.0817250  0.0833334  )
       142        I      tau( 142) = (  0.5000000  2.0817250  0.1833334  )
       143        I      tau( 143) = (  1.0000000  2.0817250  0.1333334  )
       144        I      tau( 144) = (  0.5000000  2.0817250  0.2833335  )
       145        I      tau( 145) = (  1.0000000  2.0817250  0.2333334  )
       146        I      tau( 146) = (  0.5000000  2.0817250  0.3833335  )
       147        I      tau( 147) = (  1.0000000  2.0817250  0.3333335  )
       148        I      tau( 148) = (  0.5000000  2.0817250  0.4833336  )
       149        I      tau( 149) = (  1.0000000  2.0817250  0.4333335  )
       150        I      tau( 150) = (  0.5000000  2.0817250  0.5833336  )
       151        I      tau( 151) = (  1.0000000  2.0817250  0.5333336  )
       152        I      tau( 152) = (  0.5000000  2.0817250  0.6833337  )
       153        I      tau( 153) = (  1.0000000  2.0817250  0.6333336  )
       154        I      tau( 154) = (  0.5000000  2.0817250  0.7833337  )
       155        I      tau( 155) = (  1.0000000  2.0817250  0.7333337  )
       156        I      tau( 156) = (  0.5000000  2.0817250  0.8833337  )
       157        I      tau( 157) = (  1.0000000  2.0817250  0.8333337  )
       158        I      tau( 158) = (  0.5000000  2.0817250  0.9833338  )
       159        I      tau( 159) = (  1.0000000  2.0817250  0.9333338  )
       160        I      tau( 160) = (  1.0000000  2.0817250  1.0333338  )
       161        I      tau( 161) = (  0.8333333  2.4150584  0.0833334  )
       162        I      tau( 162) = (  0.8333333  2.4150584  0.1833334  )
       163        I      tau( 163) = (  1.3333333  2.4150584  0.1333334  )
       164        I      tau( 164) = (  0.8333333  2.4150584  0.2833335  )
       165        I      tau( 165) = (  1.3333333  2.4150584  0.2333334  )
       166        I      tau( 166) = (  0.8333333  2.4150584  0.3833335  )
       167        I      tau( 167) = (  1.3333333  2.4150584  0.3333335  )
       168        I      tau( 168) = (  0.8333333  2.4150584  0.4833336  )
       169        I      tau( 169) = (  1.3333333  2.4150584  0.4333335  )
       170        I      tau( 170) = (  0.8333333  2.4150584  0.5833336  )
       171        I      tau( 171) = (  1.3333333  2.4150584  0.5333336  )
       172        I      tau( 172) = (  0.8333333  2.4150584  0.6833337  )
       173        I      tau( 173) = (  1.3333333  2.4150584  0.6333336  )
       174        I      tau( 174) = (  0.8333333  2.4150584  0.7833337  )
       175        I      tau( 175) = (  1.3333333  2.4150584  0.7333337  )
       176        I      tau( 176) = (  0.8333333  2.4150584  0.8833337  )
       177        I      tau( 177) = (  1.3333333  2.4150584  0.8333337  )
       178        I      tau( 178) = (  0.8333333  2.4150584  0.9833338  )
       179        I      tau( 179) = (  1.3333333  2.4150584  0.9333338  )
       180        I      tau( 180) = (  1.3333333  2.4150584  1.0333338  )
       181        I      tau( 181) = (  1.0000000  1.7483917  0.0333333  )
       182        I      tau( 182) = (  1.0000000  1.7483917  0.1333334  )
       183        I      tau( 183) = (  1.5000000  1.7483917  0.0833334  )
       184        I      tau( 184) = (  1.0000000  1.7483917  0.2333334  )
       185        I      tau( 185) = (  1.5000000  1.7483917  0.1833334  )
       186        I      tau( 186) = (  1.0000000  1.7483917  0.3333335  )
       187        I      tau( 187) = (  1.5000000  1.7483917  0.2833335  )
       188        I      tau( 188) = (  1.0000000  1.7483917  0.4333335  )
       189        I      tau( 189) = (  1.5000000  1.7483917  0.3833335  )
       190        I      tau( 190) = (  1.0000000  1.7483917  0.5333336  )
       191        I      tau( 191) = (  1.5000000  1.7483917  0.4833336  )
       192        I      tau( 192) = (  1.0000000  1.7483917  0.6333336  )
       193        I      tau( 193) = (  1.5000000  1.7483917  0.5833336  )
       194        I      tau( 194) = (  1.0000000  1.7483917  0.7333337  )
       195        I      tau( 195) = (  1.5000000  1.7483917  0.6833337  )
       196        I      tau( 196) = (  1.0000000  1.7483917  0.8333337  )
       197        I      tau( 197) = (  1.5000000  1.7483917  0.7833337  )
       198        I      tau( 198) = (  1.0000000  1.7483917  0.9333338  )
       199        I      tau( 199) = (  1.5000000  1.7483917  0.8833337  )
       200        I      tau( 200) = (  1.5000000  1.7483917  0.9833338  )
       201        I      tau( 201) = (  0.8333333  2.0817250  0.0833334  )
       202        I      tau( 202) = (  0.8333333  2.0817250  0.1833334  )
       203        I      tau( 203) = (  1.3333333  2.0817250  0.1333334  )
       204        I      tau( 204) = (  0.8333333  2.0817250  0.2833335  )
       205        I      tau( 205) = (  1.3333333  2.0817250  0.2333334  )
       206        I      tau( 206) = (  0.8333333  2.0817250  0.3833335  )
       207        I      tau( 207) = (  1.3333333  2.0817250  0.3333335  )
       208        I      tau( 208) = (  0.8333333  2.0817250  0.4833336  )
       209        I      tau( 209) = (  1.3333333  2.0817250  0.4333335  )
       210        I      tau( 210) = (  0.8333333  2.0817250  0.5833336  )
       211        I      tau( 211) = (  1.3333333  2.0817250  0.5333336  )
       212        I      tau( 212) = (  0.8333333  2.0817250  0.6833337  )
       213        I      tau( 213) = (  1.3333333  2.0817250  0.6333336  )
       214        I      tau( 214) = (  0.8333333  2.0817250  0.7833337  )
       215        I      tau( 215) = (  1.3333333  2.0817250  0.7333337  )
       216        I      tau( 216) = (  0.8333333  2.0817250  0.8833337  )
       217        I      tau( 217) = (  1.3333333  2.0817250  0.8333337  )
       218        I      tau( 218) = (  0.8333333  2.0817250  0.9833338  )
       219        I      tau( 219) = (  1.3333333  2.0817250  0.9333338  )
       220        I      tau( 220) = (  1.3333333  2.0817250  1.0333338  )
       221        I      tau( 221) = (  1.1666667  2.4150584  0.0833334  )
       222        I      tau( 222) = (  1.1666667  2.4150584  0.1833334  )
       223        I      tau( 223) = (  1.6666667  2.4150584  0.1333334  )
       224        I      tau( 224) = (  1.1666667  2.4150584  0.2833335  )
       225        I      tau( 225) = (  1.6666667  2.4150584  0.2333334  )
       226        I      tau( 226) = (  1.1666667  2.4150584  0.3833335  )
       227        I      tau( 227) = (  1.6666667  2.4150584  0.3333335  )
       228        I      tau( 228) = (  1.1666667  2.4150584  0.4833336  )
       229        I      tau( 229) = (  1.6666667  2.4150584  0.4333335  )
       230        I      tau( 230) = (  1.1666667  2.4150584  0.5833336  )
       231        I      tau( 231) = (  1.6666667  2.4150584  0.5333336  )
       232        I      tau( 232) = (  1.1666667  2.4150584  0.6833337  )
       233        I      tau( 233) = (  1.6666667  2.4150584  0.6333336  )
       234        I      tau( 234) = (  1.1666667  2.4150584  0.7833337  )
       235        I      tau( 235) = (  1.6666667  2.4150584  0.7333337  )
       236        I      tau( 236) = (  1.1666667  2.4150584  0.8833337  )
       237        I      tau( 237) = (  1.6666667  2.4150584  0.8333337  )
       238        I      tau( 238) = (  1.1666667  2.4150584  0.9833338  )
       239        I      tau( 239) = (  1.6666667  2.4150584  0.9333338  )
       240        I      tau( 240) = (  1.6666667  2.4150584  1.0333338  )
       241        I      tau( 241) = (  0.8333333  1.7483917  0.0833334  )
       242        I      tau( 242) = (  0.8333333  1.7483917  0.1833334  )
       243        I      tau( 243) = (  1.3333333  1.7483917  0.1333334  )
       244        I      tau( 244) = (  0.8333333  1.7483917  0.2833335  )
       245        I      tau( 245) = (  1.3333333  1.7483917  0.2333334  )
       246        I      tau( 246) = (  0.8333333  1.7483917  0.3833335  )
       247        I      tau( 247) = (  1.3333333  1.7483917  0.3333335  )
       248        I      tau( 248) = (  0.8333333  1.7483917  0.4833336  )
       249        I      tau( 249) = (  1.3333333  1.7483917  0.4333335  )
       250        I      tau( 250) = (  0.8333333  1.7483917  0.5833336  )
       251        I      tau( 251) = (  1.3333333  1.7483917  0.5333336  )
       252        I      tau( 252) = (  0.8333333  1.7483917  0.6833337  )
       253        I      tau( 253) = (  1.3333333  1.7483917  0.6333336  )
       254        I      tau( 254) = (  0.8333333  1.7483917  0.7833337  )
       255        I      tau( 255) = (  1.3333333  1.7483917  0.7333337  )
       256        I      tau( 256) = (  0.8333333  1.7483917  0.8833337  )
       257        I      tau( 257) = (  1.3333333  1.7483917  0.8333337  )
       258        I      tau( 258) = (  0.8333333  1.7483917  0.9833338  )
       259        I      tau( 259) = (  1.3333333  1.7483917  0.9333338  )
       260        I      tau( 260) = (  1.3333333  1.7483917  1.0333338  )
       261        I      tau( 261) = (  0.6666667  2.0817250  0.1333334  )
       262        I      tau( 262) = (  0.6666667  2.0817250  0.2333334  )
       263        I      tau( 263) = (  1.1666667  2.0817250  0.1833334  )
       264        I      tau( 264) = (  0.6666667  2.0817250  0.3333335  )
       265        I      tau( 265) = (  1.1666667  2.0817250  0.2833335  )
       266        I      tau( 266) = (  0.6666667  2.0817250  0.4333335  )
       267        I      tau( 267) = (  1.1666667  2.0817250  0.3833335  )
       268        I      tau( 268) = (  0.6666667  2.0817250  0.5333336  )
       269        I      tau( 269) = (  1.1666667  2.0817250  0.4833336  )
       270        I      tau( 270) = (  0.6666667  2.0817250  0.6333336  )
       271        I      tau( 271) = (  1.1666667  2.0817250  0.5833336  )
       272        I      tau( 272) = (  0.6666667  2.0817250  0.7333337  )
       273        I      tau( 273) = (  1.1666667  2.0817250  0.6833337  )
       274        I      tau( 274) = (  0.6666667  2.0817250  0.8333337  )
       275        I      tau( 275) = (  1.1666667  2.0817250  0.7833337  )
       276        I      tau( 276) = (  0.6666667  2.0817250  0.9333338  )
       277        I      tau( 277) = (  1.1666667  2.0817250  0.8833337  )
       278        I      tau( 278) = (  0.6666667  2.0817250  1.0333338  )
       279        I      tau( 279) = (  1.1666667  2.0817250  0.9833338  )
       280        I      tau( 280) = (  1.1666667  2.0817250  1.0833338  )
       281        I      tau( 281) = (  1.0000000  2.4150584  0.1333334  )
       282        I      tau( 282) = (  1.0000000  2.4150584  0.2333334  )
       283        I      tau( 283) = (  1.5000000  2.4150584  0.1833334  )
       284        I      tau( 284) = (  1.0000000  2.4150584  0.3333335  )
       285        I      tau( 285) = (  1.5000000  2.4150584  0.2833335  )
       286        I      tau( 286) = (  1.0000000  2.4150584  0.4333335  )
       287        I      tau( 287) = (  1.5000000  2.4150584  0.3833335  )
       288        I      tau( 288) = (  1.0000000  2.4150584  0.5333336  )
       289        I      tau( 289) = (  1.5000000  2.4150584  0.4833336  )
       290        I      tau( 290) = (  1.0000000  2.4150584  0.6333336  )
       291        I      tau( 291) = (  1.5000000  2.4150584  0.5833336  )
       292        I      tau( 292) = (  1.0000000  2.4150584  0.7333337  )
       293        I      tau( 293) = (  1.5000000  2.4150584  0.6833337  )
       294        I      tau( 294) = (  1.0000000  2.4150584  0.8333337  )
       295        I      tau( 295) = (  1.5000000  2.4150584  0.7833337  )
       296        I      tau( 296) = (  1.0000000  2.4150584  0.9333338  )
       297        I      tau( 297) = (  1.5000000  2.4150584  0.8833337  )
       298        I      tau( 298) = (  1.0000000  2.4150584  1.0333338  )
       299        I      tau( 299) = (  1.5000000  2.4150584  0.9833338  )
       300        I      tau( 300) = (  1.5000000  2.4150584  1.0833338  )
       301        I      tau( 301) = (  1.0000000  1.9182750  0.0666667  )
       302        I      tau( 302) = (  1.0000000  1.9182750  0.1666667  )
       303        I      tau( 303) = (  1.5000000  1.9182750  0.1166667  )
       304        I      tau( 304) = (  1.0000000  1.9182750  0.2666668  )
       305        I      tau( 305) = (  1.5000000  1.9182750  0.2166668  )
       306        I      tau( 306) = (  1.0000000  1.9182750  0.3666668  )
       307        I      tau( 307) = (  1.5000000  1.9182750  0.3166668  )
       308        I      tau( 308) = (  1.0000000  1.9182750  0.4666669  )
       309        I      tau( 309) = (  1.5000000  1.9182750  0.4166669  )
       310        I      tau( 310) = (  1.0000000  1.9182750  0.5666669  )
       311        I      tau( 311) = (  1.5000000  1.9182750  0.5166669  )
       312        I      tau( 312) = (  1.0000000  1.9182750  0.6666670  )
       313        I      tau( 313) = (  1.5000000  1.9182750  0.6166670  )
       314        I      tau( 314) = (  1.0000000  1.9182750  0.7666670  )
       315        I      tau( 315) = (  1.5000000  1.9182750  0.7166670  )
       316        I      tau( 316) = (  1.0000000  1.9182750  0.8666671  )
       317        I      tau( 317) = (  1.5000000  1.9182750  0.8166670  )
       318        I      tau( 318) = (  1.0000000  1.9182750  0.9666671  )
       319        I      tau( 319) = (  1.5000000  1.9182750  0.9166671  )
       320        I      tau( 320) = (  1.5000000  1.9182750  1.0166671  )
       321        I      tau( 321) = (  0.8333333  2.2516084  0.1166667  )
       322        I      tau( 322) = (  0.8333333  2.2516084  0.2166668  )
       323        I      tau( 323) = (  1.3333333  2.2516084  0.1666667  )
       324        I      tau( 324) = (  0.8333333  2.2516084  0.3166668  )
       325        I      tau( 325) = (  1.3333333  2.2516084  0.2666668  )
       326        I      tau( 326) = (  0.8333333  2.2516084  0.4166669  )
       327        I      tau( 327) = (  1.3333333  2.2516084  0.3666668  )
       328        I      tau( 328) = (  0.8333333  2.2516084  0.5166669  )
       329        I      tau( 329) = (  1.3333333  2.2516084  0.4666669  )
       330        I      tau( 330) = (  0.8333333  2.2516084  0.6166670  )
       331        I      tau( 331) = (  1.3333333  2.2516084  0.5666669  )
       332        I      tau( 332) = (  0.8333333  2.2516084  0.7166670  )
       333        I      tau( 333) = (  1.3333333  2.2516084  0.6666670  )
       334        I      tau( 334) = (  0.8333333  2.2516084  0.8166670  )
       335        I      tau( 335) = (  1.3333333  2.2516084  0.7666670  )
       336        I      tau( 336) = (  0.8333333  2.2516084  0.9166671  )
       337        I      tau( 337) = (  1.3333333  2.2516084  0.8666671  )
       338        I      tau( 338) = (  0.8333333  2.2516084  1.0166671  )
       339        I      tau( 339) = (  1.3333333  2.2516084  0.9666671  )
       340        I      tau( 340) = (  1.3333333  2.2516084  1.0666672  )
       341        I      tau( 341) = (  1.1666667  2.5849417  0.1166667  )
       342        I      tau( 342) = (  1.1666667  2.5849417  0.2166668  )
       343        I      tau( 343) = (  1.6666667  2.5849417  0.1666667  )
       344        I      tau( 344) = (  1.1666667  2.5849417  0.3166668  )
       345        I      tau( 345) = (  1.6666667  2.5849417  0.2666668  )
       346        I      tau( 346) = (  1.1666667  2.5849417  0.4166669  )
       347        I      tau( 347) = (  1.6666667  2.5849417  0.3666668  )
       348        I      tau( 348) = (  1.1666667  2.5849417  0.5166669  )
       349        I      tau( 349) = (  1.6666667  2.5849417  0.4666669  )
       350        I      tau( 350) = (  1.1666667  2.5849417  0.6166670  )
       351        I      tau( 351) = (  1.6666667  2.5849417  0.5666669  )
       352        I      tau( 352) = (  1.1666667  2.5849417  0.7166670  )
       353        I      tau( 353) = (  1.6666667  2.5849417  0.6666670  )
       354        I      tau( 354) = (  1.1666667  2.5849417  0.8166670  )
       355        I      tau( 355) = (  1.6666667  2.5849417  0.7666670  )
       356        I      tau( 356) = (  1.1666667  2.5849417  0.9166671  )
       357        I      tau( 357) = (  1.6666667  2.5849417  0.8666671  )
       358        I      tau( 358) = (  1.1666667  2.5849417  1.0166671  )
       359        I      tau( 359) = (  1.6666667  2.5849417  0.9666671  )
       360        I      tau( 360) = (  1.6666667  2.5849417  1.0666672  )
       361        I      tau( 361) = (  0.6666667  1.9182750  0.0666667  )
       362        I      tau( 362) = (  0.6666667  1.9182750  0.1666667  )
       363        I      tau( 363) = (  1.1666667  1.9182750  0.1166667  )
       364        I      tau( 364) = (  0.6666667  1.9182750  0.2666668  )
       365        I      tau( 365) = (  1.1666667  1.9182750  0.2166668  )
       366        I      tau( 366) = (  0.6666667  1.9182750  0.3666668  )
       367        I      tau( 367) = (  1.1666667  1.9182750  0.3166668  )
       368        I      tau( 368) = (  0.6666667  1.9182750  0.4666669  )
       369        I      tau( 369) = (  1.1666667  1.9182750  0.4166669  )
       370        I      tau( 370) = (  0.6666667  1.9182750  0.5666669  )
       371        I      tau( 371) = (  1.1666667  1.9182750  0.5166669  )
       372        I      tau( 372) = (  0.6666667  1.9182750  0.6666670  )
       373        I      tau( 373) = (  1.1666667  1.9182750  0.6166670  )
       374        I      tau( 374) = (  0.6666667  1.9182750  0.7666670  )
       375        I      tau( 375) = (  1.1666667  1.9182750  0.7166670  )
       376        I      tau( 376) = (  0.6666667  1.9182750  0.8666671  )
       377        I      tau( 377) = (  1.1666667  1.9182750  0.8166670  )
       378        I      tau( 378) = (  0.6666667  1.9182750  0.9666671  )
       379        I      tau( 379) = (  1.1666667  1.9182750  0.9166671  )
       380        I      tau( 380) = (  1.1666667  1.9182750  1.0166671  )
       381        I      tau( 381) = (  0.5000000  2.2516084  0.1166667  )
       382        I      tau( 382) = (  0.5000000  2.2516084  0.2166668  )
       383        I      tau( 383) = (  1.0000000  2.2516084  0.1666667  )
       384        I      tau( 384) = (  0.5000000  2.2516084  0.3166668  )
       385        I      tau( 385) = (  1.0000000  2.2516084  0.2666668  )
       386        I      tau( 386) = (  0.5000000  2.2516084  0.4166669  )
       387        I      tau( 387) = (  1.0000000  2.2516084  0.3666668  )
       388        I      tau( 388) = (  0.5000000  2.2516084  0.5166669  )
       389        I      tau( 389) = (  1.0000000  2.2516084  0.4666669  )
       390        I      tau( 390) = (  0.5000000  2.2516084  0.6166670  )
       391        I      tau( 391) = (  1.0000000  2.2516084  0.5666669  )
       392        I      tau( 392) = (  0.5000000  2.2516084  0.7166670  )
       393        I      tau( 393) = (  1.0000000  2.2516084  0.6666670  )
       394        I      tau( 394) = (  0.5000000  2.2516084  0.8166670  )
       395        I      tau( 395) = (  1.0000000  2.2516084  0.7666670  )
       396        I      tau( 396) = (  0.5000000  2.2516084  0.9166671  )
       397        I      tau( 397) = (  1.0000000  2.2516084  0.8666671  )
       398        I      tau( 398) = (  0.5000000  2.2516084  1.0166671  )
       399        I      tau( 399) = (  1.0000000  2.2516084  0.9666671  )
       400        I      tau( 400) = (  1.0000000  2.2516084  1.0666672  )
       401        I      tau( 401) = (  0.8333333  2.5849417  0.1166667  )
       402        I      tau( 402) = (  0.8333333  2.5849417  0.2166668  )
       403        I      tau( 403) = (  1.3333333  2.5849417  0.1666667  )
       404        I      tau( 404) = (  0.8333333  2.5849417  0.3166668  )
       405        I      tau( 405) = (  1.3333333  2.5849417  0.2666668  )
       406        I      tau( 406) = (  0.8333333  2.5849417  0.4166669  )
       407        I      tau( 407) = (  1.3333333  2.5849417  0.3666668  )
       408        I      tau( 408) = (  0.8333333  2.5849417  0.5166669  )
       409        I      tau( 409) = (  1.3333333  2.5849417  0.4666669  )
       410        I      tau( 410) = (  0.8333333  2.5849417  0.6166670  )
       411        I      tau( 411) = (  1.3333333  2.5849417  0.5666669  )
       412        I      tau( 412) = (  0.8333333  2.5849417  0.7166670  )
       413        I      tau( 413) = (  1.3333333  2.5849417  0.6666670  )
       414        I      tau( 414) = (  0.8333333  2.5849417  0.8166670  )
       415        I      tau( 415) = (  1.3333333  2.5849417  0.7666670  )
       416        I      tau( 416) = (  0.8333333  2.5849417  0.9166671  )
       417        I      tau( 417) = (  1.3333333  2.5849417  0.8666671  )
       418        I      tau( 418) = (  0.8333333  2.5849417  1.0166671  )
       419        I      tau( 419) = (  1.3333333  2.5849417  0.9666671  )
       420        I      tau( 420) = (  1.3333333  2.5849417  1.0666672  )
       421        I      tau( 421) = (  0.8333333  1.9182750  0.0166667  )
       422        I      tau( 422) = (  0.8333333  1.9182750  0.1166667  )
       423        I      tau( 423) = (  1.3333333  1.9182750  0.0666667  )
       424        I      tau( 424) = (  0.8333333  1.9182750  0.2166668  )
       425        I      tau( 425) = (  1.3333333  1.9182750  0.1666667  )
       426        I      tau( 426) = (  0.8333333  1.9182750  0.3166668  )
       427        I      tau( 427) = (  1.3333333  1.9182750  0.2666668  )
       428        I      tau( 428) = (  0.8333333  1.9182750  0.4166669  )
       429        I      tau( 429) = (  1.3333333  1.9182750  0.3666668  )
       430        I      tau( 430) = (  0.8333333  1.9182750  0.5166669  )
       431        I      tau( 431) = (  1.3333333  1.9182750  0.4666669  )
       432        I      tau( 432) = (  0.8333333  1.9182750  0.6166670  )
       433        I      tau( 433) = (  1.3333333  1.9182750  0.5666669  )
       434        I      tau( 434) = (  0.8333333  1.9182750  0.7166670  )
       435        I      tau( 435) = (  1.3333333  1.9182750  0.6666670  )
       436        I      tau( 436) = (  0.8333333  1.9182750  0.8166670  )
       437        I      tau( 437) = (  1.3333333  1.9182750  0.7666670  )
       438        I      tau( 438) = (  0.8333333  1.9182750  0.9166671  )
       439        I      tau( 439) = (  1.3333333  1.9182750  0.8666671  )
       440        I      tau( 440) = (  1.3333333  1.9182750  0.9666671  )
       441        I      tau( 441) = (  0.6666667  2.2516084  0.0666667  )
       442        I      tau( 442) = (  0.6666667  2.2516084  0.1666667  )
       443        I      tau( 443) = (  1.1666667  2.2516084  0.1166667  )
       444        I      tau( 444) = (  0.6666667  2.2516084  0.2666668  )
       445        I      tau( 445) = (  1.1666667  2.2516084  0.2166668  )
       446        I      tau( 446) = (  0.6666667  2.2516084  0.3666668  )
       447        I      tau( 447) = (  1.1666667  2.2516084  0.3166668  )
       448        I      tau( 448) = (  0.6666667  2.2516084  0.4666669  )
       449        I      tau( 449) = (  1.1666667  2.2516084  0.4166669  )
       450        I      tau( 450) = (  0.6666667  2.2516084  0.5666669  )
       451        I      tau( 451) = (  1.1666667  2.2516084  0.5166669  )
       452        I      tau( 452) = (  0.6666667  2.2516084  0.6666670  )
       453        I      tau( 453) = (  1.1666667  2.2516084  0.6166670  )
       454        I      tau( 454) = (  0.6666667  2.2516084  0.7666670  )
       455        I      tau( 455) = (  1.1666667  2.2516084  0.7166670  )
       456        I      tau( 456) = (  0.6666667  2.2516084  0.8666671  )
       457        I      tau( 457) = (  1.1666667  2.2516084  0.8166670  )
       458        I      tau( 458) = (  0.6666667  2.2516084  0.9666671  )
       459        I      tau( 459) = (  1.1666667  2.2516084  0.9166671  )
       460        I      tau( 460) = (  1.1666667  2.2516084  1.0166671  )
       461        I      tau( 461) = (  1.0000000  2.5849417  0.0666667  )
       462        I      tau( 462) = (  1.0000000  2.5849417  0.1666667  )
       463        I      tau( 463) = (  1.5000000  2.5849417  0.1166667  )
       464        I      tau( 464) = (  1.0000000  2.5849417  0.2666668  )
       465        I      tau( 465) = (  1.5000000  2.5849417  0.2166668  )
       466        I      tau( 466) = (  1.0000000  2.5849417  0.3666668  )
       467        I      tau( 467) = (  1.5000000  2.5849417  0.3166668  )
       468        I      tau( 468) = (  1.0000000  2.5849417  0.4666669  )
       469        I      tau( 469) = (  1.5000000  2.5849417  0.4166669  )
       470        I      tau( 470) = (  1.0000000  2.5849417  0.5666669  )
       471        I      tau( 471) = (  1.5000000  2.5849417  0.5166669  )
       472        I      tau( 472) = (  1.0000000  2.5849417  0.6666670  )
       473        I      tau( 473) = (  1.5000000  2.5849417  0.6166670  )
       474        I      tau( 474) = (  1.0000000  2.5849417  0.7666670  )
       475        I      tau( 475) = (  1.5000000  2.5849417  0.7166670  )
       476        I      tau( 476) = (  1.0000000  2.5849417  0.8666671  )
       477        I      tau( 477) = (  1.5000000  2.5849417  0.8166670  )
       478        I      tau( 478) = (  1.0000000  2.5849417  0.9666671  )
       479        I      tau( 479) = (  1.5000000  2.5849417  0.9166671  )
       480        I      tau( 480) = (  1.5000000  2.5849417  1.0166671  )

     number of k points=     3  Gaussian smearing, width (Ry)=  0.0100
                       cart. coord. in units 2pi/alat
        k(    1) = (   0.0000000   0.0000000   0.0000000), wk =   0.2500000
        k(    2) = (   0.2500000   0.0000000   0.0000000), wk =   0.5000000
        k(    3) = (  -0.5000000   0.0000000   0.0000000), wk =   0.2500000

                       cryst. coord.
        k(    1) = (   0.0000000   0.0000000   0.0000000), wk =   0.2500000
        k(    2) = (   0.2500000   0.0000000   0.0000000), wk =   0.5000000
        k(    3) = (  -0.5000000   0.0000000   0.0000000), wk =   0.2500000

     Dense  grid:  6854961 G-vectors     FFT dimensions: ( 120, 192, 640)

     Dynamical RAM for                 wfc:     226.92 MB

     Dynamical RAM for     wfc (w. buffer):    1588.46 MB

     Dynamical RAM for           str. fact:       1.87 MB

     Dynamical RAM for           local pot:       0.00 MB

     Dynamical RAM for          nlocal pot:     448.24 MB

     Dynamical RAM for                qrad:       0.36 MB

     Dynamical RAM for          rho,v,vnew:      11.93 MB

     Dynamical RAM for               rhoin:       3.98 MB

     Dynamical RAM for            rho*nmix:      29.89 MB

     Dynamical RAM for           G-vectors:       3.97 MB

     Dynamical RAM for          h,s,v(r/c):       6.89 MB

     Dynamical RAM for          <psi|beta>:     113.91 MB

     Dynamical RAM for                 psi:     453.85 MB

     Dynamical RAM for                hpsi:     453.85 MB

     Dynamical RAM for      wfcinit/wfcrot:     733.69 MB

     Estimated static dynamical RAM per process >       2.02 GB

     Estimated max dynamical RAM per process >       3.05 GB

     Estimated total dynamical RAM >     341.94 GB

     Check: negative core charge=   -0.000017
     Generating pointlists ...
     new r_m :   0.0972 (alat units)  2.1854 (a.u.) for type    1
     new r_m :   0.0972 (alat units)  2.1854 (a.u.) for type    2

     Initial potential from superposition of free atoms

     starting charge    3239.8355, renormalised to    3240.0000
     Starting wfcs are 2520 randomized atomic wfcs

     total cpu time spent up to now is      278.4 secs

     per-process dynamical memory:    47.2 Mb

     Self-consistent Calculation

     iteration #  1     ecut=    60.00 Ry     beta= 0.30
     Davidson diagonalization with overlap

---- Real-time Memory Report at c_bands before calling an iterative solver
          3561 MiB given to the printing process from OS
            46 MiB allocation reported by mallinfo(arena+hblkhd)
        214917 MiB available memory on the node where the printing process lives
------------------
