JobId=13551198 JobName=submit.job
   UserId=lbellen1(33678) GroupId=interactive(25200) MCS_label=N/A
   Priority=138983 Nice=0 Account=cin_staff QOS=normal
   JobState=RUNNING Reason=None Dependency=(null)
   Requeue=0 Restarts=0 BatchFlag=1 Reboot=0 ExitCode=0:0
   DerivedExitCode=0:0
   RunTime=00:00:08 TimeLimit=02:00:00 TimeMin=N/A
   SubmitTime=2025-03-06T23:00:14 EligibleTime=2025-03-06T23:00:14
   AccrueTime=2025-03-06T23:00:14
   StartTime=2025-03-06T23:10:49 EndTime=2025-03-07T01:10:54 Deadline=N/A
   SuspendTime=None SecsPreSuspend=0 LastSchedEval=2025-03-06T23:10:49 Scheduler=Backfill
   Partition=boost_usr_prod AllocNode:Sid=slurm-controller:2127974
   ReqNodeList=(null) ExcNodeList=(null)
   NodeList=lrdn[2115,2120,2135,2146]
   BatchHost=lrdn2115
   NumNodes=4 NumCPUs=128 NumTasks=64 CPUs/Task=2 ReqB:S:C:T=0:0:*:*
   TRES=cpu=128,mem=1925G,node=4,billing=128,gres/gpu=16
   Socks/Node=* NtasksPerN:B:S:C=16:0:*:* CoreSpec=*
   JOB_GRES=gpu:a100:16
     Nodes=lrdn[2115,2120,2135,2146] CPU_IDs=0-31 Mem=492800 GRES=gpu:a100:4(IDX:0-3)
   MinCPUsNode=32 MinMemoryCPU=15400M MinTmpDiskNode=0
   Features=(null) DelayBoot=00:00:00
   OverSubscribe=NO Contiguous=0 Licenses=(null) Network=(null)
   Command=/leonardo_scratch/fast/Max3_devel_2/WP3/siesta/rerun-covid-spike_strongscaling-leonardo-booster-5.2.0-alpha_2024-09/benchmark/strong_scaling_mps/000003/000010_submit/work/submit.job
   WorkDir=/leonardo_scratch/fast/Max3_devel_2/WP3/siesta/rerun-covid-spike_strongscaling-leonardo-booster-5.2.0-alpha_2024-09/benchmark/strong_scaling_mps/000003/000010_submit/work
   StdErr=/leonardo_scratch/fast/Max3_devel_2/WP3/siesta/rerun-covid-spike_strongscaling-leonardo-booster-5.2.0-alpha_2024-09/benchmark/strong_scaling_mps/000003/000010_submit/work/slurm-13551198.out
   StdIn=/dev/null
   StdOut=/leonardo_scratch/fast/Max3_devel_2/WP3/siesta/rerun-covid-spike_strongscaling-leonardo-booster-5.2.0-alpha_2024-09/benchmark/strong_scaling_mps/000003/000010_submit/work/slurm-13551198.out
   Power=
   TresPerNode=gres:gpu:4
   

