JobID        JobIDRaw        JobName  Partition  MaxVMSize  MaxVMSizeNode  MaxVMSizeTask  AveVMSize     MaxRSS MaxRSSNode MaxRSSTask     AveRSS MaxPages MaxPagesNode   MaxPagesTask   AvePages     MinCPU MinCPUNode MinCPUTask     AveCPU   NTasks  AllocCPUS    Elapsed      State ExitCode AveCPUFreq ReqCPUFreqMin ReqCPUFreqMax ReqCPUFreqGov     ReqMem ConsumedEnergy  MaxDiskRead MaxDiskReadNode MaxDiskReadTask    AveDiskRead MaxDiskWrite MaxDiskWriteNode MaxDiskWriteTask   AveDiskWrite    ReqTRES  AllocTRES TRESUsageInAve TRESUsageInMax TRESUsageInMaxNode TRESUsageInMaxTask TRESUsageInMin TRESUsageInMinNode TRESUsageInMinTask TRESUsageInTot TRESUsageOutMax TRESUsageOutMaxNode TRESUsageOutMaxTask TRESUsageOutAve TRESUsageOutTot 
------------ ------------ ---------- ---------- ---------- -------------- -------------- ---------- ---------- ---------- ---------- ---------- -------- ------------ -------------- ---------- ---------- ---------- ---------- ---------- -------- ---------- ---------- ---------- -------- ---------- ------------- ------------- ------------- ---------- -------------- ------------ --------------- --------------- -------------- ------------ ---------------- ---------------- -------------- ---------- ---------- -------------- -------------- ------------------ ------------------ -------------- ------------------ ------------------ -------------- --------------- ------------------- ------------------- --------------- --------------- 
9592895      9592895      CovidWeak+        gpp                                                                                                                                                                                                             448   00:14:06    RUNNING      0:0                  Unknown       Unknown       Unknown    437.50G                                                                                                                                          billing=2+ billing=4+                                                                                                                                                                                                                                 
9592895.bat+ 9592895.bat+      batch                                                                                                                                                                                                               1        224   00:14:06    RUNNING      0:0          0             0             0             0                         0                                                                                                                                      cpu=224,m+                                                                                                                                                                                                                                 
9592895.ext+ 9592895.ext+     extern                                                                                                                                                                                                               2        448   00:14:06    RUNNING      0:0          0             0             0             0                         0                                                                                                                                      billing=4+                                                                                                                                                                                                                                 
9592895.0    9592895.0        siesta              6948816K      gs16r3b36             60 6979206637   1673494K  gs16r3b36         11 1607964036       32    gs16r3b57            168          2   00:12:37  gs16r3b57        188   00:13:18      224        448   00:13:57  COMPLETED      0:0    426.55M       Unknown       Unknown       Unknown                     1.52M       12.30M       gs16r3b36               0          9.94M       26.08M        gs16r3b36                0          4.24M            cpu=448,m+ cpu=00:13:18,+ cpu=00:13:32,+ cpu=gs16r3b36,ene+ cpu=100,fs/disk=0+ cpu=00:12:37,+ cpu=gs16r3b57,ene+ cpu=188,fs/disk=1+ cpu=2-01:41:4+ energy=1025,fs+ energy=gs16r3b36,f+           fs/disk=0 energy=5,fs/di+ energy=1155,fs+ 
