Unloading profile/base
  ERROR: Module evaluation aborted
Loading quantum-espresso/7.3.1--openmpi--4.1.4--nvhpc--23.1-openblas
  Loading requirement: zlib/1.2.13--gcc--11.3.0
    openmpi/4.1.4--nvhpc--23.1-cuda-11.8
    fftw/3.3.10--openmpi--4.1.4--nvhpc--23.1 libxc/5.2.3--nvhpc--23.1
    openblas/0.3.21--nvhpc--23.1
Currently Loaded Modulefiles:
 1) profile/base(default)                                         
 2) profile/chem-phys                                             
 3) zlib/1.2.13--gcc--11.3.0 <aL>                                 
 4) openmpi/4.1.4--nvhpc--23.1-cuda-11.8 <aL>                     
 5) fftw/3.3.10--openmpi--4.1.4--nvhpc--23.1 <aL>                 
 6) libxc/5.2.3--nvhpc--23.1 <aL>                                 
 7) openblas/0.3.21--nvhpc--23.1 <aL>                             
 8) quantum-espresso/7.3.1--openmpi--4.1.4--nvhpc--23.1-openblas  

Key:
(symbolic-version)  <module-tag>  <aL>=auto-loaded  
Warning: ieee_inexact is signaling
FORTRAN STOP
[lrdn2101:46293:0:46293] Caught signal 11 (Segmentation fault: address not mapped to object at address (nil))
==== backtrace (tid:  46293) ====
 0  /usr/lib/gcc/x86_64-redhat-linux/8/../../../../lib64/libucs.so.0(ucs_handle_error+0x2dc) [0x14aa8164eedc]
 1  /usr/lib/gcc/x86_64-redhat-linux/8/../../../../lib64/libucs.so.0(+0x2b0bc) [0x14aa8164f0bc]
 2  /usr/lib/gcc/x86_64-redhat-linux/8/../../../../lib64/libucs.so.0(+0x2b28a) [0x14aa8164f28a]
 3  [0x12ca8bba]
=================================
[lrdn2101:46293] *** Process received signal ***
[lrdn2101:46293] Signal: Segmentation fault (11)
[lrdn2101:46293] Signal code:  (-6)
[lrdn2101:46293] Failing at address: 0x838e0000b4d5
[lrdn2101:46293] [ 0] /usr/lib/gcc/x86_64-redhat-linux/8/../../../../lib64/libpthread.so.0(+0x12cf0)[0x14ab170aecf0]
[lrdn2101:46293] [ 1] [0x12ca8bba]
[lrdn2101:46293] *** End of error message ***
Warning: ieee_divide_by_zero is signaling
Warning: ieee_inexact is signaling
FORTRAN STOP
[lrdn2101:46292:0:46292] Caught signal 11 (Segmentation fault: Sent by the kernel at address (nil))
==== backtrace (tid:  46292) ====
 0  /usr/lib/gcc/x86_64-redhat-linux/8/../../../../lib64/libucs.so.0(ucs_handle_error+0x2dc) [0x148379349edc]
 1  /usr/lib/gcc/x86_64-redhat-linux/8/../../../../lib64/libucs.so.0(+0x2b0bc) [0x14837934a0bc]
 2  /usr/lib/gcc/x86_64-redhat-linux/8/../../../../lib64/libucs.so.0(+0x2b28a) [0x14837934a28a]
 3  [0x1aa0cbbe]
=================================
[lrdn2101:46292] *** Process received signal ***
[lrdn2101:46292] Signal: Segmentation fault (11)
[lrdn2101:46292] Signal code:  (-6)
[lrdn2101:46292] Failing at address: 0x838e0000b4d4
[lrdn2101:46292] [ 0] /usr/lib/gcc/x86_64-redhat-linux/8/../../../../lib64/libpthread.so.0(+0x12cf0)[0x148416e12cf0]
[lrdn2101:46292] [ 1] [0x1aa0cbbe]
[lrdn2101:46292] *** End of error message ***
srun: error: lrdn2101: task 1: Segmentation fault
srun: error: lrdn2101: task 0: Segmentation fault
