JobId=10741962 JobName=submit.job
   UserId=lbellen1(33678) GroupId=interactive(25200) MCS_label=N/A
   Priority=141168 Nice=0 Account=cin_staff QOS=normal
   JobState=RUNNING Reason=None Dependency=(null)
   Requeue=0 Restarts=0 BatchFlag=1 Reboot=0 ExitCode=0:0
   DerivedExitCode=0:0
   RunTime=00:00:03 TimeLimit=04:00:00 TimeMin=N/A
   SubmitTime=2024-12-29T22:33:07 EligibleTime=2024-12-29T22:33:07
   AccrueTime=2024-12-29T22:33:07
   StartTime=2024-12-29T22:34:51 EndTime=2024-12-30T02:34:52 Deadline=N/A
   SuspendTime=None SecsPreSuspend=0 LastSchedEval=2024-12-29T22:34:51 Scheduler=Main
   Partition=boost_usr_prod AllocNode:Sid=slurm-controller:3279869
   ReqNodeList=(null) ExcNodeList=(null)
   NodeList=lrdn[0996,2264,3214]
   BatchHost=lrdn0996
   NumNodes=3 NumCPUs=96 NumTasks=12 CPUs/Task=8 ReqB:S:C:T=0:0:*:*
   TRES=cpu=96,mem=1478400M,node=3,billing=96,gres/gpu=12
   Socks/Node=* NtasksPerN:B:S:C=4:0:*:* CoreSpec=*
   JOB_GRES=gpu:a100:12
     Nodes=lrdn[0996,2264,3214] CPU_IDs=0-31 Mem=492800 GRES=gpu:a100:4(IDX:0-3)
   MinCPUsNode=32 MinMemoryCPU=15400M MinTmpDiskNode=0
   Features=(null) DelayBoot=00:00:00
   OverSubscribe=NO Contiguous=0 Licenses=(null) Network=(null)
   Command=/leonardo_scratch/fast/Max3_devel_2/WP3/qe/mps/phonon/quartz9/phonon-distr/logfiles_mixed/000002/000004_submit_N3np4/work/submit.job
   WorkDir=/leonardo_scratch/fast/Max3_devel_2/WP3/qe/mps/phonon/quartz9/phonon-distr/logfiles_mixed/000002/000004_submit_N3np4/work
   StdErr=/leonardo_scratch/fast/Max3_devel_2/WP3/qe/mps/phonon/quartz9/phonon-distr/logfiles_mixed/000002/000004_submit_N3np4/work/slurm-10741962.out
   StdIn=/dev/null
   StdOut=/leonardo_scratch/fast/Max3_devel_2/WP3/qe/mps/phonon/quartz9/phonon-distr/logfiles_mixed/000002/000004_submit_N3np4/work/slurm-10741962.out
   Power=
   TresPerNode=gres:gpu:4
   

