JobID        JobIDRaw        JobName  Partition  MaxVMSize  MaxVMSizeNode  MaxVMSizeTask  AveVMSize     MaxRSS MaxRSSNode MaxRSSTask     AveRSS MaxPages MaxPagesNode   MaxPagesTask   AvePages     MinCPU MinCPUNode MinCPUTask     AveCPU   NTasks  AllocCPUS    Elapsed      State ExitCode AveCPUFreq ReqCPUFreqMin ReqCPUFreqMax ReqCPUFreqGov     ReqMem ConsumedEnergy  MaxDiskRead MaxDiskReadNode MaxDiskReadTask    AveDiskRead MaxDiskWrite MaxDiskWriteNode MaxDiskWriteTask   AveDiskWrite    ReqTRES  AllocTRES TRESUsageInAve TRESUsageInMax TRESUsageInMaxNode TRESUsageInMaxTask TRESUsageInMin TRESUsageInMinNode TRESUsageInMinTask TRESUsageInTot TRESUsageOutMax TRESUsageOutMaxNode TRESUsageOutMaxTask TRESUsageOutAve TRESUsageOutTot 
------------ ------------ ---------- ---------- ---------- -------------- -------------- ---------- ---------- ---------- ---------- ---------- -------- ------------ -------------- ---------- ---------- ---------- ---------- ---------- -------- ---------- ---------- ---------- -------- ---------- ------------- ------------- ------------- ---------- -------------- ------------ --------------- --------------- -------------- ------------ ---------------- ---------------- -------------- ---------- ---------- -------------- -------------- ------------------ ------------------ -------------- ------------------ ------------------ -------------- --------------- ------------------- ------------------- --------------- --------------- 
9549949      9549949      CovidStro+        gpp                                                                                                                                                                                                             448   00:01:42    RUNNING      0:0                  Unknown       Unknown       Unknown    437.50G                                                                                                                                          billing=2+ billing=4+                                                                                                                                                                                                                                 
9549949.bat+ 9549949.bat+      batch                                                                                                                                                                                                               1        224   00:01:42    RUNNING      0:0          0             0             0             0                         0                                                                                                                                      cpu=224,m+                                                                                                                                                                                                                                 
9549949.ext+ 9549949.ext+     extern                                                                                                                                                                                                               2        448   00:01:42    RUNNING      0:0          0             0             0             0                         0                                                                                                                                      billing=4+                                                                                                                                                                                                                                 
9549949.0    9549949.0        siesta                                                                                                                                                                                                             224        448   00:01:04    RUNNING      0:0          0       Unknown       Unknown       Unknown                         0                                                                                                                                      cpu=448,m+                                                                                                                                                                                                                                 
