[2025-03-06 22:20:39.720 Other 1824524] Startup
[2025-03-06 22:20:39.721 Other 1824524] Connecting to control daemon on socket: ./pipe3/control
[2025-03-06 22:20:39.721 Other 1824524] Initializing server process
[2025-03-06 22:20:39.814 Server 1824524] Creating server context on device 0 (NVIDIA A100-SXM-64GB)
[2025-03-06 22:20:39.844 Server 1824524] Creating server context on device 1 (NVIDIA A100-SXM-64GB)
[2025-03-06 22:20:39.877 Server 1824524] Creating server context on device 2 (NVIDIA A100-SXM-64GB)
[2025-03-06 22:20:39.906 Server 1824524] Creating server context on device 3 (NVIDIA A100-SXM-64GB)
[2025-03-06 22:20:39.936 Server 1824524] Created named shared memory region /cuda.shm.838e.1bd70c.1
[2025-03-06 22:20:39.936 Server 1824524] Active Threads Percentage set to 100.0
[2025-03-06 22:20:39.936 Server 1824524] Server has started
[2025-03-06 22:20:39.936 Server 1824524] Received new client request
[2025-03-06 22:20:39.936 Server 1824524] Worker created
[2025-03-06 22:20:39.936 Server 1824524] Creating worker thread
[2025-03-06 22:20:39.937 Server 1824524] Received new client request
[2025-03-06 22:20:39.949 Server 1824524] Worker created
[2025-03-06 22:20:39.949 Server 1824524] Creating worker thread
[2025-03-06 22:20:39.949 Server 1824524] Received new client request
[2025-03-06 22:20:39.950 Server 1824524] Worker created
[2025-03-06 22:20:39.950 Server 1824524] Creating worker thread
[2025-03-06 22:20:39.950 Server 1824524] Received new client request
[2025-03-06 22:20:39.950 Server 1824524] Worker created
[2025-03-06 22:20:39.950 Server 1824524] Creating worker thread
[2025-03-06 22:20:40.604 Server 1824524] Received new client request
[2025-03-06 22:20:40.604 Server 1824524] Worker created
[2025-03-06 22:20:40.604 Server 1824524] Creating worker thread
[2025-03-06 22:20:40.604 Server 1824524] Device NVIDIA A100-SXM-64GB (uuid 0xb1a351bf-0x9f6cd0eb-0x734b4b96-0x6fcb1e75) is associated
[2025-03-06 22:20:40.604 Server 1824524] Status of client {1824509, 1} is ACTIVE
[2025-03-06 22:20:40.604 Server 1824524] Received new client request
[2025-03-06 22:20:40.604 Server 1824524] Worker created
[2025-03-06 22:20:40.604 Server 1824524] Creating worker thread
[2025-03-06 22:20:40.604 Server 1824524] Device NVIDIA A100-SXM-64GB (uuid 0x471feee4-0x745d77a9-0xed9be97e-0x7c0b0804) is associated
[2025-03-06 22:20:40.604 Server 1824524] Status of client {1824507, 1} is ACTIVE
[2025-03-06 22:20:40.604 Server 1824524] Received new client request
[2025-03-06 22:20:40.604 Server 1824524] Worker created
[2025-03-06 22:20:40.604 Server 1824524] Creating worker thread
[2025-03-06 22:20:40.604 Server 1824524] Device NVIDIA A100-SXM-64GB (uuid 0xa0f9818c-0x11184ea0-0x95f8f3de-0x6ddcb530) is associated
[2025-03-06 22:20:40.604 Server 1824524] Status of client {1824513, 1} is ACTIVE
[2025-03-06 22:20:40.604 Server 1824524] Received new client request
[2025-03-06 22:20:40.604 Server 1824524] Worker created
[2025-03-06 22:20:40.604 Server 1824524] Creating worker thread
[2025-03-06 22:20:40.604 Server 1824524] Device NVIDIA A100-SXM-64GB (uuid 0xd6179e16-0x82bf25ef-0xe7fe3903-0xf9175d93) is associated
[2025-03-06 22:20:40.604 Server 1824524] Status of client {1824508, 1} is ACTIVE
[2025-03-06 22:26:10.758 Server 1824524] Receive command failed, assuming client exit
[2025-03-06 22:26:10.759 Server 1824524] Client {1824507, 1} exit
[2025-03-06 22:26:10.759 Server 1824524] Client disconnected. Number of active client contexts is 0.
[2025-03-06 22:26:10.767 Server 1824524] Receive command failed, assuming client exit
[2025-03-06 22:26:10.767 Server 1824524] Client {1824513, 1} exit
[2025-03-06 22:26:10.767 Server 1824524] Client disconnected. Number of active client contexts is 0.
[2025-03-06 22:26:10.769 Server 1824524] Receive command failed, assuming client exit
[2025-03-06 22:26:10.769 Server 1824524] Client process disconnected
[2025-03-06 22:26:10.772 Server 1824524] Receive command failed, assuming client exit
[2025-03-06 22:26:10.772 Server 1824524] Client {1824508, 1} exit
[2025-03-06 22:26:10.772 Server 1824524] Client disconnected. Number of active client contexts is 0.
[2025-03-06 22:26:10.809 Server 1824524] Receive command failed, assuming client exit
[2025-03-06 22:26:10.809 Server 1824524] Client {1824509, 1} exit
[2025-03-06 22:26:10.809 Server 1824524] Client disconnected. Number of active client contexts is 0.
[2025-03-06 22:26:10.810 Server 1824524] Receive command failed, assuming client exit
[2025-03-06 22:26:10.810 Server 1824524] Client process disconnected
[2025-03-06 22:26:10.855 Server 1824524] Receive command failed, assuming client exit
[2025-03-06 22:26:10.855 Server 1824524] Client process disconnected
[2025-03-06 22:26:10.856 Server 1824524] Receive command failed, assuming client exit
[2025-03-06 22:26:10.856 Server 1824524] Client process disconnected
