JobId=2265029 JobName=submit.job
   UserId=nspallan(25378) GroupId=interactive(25200) MCS_label=N/A
   Priority=222996 Nice=0 Account=euhpc_e01_022 QOS=boost_qos_bprod
   JobState=RUNNING Reason=None Dependency=(null)
   Requeue=0 Restarts=0 BatchFlag=1 Reboot=0 ExitCode=0:0
   DerivedExitCode=0:0
   RunTime=00:00:03 TimeLimit=03:00:00 TimeMin=N/A
   SubmitTime=2023-12-04T16:51:22 EligibleTime=2023-12-04T16:51:22
   AccrueTime=2023-12-04T16:51:22
   StartTime=2023-12-04T16:51:22 EndTime=2023-12-04T19:51:23 Deadline=N/A
   SuspendTime=None SecsPreSuspend=0 LastSchedEval=2023-12-04T16:51:22 Scheduler=Main
   Partition=boost_usr_prod AllocNode:Sid=10-99-0-7:2872168
   ReqNodeList=(null) ExcNodeList=(null)
   NodeList=lrdn[0458,0467,0477,0619,1703,1759,1767,1841,1974,2072,2165,2188,2281,2307,2323,2340,2351,2354,2367,2373,2382,2398,2414,2428,2430,2458,2460,2470,2474,2504,2506,2520,2534,2539,2555,2573,2580,2587,2590,2596,2620,2624,2626,2653,2668,2670,2672,2695,2700,2714,2716,2744-2745,2760,2774,2787,2802,2806,2821,2829,2846,2860,2864,2878,2892,2894,2908,2923,2938,2954]
   BatchHost=lrdn0458
   NumNodes=70 NumCPUs=2240 NumTasks=280 CPUs/Task=8 ReqB:S:C:T=0:0:*:*
   TRES=cpu=2240,mem=33687.50G,node=70,billing=2240,gres/gpu=280
   Socks/Node=* NtasksPerN:B:S:C=4:0:*:* CoreSpec=*
   JOB_GRES=gpu:a100:280
     Nodes=lrdn[0458,0467,0477,0619,1703,1759,1767,1841,1974,2072,2165,2188,2281,2307,2323,2340,2351,2354,2367,2373,2382,2398,2414,2428,2430,2458,2460,2470,2474,2504,2506,2520,2534,2539,2555,2573,2580,2587,2590,2596,2620,2624,2626,2653,2668,2670,2672,2695,2700,2714,2716,2744-2745,2760,2774,2787,2802,2806,2821,2829,2846,2860,2864,2878,2892,2894,2908,2923,2938,2954] CPU_IDs=0-31 Mem=492800 GRES=gpu:a100:4(IDX:0-3)
   MinCPUsNode=32 MinMemoryCPU=15400M MinTmpDiskNode=0
   Features=(null) DelayBoot=00:00:00
   OverSubscribe=NO Contiguous=0 Licenses=(null) Network=(null)
   Command=/leonardo_work/Max3_devel_2/nspallan/jube-benchmarks/run_yambo_7k/000001/000002_submit/work/submit.job
   WorkDir=/leonardo_work/Max3_devel_2/nspallan/jube-benchmarks/run_yambo_7k/000001/000002_submit/work
   StdErr=/leonardo_work/Max3_devel_2/nspallan/jube-benchmarks/run_yambo_7k/000001/000002_submit/work/slurm-2265029.out
   StdIn=/dev/null
   StdOut=/leonardo_work/Max3_devel_2/nspallan/jube-benchmarks/run_yambo_7k/000001/000002_submit/work/slurm-2265029.out
   Power=
   TresPerNode=gres:gpu:4
   

