JobID        JobIDRaw        JobName  Partition  MaxVMSize  MaxVMSizeNode  MaxVMSizeTask  AveVMSize     MaxRSS MaxRSSNode MaxRSSTask     AveRSS MaxPages MaxPagesNode   MaxPagesTask   AvePages     MinCPU MinCPUNode MinCPUTask     AveCPU   NTasks  AllocCPUS    Elapsed      State ExitCode AveCPUFreq ReqCPUFreqMin ReqCPUFreqMax ReqCPUFreqGov     ReqMem ConsumedEnergy  MaxDiskRead MaxDiskReadNode MaxDiskReadTask    AveDiskRead MaxDiskWrite MaxDiskWriteNode MaxDiskWriteTask   AveDiskWrite    ReqTRES  AllocTRES TRESUsageInAve TRESUsageInMax TRESUsageInMaxNode TRESUsageInMaxTask TRESUsageInMin TRESUsageInMinNode TRESUsageInMinTask TRESUsageInTot TRESUsageOutMax TRESUsageOutMaxNode TRESUsageOutMaxTask TRESUsageOutAve TRESUsageOutTot 
------------ ------------ ---------- ---------- ---------- -------------- -------------- ---------- ---------- ---------- ---------- ---------- -------- ------------ -------------- ---------- ---------- ---------- ---------- ---------- -------- ---------- ---------- ---------- -------- ---------- ------------- ------------- ------------- ---------- -------------- ------------ --------------- --------------- -------------- ------------ ---------------- ---------------- -------------- ---------- ---------- -------------- -------------- ------------------ ------------------ -------------- ------------------ ------------------ -------------- --------------- ------------------- ------------------- --------------- --------------- 
3949655      3949655      submit.sl+ boost_usr+                                                                                                                                                                                                             480   00:01:52    RUNNING      0:0                  Unknown       Unknown       Unknown   7392000M                                                                                                                                          billing=4+ billing=4+                                                                                                                                                                                                                                 
3949655.bat+ 3949655.bat+      batch                                                                                                                                                                                                               1         32   00:01:52    RUNNING      0:0          0             0             0             0                         0                                                                                                                                      cpu=32,gr+                                                                                                                                                                                                                                 
3949655.ext+ 3949655.ext+     extern                                                                                                                                                                                                              15        480   00:01:52    RUNNING      0:0          0             0             0             0                         0                                                                                                                                      billing=4+                                                                                                                                                                                                                                 
3949655.0    3949655.0       bind.sh              6902560K       lrdn0008              0  458723123   4025644K   lrdn0008          0  270138504     3091     lrdn0008              0        149   00:01:46   lrdn1617         32   00:01:47       60        480   00:01:49  COMPLETED      0:0      1.06G       Unknown       Unknown       Unknown                         0        0.07M        lrdn1519              22          0.07M        0.00M         lrdn2856               50          0.00M            cpu=480,g+ cpu=00:01:47,+ cpu=00:01:48,+ cpu=lrdn0008,ener+ cpu=1,fs/disk=22,+ cpu=00:01:46,+ cpu=lrdn1617,ener+ cpu=32,fs/disk=2,+ cpu=01:47:40,+ energy=0,fs/di+ energy=lrdn2856,fs+          fs/disk=50 energy=0,fs/di+ energy=0,fs/di+ 
