JobId=7682240 JobName=submit.job
   UserId=fpedron0(126159) GroupId=interactive(25200) MCS_label=N/A
   Priority=120944 Nice=0 Account=euhpc_b13_053_0 QOS=normal
   JobState=RUNNING Reason=None Dependency=(null)
   Requeue=0 Restarts=0 BatchFlag=1 Reboot=0 ExitCode=0:0
   DerivedExitCode=0:0
   RunTime=00:00:03 TimeLimit=1-00:00:00 TimeMin=N/A
   SubmitTime=2024-09-13T15:52:34 EligibleTime=2024-09-13T15:52:34
   AccrueTime=2024-09-13T15:52:34
   StartTime=2024-09-13T15:53:55 EndTime=2024-09-14T15:53:55 Deadline=N/A
   SuspendTime=None SecsPreSuspend=0 LastSchedEval=2024-09-13T15:53:55 Scheduler=Main
   Partition=dcgp_usr_prod AllocNode:Sid=slurm-controller:3895506
   ReqNodeList=(null) ExcNodeList=(null)
   NodeList=lrdn[3703,4412]
   BatchHost=lrdn3703
   NumNodes=2 NumCPUs=224 NumTasks=224 CPUs/Task=1 ReqB:S:C:T=0:0:*:*
   TRES=cpu=224,mem=962.50G,node=2,billing=224,gres/tmpfs=6597069766656
   Socks/Node=* NtasksPerN:B:S:C=112:0:*:* CoreSpec=*
   JOB_GRES=tmpfs:6597069766656
     Nodes=lrdn[3703,4412] CPU_IDs=0-111 Mem=492800 GRES=tmpfs(CNT:3298534883328)
   MinCPUsNode=112 MinMemoryCPU=4400M MinTmpDiskNode=0
   Features=(null) DelayBoot=00:00:00
   OverSubscribe=NO Contiguous=0 Licenses=(null) Network=(null)
   Command=/leonardo/home/userexternal/fpedron0/JUBE4MaX/max-inputs/interface/siesta/_CovidWeakKPoints/000000/000008_submit/work/submit.job
   WorkDir=/leonardo/home/userexternal/fpedron0/JUBE4MaX/max-inputs/interface/siesta/_CovidWeakKPoints/000000/000008_submit/work
   StdErr=/leonardo/home/userexternal/fpedron0/JUBE4MaX/max-inputs/interface/siesta/_CovidWeakKPoints/000000/000008_submit/work/slurm-7682240.out
   StdIn=/dev/null
   StdOut=/leonardo/home/userexternal/fpedron0/JUBE4MaX/max-inputs/interface/siesta/_CovidWeakKPoints/000000/000008_submit/work/slurm-7682240.out
   Power=
   TresPerNode=gres:tmpfs:10g
   

