{
 "global_section": { "_calls": 1, "_time":     1485.108, "_%":   100.00,
   "siesta": { "_calls": 1, "_time":     1485.108, "_%":   100.00,
     "Setup": { "_calls": 1, "_time":        0.811, "_%":     0.05,
       "bands": { "_calls": 1, "_time":        0.002, "_%":     0.00},
       "KSV_init": { "_calls": 1, "_time":        0.000, "_%":     0.00}
     },
     "IterGeom": { "_calls": 1, "_time":     1482.118, "_%":    99.80,
       "geom_init": { "_calls": 1, "_time":       32.738, "_%":     2.20,
         "state_init": { "_calls": 1, "_time":        2.516, "_%":     0.17,
           "hsparse": { "_calls": 1, "_time":        0.141, "_%":     0.01},
           "overlap": { "_calls": 1, "_time":        2.091, "_%":     0.14}
         },
         "Setup_H0": { "_calls": 1, "_time":       30.221, "_%":     2.03,
           "naefs": { "_calls": 1, "_time":        0.016, "_%":     0.00},
           "dnaefs": { "_calls": 1, "_time":        0.009, "_%":     0.00},
           "MolMec": { "_calls": 1, "_time":        0.000, "_%":     0.00},
           "kinefsm": { "_calls": 1, "_time":        2.104, "_%":     0.14},
           "nlefsm": { "_calls": 1, "_time":        5.196, "_%":     0.35},
           "DHSCF_Init": { "_calls": 1, "_time":       22.896, "_%":     1.54,
             "DHSCF1": { "_calls": 1, "_time":        0.098, "_%":     0.01,
               "InitMesh": { "_calls": 1, "_time":        0.089, "_%":     0.01,
                 "INITMESH": { "_calls": 1, "_time":        0.000, "_%":     0.00}
               }
             },
             "DHSCF2": { "_calls": 1, "_time":       22.785, "_%":     1.53,
               "REMESH": { "_calls": 1, "_time":        1.313, "_%":     0.09,
                 "INITMESH": { "_calls": 2, "_time":        0.667, "_%":     0.04,
                   "BuildDISTR": { "_calls": 2, "_time":        0.666, "_%":     0.04,
                     "meshCom-Ca": { "_calls": 3, "_time":        0.000, "_%":     0.00}
                   }
                 }
               },
               "REORD": { "_calls": 2, "_time":        0.171, "_%":     0.01},
               "PHION": { "_calls": 1, "_time":        5.234, "_%":     0.35},
               "dscfComm": { "_calls": 1, "_time":        0.761, "_%":     0.05},
               "COMM_BSC": { "_calls": 1, "_time":        0.322, "_%":     0.02},
               "POISON": { "_calls": 1, "_time":       12.636, "_%":     0.85,
                 "fft": { "_calls": 2, "_time":       12.207, "_%":     0.82}
               }
             }
           }
         }
       },
       "IterSCF": { "_calls": 5, "_time":     1449.079, "_%":    97.57,
         "setup_H": { "_calls": 5, "_time":      152.148, "_%":    10.24,
           "DHSCF": { "_calls": 5, "_time":      151.816, "_%":    10.22,
             "DHSCF3": { "_calls": 5, "_time":      151.816, "_%":    10.22,
               "rhoofd": { "_calls": 5, "_time":        1.146, "_%":     0.08,
                 "OtoM": { "_calls": 5, "_time":        0.579, "_%":     0.04}
               },
               "COMM_BSC": { "_calls": 10, "_time":        2.013, "_%":     0.14},
               "POISON": { "_calls": 5, "_time":       62.465, "_%":     4.21,
                 "fft": { "_calls": 10, "_time":       60.260, "_%":     4.06}
               },
               "XC": { "_calls": 5, "_time":       80.373, "_%":     5.41,
                 "COMM_BSC": { "_calls": 10, "_time":        2.209, "_%":     0.15},
                 "GXC-CellXC": { "_calls": 5, "_time":       76.849, "_%":     5.17,
                   "gridxc@cellXC": { "_calls": 5, "_time":       76.849, "_%":     5.17}
                 }
               },
               "vmat": { "_calls": 5, "_time":        1.144, "_%":     0.08,
                 "MtoO": { "_calls": 5, "_time":        0.693, "_%":     0.05}
               }
             }
           }
         },
         "compute_dm": { "_calls": 5, "_time":     1296.886, "_%":    87.33,
           "elsi": { "_calls": 5, "_time":     1296.509, "_%":    87.30,
             "find nnz_g": { "_calls": 5, "_time":        0.000, "_%":     0.00},
             "elsi-solver": { "_calls": 5, "_time":     1296.497, "_%":    87.30}
           }
         },
         "MIXER": { "_calls": 5, "_time":        0.009, "_%":     0.00}
       },
       "state_analysis": { "_calls": 1, "_time":        0.033, "_%":     0.00},
       "siesta_move": { "_calls": 1, "_time":        0.000, "_%":     0.00}
     },
     "Analysis": { "_calls": 1, "_time":        1.941, "_%":     0.13,
       "optical": { "_calls": 1, "_time":        0.001, "_%":     0.00}
     }
   }
 }}
