       JobID     JobIDRaw    JobName  Partition  MaxVMSize  MaxVMSizeNode  MaxVMSizeTask  AveVMSize     MaxRSS MaxRSSNode MaxRSSTask     AveRSS MaxPages MaxPagesNode   MaxPagesTask   AvePages     MinCPU MinCPUNode MinCPUTask     AveCPU   NTasks  AllocCPUS    Elapsed      State ExitCode AveCPUFreq ReqCPUFreqMin ReqCPUFreqMax ReqCPUFreqGov     ReqMem ConsumedEnergy  MaxDiskRead MaxDiskReadNode MaxDiskReadTask    AveDiskRead MaxDiskWrite MaxDiskWriteNode MaxDiskWriteTask   AveDiskWrite    AllocGRES      ReqGRES    ReqTRES  AllocTRES TRESUsageInAve TRESUsageInMax TRESUsageInMaxNode TRESUsageInMaxTask TRESUsageInMin TRESUsageInMinNode TRESUsageInMinTask TRESUsageInTot TRESUsageOutMax TRESUsageOutMaxNode TRESUsageOutMaxTask TRESUsageOutAve TRESUsageOutTot 
------------ ------------ ---------- ---------- ---------- -------------- -------------- ---------- ---------- ---------- ---------- ---------- -------- ------------ -------------- ---------- ---------- ---------- ---------- ---------- -------- ---------- ---------- ---------- -------- ---------- ------------- ------------- ------------- ---------- -------------- ------------ --------------- --------------- -------------- ------------ ---------------- ---------------- -------------- ------------ ------------ ---------- ---------- -------------- -------------- ------------------ ------------------ -------------- ------------------ ------------------ -------------- --------------- ------------------- ------------------- --------------- --------------- 
244983       244983       CovidStro+         cn                                                                                                                                                                                                            8192   00:41:59    RUNNING      0:0                  Unknown       Unknown       Unknown        1Gc                                                                                                                                                                    billing=8+ billing=8+                                                                                                                                                                                                                                 
244983.batch 244983.batch      batch                                                                                                                                                                                                               1        128   00:41:59    RUNNING      0:0          0             0             0             0        1Gc              0                                                                                                                                                                cpu=128,m+                                                                                                                                                                                                                                 
244983.0     244983.0         siesta              1596572K         cn0397              0 1433626068    479720K     cn0397          0  361190144      123       cn0397              0         24   00:41:14     cn1066       6656   00:41:32     8192       8192   00:41:58  COMPLETED      0:0       851K       Unknown       Unknown       Unknown        1Gc              0       11.12M          cn0397               0          9.43M       20.41M           cn0397                0          5.15M                                      cpu=8192,+ cpu=00:41:32,+ cpu=00:41:40,+ cpu=cn0426,energy+ cpu=2815,fs/disk=+ cpu=00:41:14,+ cpu=cn1066,energy+ cpu=6656,fs/disk=+ cpu=236-07:18+ energy=0,fs/di+ energy=cn1099,fs/d+           fs/disk=0 energy=0,fs/di+ energy=0,fs/di+ 
