{
 "global_section": { "_calls": 1, "_time":       91.290, "_%":   100.00,
   "siesta": { "_calls": 1, "_time":       91.290, "_%":   100.00,
     "Setup": { "_calls": 1, "_time":        2.572, "_%":     2.82,
       "bands": { "_calls": 1, "_time":        0.004, "_%":     0.00},
       "KSV_init": { "_calls": 1, "_time":        0.001, "_%":     0.00}
     },
     "IterGeom": { "_calls": 1, "_time":       88.280, "_%":    96.70,
       "geom_init": { "_calls": 1, "_time":       64.742, "_%":    70.92,
         "state_init": { "_calls": 1, "_time":        1.387, "_%":     1.52,
           "hsparse": { "_calls": 1, "_time":        0.353, "_%":     0.39},
           "overlap": { "_calls": 1, "_time":        0.135, "_%":     0.15}
         },
         "Setup_H0": { "_calls": 1, "_time":       63.354, "_%":    69.40,
           "naefs": { "_calls": 1, "_time":        0.056, "_%":     0.06},
           "MolMec": { "_calls": 1, "_time":        0.000, "_%":     0.00},
           "kinefsm": { "_calls": 1, "_time":        0.111, "_%":     0.12},
           "nlefsm": { "_calls": 1, "_time":        0.341, "_%":     0.37},
           "DHSCF_Init": { "_calls": 1, "_time":       62.807, "_%":    68.80,
             "DHSCF1": { "_calls": 1, "_time":        0.093, "_%":     0.10,
               "INITMESH": { "_calls": 1, "_time":        0.000, "_%":     0.00}
             },
             "DHSCF2": { "_calls": 1, "_time":       62.653, "_%":    68.63,
               "REMESH": { "_calls": 1, "_time":       56.434, "_%":    61.82,
                 "INITMESH": { "_calls": 2, "_time":       52.991, "_%":    58.05,
                   "SPLOAD": { "_calls": 2, "_time":        2.554, "_%":     2.80}
                 }
               },
               "REORD": { "_calls": 2, "_time":        0.002, "_%":     0.00},
               "PHION": { "_calls": 1, "_time":        0.056, "_%":     0.06},
               "COMM_BSC": { "_calls": 1, "_time":        0.031, "_%":     0.03},
               "POISON": { "_calls": 1, "_time":        1.067, "_%":     1.17,
                 "fft": { "_calls": 2, "_time":        1.029, "_%":     1.13}
               }
             }
           }
         }
       },
       "IterSCF": { "_calls": 5, "_time":       23.356, "_%":    25.58,
         "setup_H": { "_calls": 5, "_time":        7.926, "_%":     8.68,
           "DHSCF": { "_calls": 5, "_time":        7.921, "_%":     8.68,
             "DHSCF3": { "_calls": 5, "_time":        7.921, "_%":     8.68,
               "rhoofd": { "_calls": 5, "_time":        0.086, "_%":     0.09},
               "COMM_BSC": { "_calls": 10, "_time":        0.214, "_%":     0.23},
               "POISON": { "_calls": 5, "_time":        4.804, "_%":     5.26,
                 "fft": { "_calls": 10, "_time":        4.545, "_%":     4.98}
               },
               "XC": { "_calls": 5, "_time":        2.077, "_%":     2.27,
                 "COMM_BSC": { "_calls": 10, "_time":        0.262, "_%":     0.29},
                 "GXC-CellXC": { "_calls": 5, "_time":        1.759, "_%":     1.93,
                   "gridxc@cellXC": { "_calls": 5, "_time":        1.759, "_%":     1.93}
                 }
               },
               "vmat": { "_calls": 5, "_time":        0.112, "_%":     0.12}
             }
           }
         },
         "compute_dm": { "_calls": 5, "_time":       15.402, "_%":    16.87,
           "elsi": { "_calls": 5, "_time":       15.392, "_%":    16.86,
             "find nnz_g": { "_calls": 5, "_time":        0.000, "_%":     0.00},
             "elsi-solver": { "_calls": 5, "_time":       15.312, "_%":    16.77}
           }
         },
         "MIXER": { "_calls": 5, "_time":        0.011, "_%":     0.01}
       },
       "state_analysis": { "_calls": 1, "_time":        0.161, "_%":     0.18},
       "siesta_move": { "_calls": 1, "_time":        0.000, "_%":     0.00}
     },
     "Analysis": { "_calls": 1, "_time":        0.430, "_%":     0.47,
       "optical": { "_calls": 1, "_time":        0.001, "_%":     0.00}
     }
   }
 }}
